0	0.773834286094
1	0.0239027183684
2	0.00367691728321
3	0.000946524325941
4	0.000215012429787
5	3.65184588915e-05
6	7.93121530407e-06
7	3.87125420394e-06
8	4.2427406488e-06
9	2.64154451634e-06
10	1.43392522134e-06
11	7.7192236324e-07
12	6.21220323133e-07
13	3.68559675844e-07
14	6.19329210193e-07
15	4.8772389703e-07
16	3.41267399708e-07
17	2.22775721345e-07
18	1.40696684599e-07
19	1.33992818322e-07
20	1.55049870996e-07
21	1.21109420453e-07
22	6.90442909282e-08
23	6.07556593348e-08
24	4.84558542579e-08
25	4.54871691869e-08
26	5.6996488455e-08
27	4.19692836565e-08
28	3.68335169174e-08
29	2.97677844575e-08
30	2.58775061413e-08
31	2.43391082435e-08
32	1.74403409163e-08
33	2.06023629558e-08
34	2.15388330615e-08
35	1.25542300194e-08
36	9.05892892924e-09
37	8.7237307663e-09
38	1.17200080492e-08
39	1.4079983726e-08
40	1.66113617691e-08
41	1.57067737214e-08
42	1.3614403152e-08
43	1.43811427587e-08
44	1.06805463978e-08
45	1.00727852403e-08
46	8.58942872942e-09
47	6.83357714402e-09
48	5.71350163474e-09
49	5.00776568918e-09
50	4.76705227202e-09
51	3.97603858005e-09
52	3.59406351455e-09
53	5.07754474245e-09
54	3.94936435053e-09
55	3.95344670321e-09
56	3.90104531962e-09
57	4.00909669623e-09
58	4.30612396519e-09
59	4.46151160967e-09
60	3.66771143829e-09
61	3.17482760716e-09
62	3.38325808377e-09
63	3.07498120009e-09
64	2.99366948067e-09
65	2.60082534481e-09
66	1.89537184167e-09
67	1.78885074942e-09
68	1.6842689234e-09
69	1.98312892035e-09
70	1.40304213384e-09
71	1.22980865016e-09
72	1.2138393073e-09
73	1.1569291689e-09
74	1.08231430966e-09
75	1.0284880392e-09
76	8.14164323872e-10
77	9.2785052257e-10
78	9.44832741969e-10
79	9.3096759835e-10
80	9.66339270654e-10
81	1.04881250438e-09
82	7.15525433092e-10
83	7.00767607957e-10
84	6.12566983831e-10
85	5.61868426392e-10
86	4.52887995231e-10
87	3.84150703539e-10
88	3.65565153527e-10
89	2.86072680761e-10
90	3.38008908248e-10
91	3.0568911134e-10
92	2.32537926575e-10
93	2.1427577687e-10
94	1.65232970908e-10
95	1.47325061098e-10
96	1.15234362282e-10
97	1.70491901901e-10
98	2.01132678491e-10
99	1.91861309038e-10
100	2.24986460025e-10
101	2.21112477483e-10
102	2.22808060491e-10
103	2.05600285151e-10
104	1.94875615069e-10
105	1.67650566875e-10
106	1.67977492169e-10
107	1.54770748863e-10
108	1.26427044904e-10
109	1.13361560424e-10
110	1.12287682461e-10
111	9.56786816124e-11
112	7.94501603289e-11
113	6.61006002761e-11
114	5.09035398363e-11
115	4.21199654011e-11
116	4.7591872972e-11
117	4.899541851e-11
118	4.42134567878e-11
119	5.63412065541e-11
120	6.41604315811e-11
121	5.63596650463e-11
122	6.27217532768e-11
123	6.10626639232e-11
124	4.47587273634e-11
125	4.7307689187e-11
126	4.63873347467e-11
127	3.71966660058e-11
128	3.65613440068e-11
129	3.50686501004e-11
130	3.0399754612e-11
131	2.92177117111e-11
132	2.63312812992e-11
133	2.69858577679e-11
134	3.00468503144e-11
135	2.69765939015e-11
136	2.83752376151e-11
137	2.54964701519e-11
138	1.97418608918e-11
139	1.87066907792e-11
140	1.98897649844e-11
141	1.76129114435e-11
142	1.74077664307e-11
143	1.77538027309e-11
144	1.66534749639e-11
145	1.6883346653e-11
146	1.5047713503e-11
147	1.44537324153e-11
148	1.34678924833e-11
149	1.11354283703e-11
150	9.89018130384e-12
151	1.10226603462e-11
152	1.04973134748e-11
153	9.45200953835e-12
154	8.58960918024e-12
155	8.25451917131e-12
156	7.50606994493e-12
157	6.90910236799e-12
158	6.59272555485e-12
159	7.48071482681e-12
160	6.99552259643e-12
161	6.53310066163e-12
162	6.26599847595e-12
163	5.15963774312e-12
164	5.44774841735e-12
165	5.50699457675e-12
166	4.51905505956e-12
167	4.95826566218e-12
168	4.68771566732e-12
169	4.29134642704e-12
170	4.4247677089e-12
171	3.92672558674e-12
172	3.12433057061e-12
173	2.8346825467e-12
174	2.71342305476e-12
175	2.55217707121e-12
176	2.80411196053e-12
177	2.54155394016e-12
178	2.22906543112e-12
179	1.8000805108e-12
180	1.33407399677e-12
181	1.3599866917e-12
182	1.28587513736e-12
183	1.50823162363e-12
184	1.74093957696e-12
185	1.69676180226e-12
186	1.51832487579e-12
187	1.38015282898e-12
188	1.13440077666e-12
189	1.21419760694e-12
190	1.35060347591e-12
191	1.2947372885e-12
192	1.41408778786e-12
193	1.33203582373e-12
194	1.06218097162e-12
195	8.92902499547e-13
196	7.95571324497e-13
197	7.10665920905e-13
198	7.10506254489e-13
199	7.37788735013e-13
200	6.87322662644e-13
201	5.8337852928e-13
202	4.77480875437e-13
203	3.64870164176e-13
204	2.98054641691e-13
205	3.65456802507e-13
206	4.33468053658e-13
207	4.05709340363e-13
208	4.34037108494e-13
209	4.0356362828e-13
210	3.11167329509e-13
211	2.61444396483e-13
212	2.55805017815e-13
213	2.58533555826e-13
214	2.83991516483e-13
215	2.89964788378e-13
216	2.70106932929e-13
217	2.27503759056e-13
218	1.88777305811e-13
219	1.78703327938e-13
220	1.78320620283e-13
221	1.7464268748e-13
222	2.02465192289e-13
223	1.99057916567e-13
224	1.69550634676e-13
225	1.71225338498e-13
226	1.54783882598e-13
227	1.45975511284e-13
228	1.55126271297e-13
229	1.40165162961e-13
230	1.33568273554e-13
231	1.33352035286e-13
232	1.12073593115e-13
233	9.28451366754e-14
234	8.83733863988e-14
235	7.8930849109e-14
236	7.87144172739e-14
237	8.14483334869e-14
238	7.4874826117e-14
239	7.19848635927e-14
240	6.71098033706e-14
241	6.51202948129e-14
242	6.78161930592e-14
243	7.07682078712e-14
244	7.46655794747e-14
245	7.69077304422e-14
246	7.5280996511e-14
247	7.48282184838e-14
248	7.41942831481e-14
249	6.82871239752e-14
250	6.88706223836e-14
251	7.15477309505e-14
252	6.96582101492e-14
253	6.8452786908e-14
254	6.20130019432e-14
255	5.54020002445e-14
256	5.37451849126e-14
257	5.16494599688e-14
258	4.89180142195e-14
259	4.92557304229e-14
260	4.68030750855e-14
261	4.06578762216e-14
262	3.6856314448e-14
263	3.39532893553e-14
264	3.30376374784e-14
265	3.47072944723e-14
266	3.53212679261e-14
267	3.4114427639e-14
268	3.16491811047e-14
269	3.04976566886e-14
270	3.03076795116e-14
271	2.95831881953e-14
272	3.07785834531e-14
273	3.42641690297e-14
274	3.41079352466e-14
275	3.06408880704e-14
276	2.8521124745e-14
277	2.69809154717e-14
278	2.63356620702e-14
279	2.67372173328e-14
280	2.69405815903e-14
281	2.67186021123e-14
282	2.50604778943e-14
283	2.23113479334e-14
284	2.00791164181e-14
285	1.89264980388e-14
286	1.90489229038e-14
287	2.00224436641e-14
288	2.03701536674e-14
289	2.00959915757e-14
290	1.93023464395e-14
291	1.7570565804e-14
292	1.61366842452e-14
293	1.58714173869e-14
294	1.6453614301e-14
295	1.69327134152e-14
296	1.65134924094e-14
297	1.57476766043e-14
298	1.47369604649e-14
299	1.29975996636e-14
300	1.1644158397e-14
301	1.13117887506e-14
302	1.1121538794e-14
303	1.09628150867e-14
304	1.07319176356e-14
305	9.96034444903e-15
306	8.94819281688e-15
307	8.03147538377e-15
308	7.39054760418e-15
309	7.1848310999e-15
310	7.26316414713e-15
311	7.4051205608e-15
312	7.20355093041e-15
313	6.54298513348e-15
314	5.9102102852e-15
315	5.38366400129e-15
316	4.90557085698e-15
317	4.71331054341e-15
318	4.64707313368e-15
319	4.44016671268e-15
320	4.12824249451e-15
321	3.66051101756e-15
322	3.12220246376e-15
323	2.7402535465e-15
324	2.52222571359e-15
325	2.42429616295e-15
326	2.37341959624e-15
327	2.28888710408e-15
328	2.13829599069e-15
329	1.88791759929e-15
330	1.67045878152e-15
331	1.62218403617e-15
332	1.61218439648e-15
333	1.55066170117e-15
334	1.51714280816e-15
335	1.48671397428e-15
336	1.38968776009e-15
337	1.25403233957e-15
338	1.15593626114e-15
339	1.12462238745e-15
340	1.09845260377e-15
341	1.05378648101e-15
342	1.00838048565e-15
343	9.4763021373e-16
344	8.84809493181e-16
345	8.44165765832e-16
346	8.18190411669e-16
347	8.07683250546e-16
348	8.05251342389e-16
349	7.83161197788e-16
350	7.42813918083e-16
351	7.07897835467e-16
352	6.93097305823e-16
353	6.85576934961e-16
354	6.67823593898e-16
355	6.51343155717e-16
356	6.33088534794e-16
357	5.98195098515e-16
358	5.61576302696e-16
359	5.35041102673e-16
360	5.14643008402e-16
361	5.02482035667e-16
362	4.92268760583e-16
363	4.73706938244e-16
364	4.49427989735e-16
365	4.2477008889e-16
366	4.04279965086e-16
367	3.89133675325e-16
368	3.79493201159e-16
369	3.76699026994e-16
370	3.69994912296e-16
371	3.52016877112e-16
372	3.32982166476e-16
373	3.17686305219e-16
374	3.02128613034e-16
375	2.88169742731e-16
376	2.78748003951e-16
377	2.72056448493e-16
378	2.62001299728e-16
379	2.44673370895e-16
380	2.25722350667e-16
381	2.10804267527e-16
382	1.99265002528e-16
383	1.90772158722e-16
384	1.84209568211e-16
385	1.76577952063e-16
386	1.66753484052e-16
387	1.55115014883e-16
388	1.44049577454e-16
389	1.36109882678e-16
390	1.30731430454e-16
391	1.26338928465e-16
392	1.21789777316e-16
393	1.16091215202e-16
394	1.09591942732e-16
395	1.02955616891e-16
396	9.66070656086e-17
397	9.16586205886e-17
398	8.81455231097e-17
399	8.48145472707e-17
400	8.10004876568e-17
401	7.65056845725e-17
402	7.15654964719e-17
403	6.69348064524e-17
404	6.30482990107e-17
405	5.9932402986e-17
406	5.72756678735e-17
407	5.45613569465e-17
408	5.16104933337e-17
409	4.85203552174e-17
410	4.54810270805e-17
411	4.29198436976e-17
412	4.08903730673e-17
413	3.89888444287e-17
414	3.71018379154e-17
415	3.53540980584e-17
416	3.37001853973e-17
417	3.19847909338e-17
418	3.03246229453e-17
419	2.89817908707e-17
420	2.78449006045e-17
421	2.66020861707e-17
422	2.53650951407e-17
423	2.43462927183e-17
424	2.34151486325e-17
425	2.2426198447e-17
426	2.14167047066e-17
427	2.04655598072e-17
428	1.96278044038e-17
429	1.88707031009e-17
430	1.81317091958e-17
431	1.73856840127e-17
432	1.66379930997e-17
433	1.58747715912e-17
434	1.51575924353e-17
435	1.45497695761e-17
436	1.40198051767e-17
437	1.34269138722e-17
438	1.27545377551e-17
439	1.21163646783e-17
440	1.15906917492e-17
441	1.1125919775e-17
442	1.06815724249e-17
443	1.02424389444e-17
444	9.78470977631e-18
445	9.292307139e-18
446	8.82164481121e-18
447	8.43894122932e-18
448	8.12935181845e-18
449	7.82015526659e-18
450	7.49838293579e-18
451	7.15065293363e-18
452	6.78784715384e-18
453	6.4579300685e-18
454	6.18663685785e-18
455	5.9204055798e-18
456	5.65857574168e-18
457	5.4101643112e-18
458	5.1575556265e-18
459	4.88705342349e-18
460	4.63280614964e-18
461	4.39169585433e-18
462	4.15885006785e-18
463	3.95112267934e-18
464	3.772395439e-18
465	3.58284460509e-18
466	3.37702295023e-18
467	3.17324125143e-18
468	2.99437769092e-18
469	2.84613623761e-18
470	2.70961900045e-18
471	2.55290601201e-18
472	2.39778799599e-18
473	2.27684590512e-18
474	2.17663129727e-18
475	2.06577591489e-18
476	1.94052816568e-18
477	1.81791684009e-18
478	1.72419364867e-18
479	1.65873480077e-18
480	1.58536185941e-18
481	1.49477135227e-18
482	1.40776687731e-18
483	1.33313943204e-18
484	1.26986641365e-18
485	1.21621526862e-18
486	1.15175541599e-18
487	1.08673958844e-18
488	1.03933213675e-18
489	1.00003858666e-18
490	9.47039377862e-19
491	8.94235325686e-19
492	8.48288466126e-19
493	8.15322298496e-19
494	7.90066575633e-19
495	7.57604564473e-19
496	7.15326596244e-19
497	6.82255623213e-19
498	6.61482088255e-19
499	6.43665340077e-19
500	6.25112368596e-19
501	5.99780604224e-19
502	5.76815108525e-19
503	5.63404107024e-19
504	5.55880524461e-19
505	5.44791542425e-19
506	5.34606363773e-19
507	5.22818420422e-19
508	5.15301341866e-19
509	5.11303912978e-19
510	5.09273741936e-19
511	5.07045427612e-19
512	5.07636295835e-19
513	5.07045428775e-19
514	5.09273741973e-19
515	5.11303912825e-19
516	5.15301341807e-19
517	5.22818420501e-19
518	5.34606363719e-19
519	5.44791542469e-19
520	5.55880524459e-19
521	5.63404107105e-19
522	5.76815108498e-19
523	5.99780604185e-19
524	6.25112368603e-19
525	6.4366534013e-19
526	6.61482088228e-19
527	6.82255623169e-19
528	7.15326596246e-19
529	7.57604564488e-19
530	7.90066575567e-19
531	8.15322298483e-19
532	8.48288466124e-19
533	8.94235325679e-19
534	9.47039377825e-19
535	1.00003858681e-18
536	1.03933213675e-18
537	1.08673958821e-18
538	1.15175541615e-18
539	1.2162152685e-18
540	1.26986641367e-18
541	1.33313943233e-18
542	1.40776687734e-18
543	1.49477135227e-18
544	1.58536185941e-18
545	1.65873480074e-18
546	1.7241936488e-18
547	1.81791684019e-18
548	1.9405281657e-18
549	2.06577591505e-18
550	2.1766312972e-18
551	2.27684590528e-18
552	2.39778799599e-18
553	2.55290601207e-18
554	2.70961900051e-18
555	2.84613623744e-18
556	2.9943776909e-18
557	3.17324125144e-18
558	3.37702295008e-18
559	3.58284460503e-18
560	3.772395439e-18
561	3.95112267949e-18
562	4.15885006753e-18
563	4.39169585453e-18
564	4.63280614969e-18
565	4.88705342343e-18
566	5.1575556265e-18
567	5.4101643115e-18
568	5.6585757417e-18
569	5.92040557989e-18
570	6.18663685774e-18
571	6.45793006833e-18
572	6.78784715385e-18
573	7.1506529334e-18
574	7.49838293587e-18
575	7.82015526587e-18
576	8.12935181845e-18
577	8.43894122936e-18
578	8.82164481091e-18
579	9.29230713959e-18
580	9.78470977612e-18
581	1.02424389447e-17
582	1.06815724249e-17
583	1.11259197752e-17
584	1.15906917492e-17
585	1.2116364678e-17
586	1.2754537755e-17
587	1.34269138719e-17
588	1.40198051766e-17
589	1.45497695759e-17
590	1.5157592436e-17
591	1.5874771591e-17
592	1.66379930997e-17
593	1.73856840124e-17
594	1.81317091959e-17
595	1.88707031003e-17
596	1.96278044039e-17
597	2.04655598072e-17
598	2.14167047068e-17
599	2.24261984474e-17
600	2.34151486326e-17
601	2.43462927176e-17
602	2.53650951409e-17
603	2.6602086171e-17
604	2.78449006046e-17
605	2.89817908705e-17
606	3.03246229451e-17
607	3.19847909335e-17
608	3.37001853973e-17
609	3.53540980586e-17
610	3.71018379157e-17
611	3.89888444282e-17
612	4.08903730674e-17
613	4.29198436977e-17
614	4.54810270806e-17
615	4.85203552175e-17
616	5.16104933337e-17
617	5.4561356946e-17
618	5.72756678738e-17
619	5.99324029858e-17
620	6.30482990108e-17
621	6.69348064526e-17
622	7.15654964709e-17
623	7.65056845697e-17
624	8.10004876568e-17
625	8.48145472721e-17
626	8.81455231092e-17
627	9.16586205886e-17
628	9.66070656087e-17
629	1.02955616893e-16
630	1.09591942731e-16
631	1.16091215201e-16
632	1.21789777316e-16
633	1.26338928466e-16
634	1.30731430454e-16
635	1.36109882676e-16
636	1.44049577454e-16
637	1.55115014885e-16
638	1.66753484053e-16
639	1.76577952071e-16
640	1.84209568211e-16
641	1.90772158711e-16
642	1.99265002528e-16
643	2.10804267524e-16
644	2.25722350667e-16
645	2.44673370894e-16
646	2.62001299727e-16
647	2.72056448493e-16
648	2.78748003951e-16
649	2.88169742731e-16
650	3.02128613033e-16
651	3.1768630522e-16
652	3.32982166476e-16
653	3.52016877111e-16
654	3.69994912297e-16
655	3.76699026991e-16
656	3.79493201159e-16
657	3.8913367532e-16
658	4.04279965089e-16
659	4.2477008889e-16
660	4.49427989734e-16
661	4.73706938245e-16
662	4.92268760583e-16
663	5.02482035667e-16
664	5.14643008402e-16
665	5.35041102671e-16
666	5.61576302697e-16
667	5.98195098518e-16
668	6.33088534794e-16
669	6.51343155715e-16
670	6.67823593896e-16
671	6.85576934961e-16
672	6.93097305823e-16
673	7.07897835469e-16
674	7.42813918082e-16
675	7.83161197787e-16
676	8.0525134239e-16
677	8.07683250546e-16
678	8.18190411668e-16
679	8.44165765832e-16
680	8.84809493181e-16
681	9.4763021373e-16
682	1.00838048565e-15
683	1.05378648101e-15
684	1.09845260377e-15
685	1.12462238745e-15
686	1.15593626114e-15
687	1.25403233957e-15
688	1.38968776009e-15
689	1.48671397426e-15
690	1.51714280816e-15
691	1.55066170117e-15
692	1.61218439648e-15
693	1.62218403617e-15
694	1.67045878152e-15
695	1.88791759928e-15
696	2.13829599069e-15
697	2.28888710407e-15
698	2.37341959623e-15
699	2.42429616296e-15
700	2.52222571359e-15
701	2.7402535465e-15
702	3.12220246376e-15
703	3.66051101754e-15
704	4.12824249451e-15
705	4.44016671267e-15
706	4.64707313367e-15
707	4.71331054342e-15
708	4.90557085698e-15
709	5.3836640013e-15
710	5.9102102852e-15
711	6.54298513348e-15
712	7.20355093041e-15
713	7.4051205608e-15
714	7.26316414713e-15
715	7.1848310999e-15
716	7.39054760418e-15
717	8.03147538377e-15
718	8.94819281688e-15
719	9.96034444902e-15
720	1.07319176356e-14
721	1.09628150867e-14
722	1.1121538794e-14
723	1.13117887506e-14
724	1.1644158397e-14
725	1.29975996637e-14
726	1.47369604649e-14
727	1.57476766043e-14
728	1.65134924094e-14
729	1.69327134151e-14
730	1.6453614301e-14
731	1.58714173868e-14
732	1.61366842452e-14
733	1.7570565804e-14
734	1.93023464395e-14
735	2.00959915757e-14
736	2.03701536674e-14
737	2.00224436641e-14
738	1.90489229038e-14
739	1.89264980388e-14
740	2.00791164181e-14
741	2.23113479334e-14
742	2.50604778943e-14
743	2.67186021123e-14
744	2.69405815903e-14
745	2.67372173328e-14
746	2.63356620701e-14
747	2.69809154717e-14
748	2.8521124745e-14
749	3.06408880704e-14
750	3.41079352466e-14
751	3.42641690297e-14
752	3.07785834531e-14
753	2.95831881952e-14
754	3.03076795116e-14
755	3.04976566886e-14
756	3.16491811047e-14
757	3.4114427639e-14
758	3.53212679261e-14
759	3.47072944723e-14
760	3.30376374783e-14
761	3.39532893553e-14
762	3.6856314448e-14
763	4.06578762216e-14
764	4.68030750854e-14
765	4.92557304228e-14
766	4.89180142194e-14
767	5.16494599687e-14
768	5.37451849126e-14
769	5.54020002447e-14
770	6.20130019432e-14
771	6.8452786908e-14
772	6.96582101492e-14
773	7.15477309505e-14
774	6.88706223837e-14
775	6.82871239752e-14
776	7.41942831481e-14
777	7.48282184838e-14
778	7.5280996511e-14
779	7.69077304423e-14
780	7.46655794747e-14
781	7.07682078711e-14
782	6.78161930592e-14
783	6.51202948129e-14
784	6.71098033706e-14
785	7.19848635927e-14
786	7.4874826117e-14
787	8.14483334869e-14
788	7.87144172739e-14
789	7.8930849109e-14
790	8.83733863988e-14
791	9.28451366754e-14
792	1.12073593115e-13
793	1.33352035286e-13
794	1.33568273554e-13
795	1.40165162961e-13
796	1.55126271297e-13
797	1.45975511284e-13
798	1.54783882598e-13
799	1.71225338498e-13
800	1.69550634676e-13
801	1.99057916567e-13
802	2.02465192289e-13
803	1.7464268748e-13
804	1.78320620283e-13
805	1.78703327938e-13
806	1.88777305811e-13
807	2.27503759056e-13
808	2.70106932929e-13
809	2.89964788378e-13
810	2.83991516483e-13
811	2.58533555826e-13
812	2.55805017815e-13
813	2.61444396483e-13
814	3.11167329509e-13
815	4.0356362828e-13
816	4.34037108494e-13
817	4.05709340364e-13
818	4.33468053658e-13
819	3.65456802507e-13
820	2.98054641691e-13
821	3.64870164176e-13
822	4.77480875437e-13
823	5.8337852928e-13
824	6.87322662644e-13
825	7.37788735013e-13
826	7.10506254489e-13
827	7.10665920905e-13
828	7.95571324496e-13
829	8.92902499547e-13
830	1.06218097162e-12
831	1.33203582373e-12
832	1.41408778786e-12
833	1.2947372885e-12
834	1.35060347591e-12
835	1.21419760694e-12
836	1.13440077666e-12
837	1.38015282898e-12
838	1.51832487579e-12
839	1.69676180226e-12
840	1.74093957696e-12
841	1.50823162363e-12
842	1.28587513736e-12
843	1.3599866917e-12
844	1.33407399677e-12
845	1.8000805108e-12
846	2.22906543112e-12
847	2.54155394016e-12
848	2.80411196053e-12
849	2.55217707121e-12
850	2.71342305476e-12
851	2.8346825467e-12
852	3.12433057061e-12
853	3.92672558674e-12
854	4.4247677089e-12
855	4.29134642704e-12
856	4.68771566732e-12
857	4.95826566218e-12
858	4.51905505956e-12
859	5.50699457675e-12
860	5.44774841735e-12
861	5.15963774312e-12
862	6.26599847595e-12
863	6.53310066163e-12
864	6.99552259643e-12
865	7.48071482681e-12
866	6.59272555485e-12
867	6.90910236799e-12
868	7.50606994493e-12
869	8.25451917131e-12
870	8.58960918024e-12
871	9.45200953835e-12
872	1.04973134748e-11
873	1.10226603462e-11
874	9.89018130384e-12
875	1.11354283703e-11
876	1.34678924833e-11
877	1.44537324153e-11
878	1.5047713503e-11
879	1.6883346653e-11
880	1.66534749639e-11
881	1.77538027309e-11
882	1.74077664307e-11
883	1.76129114435e-11
884	1.98897649844e-11
885	1.87066907792e-11
886	1.97418608918e-11
887	2.54964701519e-11
888	2.83752376151e-11
889	2.69765939015e-11
890	3.00468503144e-11
891	2.69858577679e-11
892	2.63312812992e-11
893	2.92177117111e-11
894	3.0399754612e-11
895	3.50686501004e-11
896	3.65613440068e-11
897	3.71966660058e-11
898	4.63873347467e-11
899	4.7307689187e-11
900	4.47587273634e-11
901	6.10626639232e-11
902	6.27217532768e-11
903	5.63596650463e-11
904	6.41604315811e-11
905	5.63412065541e-11
906	4.42134567878e-11
907	4.899541851e-11
908	4.7591872972e-11
909	4.21199654011e-11
910	5.09035398363e-11
911	6.61006002761e-11
912	7.94501603289e-11
913	9.56786816124e-11
914	1.12287682461e-10
915	1.13361560424e-10
916	1.26427044904e-10
917	1.54770748863e-10
918	1.67977492169e-10
919	1.67650566875e-10
920	1.94875615069e-10
921	2.05600285151e-10
922	2.22808060491e-10
923	2.21112477483e-10
924	2.24986460025e-10
925	1.91861309038e-10
926	2.01132678491e-10
927	1.70491901901e-10
928	1.15234362282e-10
929	1.47325061098e-10
930	1.65232970908e-10
931	2.1427577687e-10
932	2.32537926575e-10
933	3.0568911134e-10
934	3.38008908248e-10
935	2.86072680761e-10
936	3.65565153527e-10
937	3.84150703539e-10
938	4.52887995231e-10
939	5.61868426392e-10
940	6.12566983831e-10
941	7.00767607957e-10
942	7.15525433092e-10
943	1.04881250438e-09
944	9.66339270654e-10
945	9.3096759835e-10
946	9.44832741969e-10
947	9.2785052257e-10
948	8.14164323872e-10
949	1.0284880392e-09
950	1.08231430966e-09
951	1.1569291689e-09
952	1.2138393073e-09
953	1.22980865016e-09
954	1.40304213384e-09
955	1.98312892035e-09
956	1.6842689234e-09
957	1.78885074942e-09
958	1.89537184167e-09
959	2.60082534481e-09
960	2.99366948067e-09
961	3.07498120009e-09
962	3.38325808377e-09
963	3.17482760716e-09
964	3.66771143829e-09
965	4.46151160967e-09
966	4.30612396519e-09
967	4.00909669623e-09
968	3.90104531962e-09
969	3.95344670321e-09
970	3.94936435053e-09
971	5.07754474245e-09
972	3.59406351455e-09
973	3.97603858005e-09
974	4.76705227202e-09
975	5.00776568918e-09
976	5.71350163474e-09
977	6.83357714402e-09
978	8.58942872942e-09
979	1.00727852403e-08
980	1.06805463978e-08
981	1.43811427587e-08
982	1.3614403152e-08
983	1.57067737214e-08
984	1.66113617691e-08
985	1.4079983726e-08
986	1.17200080492e-08
987	8.7237307663e-09
988	9.05892892924e-09
989	1.25542300194e-08
990	2.15388330615e-08
991	2.06023629558e-08
992	1.74403409163e-08
993	2.43391082435e-08
994	2.58775061413e-08
995	2.97677844575e-08
996	3.68335169174e-08
997	4.19692836565e-08
998	5.6996488455e-08
999	4.54871691869e-08
1000	4.84558542579e-08
1001	6.07556593348e-08
1002	6.90442909282e-08
1003	1.21109420453e-07
1004	1.55049870996e-07
1005	1.33992818322e-07
1006	1.40696684599e-07
1007	2.22775721345e-07
1008	3.41267399708e-07
1009	4.8772389703e-07
1010	6.19329210193e-07
1011	3.68559675844e-07
1012	6.21220323133e-07
1013	7.7192236324e-07
1014	1.43392522134e-06
1015	2.64154451634e-06
1016	4.2427406488e-06
1017	3.87125420394e-06
1018	7.93121530407e-06
1019	3.65184588915e-05
1020	0.000215012429787
1021	0.000946524325941
1022	0.00367691728321
1023	0.0239027183684
