0	0.77852447418
1	0.0241134940134
2	0.00367351598047
3	0.000775607993491
4	0.000192311337164
5	2.8553747838e-05
6	8.6762209657e-06
7	6.71982434544e-06
8	2.45585004606e-06
9	1.38673869874e-06
10	8.03979049856e-07
11	1.03657380018e-06
12	8.08794617947e-07
13	3.58808946428e-07
14	2.1714776177e-07
15	1.56387230794e-07
16	1.36355764266e-07
17	9.05303170784e-08
18	7.5013447007e-08
19	6.32585546192e-08
20	5.21195232968e-08
21	4.9012529741e-08
22	3.01135734594e-08
23	2.33240334819e-08
24	2.02133760047e-08
25	1.86556199181e-08
26	1.41265273804e-08
27	1.27371926688e-08
28	6.49980074179e-09
29	4.70179518254e-09
30	5.53946255066e-09
31	5.18513582421e-09
32	4.04125003251e-09
33	3.34228228404e-09
34	4.29606950467e-09
35	3.16467358976e-09
36	2.97333144334e-09
37	2.85501238654e-09
38	2.18974084928e-09
39	1.981394896e-09
40	1.62886345564e-09
41	1.3762999179e-09
42	1.4429971797e-09
43	1.48943547026e-09
44	1.29598776766e-09
45	9.35402189977e-10
46	8.41872197263e-10
47	6.6660447123e-10
48	6.38182492628e-10
49	7.19027575969e-10
50	5.47703617395e-10
51	4.45943574149e-10
52	4.33145462054e-10
53	4.67833195512e-10
54	5.06366800776e-10
55	3.91419065327e-10
56	2.86537154975e-10
57	2.46878360117e-10
58	2.48546501848e-10
59	2.11096286391e-10
60	2.45032337138e-10
61	1.95809191028e-10
62	1.9462119499e-10
63	1.93178303837e-10
64	1.90077642091e-10
65	1.54876984319e-10
66	1.05848637248e-10
67	7.45594492514e-11
68	7.0554967248e-11
69	5.51026579743e-11
70	6.7840387826e-11
71	7.86663680678e-11
72	6.62469411802e-11
73	5.7666677385e-11
74	4.80465507639e-11
75	4.79635852884e-11
76	4.45667798724e-11
77	4.72582773884e-11
78	3.51047754326e-11
79	3.13614868598e-11
80	3.57817465368e-11
81	3.49248648088e-11
82	3.1953477831e-11
83	2.96374586324e-11
84	3.44039150738e-11
85	3.5938089517e-11
86	3.16953977938e-11
87	2.57943731458e-11
88	2.59041559631e-11
89	2.39130623384e-11
90	1.44162594165e-11
91	1.1415385337e-11
92	1.33862301794e-11
93	1.08958804681e-11
94	9.78695767713e-12
95	9.34618643657e-12
96	1.02165200679e-11
97	1.07280622121e-11
98	9.38094026907e-12
99	9.2338486735e-12
100	1.00160712327e-11
101	7.77345289764e-12
102	5.34910323196e-12
103	4.54904765463e-12
104	4.67161612148e-12
105	4.65110812811e-12
106	4.01564064817e-12
107	2.89856993123e-12
108	1.87515298837e-12
109	2.06878029507e-12
110	2.29158241856e-12
111	2.80970466055e-12
112	2.51119811516e-12
113	1.8139677945e-12
114	1.99041826836e-12
115	1.77652438729e-12
116	1.79429135544e-12
117	2.1431545446e-12
118	2.09574471543e-12
119	1.77775534342e-12
120	1.36982167798e-12
121	1.12741347157e-12
122	1.18584629975e-12
123	1.17224477068e-12
124	1.06878709758e-12
125	9.7462276248e-13
126	7.95452822653e-13
127	7.27015142137e-13
128	7.10897985158e-13
129	8.64022950045e-13
130	1.05223254247e-12
131	8.2748040723e-13
132	7.79479927934e-13
133	8.13507570563e-13
134	6.0436750379e-13
135	5.75657277733e-13
136	6.93281861868e-13
137	6.2441566956e-13
138	5.56851479123e-13
139	5.90332006334e-13
140	4.49258878806e-13
141	2.9163564018e-13
142	3.36855982841e-13
143	3.30862273317e-13
144	2.37812319471e-13
145	1.8735557384e-13
146	1.51289860467e-13
147	1.37998984346e-13
148	1.61206490216e-13
149	1.7556129898e-13
150	1.7305375926e-13
151	1.6777421508e-13
152	2.04461284965e-13
153	2.16634583761e-13
154	1.58043389411e-13
155	1.83210475344e-13
156	2.11612122684e-13
157	1.50629132169e-13
158	1.45085312415e-13
159	1.72251294557e-13
160	1.41473706741e-13
161	1.22413047563e-13
162	1.43281177699e-13
163	1.43435964031e-13
164	1.32438876661e-13
165	1.3125998336e-13
166	1.18601171193e-13
167	1.12916868449e-13
168	1.10307299845e-13
169	9.97700668011e-14
170	9.68147254667e-14
171	8.88791145301e-14
172	7.15938465376e-14
173	6.77260848837e-14
174	6.77403723553e-14
175	5.11152571487e-14
176	4.01074134699e-14
177	4.40563082444e-14
178	3.6236529628e-14
179	2.58246826374e-14
180	3.40292334572e-14
181	3.69619465961e-14
182	2.82122143979e-14
183	3.20410165638e-14
184	3.69804684182e-14
185	3.0011698538e-14
186	3.02515027331e-14
187	3.51176250281e-14
188	2.99318955536e-14
189	2.51971874474e-14
190	2.63478792248e-14
191	2.3697059064e-14
192	1.97572129433e-14
193	1.9471715196e-14
194	1.74260046049e-14
195	1.47828598388e-14
196	1.42431569957e-14
197	1.21883997027e-14
198	1.0552967648e-14
199	1.12014629886e-14
200	1.06840105132e-14
201	9.19588244099e-15
202	8.83301892761e-15
203	8.92251080951e-15
204	8.37475009898e-15
205	7.74809675406e-15
206	7.79624171889e-15
207	7.53622734273e-15
208	6.60398419584e-15
209	6.25641685922e-15
210	6.02666792745e-15
211	4.94413069163e-15
212	4.11965165222e-15
213	3.9396566337e-15
214	3.29598572662e-15
215	2.55026376417e-15
216	2.51470338132e-15
217	2.3742808963e-15
218	1.85495624573e-15
219	1.82983506879e-15
220	2.07689371358e-15
221	1.94961243174e-15
222	1.968246662e-15
223	2.3389182935e-15
224	2.39538752263e-15
225	2.31072441457e-15
226	2.49093958943e-15
227	2.52315917723e-15
228	2.40310453345e-15
229	2.45502485417e-15
230	2.41480372112e-15
231	2.17385664556e-15
232	2.00590913328e-15
233	1.88861834441e-15
234	1.67323515047e-15
235	1.44199415989e-15
236	1.28786898986e-15
237	1.14949767301e-15
238	9.71956928094e-16
239	8.15294803265e-16
240	7.16811183729e-16
241	6.20503286454e-16
242	5.16341172369e-16
243	4.4843733198e-16
244	3.94694843735e-16
245	3.23463374942e-16
246	2.68231562842e-16
247	2.39225802859e-16
248	2.00481878961e-16
249	1.60214956553e-16
250	1.50177782142e-16
251	1.4117762991e-16
252	1.10480707158e-16
253	1.02932128466e-16
254	1.15575685224e-16
255	1.00536151972e-16
256	9.02773237187e-17
257	1.09492954435e-16
258	1.06185081839e-16
259	8.82771745578e-17
260	1.00162592719e-16
261	1.06950910887e-16
262	8.87537453432e-17
263	8.76135976832e-17
264	9.79617741293e-17
265	8.94399935265e-17
266	7.9720467137e-17
267	8.07668142669e-17
268	8.04924167474e-17
269	7.71737472248e-17
270	7.03005437573e-17
271	6.78588337669e-17
272	7.44446870193e-17
273	7.05619144983e-17
274	6.34410682736e-17
275	7.23476451301e-17
276	7.49158837032e-17
277	6.75974315666e-17
278	7.27125183752e-17
279	7.60555458153e-17
280	7.07242172158e-17
281	7.19783658661e-17
282	7.11507464944e-17
283	6.70927477357e-17
284	6.76403113817e-17
285	6.15818657693e-17
286	5.66772064517e-17
287	6.10028228558e-17
288	5.4179380169e-17
289	4.55577352625e-17
290	5.28104045916e-17
291	5.14891722821e-17
292	4.08667573806e-17
293	4.58823932201e-17
294	5.01698849767e-17
295	4.216588588e-17
296	4.30574588188e-17
297	4.80073356155e-17
298	4.3546371701e-17
299	4.20501520903e-17
300	4.44394112552e-17
301	4.16133537672e-17
302	3.97210403636e-17
303	3.9209201687e-17
304	3.59400992354e-17
305	3.50760907238e-17
306	3.3654764815e-17
307	2.87768065386e-17
308	2.87134967187e-17
309	2.9101369161e-17
310	2.35360466015e-17
311	2.25802780622e-17
312	2.52319095024e-17
313	2.12195184651e-17
314	1.87747933956e-17
315	2.17386225975e-17
316	1.99949293053e-17
317	1.7047970546e-17
318	1.8806545197e-17
319	1.83167696775e-17
320	1.57324809892e-17
321	1.61542695037e-17
322	1.5825976816e-17
323	1.38856156512e-17
324	1.35721698423e-17
325	1.28763492984e-17
326	1.14620330127e-17
327	1.12143069225e-17
328	1.02777943087e-17
329	8.94720472669e-18
330	9.08284085936e-18
331	8.50498506479e-18
332	7.0989509572e-18
333	7.24750454378e-18
334	7.25112241555e-18
335	6.06710998972e-18
336	5.92584377666e-18
337	6.16490300699e-18
338	5.36933458913e-18
339	5.01869099946e-18
340	5.1611117952e-18
341	4.6291790412e-18
342	4.2313868492e-18
343	4.20411703787e-18
344	3.78816105976e-18
345	3.45484402311e-18
346	3.3311958894e-18
347	2.93269958798e-18
348	2.70100957373e-18
349	2.63192034451e-18
350	2.24232294031e-18
351	2.03387400614e-18
352	2.08584768974e-18
353	1.80118849626e-18
354	1.55980205656e-18
355	1.64595698473e-18
356	1.51186536604e-18
357	1.28257642323e-18
358	1.31683615905e-18
359	1.26722454372e-18
360	1.09183331481e-18
361	1.07360451097e-18
362	1.03911687095e-18
363	9.11355946483e-19
364	8.68503584258e-19
365	8.23360627531e-19
366	7.26938581306e-19
367	6.88509970436e-19
368	6.35491047744e-19
369	5.50266571428e-19
370	5.31376299636e-19
371	4.95378450871e-19
372	4.11880934287e-19
373	3.97889917568e-19
374	3.93110300869e-19
375	3.258532222e-19
376	3.01088337739e-19
377	3.11095372948e-19
378	2.70800326808e-19
379	2.40639641698e-19
380	2.46404598394e-19
381	2.24317779911e-19
382	1.97655593004e-19
383	1.95498372058e-19
384	1.80402988422e-19
385	1.596121766e-19
386	1.52719860123e-19
387	1.38940662155e-19
388	1.23881541486e-19
389	1.17706170155e-19
390	1.03804456859e-19
391	9.12246174997e-20
392	8.94950070275e-20
393	7.91489094751e-20
394	6.6255391754e-20
395	6.63046432011e-20
396	6.23292675517e-20
397	5.11691815237e-20
398	4.94338832675e-20
399	4.91522384267e-20
400	4.18294358135e-20
401	3.86401006011e-20
402	3.86282842034e-20
403	3.4177637821e-20
404	3.08903308463e-20
405	3.01470297709e-20
406	2.71186490472e-20
407	2.43488238578e-20
408	2.29981981211e-20
409	2.04923641922e-20
410	1.85996541585e-20
411	1.74248491106e-20
412	1.49516676593e-20
413	1.34791534149e-20
414	1.31862779872e-20
415	1.12490053126e-20
416	9.61194409384e-21
417	9.75121992703e-21
418	8.85047345374e-21
419	7.32191625182e-21
420	7.23808091787e-21
421	6.97544247819e-21
422	5.91617024809e-21
423	5.5980311989e-21
424	5.46471683611e-21
425	4.77313795413e-21
426	4.38713172686e-21
427	4.2207113303e-21
428	3.75222381262e-21
429	3.39466985141e-21
430	3.14975427612e-21
431	2.78576611212e-21
432	2.56159250851e-21
433	2.34786822106e-21
434	1.99390121973e-21
435	1.84374761009e-21
436	1.77485047797e-21
437	1.48636114436e-21
438	1.30438958058e-21
439	1.31263661796e-21
440	1.17177193575e-21
441	9.97612899745e-22
442	9.83807289024e-22
443	9.28412660917e-22
444	8.04064169191e-22
445	7.620277135e-22
446	7.27464314134e-22
447	6.43401971082e-22
448	5.92711813225e-22
449	5.60992228441e-22
450	5.04627775179e-22
451	4.57751518508e-22
452	4.2126101371e-22
453	3.79396001022e-22
454	3.51961705744e-22
455	3.19154196273e-22
456	2.74466986803e-22
457	2.59548780427e-22
458	2.47360448975e-22
459	2.05505474468e-22
460	1.85195065101e-22
461	1.87696726779e-22
462	1.65651297198e-22
463	1.46529892918e-22
464	1.47677810894e-22
465	1.34635779359e-22
466	1.17686054704e-22
467	1.14608332853e-22
468	1.04327015775e-22
469	9.05578430444e-23
470	8.80377986174e-23
471	8.22761370167e-23
472	7.30195692164e-23
473	7.1049550597e-23
474	6.81301833599e-23
475	6.22573658158e-23
476	5.95463298369e-23
477	5.76154651315e-23
478	5.10409621598e-23
479	4.59349714636e-23
480	4.47877023435e-23
481	3.83627748965e-23
482	3.39356717964e-23
483	3.49415686303e-23
484	3.13725419096e-23
485	2.97371358313e-23
486	3.24796596338e-23
487	3.20094740973e-23
488	3.02065034861e-23
489	3.19044963906e-23
490	3.26938629408e-23
491	2.94104483497e-23
492	2.83430951576e-23
493	2.88721882514e-23
494	2.59917376641e-23
495	2.27493054898e-23
496	2.25610190219e-23
497	2.09648120579e-23
498	1.80901522107e-23
499	1.74303156136e-23
500	1.64042290914e-23
501	1.56164608404e-23
502	1.51429327825e-23
503	1.3792271212e-23
504	1.48937921012e-23
505	1.56778808029e-23
506	1.33905276642e-23
507	1.55379973921e-23
508	1.70419458004e-23
509	1.42158367894e-23
510	1.62761699108e-23
511	1.68953638959e-23
512	1.47742006233e-23
513	1.68953585184e-23
514	1.62761617003e-23
515	1.42158311396e-23
516	1.70419436766e-23
517	1.55379952371e-23
518	1.33905270051e-23
519	1.56778799736e-23
520	1.48937921697e-23
521	1.3792271203e-23
522	1.51429329026e-23
523	1.56164618958e-23
524	1.64042291919e-23
525	1.74303159976e-23
526	1.80901519507e-23
527	2.0964813029e-23
528	2.25610190077e-23
529	2.27493080627e-23
530	2.59917385175e-23
531	2.88721885622e-23
532	2.83430953566e-23
533	2.94104486146e-23
534	3.2693863028e-23
535	3.19044960967e-23
536	3.02065034761e-23
537	3.20094740612e-23
538	3.24796592785e-23
539	2.97371357828e-23
540	3.13725420006e-23
541	3.49415682869e-23
542	3.39356713826e-23
543	3.83627729904e-23
544	4.47877023378e-23
545	4.59349710217e-23
546	5.10409626836e-23
547	5.76154656752e-23
548	5.95463299026e-23
549	6.22573664742e-23
550	6.81301831621e-23
551	7.10495501534e-23
552	7.30195692337e-23
553	8.2276136959e-23
554	8.80377986311e-23
555	9.05578431404e-23
556	1.04327015906e-22
557	1.14608332218e-22
558	1.17686055402e-22
559	1.34635776575e-22
560	1.4767781089e-22
561	1.46529889143e-22
562	1.65651296398e-22
563	1.87696728542e-22
564	1.8519506508e-22
565	2.05505473727e-22
566	2.47360448901e-22
567	2.59548779956e-22
568	2.74466987018e-22
569	3.19154196848e-22
570	3.51961705553e-22
571	3.79396000908e-22
572	4.21261015569e-22
573	4.57751519519e-22
574	5.04627777355e-22
575	5.6099223295e-22
576	5.92711813226e-22
577	6.434019814e-22
578	7.27464310846e-22
579	7.62027713227e-22
580	8.04064169534e-22
581	9.28412660466e-22
582	9.8380728841e-22
583	9.97612898262e-22
584	1.17177193573e-21
585	1.31263661716e-21
586	1.30438958012e-21
587	1.48636114674e-21
588	1.77485047764e-21
589	1.8437476111e-21
590	1.99390121919e-21
591	2.34786822095e-21
592	2.56159250852e-21
593	2.78576610494e-21
594	3.14975427662e-21
595	3.39466985029e-21
596	3.75222381354e-21
597	4.22071133218e-21
598	4.38713172253e-21
599	4.77313796048e-21
600	5.46471683601e-21
601	5.59803119852e-21
602	5.91617024166e-21
603	6.97544247053e-21
604	7.23808091807e-21
605	7.32191625003e-21
606	8.85047346319e-21
607	9.75121990904e-21
608	9.61194409386e-21
609	1.124900532e-20
610	1.31862779967e-20
611	1.3479153416e-20
612	1.49516676582e-20
613	1.74248491102e-20
614	1.85996541585e-20
615	2.0492364194e-20
616	2.29981981213e-20
617	2.4348823853e-20
618	2.71186490498e-20
619	3.01470297661e-20
620	3.08903308464e-20
621	3.41776378282e-20
622	3.86282842129e-20
623	3.86401006149e-20
624	4.18294358135e-20
625	4.91522385085e-20
626	4.94338832703e-20
627	5.11691815169e-20
628	6.23292675528e-20
629	6.6304643194e-20
630	6.62553917446e-20
631	7.91489094652e-20
632	8.94950070254e-20
633	9.12246174811e-20
634	1.03804456859e-19
635	1.17706170153e-19
636	1.2388154148e-19
637	1.38940662111e-19
638	1.52719860141e-19
639	1.59612176628e-19
640	1.80402988422e-19
641	1.95498372387e-19
642	1.97655592948e-19
643	2.2431777996e-19
644	2.46404598395e-19
645	2.40639641725e-19
646	2.70800326783e-19
647	3.11095373001e-19
648	3.01088337737e-19
649	3.25853222261e-19
650	3.93110300859e-19
651	3.97889917576e-19
652	4.11880934282e-19
653	4.95378450899e-19
654	5.31376299634e-19
655	5.50266571497e-19
656	6.35491047742e-19
657	6.88509970304e-19
658	7.26938581326e-19
659	8.23360627557e-19
660	8.68503584262e-19
661	9.11355946553e-19
662	1.03911687094e-18
663	1.07360451081e-18
664	1.0918333148e-18
665	1.26722454369e-18
666	1.31683615897e-18
667	1.28257642324e-18
668	1.51186536605e-18
669	1.64595698459e-18
670	1.55980205655e-18
671	1.80118849664e-18
672	2.08584768974e-18
673	2.0338740062e-18
674	2.24232294005e-18
675	2.63192034448e-18
676	2.7010095737e-18
677	2.93269958802e-18
678	3.33119588935e-18
679	3.45484402279e-18
680	3.78816105976e-18
681	4.20411703773e-18
682	4.23138684918e-18
683	4.62917904116e-18
684	5.16111179519e-18
685	5.01869099957e-18
686	5.36933458934e-18
687	6.16490300743e-18
688	5.92584377665e-18
689	6.06710998974e-18
690	7.25112241561e-18
691	7.2475045438e-18
692	7.09895095723e-18
693	8.5049850649e-18
694	9.08284085943e-18
695	8.94720472653e-18
696	1.02777943087e-17
697	1.12143069226e-17
698	1.14620330126e-17
699	1.2876349298e-17
700	1.35721698423e-17
701	1.38856156505e-17
702	1.58259768171e-17
703	1.61542695038e-17
704	1.57324809892e-17
705	1.83167696773e-17
706	1.88065451975e-17
707	1.7047970546e-17
708	1.99949293053e-17
709	2.17386225977e-17
710	1.87747933958e-17
711	2.12195184654e-17
712	2.52319095024e-17
713	2.25802780623e-17
714	2.35360466017e-17
715	2.91013691612e-17
716	2.87134967188e-17
717	2.87768065385e-17
718	3.36547648149e-17
719	3.50760907236e-17
720	3.59400992354e-17
721	3.92092016873e-17
722	3.97210403633e-17
723	4.16133537665e-17
724	4.44394112553e-17
725	4.20501520899e-17
726	4.3546371701e-17
727	4.80073356165e-17
728	4.30574588188e-17
729	4.21658858807e-17
730	5.0169884977e-17
731	4.58823932202e-17
732	4.08667573806e-17
733	5.14891722828e-17
734	5.28104045912e-17
735	4.55577352612e-17
736	5.4179380169e-17
737	6.10028228553e-17
738	5.66772064511e-17
739	6.1581865769e-17
740	6.76403113817e-17
741	6.70927477354e-17
742	7.11507464941e-17
743	7.19783658652e-17
744	7.07242172158e-17
745	7.60555458141e-17
746	7.27125183744e-17
747	6.75974315672e-17
748	7.49158837034e-17
749	7.23476451294e-17
750	6.34410682731e-17
751	7.05619144967e-17
752	7.44446870194e-17
753	6.78588337664e-17
754	7.03005437578e-17
755	7.71737472248e-17
756	8.04924167473e-17
757	8.07668142668e-17
758	7.97204671368e-17
759	8.94399935261e-17
760	9.79617741291e-17
761	8.76135976842e-17
762	8.87537453436e-17
763	1.06950910887e-16
764	1.0016259272e-16
765	8.8277174561e-17
766	1.06185081847e-16
767	1.09492954446e-16
768	9.02773237187e-17
769	1.00536151962e-16
770	1.1557568522e-16
771	1.02932128465e-16
772	1.10480707158e-16
773	1.41177629911e-16
774	1.50177782143e-16
775	1.60214956553e-16
776	2.00481878961e-16
777	2.39225802858e-16
778	2.68231562843e-16
779	3.23463374942e-16
780	3.94694843735e-16
781	4.48437331981e-16
782	5.16341172371e-16
783	6.20503286457e-16
784	7.16811183729e-16
785	8.15294803262e-16
786	9.71956928094e-16
787	1.14949767301e-15
788	1.28786898986e-15
789	1.44199415989e-15
790	1.67323515046e-15
791	1.88861834441e-15
792	2.00590913328e-15
793	2.17385664556e-15
794	2.41480372112e-15
795	2.45502485417e-15
796	2.40310453345e-15
797	2.52315917723e-15
798	2.49093958943e-15
799	2.31072441457e-15
800	2.39538752263e-15
801	2.33891829351e-15
802	1.96824666199e-15
803	1.94961243174e-15
804	2.07689371358e-15
805	1.82983506878e-15
806	1.85495624573e-15
807	2.37428089631e-15
808	2.51470338132e-15
809	2.55026376417e-15
810	3.29598572662e-15
811	3.9396566337e-15
812	4.11965165222e-15
813	4.94413069163e-15
814	6.02666792745e-15
815	6.25641685922e-15
816	6.60398419584e-15
817	7.53622734273e-15
818	7.79624171889e-15
819	7.74809675406e-15
820	8.37475009897e-15
821	8.92251080952e-15
822	8.83301892761e-15
823	9.19588244097e-15
824	1.06840105132e-14
825	1.12014629886e-14
826	1.0552967648e-14
827	1.21883997027e-14
828	1.42431569957e-14
829	1.47828598388e-14
830	1.74260046048e-14
831	1.9471715196e-14
832	1.97572129433e-14
833	2.3697059064e-14
834	2.63478792249e-14
835	2.51971874474e-14
836	2.99318955536e-14
837	3.51176250281e-14
838	3.02515027331e-14
839	3.0011698538e-14
840	3.69804684182e-14
841	3.20410165638e-14
842	2.82122143979e-14
843	3.69619465961e-14
844	3.40292334572e-14
845	2.58246826374e-14
846	3.6236529628e-14
847	4.40563082444e-14
848	4.01074134699e-14
849	5.11152571487e-14
850	6.77403723553e-14
851	6.77260848838e-14
852	7.15938465376e-14
853	8.88791145301e-14
854	9.68147254667e-14
855	9.97700668012e-14
856	1.10307299845e-13
857	1.12916868449e-13
858	1.18601171193e-13
859	1.3125998336e-13
860	1.32438876661e-13
861	1.43435964031e-13
862	1.43281177699e-13
863	1.22413047563e-13
864	1.41473706741e-13
865	1.72251294557e-13
866	1.45085312415e-13
867	1.50629132169e-13
868	2.11612122684e-13
869	1.83210475344e-13
870	1.58043389411e-13
871	2.16634583762e-13
872	2.04461284965e-13
873	1.6777421508e-13
874	1.7305375926e-13
875	1.7556129898e-13
876	1.61206490216e-13
877	1.37998984346e-13
878	1.51289860467e-13
879	1.8735557384e-13
880	2.37812319471e-13
881	3.30862273317e-13
882	3.36855982841e-13
883	2.9163564018e-13
884	4.49258878806e-13
885	5.90332006334e-13
886	5.56851479123e-13
887	6.2441566956e-13
888	6.93281861868e-13
889	5.75657277733e-13
890	6.0436750379e-13
891	8.13507570563e-13
892	7.79479927934e-13
893	8.2748040723e-13
894	1.05223254247e-12
895	8.64022950046e-13
896	7.10897985158e-13
897	7.27015142138e-13
898	7.95452822653e-13
899	9.74622762479e-13
900	1.06878709758e-12
901	1.17224477068e-12
902	1.18584629975e-12
903	1.12741347157e-12
904	1.36982167798e-12
905	1.77775534342e-12
906	2.09574471543e-12
907	2.1431545446e-12
908	1.79429135544e-12
909	1.77652438729e-12
910	1.99041826836e-12
911	1.8139677945e-12
912	2.51119811516e-12
913	2.80970466055e-12
914	2.29158241856e-12
915	2.06878029507e-12
916	1.87515298837e-12
917	2.89856993123e-12
918	4.01564064817e-12
919	4.65110812811e-12
920	4.67161612148e-12
921	4.54904765463e-12
922	5.34910323196e-12
923	7.77345289764e-12
924	1.00160712327e-11
925	9.2338486735e-12
926	9.38094026907e-12
927	1.07280622121e-11
928	1.02165200679e-11
929	9.34618643657e-12
930	9.78695767713e-12
931	1.08958804681e-11
932	1.33862301794e-11
933	1.1415385337e-11
934	1.44162594165e-11
935	2.39130623384e-11
936	2.59041559631e-11
937	2.57943731458e-11
938	3.16953977938e-11
939	3.5938089517e-11
940	3.44039150738e-11
941	2.96374586324e-11
942	3.1953477831e-11
943	3.49248648088e-11
944	3.57817465368e-11
945	3.13614868598e-11
946	3.51047754326e-11
947	4.72582773884e-11
948	4.45667798724e-11
949	4.79635852884e-11
950	4.80465507639e-11
951	5.7666677385e-11
952	6.62469411802e-11
953	7.86663680678e-11
954	6.7840387826e-11
955	5.51026579743e-11
956	7.05549672479e-11
957	7.45594492514e-11
958	1.05848637248e-10
959	1.54876984319e-10
960	1.90077642091e-10
961	1.93178303837e-10
962	1.9462119499e-10
963	1.95809191028e-10
964	2.45032337138e-10
965	2.11096286391e-10
966	2.48546501848e-10
967	2.46878360117e-10
968	2.86537154975e-10
969	3.91419065327e-10
970	5.06366800776e-10
971	4.67833195512e-10
972	4.33145462054e-10
973	4.45943574149e-10
974	5.47703617395e-10
975	7.19027575969e-10
976	6.38182492628e-10
977	6.6660447123e-10
978	8.41872197263e-10
979	9.35402189977e-10
980	1.29598776766e-09
981	1.48943547026e-09
982	1.4429971797e-09
983	1.3762999179e-09
984	1.62886345564e-09
985	1.981394896e-09
986	2.18974084928e-09
987	2.85501238654e-09
988	2.97333144334e-09
989	3.16467358976e-09
990	4.29606950467e-09
991	3.34228228404e-09
992	4.04125003251e-09
993	5.18513582421e-09
994	5.53946255066e-09
995	4.70179518254e-09
996	6.49980074179e-09
997	1.27371926688e-08
998	1.41265273804e-08
999	1.86556199181e-08
1000	2.02133760047e-08
1001	2.33240334819e-08
1002	3.01135734594e-08
1003	4.9012529741e-08
1004	5.21195232968e-08
1005	6.32585546192e-08
1006	7.5013447007e-08
1007	9.05303170784e-08
1008	1.36355764266e-07
1009	1.56387230794e-07
1010	2.1714776177e-07
1011	3.58808946428e-07
1012	8.08794617947e-07
1013	1.03657380018e-06
1014	8.03979049856e-07
1015	1.38673869874e-06
1016	2.45585004606e-06
1017	6.71982434544e-06
1018	8.6762209657e-06
1019	2.8553747838e-05
1020	0.000192311337164
1021	0.000775607993491
1022	0.00367351598047
1023	0.0241134940134
