0	0.883545600926
1	1.37657444115e-10
2	0.0102467744395
3	3.76505960485e-11
4	0.000798519514598
5	4.68406452363e-12
6	3.31053906354e-05
7	6.25334789729e-13
8	5.12493762081e-06
9	4.86337142382e-13
10	2.06987032549e-06
11	1.42772470994e-13
12	6.61951742891e-07
13	1.13776900824e-13
14	5.49403465955e-07
15	8.73538905396e-14
16	2.04095179058e-07
17	7.71017671902e-14
18	1.46437972099e-07
19	7.32630198829e-14
20	8.59369990736e-08
21	4.76871257206e-14
22	5.16895493799e-08
23	3.17393148136e-14
24	4.34237717937e-08
25	1.49737997168e-14
26	2.0412732602e-08
27	7.82632763924e-15
28	1.00597603909e-08
29	6.54967305327e-15
30	7.46604306963e-09
31	6.22672479723e-15
32	5.36424726818e-09
33	7.5509307726e-15
34	3.31336182022e-09
35	8.10456544517e-15
36	3.73149449049e-09
37	7.28886431201e-15
38	2.81084849575e-09
39	6.76865012398e-15
40	2.87936114325e-09
41	7.22184244175e-15
42	1.97014895904e-09
43	6.33539286687e-15
44	1.46998697303e-09
45	5.14772267125e-15
46	1.27510279296e-09
47	4.47145064625e-15
48	1.18183201751e-09
49	3.86741540029e-15
50	1.13831167715e-09
51	3.43898435756e-15
52	1.10155802188e-09
53	3.37480413415e-15
54	7.97756037017e-10
55	3.6014728882e-15
56	5.97793018081e-10
57	3.50130662209e-15
58	5.05768217203e-10
59	2.75134982133e-15
60	3.86114090057e-10
61	1.80912043595e-15
62	2.8724280205e-10
63	1.20822672208e-15
64	2.06756477177e-10
65	9.7322885459e-16
66	1.84407340966e-10
67	9.48603621808e-16
68	1.82974140757e-10
69	8.56974303884e-16
70	1.44671232882e-10
71	7.19526302851e-16
72	1.3064863199e-10
73	6.52568113965e-16
74	1.05563100241e-10
75	6.71821789022e-16
76	1.13151987803e-10
77	7.22214943679e-16
78	1.42072385869e-10
79	6.48585641992e-16
80	1.04897307573e-10
81	5.63657787889e-16
82	7.38907510777e-11
83	4.78498174034e-16
84	5.91640413509e-11
85	3.93642683546e-16
86	5.87502409085e-11
87	3.19581483483e-16
88	4.63829975147e-11
89	2.84003972888e-16
90	4.47295878848e-11
91	2.87943692259e-16
92	5.11318654114e-11
93	3.10370717182e-16
94	4.21526760236e-11
95	3.17388774271e-16
96	3.90163707761e-11
97	3.27631970851e-16
98	5.51560568829e-11
99	3.13074628361e-16
100	5.70879789684e-11
101	2.34827143213e-16
102	4.06706483888e-11
103	1.60501774916e-16
104	3.13025334743e-11
105	1.11630429222e-16
106	2.18952244411e-11
107	8.0323768901e-17
108	1.46718725041e-11
109	6.80653341516e-17
110	1.15702400328e-11
111	6.61277015069e-17
112	1.2791680487e-11
113	6.94416045528e-17
114	1.1309042353e-11
115	6.52066512351e-17
116	1.02835316934e-11
117	6.36130882493e-17
118	8.05887573308e-12
119	4.35554502319e-17
120	6.02229937373e-12
121	3.33171977208e-17
122	4.44728649513e-12
123	2.75173394371e-17
124	3.48466234544e-12
125	2.78288585479e-17
126	3.20710273114e-12
127	2.50829884299e-17
128	2.39031179979e-12
129	2.32583103221e-17
130	1.9623005311e-12
131	1.91191070273e-17
132	1.66230774478e-12
133	1.58280425874e-17
134	1.07695337849e-12
135	1.29143446318e-17
136	8.34961859603e-13
137	1.21454938884e-17
138	1.0929378987e-12
139	1.23868136174e-17
140	1.10173856396e-12
141	1.05195940406e-17
142	8.30981649191e-13
143	8.3486646108e-18
144	5.29550525924e-13
145	6.37355971959e-18
146	3.15616188387e-13
147	4.53786099029e-18
148	2.93526836977e-13
149	4.23722510311e-18
150	3.52020575013e-13
151	3.91130741441e-18
152	3.79493756717e-13
153	3.29303043177e-18
154	3.17711625784e-13
155	2.64033655091e-18
156	2.96850885922e-13
157	2.40800282316e-18
158	2.93494161469e-13
159	1.89687259942e-18
160	2.53121250068e-13
161	1.66307209289e-18
162	2.08329053871e-13
163	1.45705409924e-18
164	1.73541491056e-13
165	1.41366863202e-18
166	1.52281843518e-13
167	1.53247259126e-18
168	1.43777904508e-13
169	1.46027893167e-18
170	1.2709161025e-13
171	1.35876124748e-18
172	1.25876106973e-13
173	1.19777217632e-18
174	1.27124933269e-13
175	1.03109838808e-18
176	1.29967891451e-13
177	9.13480143214e-19
178	1.23841306993e-13
179	7.50304288599e-19
180	1.11051327348e-13
181	5.93932143976e-19
182	9.01781433761e-14
183	4.56831165303e-19
184	7.63940876181e-14
185	3.79454461261e-19
186	7.12159245407e-14
187	3.4078548692e-19
188	6.79897298418e-14
189	3.13791726638e-19
190	6.44119876596e-14
191	2.80709243257e-19
192	5.95819244284e-14
193	2.46501143041e-19
194	5.32429306471e-14
195	2.29117695217e-19
196	4.78623950883e-14
197	1.89252220096e-19
198	4.2325664536e-14
199	1.42844871021e-19
200	3.65725554129e-14
201	1.08631084887e-19
202	3.18419396291e-14
203	8.77540270975e-20
204	2.85970878669e-14
205	6.7686521493e-20
206	2.4608819255e-14
207	5.25964751666e-20
208	2.0314120511e-14
209	3.99675477404e-20
210	1.67659761761e-14
211	3.12110377616e-20
212	1.38129415993e-14
213	2.72585719302e-20
214	1.14527836886e-14
215	2.74533259564e-20
216	1.0027617819e-14
217	3.02661972753e-20
218	8.77466114573e-15
219	3.12504158711e-20
220	7.10593820162e-15
221	2.98306447629e-20
222	5.48455824589e-15
223	2.78764389309e-20
224	3.91621710739e-15
225	2.06835085479e-20
226	2.53901743338e-15
227	1.49231586773e-20
228	1.7400207219e-15
229	1.27950179395e-20
230	1.32622298586e-15
231	1.05488583339e-20
232	1.07238614e-15
233	8.59765564226e-21
234	9.51957978469e-16
235	7.93430064708e-21
236	8.75899762627e-16
237	7.17289720788e-21
238	7.7390230854e-16
239	6.22716908441e-21
240	6.71166145318e-16
241	5.31637572433e-21
242	6.01640769356e-16
243	4.51307672857e-21
244	5.92755840425e-16
245	3.95088630487e-21
246	6.35636104673e-16
247	3.63544693885e-21
248	6.97546446757e-16
249	3.47264787991e-21
250	7.58729017257e-16
251	3.21002405762e-21
252	7.96706354848e-16
253	2.86753083676e-21
254	8.0406578114e-16
255	2.63921110255e-21
256	7.96587840825e-16
257	2.4108301429e-21
258	7.7981852701e-16
259	2.10064594901e-21
260	7.49503288541e-16
261	1.8540017678e-21
262	7.1172565091e-16
263	1.66599344782e-21
264	6.7113280687e-16
265	1.4430954346e-21
266	6.21317417101e-16
267	1.23631800233e-21
268	5.63901855169e-16
269	1.05778448589e-21
270	5.07395517154e-16
271	8.97204604992e-22
272	4.51809436065e-16
273	7.69043896078e-22
274	3.96059528515e-16
275	6.65189142155e-22
276	3.43934475711e-16
277	5.81255828159e-22
278	2.95921651643e-16
279	5.08018516542e-22
280	2.50314104969e-16
281	4.36572691195e-22
282	2.08526324163e-16
283	3.80963480331e-22
284	1.72128425528e-16
285	3.27229698014e-22
286	1.40477983921e-16
287	2.78775153297e-22
288	1.13315753579e-16
289	2.42725221309e-22
290	9.11585668883e-17
291	2.12227890446e-22
292	7.29700932018e-17
293	1.85236806834e-22
294	5.78916301762e-17
295	1.59610243506e-22
296	4.5688658085e-17
297	1.3919677848e-22
298	3.60377815686e-17
299	1.18658729474e-22
300	2.84453007556e-17
301	1.00743114233e-22
302	2.25900627015e-17
303	8.75270973305e-23
304	1.8259857229e-17
305	7.54956349895e-23
306	1.50956513139e-17
307	6.73728361605e-23
308	1.27304670378e-17
309	5.9498725389e-23
310	1.09637015644e-17
311	5.4045511631e-23
312	9.60686587421e-18
313	4.73181615287e-23
314	8.54914339391e-18
315	4.2308401109e-23
316	7.67490950021e-18
317	3.75229544623e-23
318	6.93186413324e-18
319	3.29208645464e-23
320	6.2705547565e-18
321	2.86618525741e-23
322	5.66081960139e-18
323	2.49796849435e-23
324	5.06328971459e-18
325	2.15964681646e-23
326	4.48811090718e-18
327	1.85990181418e-23
328	3.93452743631e-18
329	1.62769150166e-23
330	3.40291811328e-18
331	1.40583540199e-23
332	2.90451981748e-18
333	1.24899968958e-23
334	2.4469894877e-18
335	1.08960305743e-23
336	2.02988093495e-18
337	9.79126181234e-24
338	1.65808388417e-18
339	8.5997820393e-24
340	1.33691478566e-18
341	7.79466176476e-24
342	1.06572621395e-18
343	6.93749821054e-24
344	8.4334215577e-19
345	6.33468833525e-24
346	6.68433926683e-19
347	5.64075783951e-24
348	5.39052818757e-19
349	5.23561109005e-24
350	4.45624408809e-19
351	4.70318018537e-24
352	3.84702174787e-19
353	4.40803982333e-24
354	3.50348509263e-19
355	4.09518546246e-24
356	3.38674967202e-19
357	3.93069244929e-24
358	3.42120395316e-19
359	3.67280344399e-24
360	3.58580180144e-19
361	3.52611161806e-24
362	3.81449705845e-19
363	3.33303944924e-24
364	4.08591068614e-19
365	3.20584321251e-24
366	4.35372333536e-19
367	3.04062316442e-24
368	4.60648807898e-19
369	2.92770793307e-24
370	4.81247765124e-19
371	2.70501097951e-24
372	4.98131690059e-19
373	2.62714730821e-24
374	5.08282598422e-19
375	2.41347996732e-24
376	5.13595006882e-19
377	2.29678199367e-24
378	5.11772189995e-19
379	2.12200228389e-24
380	5.0525077299e-19
381	2.00418979815e-24
382	4.9271638636e-19
383	1.79997150476e-24
384	4.76502877886e-19
385	1.67699473328e-24
386	4.55449547617e-19
387	1.51529463165e-24
388	4.3209873383e-19
389	1.38121961487e-24
390	4.05662346426e-19
391	1.23851535928e-24
392	3.78285651018e-19
393	1.11543355698e-24
394	3.49317771946e-19
395	9.9221866297e-25
396	3.2042605583e-19
397	8.86547026651e-25
398	2.91256779258e-19
399	7.84275731105e-25
400	2.63438471624e-19
401	6.91004119053e-25
402	2.35945012889e-19
403	5.94108394241e-25
404	2.10115496421e-19
405	5.29086373646e-25
406	1.85792129414e-19
407	4.48202579224e-25
408	1.63296003115e-19
409	4.02018190946e-25
410	1.42296234143e-19
411	3.31350469151e-25
412	1.23500732896e-19
413	2.93697144414e-25
414	1.06348551684e-19
415	2.44862058411e-25
416	9.10560611534e-20
417	2.12498408122e-25
418	7.75265900457e-20
419	1.76372084047e-25
420	6.57402897274e-20
421	1.52450439082e-25
422	5.53088619636e-20
423	1.26574458697e-25
424	4.64364543385e-20
425	1.1155951056e-25
426	3.87963652267e-20
427	9.27621540456e-26
428	3.23221494646e-20
429	7.63399047491e-26
430	2.68854531461e-20
431	6.44840530752e-26
432	2.23850372612e-20
433	5.62493105777e-26
434	1.86070443627e-20
435	4.52883129479e-26
436	1.55191015657e-20
437	3.90285651463e-26
438	1.29871204929e-20
439	3.26686017387e-26
440	1.093017164e-20
441	2.95997710677e-26
442	9.25755090125e-21
443	2.34139005458e-26
444	7.91248125967e-21
445	2.04207108458e-26
446	6.80199989558e-21
447	1.71045274413e-26
448	5.94298747923e-21
449	1.66169562653e-26
450	5.21014670376e-21
451	1.30669563212e-26
452	4.62093327322e-21
453	1.14743407496e-26
454	4.09321531627e-21
455	8.34991796409e-27
456	3.66029620529e-21
457	7.63326048482e-27
458	3.27727003909e-21
459	7.46891447695e-27
460	2.94823591134e-21
461	7.15537901343e-27
462	2.63552936396e-21
463	6.77181638381e-27
464	2.37154111173e-21
465	6.92430535508e-27
466	2.11615326569e-21
467	6.6218990995e-27
468	1.88933660445e-21
469	5.81144230018e-27
470	1.68518235929e-21
471	4.95938975123e-27
472	1.48319110135e-21
473	5.48833796677e-27
474	1.31414675912e-21
475	3.97524190769e-27
476	1.1550934923e-21
477	4.4693581587e-27
478	1.0084346213e-21
479	4.692691643e-27
480	8.72474085056e-22
481	4.24412648223e-27
482	7.60306678825e-22
483	3.81677327337e-27
484	6.56661716797e-22
485	5.94792629353e-27
486	5.70889044524e-22
487	5.56857046939e-27
488	4.97966796196e-22
489	4.8354864397e-27
490	4.34886072325e-22
491	4.33375721142e-27
492	3.79679335423e-22
493	4.5882215211e-27
494	3.37286164919e-22
495	4.81329294728e-27
496	2.99331304627e-22
497	4.62443064789e-27
498	2.62173037753e-22
499	4.52908832264e-27
500	2.3588341673e-22
501	4.57575725634e-27
502	2.16060301975e-22
503	4.84784465816e-27
504	2.01832997986e-22
505	6.11007586646e-27
506	1.94400569186e-22
507	6.14002431954e-27
508	1.90986815571e-22
509	6.79988581502e-27
510	1.89540669796e-22
511	1.09135341226e-26
512	1.89720482973e-22
513	1.09135341195e-26
514	1.89540659394e-22
515	6.79988580683e-27
516	1.90986813233e-22
517	6.14002432306e-27
518	1.94400571691e-22
519	6.11007586539e-27
520	2.01832998132e-22
521	4.84784465803e-27
522	2.16060304254e-22
523	4.57575725711e-27
524	2.35883416254e-22
525	4.52908832266e-27
526	2.62173039157e-22
527	4.62443064695e-27
528	2.9933130473e-22
529	4.81329294563e-27
530	3.37286164826e-22
531	4.58822152016e-27
532	3.79679335244e-22
533	4.33375721079e-27
534	4.34886072015e-22
535	4.83548643956e-27
536	4.97966796205e-22
537	5.56857046933e-27
538	5.7088904591e-22
539	5.94792629372e-27
540	6.56661715923e-22
541	3.81677327306e-27
542	7.60306676547e-22
543	4.24412648362e-27
544	8.72474085071e-22
545	4.69269164078e-27
546	1.0084346222e-21
547	4.46935815894e-27
548	1.15509349196e-21
549	3.97524190829e-27
550	1.31414675929e-21
551	5.4883379659e-27
552	1.48319110135e-21
553	4.95938975042e-27
554	1.68518235931e-21
555	5.81144230102e-27
556	1.88933660524e-21
557	6.62189909914e-27
558	2.11615326875e-21
559	6.9243053545e-27
560	2.37154111176e-21
561	6.77181638466e-27
562	2.63552936084e-21
563	7.15537901355e-27
564	2.948235909e-21
565	7.46891447668e-27
566	3.27727004118e-21
567	7.63326048264e-27
568	3.66029620628e-21
569	8.34991796306e-27
570	4.09321531204e-21
571	1.14743407519e-26
572	4.62093327209e-21
573	1.3066956328e-26
574	5.21014669609e-21
575	1.66169562784e-26
576	5.94298747923e-21
577	1.71045274409e-26
578	6.80199990469e-21
579	2.04207108435e-26
580	7.91248126676e-21
581	2.3413900544e-26
582	9.25755089973e-21
583	2.95997710669e-26
584	1.09301716408e-20
585	3.26686017331e-26
586	1.29871204933e-20
587	3.90285651477e-26
588	1.55191015658e-20
589	4.5288312949e-26
590	1.86070443507e-20
591	5.62493105812e-26
592	2.23850372614e-20
593	6.44840530693e-26
594	2.68854531433e-20
595	7.63399047463e-26
596	3.2322149467e-20
597	9.27621540429e-26
598	3.879636523e-20
599	1.11559510558e-25
600	4.64364543382e-20
601	1.26574458704e-25
602	5.53088619581e-20
603	1.52450439087e-25
604	6.57402897334e-20
605	1.76372084041e-25
606	7.75265899848e-20
607	2.12498408124e-25
608	9.10560611535e-20
609	2.44862058417e-25
610	1.0634855169e-19
611	2.93697144415e-25
612	1.2350073288e-19
613	3.31350469151e-25
614	1.42296234145e-19
615	4.02018190952e-25
616	1.63296003114e-19
617	4.48202579232e-25
618	1.85792129414e-19
619	5.29086373647e-25
620	2.10115496424e-19
621	5.94108394237e-25
622	2.35945012826e-19
623	6.91004119052e-25
624	2.63438471624e-19
625	7.84275731119e-25
626	2.91256779346e-19
627	8.86547026634e-25
628	3.20426055841e-19
629	9.92218662966e-25
630	3.49317771943e-19
631	1.11543355698e-24
632	3.78285651013e-19
633	1.23851535927e-24
634	4.05662346479e-19
635	1.38121961484e-24
636	4.32098733759e-19
637	1.51529463167e-24
638	4.55449547565e-19
639	1.67699473322e-24
640	4.76502877886e-19
641	1.79997150474e-24
642	4.92716386344e-19
643	2.00418979815e-24
644	5.05250772996e-19
645	2.12200228387e-24
646	5.11772189954e-19
647	2.29678199367e-24
648	5.13595006875e-19
649	2.41347996734e-24
650	5.08282598416e-19
651	2.62714730821e-24
652	4.98131690049e-19
653	2.70501097952e-24
654	4.81247765362e-19
655	2.92770793304e-24
656	4.60648807896e-19
657	3.04062316441e-24
658	4.35372333781e-19
659	3.20584321253e-24
660	4.08591068624e-19
661	3.33303944924e-24
662	3.81449705889e-19
663	3.52611161805e-24
664	3.5858018014e-19
665	3.67280344401e-24
666	3.42120395284e-19
667	3.93069244929e-24
668	3.38674967173e-19
669	4.09518546241e-24
670	3.50348509394e-19
671	4.40803982334e-24
672	3.84702174788e-19
673	4.70318018536e-24
674	4.45624408993e-19
675	5.23561109001e-24
676	5.39052818786e-19
677	5.64075783949e-24
678	6.684339266e-19
679	6.33468833524e-24
680	8.43342155769e-19
681	6.93749821051e-24
682	1.06572621402e-18
683	7.79466176474e-24
684	1.33691478561e-18
685	8.59978203932e-24
686	1.65808388418e-18
687	9.79126181232e-24
688	2.02988093495e-18
689	1.08960305743e-23
690	2.44698948778e-18
691	1.24899968958e-23
692	2.90451981748e-18
693	1.40583540199e-23
694	3.40291811356e-18
695	1.62769150166e-23
696	3.93452743631e-18
697	1.85990181418e-23
698	4.4881109072e-18
699	2.15964681645e-23
700	5.06328971428e-18
701	2.49796849435e-23
702	5.66081960226e-18
703	2.8661852574e-23
704	6.2705547565e-18
705	3.29208645464e-23
706	6.93186413357e-18
707	3.75229544623e-23
708	7.6749095001e-18
709	4.2308401109e-23
710	8.54914339363e-18
711	4.73181615287e-23
712	9.60686587423e-18
713	5.40455116312e-23
714	1.09637015643e-17
715	5.94987253889e-23
716	1.27304670376e-17
717	6.73728361605e-23
718	1.50956513137e-17
719	7.54956349895e-23
720	1.8259857229e-17
721	8.75270973305e-23
722	2.25900627012e-17
723	1.00743114233e-22
724	2.84453007556e-17
725	1.18658729474e-22
726	3.60377815689e-17
727	1.3919677848e-22
728	4.5688658085e-17
729	1.59610243506e-22
730	5.78916301772e-17
731	1.85236806834e-22
732	7.29700932018e-17
733	2.12227890446e-22
734	9.11585668856e-17
735	2.42725221309e-22
736	1.13315753579e-16
737	2.78775153297e-22
738	1.40477983919e-16
739	3.27229698014e-22
740	1.72128425527e-16
741	3.80963480331e-22
742	2.08526324162e-16
743	4.36572691196e-22
744	2.50314104969e-16
745	5.08018516542e-22
746	2.95921651643e-16
747	5.81255828159e-22
748	3.43934475712e-16
749	6.65189142155e-22
750	3.96059528515e-16
751	7.69043896079e-22
752	4.51809436065e-16
753	8.97204604991e-22
754	5.07395517153e-16
755	1.05778448589e-21
756	5.63901855169e-16
757	1.23631800233e-21
758	6.21317417102e-16
759	1.4430954346e-21
760	6.7113280687e-16
761	1.66599344782e-21
762	7.11725650913e-16
763	1.8540017678e-21
764	7.49503288543e-16
765	2.10064594901e-21
766	7.79818526996e-16
767	2.4108301429e-21
768	7.96587840825e-16
769	2.63921110255e-21
770	8.04065781134e-16
771	2.86753083676e-21
772	7.96706354846e-16
773	3.21002405762e-21
774	7.58729017256e-16
775	3.47264787991e-21
776	6.97546446757e-16
777	3.63544693885e-21
778	6.35636104674e-16
779	3.95088630487e-21
780	5.92755840426e-16
781	4.51307672857e-21
782	6.01640769353e-16
783	5.31637572433e-21
784	6.71166145318e-16
785	6.22716908441e-21
786	7.73902308541e-16
787	7.17289720788e-21
788	8.75899762626e-16
789	7.93430064708e-21
790	9.51957978469e-16
791	8.59765564226e-21
792	1.07238614e-15
793	1.05488583339e-20
794	1.32622298586e-15
795	1.27950179395e-20
796	1.7400207219e-15
797	1.49231586773e-20
798	2.53901743337e-15
799	2.06835085478e-20
800	3.91621710739e-15
801	2.78764389309e-20
802	5.48455824588e-15
803	2.98306447629e-20
804	7.10593820163e-15
805	3.12504158711e-20
806	8.77466114573e-15
807	3.02661972753e-20
808	1.0027617819e-14
809	2.74533259564e-20
810	1.14527836886e-14
811	2.72585719302e-20
812	1.38129415993e-14
813	3.12110377616e-20
814	1.67659761761e-14
815	3.99675477404e-20
816	2.0314120511e-14
817	5.25964751666e-20
818	2.4608819255e-14
819	6.7686521493e-20
820	2.85970878669e-14
821	8.77540270975e-20
822	3.18419396291e-14
823	1.08631084887e-19
824	3.65725554129e-14
825	1.42844871021e-19
826	4.2325664536e-14
827	1.89252220096e-19
828	4.78623950883e-14
829	2.29117695217e-19
830	5.32429306472e-14
831	2.46501143041e-19
832	5.95819244284e-14
833	2.80709243257e-19
834	6.44119876596e-14
835	3.13791726638e-19
836	6.79897298418e-14
837	3.4078548692e-19
838	7.12159245407e-14
839	3.79454461261e-19
840	7.63940876181e-14
841	4.56831165303e-19
842	9.01781433762e-14
843	5.93932143976e-19
844	1.11051327348e-13
845	7.50304288599e-19
846	1.23841306993e-13
847	9.13480143214e-19
848	1.29967891451e-13
849	1.03109838808e-18
850	1.27124933269e-13
851	1.19777217632e-18
852	1.25876106973e-13
853	1.35876124748e-18
854	1.2709161025e-13
855	1.46027893167e-18
856	1.43777904508e-13
857	1.53247259126e-18
858	1.52281843518e-13
859	1.41366863202e-18
860	1.73541491056e-13
861	1.45705409924e-18
862	2.08329053871e-13
863	1.66307209289e-18
864	2.53121250068e-13
865	1.89687259942e-18
866	2.93494161469e-13
867	2.40800282316e-18
868	2.96850885922e-13
869	2.64033655091e-18
870	3.17711625784e-13
871	3.29303043177e-18
872	3.79493756717e-13
873	3.91130741441e-18
874	3.52020575013e-13
875	4.23722510311e-18
876	2.93526836977e-13
877	4.53786099029e-18
878	3.15616188387e-13
879	6.37355971959e-18
880	5.29550525924e-13
881	8.3486646108e-18
882	8.30981649191e-13
883	1.05195940406e-17
884	1.10173856396e-12
885	1.23868136174e-17
886	1.0929378987e-12
887	1.21454938884e-17
888	8.34961859603e-13
889	1.29143446318e-17
890	1.07695337849e-12
891	1.58280425874e-17
892	1.66230774478e-12
893	1.91191070273e-17
894	1.9623005311e-12
895	2.32583103221e-17
896	2.39031179979e-12
897	2.50829884299e-17
898	3.20710273114e-12
899	2.78288585479e-17
900	3.48466234544e-12
901	2.75173394371e-17
902	4.44728649513e-12
903	3.33171977208e-17
904	6.02229937373e-12
905	4.35554502319e-17
906	8.05887573308e-12
907	6.36130882493e-17
908	1.02835316934e-11
909	6.52066512351e-17
910	1.1309042353e-11
911	6.94416045528e-17
912	1.2791680487e-11
913	6.61277015069e-17
914	1.15702400328e-11
915	6.80653341516e-17
916	1.46718725041e-11
917	8.0323768901e-17
918	2.18952244411e-11
919	1.11630429222e-16
920	3.13025334743e-11
921	1.60501774916e-16
922	4.06706483888e-11
923	2.34827143213e-16
924	5.70879789684e-11
925	3.13074628361e-16
926	5.51560568829e-11
927	3.27631970851e-16
928	3.90163707761e-11
929	3.17388774271e-16
930	4.21526760236e-11
931	3.10370717182e-16
932	5.11318654114e-11
933	2.87943692259e-16
934	4.47295878848e-11
935	2.84003972888e-16
936	4.63829975147e-11
937	3.19581483483e-16
938	5.87502409085e-11
939	3.93642683546e-16
940	5.91640413509e-11
941	4.78498174034e-16
942	7.38907510777e-11
943	5.63657787889e-16
944	1.04897307573e-10
945	6.48585641992e-16
946	1.42072385869e-10
947	7.22214943679e-16
948	1.13151987803e-10
949	6.71821789022e-16
950	1.05563100241e-10
951	6.52568113965e-16
952	1.3064863199e-10
953	7.19526302851e-16
954	1.44671232882e-10
955	8.56974303884e-16
956	1.82974140757e-10
957	9.48603621808e-16
958	1.84407340966e-10
959	9.7322885459e-16
960	2.06756477177e-10
961	1.20822672208e-15
962	2.8724280205e-10
963	1.80912043595e-15
964	3.86114090057e-10
965	2.75134982133e-15
966	5.05768217203e-10
967	3.50130662209e-15
968	5.97793018081e-10
969	3.6014728882e-15
970	7.97756037017e-10
971	3.37480413415e-15
972	1.10155802188e-09
973	3.43898435756e-15
974	1.13831167715e-09
975	3.86741540029e-15
976	1.18183201751e-09
977	4.47145064625e-15
978	1.27510279296e-09
979	5.14772267125e-15
980	1.46998697303e-09
981	6.33539286687e-15
982	1.97014895904e-09
983	7.22184244175e-15
984	2.87936114325e-09
985	6.76865012398e-15
986	2.81084849575e-09
987	7.28886431201e-15
988	3.73149449049e-09
989	8.10456544517e-15
990	3.31336182022e-09
991	7.5509307726e-15
992	5.36424726818e-09
993	6.22672479723e-15
994	7.46604306963e-09
995	6.54967305327e-15
996	1.00597603909e-08
997	7.82632763924e-15
998	2.0412732602e-08
999	1.49737997168e-14
1000	4.34237717937e-08
1001	3.17393148136e-14
1002	5.16895493799e-08
1003	4.76871257206e-14
1004	8.59369990736e-08
1005	7.32630198829e-14
1006	1.46437972099e-07
1007	7.71017671902e-14
1008	2.04095179058e-07
1009	8.73538905397e-14
1010	5.49403465955e-07
1011	1.13776900824e-13
1012	6.61951742891e-07
1013	1.42772470994e-13
1014	2.06987032549e-06
1015	4.86337142382e-13
1016	5.12493762081e-06
1017	6.25334789729e-13
1018	3.31053906354e-05
1019	4.68406452363e-12
1020	0.000798519514598
1021	3.76505960485e-11
1022	0.0102467744395
1023	1.37657444115e-10
