0	0.88502690683
1	4.34772410687e-12
2	0.0103725191013
3	1.14471169778e-12
4	0.00078731814123
5	1.43796043503e-13
6	2.82626471677e-05
7	1.92146638394e-14
8	5.2964268528e-06
9	1.23984027997e-14
10	1.65740321133e-06
11	7.86959436721e-15
12	1.23907607691e-06
13	5.83231847281e-15
14	5.79751459858e-07
15	2.42762200628e-15
16	1.56851382625e-07
17	2.78387014454e-15
18	1.47888229648e-07
19	2.45225309442e-15
20	1.41744389522e-07
21	1.8361603979e-15
22	7.37666496685e-08
23	1.6400288978e-15
24	4.91939147897e-08
25	1.21371868406e-15
26	2.42327324134e-08
27	9.31912591199e-16
28	1.83624387022e-08
29	8.20317981647e-16
30	1.58831789217e-08
31	6.78204514038e-16
32	2.12637043481e-08
33	6.24051986497e-16
34	1.75400737534e-08
35	5.3552242855e-16
36	1.27820681446e-08
37	5.11922420909e-16
38	9.36928386086e-09
39	4.72797889715e-16
40	8.24624444165e-09
41	4.21795430551e-16
42	7.14167353944e-09
43	3.96899373457e-16
44	5.49385496761e-09
45	3.65864377274e-16
46	3.75264186454e-09
47	3.2633465593e-16
48	2.0944477375e-09
49	2.66381682654e-16
50	1.39943219282e-09
51	2.26556041955e-16
52	1.21698503427e-09
53	2.06644831785e-16
54	1.28541713262e-09
55	1.91663850117e-16
56	9.57464078305e-10
57	1.64811181908e-16
58	9.48428477472e-10
59	1.37610678534e-16
60	8.28373663517e-10
61	1.1503773862e-16
62	7.55089577741e-10
63	9.77141706246e-17
64	7.78298285764e-10
65	8.72321011714e-17
66	8.11939735275e-10
67	8.62652522334e-17
68	6.49395292182e-10
69	7.35599686804e-17
70	5.26302946658e-10
71	7.4991311719e-17
72	4.86310280357e-10
73	7.4567534435e-17
74	4.91728407498e-10
75	6.69314114199e-17
76	4.45718783531e-10
77	6.32099415238e-17
78	3.9446741663e-10
79	5.33448575986e-17
80	3.81193616448e-10
81	5.1411672239e-17
82	3.59404432986e-10
83	4.30078946577e-17
84	3.24212014474e-10
85	4.09491140877e-17
86	2.2025965273e-10
87	2.55701281607e-17
88	1.06007918248e-10
89	1.74236467405e-17
90	8.86112064428e-11
91	1.39874932426e-17
92	6.36538511584e-11
93	1.10924537027e-17
94	5.38039678343e-11
95	9.28871751453e-18
96	4.98367072415e-11
97	8.56375272429e-18
98	4.58505986852e-11
99	8.2706264242e-18
100	4.09705306327e-11
101	7.72725631367e-18
102	3.61543764626e-11
103	7.52736324566e-18
104	3.31990219646e-11
105	7.68184253425e-18
106	2.46103266616e-11
107	7.28750121589e-18
108	1.71308626083e-11
109	7.11411497517e-18
110	1.53058885266e-11
111	7.28948028372e-18
112	1.35159970929e-11
113	6.94131873782e-18
114	1.30172583242e-11
115	6.44147267972e-18
116	1.35280249106e-11
117	5.68375544603e-18
118	1.25571437165e-11
119	4.73056378016e-18
120	1.0106195646e-11
121	3.7331022018e-18
122	7.17659219283e-12
123	2.88988376202e-18
124	5.08469980434e-12
125	2.29922749054e-18
126	4.27825326578e-12
127	1.85731972953e-18
128	4.36814251742e-12
129	1.60951410528e-18
130	4.43861596341e-12
131	1.43054852008e-18
132	4.03003628256e-12
133	1.28986395031e-18
134	3.36741684972e-12
135	1.15427784495e-18
136	2.59754909058e-12
137	9.76539725581e-19
138	1.95541834869e-12
139	8.17476985914e-19
140	1.7459124879e-12
141	7.44288393837e-19
142	1.71400228565e-12
143	6.84940423459e-19
144	1.67352036184e-12
145	6.28037324e-19
146	1.67839535731e-12
147	6.33917030907e-19
148	1.54577632684e-12
149	5.6292836103e-19
150	1.2835486923e-12
151	5.53355434288e-19
152	1.23426344762e-12
153	4.91878281965e-19
154	1.10936760461e-12
155	4.99535321539e-19
156	1.07307743945e-12
157	4.08408622854e-19
158	6.88856077236e-13
159	3.19268264379e-19
160	6.04890214182e-13
161	2.77918793515e-19
162	5.09162367352e-13
163	2.38480890654e-19
164	4.18477801131e-13
165	1.82616424812e-19
166	3.18369082257e-13
167	1.38413428615e-19
168	2.53910230573e-13
169	9.78634642578e-20
170	2.18953523623e-13
171	6.64964150494e-20
172	2.01037227012e-13
173	5.58272299525e-20
174	2.31353653295e-13
175	4.82759981779e-20
176	1.96560858699e-13
177	3.07815373501e-20
178	2.04409834884e-13
179	3.47038190698e-20
180	2.18414966382e-13
181	4.42360488824e-20
182	2.28598682793e-13
183	4.7117747098e-20
184	2.19113109088e-13
185	5.65378269393e-20
186	2.1957510904e-13
187	5.73982969294e-20
188	1.99673373984e-13
189	6.3994420587e-20
190	1.89608055891e-13
191	5.82863922687e-20
192	1.48086880041e-13
193	5.35612668986e-20
194	1.38323702394e-13
195	5.4381643029e-20
196	1.00986593524e-13
197	3.75764331677e-20
198	7.37739638193e-14
199	3.37809818546e-20
200	5.97173328249e-14
201	2.65797210684e-20
202	4.26909654999e-14
203	1.99129410734e-20
204	3.70240502269e-14
205	1.78113120915e-20
206	3.17529076761e-14
207	1.37935448381e-20
208	2.53224958736e-14
209	1.01418911275e-20
210	2.37395118359e-14
211	9.07270082494e-21
212	2.43810188058e-14
213	8.29445818536e-21
214	2.31847725547e-14
215	6.90074357737e-21
216	2.26822168997e-14
217	6.37382297582e-21
218	2.38752523247e-14
219	6.01573938591e-21
220	2.37119774909e-14
221	5.3112704706e-21
222	2.25764939663e-14
223	5.32688783777e-21
224	2.2676134442e-14
225	5.96213295517e-21
226	2.31829129461e-14
227	6.16329980864e-21
228	2.16536331874e-14
229	5.47919007664e-21
230	1.9534342746e-14
231	5.66960981243e-21
232	1.85340415341e-14
233	5.72177807332e-21
234	1.57754814145e-14
235	4.54103435941e-21
236	1.3622790571e-14
237	4.71774918955e-21
238	1.23743187213e-14
239	3.9313550947e-21
240	9.58312067111e-15
241	2.68973270569e-21
242	8.13802139142e-15
243	2.93856931301e-21
244	7.31059165423e-15
245	2.38539872147e-21
246	5.73641487116e-15
247	1.52009322277e-21
248	4.97206190311e-15
249	1.62685775246e-21
250	4.62238801998e-15
251	1.41569098007e-21
252	3.91446417944e-15
253	1.02060682383e-21
254	3.59873148792e-15
255	1.11841138144e-21
256	3.36869567978e-15
257	9.74243803756e-22
258	2.84035650383e-15
259	6.49026707503e-22
260	2.52966860503e-15
261	6.36762602876e-22
262	2.43528021982e-15
263	6.72322353674e-22
264	2.18886121407e-15
265	5.131496807e-22
266	1.87845389332e-15
267	4.43055653374e-22
268	1.76145347e-15
269	5.27809900459e-22
270	1.62561816864e-15
271	4.38279792619e-22
272	1.36418083172e-15
273	3.64954466698e-22
274	1.26665958005e-15
275	4.67511902238e-22
276	1.13187104205e-15
277	3.54654754818e-22
278	8.59744124919e-16
279	2.40136663396e-22
280	7.66823546583e-16
281	2.97658547669e-22
282	6.66614351839e-16
283	2.07432109968e-22
284	4.87063603131e-16
285	1.37669146113e-22
286	4.21298521739e-16
287	1.60530368045e-22
288	3.56308579708e-16
289	1.061802755e-22
290	2.62234966316e-16
291	6.78933810127e-23
292	2.21557437934e-16
293	8.06828150379e-23
294	1.91669646435e-16
295	6.42900983514e-23
296	1.45437825818e-16
297	3.86807832551e-23
298	1.15661507215e-16
299	4.02696077089e-23
300	1.02062613509e-16
301	4.16737869594e-23
302	8.1744739861e-17
303	2.86482651819e-23
304	6.30295432562e-17
305	2.76877245415e-23
306	5.81551812958e-17
307	3.41059408062e-23
308	4.80241091999e-17
309	2.30806187677e-23
310	3.3204089725e-17
311	1.89727806668e-23
312	3.14941376258e-17
313	2.53545686106e-23
314	2.62619162397e-17
315	1.61965793258e-23
316	1.65986662212e-17
317	1.197660099e-23
318	1.56064837787e-17
319	1.4749812417e-23
320	1.27479017692e-17
321	9.43442468253e-24
322	8.57233197568e-18
323	7.56203924218e-24
324	8.70660098977e-18
325	8.75692546087e-24
326	7.86800869622e-18
327	5.93878872996e-24
328	6.21318343766e-18
329	4.41090536647e-24
330	6.5003170043e-18
331	4.86265778772e-24
332	6.74305994323e-18
333	3.76068680493e-24
334	6.47190841186e-18
335	2.89486774392e-24
336	6.78906894418e-18
337	2.92145615576e-24
338	7.12315698983e-18
339	2.48897631372e-24
340	7.20109740107e-18
341	1.98565384909e-24
342	7.35626028775e-18
343	1.87619950712e-24
344	7.55841554386e-18
345	1.7885184673e-24
346	7.57992377221e-18
347	1.45612875926e-24
348	7.43260123595e-18
349	1.28489620636e-24
350	7.36796492852e-18
351	1.27213172225e-24
352	7.19120550948e-18
353	1.05143655125e-24
354	6.92857043145e-18
355	9.60060387276e-25
356	6.65215422366e-18
357	9.55322368228e-25
358	6.2908731558e-18
359	7.80844266014e-25
360	5.91827631477e-18
361	7.27310300983e-25
362	5.59264070789e-18
363	6.59245332691e-25
364	5.16046114403e-18
365	5.37382762978e-25
366	4.76115948873e-18
367	4.84946839391e-25
368	4.38389257557e-18
369	4.1151126809e-25
370	4.0187606828e-18
371	3.57226362292e-25
372	3.65004171529e-18
373	3.07214966644e-25
374	3.29171658234e-18
375	2.62088314554e-25
376	2.96392420342e-18
377	2.23227371758e-25
378	2.67138854288e-18
379	1.9345886213e-25
380	2.38329692357e-18
381	1.75556671249e-25
382	2.10664836909e-18
383	1.57396274519e-25
384	1.86364180375e-18
385	1.31205530675e-25
386	1.65453099628e-18
387	1.22137187979e-25
388	1.45166266988e-18
389	1.06311142241e-25
390	1.26180584591e-18
391	9.65026061707e-26
392	1.09770800915e-18
393	7.74621180354e-26
394	9.60169082625e-19
395	7.27849401039e-26
396	8.30778313187e-19
397	5.95948501329e-26
398	7.11308228539e-19
399	5.61285029234e-26
400	6.07803772113e-19
401	4.59536380151e-26
402	5.26043219795e-19
403	4.73362271982e-26
404	4.48264633843e-19
405	3.64228462268e-26
406	3.77832821424e-19
407	3.08449850025e-26
408	3.19758452209e-19
409	2.88924826258e-26
410	2.72414615638e-19
411	2.37564376351e-26
412	2.29115064904e-19
413	2.06484454365e-26
414	1.91780874857e-19
415	1.82770244756e-26
416	1.59713572902e-19
417	1.50531246804e-26
418	1.34565347637e-19
419	1.35408570025e-26
420	1.12489836232e-19
421	1.13929449164e-26
422	9.33071537562e-20
423	9.90186732077e-27
424	7.63886093194e-20
425	8.43373269686e-27
426	6.44698548085e-20
427	7.55583547635e-27
428	5.31721112685e-20
429	6.48330258231e-27
430	4.40209748094e-20
431	5.16268987723e-27
432	3.55231220981e-20
433	5.142481591e-27
434	3.01290122888e-20
435	4.94140158756e-27
436	2.45402835018e-20
437	3.95541283165e-27
438	2.03405251355e-20
439	3.57250017232e-27
440	1.62712124216e-20
441	3.50269393759e-27
442	1.37238462099e-20
443	3.26205657816e-27
444	1.10960041716e-20
445	2.85107503791e-27
446	9.33605316957e-21
447	2.73813929249e-27
448	7.35984563143e-21
449	2.31873250681e-27
450	6.25636447131e-21
451	2.08693381139e-27
452	5.13667078022e-21
453	2.21802528319e-27
454	4.32253965156e-21
455	1.91347389766e-27
456	3.39334656463e-21
457	1.80406346184e-27
458	2.95183969202e-21
459	1.80775532736e-27
460	2.4238334985e-21
461	1.6955294675e-27
462	2.09025518639e-21
463	1.68351471566e-27
464	1.67213553542e-21
465	1.83861614638e-27
466	1.49197961701e-21
467	1.80247548915e-27
468	1.21513174902e-21
469	1.50349411347e-27
470	1.09776723896e-21
471	1.76985402642e-27
472	8.58710606879e-22
473	2.7609893872e-27
474	7.76207900681e-22
475	1.90593415246e-27
476	6.31658677522e-22
477	2.32042411487e-27
478	6.12084001976e-22
479	2.46882689241e-27
480	4.7239700749e-22
481	2.39314296081e-27
482	4.31517164373e-22
483	1.77025695115e-27
484	3.67291033175e-22
485	3.26986039782e-27
486	3.70680197102e-22
487	2.71779095037e-27
488	3.03403246441e-22
489	2.73815552803e-27
490	2.88346886046e-22
491	2.27581469661e-27
492	2.61744123012e-22
493	2.0945260093e-27
494	2.61423182905e-22
495	2.54069323031e-27
496	2.20429589453e-22
497	3.02117752068e-27
498	2.0540045495e-22
499	3.06675557335e-27
500	1.8710574059e-22
501	3.16393132693e-27
502	1.73670117842e-22
503	3.05988340009e-27
504	1.56943805157e-22
505	5.21567977421e-27
506	1.45800486977e-22
507	5.05498056159e-27
508	1.38281904654e-22
509	5.79956100528e-27
510	1.28827465706e-22
511	1.03866968115e-26
512	1.3639945769e-22
513	1.03866968119e-26
514	1.28827444943e-22
515	5.79956100419e-27
516	1.38281902383e-22
517	5.05498056167e-27
518	1.45800488398e-22
519	5.21567977411e-27
520	1.56943805167e-22
521	3.0598834e-27
522	1.7367011824e-22
523	3.16393132706e-27
524	1.87105740715e-22
525	3.06675557364e-27
526	2.05400454575e-22
527	3.02117752066e-27
528	2.20429589546e-22
529	2.54069323033e-27
530	2.61423179506e-22
531	2.09452600921e-27
532	2.61744122437e-22
533	2.27581469669e-27
534	2.88346884459e-22
535	2.73815552821e-27
536	3.03403246478e-22
537	2.71779095044e-27
538	3.70680197222e-22
539	3.26986039798e-27
540	3.67291033821e-22
541	1.77025695113e-27
542	4.31517159724e-22
543	2.39314296072e-27
544	4.72397007594e-22
545	2.46882689247e-27
546	6.12083993977e-22
547	2.32042411491e-27
548	6.31658675301e-22
549	1.90593415245e-27
550	7.76207901042e-22
551	2.76098938704e-27
552	8.5871060696e-22
553	1.76985402645e-27
554	1.09776724031e-21
555	1.50349411331e-27
556	1.21513174895e-21
557	1.8024754891e-27
558	1.49197961477e-21
559	1.83861614649e-27
560	1.67213553534e-21
561	1.6835147157e-27
562	2.09025518712e-21
563	1.69552946755e-27
564	2.42383349828e-21
565	1.80775532748e-27
566	2.95183968647e-21
567	1.80406346187e-27
568	3.39334656535e-21
569	1.91347389763e-27
570	4.32253965337e-21
571	2.21802528299e-27
572	5.13667077239e-21
573	2.08693381169e-27
574	6.25636444042e-21
575	2.31873250753e-27
576	7.35984563145e-21
577	2.73813929198e-27
578	9.33605317699e-21
579	2.85107503795e-27
580	1.1096004177e-20
581	3.26205657844e-27
582	1.37238462202e-20
583	3.50269393761e-27
584	1.62712124231e-20
585	3.57250017235e-27
586	2.03405251341e-20
587	3.95541283177e-27
588	2.45402834977e-20
589	4.94140158752e-27
590	3.01290123128e-20
591	5.14248159081e-27
592	3.55231220981e-20
593	5.16268987716e-27
594	4.40209747861e-20
595	6.48330258218e-27
596	5.31721112644e-20
597	7.55583547649e-27
598	6.44698548042e-20
599	8.4337326969e-27
600	7.63886093156e-20
601	9.90186732091e-27
602	9.33071537465e-20
603	1.13929449167e-26
604	1.1248983623e-19
605	1.35408570021e-26
606	1.34565347708e-19
607	1.50531246807e-26
608	1.59713572902e-19
609	1.8277024476e-26
610	1.91780874795e-19
611	2.0648445437e-26
612	2.29115064882e-19
613	2.37564376354e-26
614	2.72414615632e-19
615	2.88924826249e-26
616	3.19758452209e-19
617	3.08449850024e-26
618	3.77832821423e-19
619	3.64228462267e-26
620	4.4826463384e-19
621	4.73362271975e-26
622	5.26043219817e-19
623	4.5953638015e-26
624	6.07803772114e-19
625	5.61285029246e-26
626	7.1130822864e-19
627	5.95948501331e-26
628	8.30778313214e-19
629	7.27849401034e-26
630	9.60169082622e-19
631	7.74621180345e-26
632	1.09770800916e-18
633	9.65026061714e-26
634	1.26180584592e-18
635	1.06311142239e-25
636	1.45166266998e-18
637	1.22137187978e-25
638	1.65453099655e-18
639	1.31205530677e-25
640	1.86364180375e-18
641	1.57396274513e-25
642	2.10664836901e-18
643	1.75556671247e-25
644	2.38329692351e-18
645	1.9345886213e-25
646	2.67138854289e-18
647	2.23227371757e-25
648	2.96392420344e-18
649	2.62088314556e-25
650	3.29171658237e-18
651	3.07214966646e-25
652	3.65004171535e-18
653	3.57226362291e-25
654	4.01876068267e-18
655	4.11511268094e-25
656	4.38389257557e-18
657	4.84946839391e-25
658	4.76115948889e-18
659	5.37382762978e-25
660	5.160461144e-18
661	6.59245332691e-25
662	5.59264070765e-18
663	7.27310300982e-25
664	5.91827631478e-18
665	7.80844266014e-25
666	6.29087315577e-18
667	9.55322368226e-25
668	6.65215422366e-18
669	9.60060387279e-25
670	6.92857043133e-18
671	1.05143655125e-24
672	7.19120550948e-18
673	1.27213172226e-24
674	7.36796492846e-18
675	1.28489620636e-24
676	7.43260123597e-18
677	1.45612875926e-24
678	7.57992377213e-18
679	1.7885184673e-24
680	7.55841554385e-18
681	1.87619950712e-24
682	7.35626028794e-18
683	1.98565384909e-24
684	7.20109740097e-18
685	2.48897631372e-24
686	7.12315699026e-18
687	2.92145615576e-24
688	6.78906894417e-18
689	2.89486774391e-24
690	6.47190841173e-18
691	3.76068680493e-24
692	6.74305994322e-18
693	4.86265778772e-24
694	6.50031700403e-18
695	4.41090536647e-24
696	6.21318343767e-18
697	5.93878872996e-24
698	7.86800869583e-18
699	8.75692546087e-24
700	8.70660098969e-18
701	7.56203924218e-24
702	8.5723319758e-18
703	9.43442468255e-24
704	1.27479017692e-17
705	1.47498124171e-23
706	1.56064837791e-17
707	1.197660099e-23
708	1.65986662205e-17
709	1.61965793258e-23
710	2.62619162394e-17
711	2.53545686106e-23
712	3.14941376258e-17
713	1.89727806668e-23
714	3.3204089725e-17
715	2.30806187677e-23
716	4.80241091997e-17
717	3.41059408062e-23
718	5.81551812952e-17
719	2.76877245415e-23
720	6.30295432562e-17
721	2.86482651819e-23
722	8.17447398624e-17
723	4.16737869594e-23
724	1.0206261351e-16
725	4.02696077089e-23
726	1.15661507214e-16
727	3.86807832551e-23
728	1.45437825818e-16
729	6.42900983514e-23
730	1.91669646435e-16
731	8.06828150379e-23
732	2.21557437935e-16
733	6.78933810127e-23
734	2.62234966314e-16
735	1.061802755e-22
736	3.56308579708e-16
737	1.60530368045e-22
738	4.21298521739e-16
739	1.37669146113e-22
740	4.8706360313e-16
741	2.07432109968e-22
742	6.66614351839e-16
743	2.97658547669e-22
744	7.66823546583e-16
745	2.40136663396e-22
746	8.59744124919e-16
747	3.54654754818e-22
748	1.13187104205e-15
749	4.67511902238e-22
750	1.26665958005e-15
751	3.64954466698e-22
752	1.36418083172e-15
753	4.38279792619e-22
754	1.62561816864e-15
755	5.27809900459e-22
756	1.76145347e-15
757	4.43055653374e-22
758	1.87845389332e-15
759	5.131496807e-22
760	2.18886121407e-15
761	6.72322353674e-22
762	2.43528021981e-15
763	6.36762602876e-22
764	2.52966860503e-15
765	6.49026707504e-22
766	2.84035650382e-15
767	9.74243803755e-22
768	3.36869567978e-15
769	1.11841138144e-21
770	3.59873148788e-15
771	1.02060682383e-21
772	3.91446417942e-15
773	1.41569098007e-21
774	4.62238801999e-15
775	1.62685775247e-21
776	4.9720619031e-15
777	1.52009322277e-21
778	5.73641487116e-15
779	2.38539872147e-21
780	7.31059165424e-15
781	2.93856931301e-21
782	8.13802139141e-15
783	2.68973270569e-21
784	9.58312067111e-15
785	3.9313550947e-21
786	1.23743187213e-14
787	4.71774918955e-21
788	1.3622790571e-14
789	4.54103435941e-21
790	1.57754814145e-14
791	5.72177807332e-21
792	1.85340415341e-14
793	5.66960981243e-21
794	1.9534342746e-14
795	5.47919007664e-21
796	2.16536331874e-14
797	6.16329980864e-21
798	2.31829129461e-14
799	5.96213295517e-21
800	2.2676134442e-14
801	5.32688783777e-21
802	2.25764939663e-14
803	5.3112704706e-21
804	2.37119774909e-14
805	6.01573938591e-21
806	2.38752523246e-14
807	6.37382297582e-21
808	2.26822168997e-14
809	6.90074357737e-21
810	2.31847725547e-14
811	8.29445818536e-21
812	2.43810188058e-14
813	9.07270082494e-21
814	2.37395118359e-14
815	1.01418911275e-20
816	2.53224958736e-14
817	1.37935448381e-20
818	3.1752907676e-14
819	1.78113120915e-20
820	3.70240502269e-14
821	1.99129410734e-20
822	4.26909654999e-14
823	2.65797210684e-20
824	5.97173328249e-14
825	3.37809818546e-20
826	7.37739638194e-14
827	3.75764331677e-20
828	1.00986593524e-13
829	5.4381643029e-20
830	1.38323702394e-13
831	5.35612668986e-20
832	1.48086880041e-13
833	5.82863922687e-20
834	1.89608055891e-13
835	6.3994420587e-20
836	1.99673373984e-13
837	5.73982969294e-20
838	2.1957510904e-13
839	5.65378269393e-20
840	2.19113109088e-13
841	4.7117747098e-20
842	2.28598682793e-13
843	4.42360488824e-20
844	2.18414966382e-13
845	3.47038190698e-20
846	2.04409834884e-13
847	3.07815373501e-20
848	1.96560858699e-13
849	4.82759981779e-20
850	2.31353653295e-13
851	5.58272299525e-20
852	2.01037227012e-13
853	6.64964150494e-20
854	2.18953523623e-13
855	9.78634642578e-20
856	2.53910230573e-13
857	1.38413428615e-19
858	3.18369082257e-13
859	1.82616424812e-19
860	4.18477801131e-13
861	2.38480890654e-19
862	5.09162367352e-13
863	2.77918793515e-19
864	6.04890214182e-13
865	3.19268264379e-19
866	6.88856077236e-13
867	4.08408622854e-19
868	1.07307743945e-12
869	4.99535321539e-19
870	1.10936760461e-12
871	4.91878281965e-19
872	1.23426344762e-12
873	5.53355434288e-19
874	1.2835486923e-12
875	5.6292836103e-19
876	1.54577632684e-12
877	6.33917030907e-19
878	1.67839535731e-12
879	6.28037324e-19
880	1.67352036184e-12
881	6.84940423459e-19
882	1.71400228565e-12
883	7.44288393837e-19
884	1.7459124879e-12
885	8.17476985914e-19
886	1.95541834869e-12
887	9.76539725581e-19
888	2.59754909058e-12
889	1.15427784495e-18
890	3.36741684972e-12
891	1.28986395031e-18
892	4.03003628256e-12
893	1.43054852008e-18
894	4.43861596341e-12
895	1.60951410528e-18
896	4.36814251742e-12
897	1.85731972953e-18
898	4.27825326578e-12
899	2.29922749054e-18
900	5.08469980434e-12
901	2.88988376202e-18
902	7.17659219283e-12
903	3.7331022018e-18
904	1.0106195646e-11
905	4.73056378016e-18
906	1.25571437165e-11
907	5.68375544603e-18
908	1.35280249106e-11
909	6.44147267972e-18
910	1.30172583242e-11
911	6.94131873782e-18
912	1.35159970929e-11
913	7.28948028372e-18
914	1.53058885266e-11
915	7.11411497517e-18
916	1.71308626083e-11
917	7.28750121589e-18
918	2.46103266616e-11
919	7.68184253425e-18
920	3.31990219646e-11
921	7.52736324566e-18
922	3.61543764626e-11
923	7.72725631367e-18
924	4.09705306327e-11
925	8.2706264242e-18
926	4.58505986852e-11
927	8.56375272429e-18
928	4.98367072415e-11
929	9.28871751453e-18
930	5.38039678343e-11
931	1.10924537027e-17
932	6.36538511584e-11
933	1.39874932426e-17
934	8.86112064428e-11
935	1.74236467405e-17
936	1.06007918248e-10
937	2.55701281607e-17
938	2.2025965273e-10
939	4.09491140877e-17
940	3.24212014474e-10
941	4.30078946577e-17
942	3.59404432986e-10
943	5.1411672239e-17
944	3.81193616448e-10
945	5.33448575986e-17
946	3.9446741663e-10
947	6.32099415238e-17
948	4.45718783531e-10
949	6.69314114199e-17
950	4.91728407498e-10
951	7.4567534435e-17
952	4.86310280357e-10
953	7.4991311719e-17
954	5.26302946658e-10
955	7.35599686804e-17
956	6.49395292182e-10
957	8.62652522334e-17
958	8.11939735275e-10
959	8.72321011714e-17
960	7.78298285764e-10
961	9.77141706246e-17
962	7.55089577741e-10
963	1.1503773862e-16
964	8.28373663517e-10
965	1.37610678534e-16
966	9.48428477472e-10
967	1.64811181908e-16
968	9.57464078305e-10
969	1.91663850117e-16
970	1.28541713262e-09
971	2.06644831785e-16
972	1.21698503427e-09
973	2.26556041955e-16
974	1.39943219282e-09
975	2.66381682654e-16
976	2.0944477375e-09
977	3.2633465593e-16
978	3.75264186454e-09
979	3.65864377274e-16
980	5.49385496761e-09
981	3.96899373457e-16
982	7.14167353944e-09
983	4.21795430551e-16
984	8.24624444165e-09
985	4.72797889715e-16
986	9.36928386086e-09
987	5.11922420909e-16
988	1.27820681446e-08
989	5.3552242855e-16
990	1.75400737534e-08
991	6.24051986497e-16
992	2.12637043481e-08
993	6.78204514038e-16
994	1.58831789217e-08
995	8.20317981647e-16
996	1.83624387022e-08
997	9.31912591199e-16
998	2.42327324134e-08
999	1.21371868406e-15
1000	4.91939147897e-08
1001	1.6400288978e-15
1002	7.37666496685e-08
1003	1.8361603979e-15
1004	1.41744389522e-07
1005	2.45225309442e-15
1006	1.47888229648e-07
1007	2.78387014454e-15
1008	1.56851382625e-07
1009	2.42762200628e-15
1010	5.79751459858e-07
1011	5.83231847281e-15
1012	1.23907607691e-06
1013	7.86959436721e-15
1014	1.65740321133e-06
1015	1.23984027997e-14
1016	5.2964268528e-06
1017	1.92146638394e-14
1018	2.82626471677e-05
1019	1.43796043503e-13
1020	0.00078731814123
1021	1.14471169778e-12
1022	0.0103725191013
1023	4.34772410687e-12
