0	0.882611830544
1	4.66449621352e-11
2	0.0102797285734
3	1.23993251475e-11
4	0.000844426765406
5	1.66249009898e-12
6	2.8860966529e-05
7	2.12091443193e-13
8	5.11555084571e-06
9	1.63939789786e-13
10	1.86034382543e-06
11	8.35947203813e-14
12	7.82939027109e-07
13	4.91204218759e-14
14	5.42226283328e-07
15	2.7375140354e-14
16	1.93621819009e-07
17	1.61045159847e-14
18	1.36378572394e-07
19	8.86693232737e-15
20	6.74144169506e-08
21	8.55454849586e-15
22	3.59387051259e-08
23	8.84668573332e-15
24	5.16716137217e-08
25	9.17614802956e-15
26	4.11389412362e-08
27	5.92307777532e-15
28	1.69420203657e-08
29	5.12345812493e-15
30	9.34417269797e-09
31	4.54232488532e-15
32	9.66615509617e-09
33	4.00016105693e-15
34	8.79965215194e-09
35	3.3117005827e-15
36	6.42923382869e-09
37	2.84877830429e-15
38	4.29196563695e-09
39	2.44580169874e-15
40	3.92471274018e-09
41	2.03160365712e-15
42	3.200238351e-09
43	1.66151659144e-15
44	2.31777193204e-09
45	1.47220310845e-15
46	2.2445700321e-09
47	1.3057589101e-15
48	2.00577668863e-09
49	1.14791006888e-15
50	1.97569853459e-09
51	9.74807024141e-16
52	1.56868235607e-09
53	8.45791995875e-16
54	1.08347245303e-09
55	7.32314298376e-16
56	7.359977828e-10
57	6.83554069475e-16
58	5.54812856137e-10
59	6.32896118039e-16
60	4.26100654534e-10
61	6.07450539819e-16
62	2.98377145364e-10
63	5.61397132034e-16
64	2.51994568359e-10
65	5.27109038082e-16
66	3.53239874974e-10
67	4.65565644569e-16
68	4.10077468804e-10
69	3.8234835881e-16
70	2.82160974135e-10
71	3.24352841385e-16
72	1.53120642463e-10
73	2.9461786731e-16
74	1.52191216711e-10
75	2.9870271528e-16
76	1.82092715326e-10
77	3.0245535944e-16
78	1.24613735027e-10
79	2.96604864836e-16
80	1.21689216676e-10
81	2.93500509714e-16
82	1.2562325351e-10
83	2.88664151335e-16
84	1.19878047653e-10
85	2.83342240429e-16
86	1.13539314285e-10
87	2.54939013326e-16
88	9.22884925891e-11
89	2.1067188627e-16
90	8.1329145175e-11
91	1.75485505475e-16
92	7.11421135189e-11
93	1.43700695346e-16
94	4.92558855417e-11
95	1.05811291008e-16
96	2.96620585447e-11
97	7.75587944315e-17
98	2.92071876316e-11
99	6.96816364514e-17
100	2.49038050478e-11
101	5.47904982469e-17
102	1.79063776652e-11
103	4.35989145199e-17
104	1.49012743179e-11
105	4.05734133587e-17
106	1.29920485784e-11
107	3.74190684585e-17
108	1.24945229018e-11
109	3.60969164571e-17
110	1.27225093788e-11
111	3.50838959497e-17
112	1.1485961361e-11
113	3.44946161651e-17
114	1.04300807227e-11
115	3.45575931348e-17
116	1.11819057372e-11
117	3.30344292593e-17
118	1.12633918251e-11
119	2.92919352609e-17
120	9.44892066866e-12
121	2.71257340834e-17
122	6.59075791371e-12
123	2.3467266921e-17
124	4.27476405951e-12
125	2.04146989966e-17
126	3.52653367723e-12
127	1.88672315114e-17
128	3.19008079289e-12
129	1.75633621547e-17
130	3.17376197037e-12
131	1.66966192097e-17
132	2.98577437549e-12
133	1.49906182515e-17
134	2.64416249504e-12
135	1.40586631004e-17
136	2.3916454162e-12
137	1.22504970673e-17
138	2.1019138016e-12
139	1.0996802734e-17
140	1.99500560419e-12
141	9.44511735348e-18
142	1.82366280571e-12
143	8.24808917057e-18
144	1.64399713008e-12
145	7.0795675667e-18
146	1.63677117757e-12
147	6.49331014075e-18
148	1.51159113543e-12
149	5.19146427658e-18
150	1.40351505499e-12
151	4.66925277154e-18
152	1.23795210061e-12
153	3.62697428167e-18
154	1.04097273231e-12
155	3.0400932108e-18
156	7.7573615653e-13
157	2.4622420542e-18
158	6.17597656187e-13
159	2.08069890825e-18
160	5.4748499556e-13
161	1.94521369979e-18
162	5.49282074727e-13
163	1.5976538288e-18
164	4.41847159113e-13
165	1.4276454738e-18
166	3.49284864958e-13
167	1.07422268964e-18
168	2.15599475249e-13
169	9.15165500013e-19
170	1.81779254534e-13
171	7.42349433287e-19
172	1.67626220192e-13
173	8.02011478112e-19
174	1.5844083769e-13
175	5.79685491916e-19
176	1.26334829438e-13
177	5.73096288654e-19
178	1.13785676938e-13
179	3.84023159e-19
180	8.72329668291e-14
181	3.24736861597e-19
182	7.84688124579e-14
183	2.34714209158e-19
184	7.14137794853e-14
185	2.16949512203e-19
186	6.53361398378e-14
187	1.72375232141e-19
188	6.532087903e-14
189	1.77725283545e-19
190	5.91150723169e-14
191	1.5791521347e-19
192	6.34681085497e-14
193	1.68762715776e-19
194	5.60282926085e-14
195	1.15290967261e-19
196	5.15815823374e-14
197	1.13744552168e-19
198	4.18751969616e-14
199	8.33267920654e-20
200	3.6260460092e-14
201	7.69509751106e-20
202	3.11469238191e-14
203	7.02916018445e-20
204	2.98021274611e-14
205	6.0852644869e-20
206	2.58463046355e-14
207	5.44334895216e-20
208	2.27479397306e-14
209	4.47054697923e-20
210	1.70734148741e-14
211	3.59242360653e-20
212	1.41970030689e-14
213	2.78727818523e-20
214	1.09920526607e-14
215	2.1605315616e-20
216	9.49042194729e-15
217	1.78671764862e-20
218	8.45562775807e-15
219	1.96529594618e-20
220	7.84559149393e-15
221	1.63077821523e-20
222	7.17561944215e-15
223	2.03592964201e-20
224	6.5603267001e-15
225	1.40658121278e-20
226	5.23210647641e-15
227	1.24053363998e-20
228	4.69882003811e-15
229	9.07056820186e-21
230	3.84952980359e-15
231	6.83529598111e-21
232	3.50743974011e-15
233	5.38549343965e-21
234	3.20788859318e-15
235	4.92476605603e-21
236	2.93063433354e-15
237	4.19253224949e-21
238	2.67128072944e-15
239	4.68508501083e-21
240	2.54009211936e-15
241	3.51315126075e-21
242	2.42027213392e-15
243	3.60456781604e-21
244	2.28164554467e-15
245	2.40930351539e-21
246	2.13542931842e-15
247	1.88450178076e-21
248	2.07366571088e-15
249	1.40749757833e-21
250	1.91675282943e-15
251	1.22430614634e-21
252	1.7444018503e-15
253	1.17132106937e-21
254	1.5957135242e-15
255	1.2313285459e-21
256	1.3857442376e-15
257	1.07626609348e-21
258	1.18395251843e-15
259	1.17758509949e-21
260	9.90262277983e-16
261	8.56941271146e-22
262	8.08039791137e-16
263	7.99695924785e-22
264	6.32728998183e-16
265	5.652637847e-22
266	4.86979453107e-16
267	4.6198711717e-22
268	3.80965137128e-16
269	3.71666068967e-22
270	3.06212684751e-16
271	3.25192788616e-22
272	2.51296247003e-16
273	2.74897497538e-22
274	2.1963056775e-16
275	2.59383567677e-22
276	1.97489659336e-16
277	1.76693618748e-22
278	1.87851450996e-16
279	1.5936578805e-22
280	1.82421776587e-16
281	1.01080238082e-22
282	1.80618913118e-16
283	8.33202887108e-23
284	1.81131260863e-16
285	6.61164860279e-23
286	1.81548984526e-16
287	6.39273640733e-23
288	1.7885432447e-16
289	6.83781444143e-23
290	1.73361208483e-16
291	7.17334072762e-23
292	1.63593560062e-16
293	7.11373355292e-23
294	1.49220246194e-16
295	7.2582855154e-23
296	1.30365831664e-16
297	6.26717587769e-23
298	1.11896009761e-16
299	5.97825722214e-23
300	9.35426406216e-17
301	5.16867014198e-23
302	7.55459270994e-17
303	4.74872323264e-23
304	5.96472358398e-17
305	4.18179531908e-23
306	4.68908817327e-17
307	3.71376190791e-23
308	3.66911507238e-17
309	3.24238784298e-23
310	2.9106513684e-17
311	2.72634773521e-23
312	2.36953954917e-17
313	2.27444592768e-23
314	1.98313567869e-17
315	1.79774903437e-23
316	1.70952121081e-17
317	1.46621594073e-23
318	1.51845926478e-17
319	1.14223590805e-23
320	1.3618946292e-17
321	9.35122630709e-24
322	1.22243056494e-17
323	7.61281574529e-24
324	1.06858179091e-17
325	5.75957634028e-24
326	9.26128788939e-18
327	4.78412942703e-24
328	7.9816500685e-18
329	3.57471486378e-24
330	6.86394589631e-18
331	2.97443999208e-24
332	5.87361881282e-18
333	2.43928424787e-24
334	5.08641089108e-18
335	2.08834312925e-24
336	4.48813146569e-18
337	1.93436245875e-24
338	4.01821322118e-18
339	1.667906659e-24
340	3.63867337851e-18
341	1.52908368883e-24
342	3.3560026818e-18
343	1.44829118863e-24
344	3.08640256558e-18
345	1.31405313485e-24
346	2.81917464152e-18
347	1.36756639096e-24
348	2.55445901461e-18
349	1.40931491952e-24
350	2.30095589484e-18
351	1.50429848545e-24
352	2.04654293597e-18
353	1.579200964e-24
354	1.79155177238e-18
355	1.50262257222e-24
356	1.5489810973e-18
357	1.47102206245e-24
358	1.32157872458e-18
359	1.25727628393e-24
360	1.11389175494e-18
361	1.0742500745e-24
362	9.31911076703e-19
363	8.94415334733e-25
364	7.74216291776e-19
365	7.22797360852e-25
366	6.41068114372e-19
367	5.69496193691e-25
368	5.34083493816e-19
369	4.80463311684e-25
370	4.50787043089e-19
371	3.91941240214e-25
372	3.90479479533e-19
373	3.38978411243e-25
374	3.48070455672e-19
375	2.55364576055e-25
376	3.20894163012e-19
377	2.21037949539e-25
378	3.0466091021e-19
379	1.70838459928e-25
380	2.95240273867e-19
381	1.37083369041e-25
382	2.89440306569e-19
383	1.11942453078e-25
384	2.83593647036e-19
385	1.07289763041e-25
386	2.7366718678e-19
387	9.38209007215e-26
388	2.5965712364e-19
389	9.47305779419e-26
390	2.4082398371e-19
391	9.7117734361e-26
392	2.18754426498e-19
393	9.30457813296e-26
394	1.93569044403e-19
395	8.26353702689e-26
396	1.67815143538e-19
397	8.34954486363e-26
398	1.41921539208e-19
399	7.88234741069e-26
400	1.18362404451e-19
401	7.34419174859e-26
402	9.76416957199e-20
403	6.76975739363e-26
404	8.03082575732e-20
405	5.90311415013e-26
406	6.5834133227e-20
407	5.25901717351e-26
408	5.47630497367e-20
409	4.34104068615e-26
410	4.60837418288e-20
411	3.78520056706e-26
412	3.9633778489e-20
413	3.12132300241e-26
414	3.47053856193e-20
415	2.53551177504e-26
416	3.10118407992e-20
417	2.10898620672e-26
418	2.79785523686e-20
419	1.7382720151e-26
420	2.55118288805e-20
421	1.4823403067e-26
422	2.32800166671e-20
423	1.24286505879e-26
424	2.12640545108e-20
425	1.05108890279e-26
426	1.92807292188e-20
427	9.40580964472e-27
428	1.74063652886e-20
429	8.42025674423e-27
430	1.5534497741e-20
431	7.05433234234e-27
432	1.37877966539e-20
433	5.7696899781e-27
434	1.20240048804e-20
435	5.95727071141e-27
436	1.04426187281e-20
437	5.39978612385e-27
438	8.89137238513e-21
439	4.93996621288e-27
440	7.54299390853e-21
441	4.46741744251e-27
442	6.30363373421e-21
443	4.77619685631e-27
444	5.24288356244e-21
445	4.02098250818e-27
446	4.33492596924e-21
447	4.35399962413e-27
448	3.58978540084e-21
449	3.45975088043e-27
450	2.97965567644e-21
451	3.36469426558e-27
452	2.48713791914e-21
453	3.44494360225e-27
454	2.09909843696e-21
455	3.0963279443e-27
456	1.79666427024e-21
457	3.08891248605e-27
458	1.55116390792e-21
459	2.85701404406e-27
460	1.36537034048e-21
461	2.33433820754e-27
462	1.20166797256e-21
463	2.40157110293e-27
464	1.0627787126e-21
465	2.12359210438e-27
466	9.22662020457e-22
467	2.04728282357e-27
468	8.0913114394e-22
469	2.03641793039e-27
470	7.13329028951e-22
471	2.27523231011e-27
472	6.22299729359e-22
473	3.16356499185e-27
474	5.46179509604e-22
475	2.55982367653e-27
476	4.83564157967e-22
477	2.71080557844e-27
478	4.32127109266e-22
479	2.86778038059e-27
480	3.70874126071e-22
481	2.79395556014e-27
482	3.23500886262e-22
483	2.17164836492e-27
484	2.77626244222e-22
485	3.73167708416e-27
486	2.48601360954e-22
487	3.1154300423e-27
488	2.19885966632e-22
489	2.98669627655e-27
490	2.04143318245e-22
491	2.41140348574e-27
492	1.83547889085e-22
493	2.40174057155e-27
494	1.69217925697e-22
495	3.22610244947e-27
496	1.57459809178e-22
497	3.23443526066e-27
498	1.51001059191e-22
499	3.3892611719e-27
500	1.43819502841e-22
501	3.46430817451e-27
502	1.38466482925e-22
503	3.27056895077e-27
504	1.32860536021e-22
505	5.29496449731e-27
506	1.29465911777e-22
507	5.21016706658e-27
508	1.27744446267e-22
509	6.21396334062e-27
510	1.2594447005e-22
511	1.08935402157e-26
512	1.24804064997e-22
513	1.08935402149e-26
514	1.25944462494e-22
515	6.21396333829e-27
516	1.27744438624e-22
517	5.21016706661e-27
518	1.29465913602e-22
519	5.29496449679e-27
520	1.32860536435e-22
521	3.27056895018e-27
522	1.38466482588e-22
523	3.46430817481e-27
524	1.43819501875e-22
525	3.38926117198e-27
526	1.51001059932e-22
527	3.23443526083e-27
528	1.57459809311e-22
529	3.22610244975e-27
530	1.69217928646e-22
531	2.40174057162e-27
532	1.8354788888e-22
533	2.41140348581e-27
534	2.04143318023e-22
535	2.98669627637e-27
536	2.19885966558e-22
537	3.11543004199e-27
538	2.48601362665e-22
539	3.73167708385e-27
540	2.77626244821e-22
541	2.17164836523e-27
542	3.23500881151e-22
543	2.79395555974e-27
544	3.70874126092e-22
545	2.86778037986e-27
546	4.32127112704e-22
547	2.71080557854e-27
548	4.83564158884e-22
549	2.55982367738e-27
550	5.46179509967e-22
551	3.16356499144e-27
552	6.22299729258e-22
553	2.27523230993e-27
554	7.13329027451e-22
555	2.03641793052e-27
556	8.09131144553e-22
557	2.04728282345e-27
558	9.22662024264e-22
559	2.12359210387e-27
560	1.06277871261e-21
561	2.40157110348e-27
562	1.20166797851e-21
563	2.33433820757e-27
564	1.3653703414e-21
565	2.85701404417e-27
566	1.55116390471e-21
567	3.08891248622e-27
568	1.7966642699e-21
569	3.09632794406e-27
570	2.09909843622e-21
571	3.44494360125e-27
572	2.48713791572e-21
573	3.36469426552e-27
574	2.97965568459e-21
575	3.45975088465e-27
576	3.58978540085e-21
577	4.35399962588e-27
578	4.33492597078e-21
579	4.0209825079e-27
580	5.24288356325e-21
581	4.77619685645e-27
582	6.30363373341e-21
583	4.46741744178e-27
584	7.54299390866e-21
585	4.93996621226e-27
586	8.8913723848e-21
587	5.39978612377e-27
588	1.04426187287e-20
589	5.95727071128e-27
590	1.20240048893e-20
591	5.76968997807e-27
592	1.37877966539e-20
593	7.05433234209e-27
594	1.55344977228e-20
595	8.42025674496e-27
596	1.74063652855e-20
597	9.40580964489e-27
598	1.92807292195e-20
599	1.05108890281e-26
600	2.12640545106e-20
601	1.24286505885e-26
602	2.32800166696e-20
603	1.48234030674e-26
604	2.55118288833e-20
605	1.73827201512e-26
606	2.79785523774e-20
607	2.10898620657e-26
608	3.10118407992e-20
609	2.53551177502e-26
610	3.47053855911e-20
611	3.12132300232e-26
612	3.96337784891e-20
613	3.78520056709e-26
614	4.60837418199e-20
615	4.34104068609e-26
616	5.47630497362e-20
617	5.25901717347e-26
618	6.58341332189e-20
619	5.90311415021e-26
620	8.03082575765e-20
621	6.76975739323e-26
622	9.76416957127e-20
623	7.34419174835e-26
624	1.1836240445e-19
625	7.88234741057e-26
626	1.41921539251e-19
627	8.34954486319e-26
628	1.67815143527e-19
629	8.2635370268e-26
630	1.93569044417e-19
631	9.30457813275e-26
632	2.18754426506e-19
633	9.71177343577e-26
634	2.40823983708e-19
635	9.47305779381e-26
636	2.59657123642e-19
637	9.38209007204e-26
638	2.73667186773e-19
639	1.07289763051e-25
640	2.83593647036e-19
641	1.1194245307e-25
642	2.89440306278e-19
643	1.37083369048e-25
644	2.95240273873e-19
645	1.70838459929e-25
646	3.04660910212e-19
647	2.21037949542e-25
648	3.2089416301e-19
649	2.55364576059e-25
650	3.48070455699e-19
651	3.38978411245e-25
652	3.90479479494e-19
653	3.91941240218e-25
654	4.50787043142e-19
655	4.80463311685e-25
656	5.34083493816e-19
657	5.69496193691e-25
658	6.41068114383e-19
659	7.22797360864e-25
660	7.74216291863e-19
661	8.94415334734e-25
662	9.31911076724e-19
663	1.07425007451e-24
664	1.11389175494e-18
665	1.25727628394e-24
666	1.32157872455e-18
667	1.47102206245e-24
668	1.54898109731e-18
669	1.50262257221e-24
670	1.79155177262e-18
671	1.57920096401e-24
672	2.04654293597e-18
673	1.50429848544e-24
674	2.3009558949e-18
675	1.40931491953e-24
676	2.5544590146e-18
677	1.36756639097e-24
678	2.81917464143e-18
679	1.31405313485e-24
680	3.0864025656e-18
681	1.44829118862e-24
682	3.35600268178e-18
683	1.52908368883e-24
684	3.63867337854e-18
685	1.66790665899e-24
686	4.01821322103e-18
687	1.93436245878e-24
688	4.48813146569e-18
689	2.08834312927e-24
690	5.08641089121e-18
691	2.43928424788e-24
692	5.87361881277e-18
693	2.97443999209e-24
694	6.86394589658e-18
695	3.57471486379e-24
696	7.98165006851e-18
697	4.78412942704e-24
698	9.26128788959e-18
699	5.75957634026e-24
700	1.06858179094e-17
701	7.6128157452e-24
702	1.22243056483e-17
703	9.3512263072e-24
704	1.3618946292e-17
705	1.14223590804e-23
706	1.51845926494e-17
707	1.46621594073e-23
708	1.70952121076e-17
709	1.79774903437e-23
710	1.9831356787e-17
711	2.27444592768e-23
712	2.36953954916e-17
713	2.7263477352e-23
714	2.91065136848e-17
715	3.24238784299e-23
716	3.66911507241e-17
717	3.71376190791e-23
718	4.68908817333e-17
719	4.18179531907e-23
720	5.96472358399e-17
721	4.74872323264e-23
722	7.55459271006e-17
723	5.16867014197e-23
724	9.35426406217e-17
725	5.97825722214e-23
726	1.11896009761e-16
727	6.26717587769e-23
728	1.30365831663e-16
729	7.2582855154e-23
730	1.49220246195e-16
731	7.11373355292e-23
732	1.63593560062e-16
733	7.17334072761e-23
734	1.73361208486e-16
735	6.83781444143e-23
736	1.7885432447e-16
737	6.39273640733e-23
738	1.81548984525e-16
739	6.61164860279e-23
740	1.81131260863e-16
741	8.33202887109e-23
742	1.80618913117e-16
743	1.01080238082e-22
744	1.82421776587e-16
745	1.5936578805e-22
746	1.87851450997e-16
747	1.76693618748e-22
748	1.97489659335e-16
749	2.59383567677e-22
750	2.1963056775e-16
751	2.74897497537e-22
752	2.51296247003e-16
753	3.25192788616e-22
754	3.06212684747e-16
755	3.71666068967e-22
756	3.80965137129e-16
757	4.61987117171e-22
758	4.86979453109e-16
759	5.652637847e-22
760	6.32728998183e-16
761	7.99695924784e-22
762	8.08039791137e-16
763	8.56941271146e-22
764	9.90262277984e-16
765	1.17758509949e-21
766	1.18395251845e-15
767	1.07626609348e-21
768	1.3857442376e-15
769	1.2313285459e-21
770	1.59571352419e-15
771	1.17132106937e-21
772	1.74440185029e-15
773	1.22430614634e-21
774	1.91675282943e-15
775	1.40749757833e-21
776	2.07366571088e-15
777	1.88450178076e-21
778	2.13542931842e-15
779	2.40930351539e-21
780	2.28164554467e-15
781	3.60456781604e-21
782	2.42027213392e-15
783	3.51315126075e-21
784	2.54009211936e-15
785	4.68508501083e-21
786	2.67128072944e-15
787	4.19253224949e-21
788	2.93063433354e-15
789	4.92476605603e-21
790	3.20788859319e-15
791	5.38549343965e-21
792	3.50743974011e-15
793	6.8352959811e-21
794	3.84952980359e-15
795	9.07056820186e-21
796	4.69882003811e-15
797	1.24053363998e-20
798	5.23210647641e-15
799	1.40658121278e-20
800	6.5603267001e-15
801	2.03592964201e-20
802	7.17561944213e-15
803	1.63077821523e-20
804	7.84559149393e-15
805	1.96529594618e-20
806	8.45562775808e-15
807	1.78671764862e-20
808	9.49042194729e-15
809	2.1605315616e-20
810	1.09920526607e-14
811	2.78727818523e-20
812	1.41970030689e-14
813	3.59242360653e-20
814	1.70734148741e-14
815	4.47054697923e-20
816	2.27479397306e-14
817	5.44334895216e-20
818	2.58463046355e-14
819	6.0852644869e-20
820	2.98021274611e-14
821	7.02916018445e-20
822	3.11469238191e-14
823	7.69509751106e-20
824	3.6260460092e-14
825	8.33267920654e-20
826	4.18751969616e-14
827	1.13744552168e-19
828	5.15815823373e-14
829	1.15290967261e-19
830	5.60282926085e-14
831	1.68762715776e-19
832	6.34681085497e-14
833	1.5791521347e-19
834	5.91150723171e-14
835	1.77725283545e-19
836	6.532087903e-14
837	1.72375232141e-19
838	6.53361398378e-14
839	2.16949512203e-19
840	7.14137794853e-14
841	2.34714209158e-19
842	7.84688124579e-14
843	3.24736861597e-19
844	8.72329668291e-14
845	3.84023159e-19
846	1.13785676938e-13
847	5.73096288654e-19
848	1.26334829438e-13
849	5.79685491916e-19
850	1.5844083769e-13
851	8.02011478112e-19
852	1.67626220192e-13
853	7.42349433287e-19
854	1.81779254534e-13
855	9.15165500013e-19
856	2.15599475249e-13
857	1.07422268964e-18
858	3.49284864958e-13
859	1.4276454738e-18
860	4.41847159113e-13
861	1.5976538288e-18
862	5.49282074727e-13
863	1.94521369979e-18
864	5.4748499556e-13
865	2.08069890825e-18
866	6.17597656187e-13
867	2.4622420542e-18
868	7.7573615653e-13
869	3.0400932108e-18
870	1.04097273231e-12
871	3.62697428167e-18
872	1.23795210061e-12
873	4.66925277154e-18
874	1.40351505499e-12
875	5.19146427658e-18
876	1.51159113543e-12
877	6.49331014075e-18
878	1.63677117757e-12
879	7.0795675667e-18
880	1.64399713008e-12
881	8.24808917057e-18
882	1.82366280571e-12
883	9.44511735348e-18
884	1.99500560419e-12
885	1.0996802734e-17
886	2.1019138016e-12
887	1.22504970673e-17
888	2.3916454162e-12
889	1.40586631004e-17
890	2.64416249504e-12
891	1.49906182515e-17
892	2.98577437549e-12
893	1.66966192097e-17
894	3.17376197037e-12
895	1.75633621547e-17
896	3.19008079289e-12
897	1.88672315114e-17
898	3.52653367723e-12
899	2.04146989966e-17
900	4.27476405951e-12
901	2.3467266921e-17
902	6.59075791371e-12
903	2.71257340834e-17
904	9.44892066866e-12
905	2.92919352609e-17
906	1.12633918251e-11
907	3.30344292593e-17
908	1.11819057372e-11
909	3.45575931348e-17
910	1.04300807227e-11
911	3.44946161651e-17
912	1.1485961361e-11
913	3.50838959497e-17
914	1.27225093788e-11
915	3.60969164571e-17
916	1.24945229018e-11
917	3.74190684585e-17
918	1.29920485784e-11
919	4.05734133587e-17
920	1.49012743179e-11
921	4.35989145199e-17
922	1.79063776652e-11
923	5.47904982469e-17
924	2.49038050478e-11
925	6.96816364514e-17
926	2.92071876316e-11
927	7.75587944315e-17
928	2.96620585447e-11
929	1.05811291008e-16
930	4.92558855416e-11
931	1.43700695346e-16
932	7.11421135189e-11
933	1.75485505475e-16
934	8.1329145175e-11
935	2.1067188627e-16
936	9.22884925891e-11
937	2.54939013326e-16
938	1.13539314285e-10
939	2.83342240429e-16
940	1.19878047653e-10
941	2.88664151335e-16
942	1.2562325351e-10
943	2.93500509714e-16
944	1.21689216676e-10
945	2.96604864836e-16
946	1.24613735027e-10
947	3.0245535944e-16
948	1.82092715326e-10
949	2.9870271528e-16
950	1.52191216711e-10
951	2.9461786731e-16
952	1.53120642463e-10
953	3.24352841385e-16
954	2.82160974135e-10
955	3.8234835881e-16
956	4.10077468804e-10
957	4.65565644569e-16
958	3.53239874974e-10
959	5.27109038082e-16
960	2.51994568359e-10
961	5.61397132034e-16
962	2.98377145364e-10
963	6.07450539819e-16
964	4.26100654534e-10
965	6.32896118039e-16
966	5.54812856137e-10
967	6.83554069475e-16
968	7.359977828e-10
969	7.32314298376e-16
970	1.08347245303e-09
971	8.45791995875e-16
972	1.56868235607e-09
973	9.74807024141e-16
974	1.97569853459e-09
975	1.14791006888e-15
976	2.00577668863e-09
977	1.3057589101e-15
978	2.2445700321e-09
979	1.47220310845e-15
980	2.31777193204e-09
981	1.66151659144e-15
982	3.200238351e-09
983	2.03160365712e-15
984	3.92471274018e-09
985	2.44580169874e-15
986	4.29196563695e-09
987	2.84877830429e-15
988	6.42923382869e-09
989	3.3117005827e-15
990	8.79965215194e-09
991	4.00016105693e-15
992	9.66615509617e-09
993	4.54232488532e-15
994	9.34417269797e-09
995	5.12345812493e-15
996	1.69420203657e-08
997	5.92307777532e-15
998	4.11389412362e-08
999	9.17614802956e-15
1000	5.16716137217e-08
1001	8.84668573332e-15
1002	3.59387051259e-08
1003	8.55454849586e-15
1004	6.74144169506e-08
1005	8.86693232737e-15
1006	1.36378572394e-07
1007	1.61045159847e-14
1008	1.93621819009e-07
1009	2.7375140354e-14
1010	5.42226283328e-07
1011	4.91204218759e-14
1012	7.82939027109e-07
1013	8.35947203813e-14
1014	1.86034382543e-06
1015	1.63939789786e-13
1016	5.11555084571e-06
1017	2.12091443193e-13
1018	2.8860966529e-05
1019	1.66249009898e-12
1020	0.000844426765406
1021	1.23993251475e-11
1022	0.0102797285734
1023	4.66449621352e-11
