0	0.888445989331
1	2.79867380592e-18
2	0.0103039494338
3	9.71235704326e-19
4	0.000974506501579
5	7.29694301392e-19
6	1.67898564719e-05
7	4.44291767239e-19
8	2.23373600985e-05
9	7.1431775322e-19
10	2.80647473621e-05
11	4.85154534818e-19
12	7.26963635871e-06
13	2.97544946829e-19
14	5.65863418041e-06
15	3.5474536746e-19
16	3.94511993604e-06
17	2.59621612568e-19
18	3.21458504493e-06
19	3.00087004549e-19
20	2.85146250902e-06
21	2.12614917244e-19
22	1.60764730174e-06
23	1.32071619659e-19
24	1.35266106096e-06
25	9.90617314185e-20
26	9.90300601793e-07
27	6.89285037448e-20
28	5.54890663772e-07
29	8.80736385197e-20
30	4.44003465224e-07
31	6.71232948551e-20
32	6.42510103851e-07
33	6.6371400424e-20
34	4.75442737714e-07
35	6.11274713292e-20
36	4.56840238117e-07
37	5.69562814568e-20
38	4.20977560262e-07
39	6.85279697104e-20
40	1.71794117384e-07
41	5.52810511672e-20
42	2.83172529777e-07
43	4.75412951958e-20
44	2.17064496537e-07
45	3.6627906057e-20
46	8.02111432599e-08
47	2.13178044897e-20
48	6.66460107673e-08
49	1.84151425423e-20
50	3.64170894165e-08
51	1.68741814188e-20
52	3.04951582591e-08
53	1.68122482043e-20
54	3.33937799248e-08
55	1.78228571733e-20
56	2.69842723614e-08
57	1.22865274783e-20
58	1.97248618062e-08
59	9.38171534936e-21
60	1.28405615149e-08
61	7.56081550486e-21
62	9.01982257113e-09
63	7.28098548069e-21
64	9.26793395618e-09
65	8.11238781243e-21
66	8.61386349813e-09
67	1.00748230368e-20
68	1.01530853886e-08
69	7.15553208458e-21
70	9.83666799205e-09
71	5.89990314448e-21
72	6.93355501376e-09
73	6.92938126922e-21
74	5.55365886655e-09
75	4.8226670677e-21
76	1.97280020091e-09
77	3.73784948631e-21
78	3.17845746277e-09
79	5.19962061494e-21
80	3.4420368689e-09
81	5.14760782102e-21
82	4.34107368298e-09
83	7.19924888512e-21
84	6.11868336841e-09
85	7.87872687592e-21
86	5.99467145941e-09
87	6.19576484015e-21
88	4.68504249243e-09
89	5.32253219999e-21
90	3.55737804404e-09
91	4.41389026973e-21
92	3.29104343371e-09
93	4.97464182066e-21
94	2.15983690249e-09
95	5.01652634707e-21
96	2.20587481389e-09
97	4.88638993407e-21
98	2.85424445379e-09
99	4.39772480584e-21
100	1.95029795309e-09
101	2.57422752122e-21
102	1.44202799169e-09
103	2.45141056529e-21
104	1.64991427e-09
105	2.39551921097e-21
106	1.24229742565e-09
107	1.86495115266e-21
108	1.00734125369e-09
109	2.64721263042e-21
110	1.06197684949e-09
111	2.76037232654e-21
112	1.30017225026e-09
113	1.66011119108e-21
114	1.04494286518e-09
115	1.42933145158e-21
116	7.32029060764e-10
117	1.36197081352e-21
118	8.29283662564e-10
119	1.46166723587e-21
120	5.44223139805e-10
121	1.16667140174e-21
122	4.38503166079e-10
123	1.21628333227e-21
124	5.55476037835e-10
125	1.40729645656e-21
126	4.17322472977e-10
127	9.83013251155e-22
128	5.06394919655e-10
129	1.46902860449e-21
130	7.47778671992e-10
131	1.53809267401e-21
132	4.62919928334e-10
133	9.2949314931e-22
134	3.53244549102e-10
135	1.13318693652e-21
136	4.0088667129e-10
137	1.32116587191e-21
138	2.87585507513e-10
139	9.64203459959e-22
140	3.25002363323e-10
141	1.06956208597e-21
142	2.96333067452e-10
143	9.57230837712e-22
144	2.09736435311e-10
145	6.29420172089e-22
146	1.78387147813e-10
147	8.29061340538e-22
148	2.25599655939e-10
149	7.57357396399e-22
150	1.6567365926e-10
151	5.8885150717e-22
152	1.60583933248e-10
153	7.93649482176e-22
154	1.69116187928e-10
155	7.65229341157e-22
156	1.50480032286e-10
157	5.02991312551e-22
158	1.56619213111e-10
159	6.38147206088e-22
160	1.27575545361e-10
161	5.46091156082e-22
162	1.34066814301e-10
163	5.19243791949e-22
164	1.03320258751e-10
165	5.53465850847e-22
166	1.27591626196e-10
167	4.58551471984e-22
168	1.09927065854e-10
169	4.65944497701e-22
170	8.44078762786e-11
171	3.92440543295e-22
172	9.11074550209e-11
173	4.95544450488e-22
174	8.47241322202e-11
175	3.60566640535e-22
176	8.0161202183e-11
177	3.65711209092e-22
178	7.82491080216e-11
179	4.28201627673e-22
180	7.89913026343e-11
181	3.68789104962e-22
182	5.1674342747e-11
183	3.57194385593e-22
184	6.95684203457e-11
185	3.20494522615e-22
186	5.61881564884e-11
187	2.80217336141e-22
188	4.42379663068e-11
189	2.51644782718e-22
190	4.91948476634e-11
191	3.33286122248e-22
192	4.20745303966e-11
193	2.19725611776e-22
194	4.33108473759e-11
195	2.48237332273e-22
196	3.81281327987e-11
197	2.35024059419e-22
198	3.4130611386e-11
199	1.82090352505e-22
200	2.20908511897e-11
201	2.11729658457e-22
202	3.10512194978e-11
203	1.7351300913e-22
204	2.48945859646e-11
205	1.84788723386e-22
206	2.45031897958e-11
207	1.56523626148e-22
208	2.53279381088e-11
209	1.84520118718e-22
210	2.12277161279e-11
211	1.31172445708e-22
212	2.51810210457e-11
213	1.38201048056e-22
214	1.71022880049e-11
215	1.31540857774e-22
216	1.80183485124e-11
217	1.13609560232e-22
218	1.40205929265e-11
219	1.2962689498e-22
220	1.73553618963e-11
221	9.35030521659e-23
222	1.60132658836e-11
223	1.02568172888e-22
224	1.10165175429e-11
225	7.30472837653e-23
226	9.86589349059e-12
227	9.37620595384e-23
228	8.91853615673e-12
229	7.64751968982e-23
230	1.1072861801e-11
231	6.99646746188e-23
232	7.32588725741e-12
233	6.21440293259e-23
234	7.62499261982e-12
235	5.38800195121e-23
236	5.67970018457e-12
237	7.33270291933e-23
238	8.0938993011e-12
239	5.1025745148e-23
240	7.5213027688e-12
241	5.89320398831e-23
242	4.15883245158e-12
243	3.24946942026e-23
244	3.95870313662e-12
245	3.95856243421e-23
246	2.99930041763e-12
247	4.1777944274e-23
248	5.09010724915e-12
249	3.07776917919e-23
250	3.32582161185e-12
251	3.16251645283e-23
252	2.42984029754e-12
253	1.99671762527e-23
254	1.84891659428e-12
255	2.85783305421e-23
256	2.39698887795e-12
257	2.07796848213e-23
258	2.8103548977e-12
259	2.06355086589e-23
260	1.55406196517e-12
261	1.46000691073e-23
262	1.58656119461e-12
263	1.72902036927e-23
264	1.24467862284e-12
265	1.95577893531e-23
266	1.93955971042e-12
267	1.2949451572e-23
268	1.39898197818e-12
269	1.15364674633e-23
270	7.85544571774e-13
271	6.74949797151e-24
272	6.93140905917e-13
273	1.06768607847e-23
274	7.80841108768e-13
275	9.00233666809e-24
276	9.15764642621e-13
277	6.9675747139e-24
278	4.76435916545e-13
279	4.60265026537e-24
280	3.96591188861e-13
281	5.5455897279e-24
282	4.40477035285e-13
283	6.61504890646e-24
284	6.38572716903e-13
285	5.00127971981e-24
286	4.70369200058e-13
287	4.64876224538e-24
288	3.02232970312e-13
289	3.31223154226e-24
290	2.39312212418e-13
291	4.48396545557e-24
292	3.33174341578e-13
293	4.22303382873e-24
294	4.07101955402e-13
295	3.50433908386e-24
296	2.6664369247e-13
297	3.08502935571e-24
298	2.36846261948e-13
299	3.5694354316e-24
300	2.30493064422e-13
301	3.04354171274e-24
302	2.49994152448e-13
303	2.66601203413e-24
304	1.96554456151e-13
305	2.52984961622e-24
306	1.74518308341e-13
307	2.9415350949e-24
308	1.79726910992e-13
309	3.45070322567e-24
310	2.38797389117e-13
311	2.62925693837e-24
312	2.00419594156e-13
313	2.47467507924e-24
314	1.29329882621e-13
315	1.93086629499e-24
316	1.19257687878e-13
317	2.56024236579e-24
318	1.31399975204e-13
319	2.43908596524e-24
320	1.78558917836e-13
321	2.09440885355e-24
322	1.28324414556e-13
323	1.91026092825e-24
324	1.04940310704e-13
325	1.76931817196e-24
326	9.36839321924e-14
327	2.04305031173e-24
328	1.25430678876e-13
329	1.67166845572e-24
330	1.27293421909e-13
331	1.78986283154e-24
332	8.38336477816e-14
333	1.33720666699e-24
334	7.36616571208e-14
335	1.55549764758e-24
336	6.56520289524e-14
337	1.50824644988e-24
338	1.04486870874e-13
339	1.24313237116e-24
340	8.51282917891e-14
341	1.34039318756e-24
342	5.72572508099e-14
343	8.61646652947e-25
344	4.36795599938e-14
345	1.04387270207e-24
346	4.506970034e-14
347	9.17630042813e-25
348	6.87152770872e-14
349	9.30320183719e-25
350	5.00603510797e-14
351	8.51347100705e-25
352	3.8398014901e-14
353	6.26722033575e-25
354	2.73346306795e-14
355	7.08555662497e-25
356	3.68007880469e-14
357	5.74934034192e-25
358	4.25660262766e-14
359	6.57817961583e-25
360	2.64130413761e-14
361	4.61974015825e-25
362	2.07094959831e-14
363	4.07386285284e-25
364	1.51909330088e-14
365	4.58740047739e-25
366	2.58821958711e-14
367	3.62882781313e-25
368	2.43554805606e-14
369	3.94856645627e-25
370	1.36295577556e-14
371	2.39466381691e-25
372	1.03724158183e-14
373	2.52573497085e-25
374	9.63517552297e-15
375	2.7448779933e-25
376	1.57844152748e-14
377	2.33050999653e-25
378	1.21948809239e-14
379	2.05334186742e-25
380	7.33718168176e-15
381	1.33469854398e-25
382	5.83099845063e-15
383	1.73049472337e-25
384	7.26555958788e-15
385	1.61413810598e-25
386	9.31003886498e-15
387	1.4153574905e-25
388	5.37042295379e-15
389	1.03089935708e-25
390	3.58538336886e-15
391	7.94347318201e-26
392	3.12086964899e-15
393	1.14516176483e-25
394	4.58852380963e-15
395	8.95247865639e-26
396	4.89807196896e-15
397	7.61839986424e-26
398	2.46425610027e-15
399	5.42918509073e-26
400	1.92793091825e-15
401	5.09447829905e-26
402	1.85436786198e-15
403	6.56728275555e-26
404	2.59530918983e-15
405	4.6078130613e-26
406	2.20335548266e-15
407	4.10798443543e-26
408	1.24159155982e-15
409	3.32170051882e-26
410	1.13159494145e-15
411	3.72044821162e-26
412	1.17241717992e-15
413	3.64971954814e-26
414	1.41575115205e-15
415	2.61402185638e-26
416	9.55298200009e-16
417	2.43837054765e-26
418	6.61509711513e-16
419	2.12278249081e-26
420	5.81659132746e-16
421	2.53463524122e-26
422	6.29448199244e-16
423	1.87191626041e-26
424	6.76655444569e-16
425	1.72120249714e-26
426	4.73536340959e-16
427	1.71803633381e-26
428	4.02227717862e-16
429	1.57803213639e-26
430	3.24708593236e-16
431	1.57764612412e-26
432	3.3054227381e-16
433	1.267769961e-26
434	2.89964797682e-16
435	1.32558956446e-26
436	2.49169107718e-16
437	1.34627014865e-26
438	2.2951017187e-16
439	1.35033785705e-26
440	2.06364174322e-16
441	1.19308892013e-26
442	1.90156390115e-16
443	1.15095582278e-26
444	1.46136346692e-16
445	1.10560796143e-26
446	1.36109388237e-16
447	1.14582680257e-26
448	1.25941869962e-16
449	1.11671570875e-26
450	1.30845381483e-16
451	1.04046794837e-26
452	1.10107993523e-16
453	1.1241965316e-26
454	9.50186627425e-17
455	1.10253746076e-26
456	8.38699136382e-17
457	1.08883362514e-26
458	8.81231031759e-17
459	1.02020858663e-26
460	8.24228476108e-17
461	1.07869174409e-26
462	6.52787963556e-17
463	1.08715753689e-26
464	6.04540374727e-17
465	1.07684871049e-26
466	5.71155771448e-17
467	1.06721183299e-26
468	6.67303095725e-17
469	1.04099079217e-26
470	5.02771585921e-17
471	1.11239706982e-26
472	4.20194291022e-17
473	1.15267926084e-26
474	3.65635463091e-17
475	1.13270327107e-26
476	4.34331881536e-17
477	1.10201135597e-26
478	4.46760706906e-17
479	1.14304285624e-26
480	3.03433480716e-17
481	1.18861007293e-26
482	2.5996435033e-17
483	1.12247003567e-26
484	2.36288825641e-17
485	1.22659106712e-26
486	3.2994874049e-17
487	1.22571058413e-26
488	2.67521240898e-17
489	1.22388806313e-26
490	1.97432770697e-17
491	1.2425883683e-26
492	1.480332052e-17
493	1.21119761357e-26
494	1.62832384583e-17
495	1.21945206081e-26
496	2.15070457789e-17
497	1.28078948192e-26
498	1.59672526087e-17
499	1.19851825297e-26
500	1.50377583316e-17
501	1.24920812586e-26
502	1.09274703628e-17
503	1.35831388106e-26
504	1.26853777558e-17
505	1.59463852995e-26
506	1.25912091617e-17
507	1.54750431799e-26
508	1.08774336341e-17
509	1.53950093021e-26
510	1.27313399032e-17
511	1.91504914172e-26
512	1.07471779224e-17
513	1.91504914172e-26
514	1.27313399025e-17
515	1.53950093021e-26
516	1.08774336337e-17
517	1.54750431799e-26
518	1.25912091617e-17
519	1.59463852995e-26
520	1.26853777557e-17
521	1.35831388106e-26
522	1.09274703629e-17
523	1.24920812586e-26
524	1.50377583316e-17
525	1.19851825297e-26
526	1.59672526088e-17
527	1.28078948192e-26
528	2.15070457788e-17
529	1.21945206081e-26
530	1.62832384586e-17
531	1.21119761357e-26
532	1.48033205199e-17
533	1.2425883683e-26
534	1.97432770698e-17
535	1.22388806313e-26
536	2.67521240898e-17
537	1.22571058413e-26
538	3.29948740495e-17
539	1.22659106712e-26
540	2.36288825642e-17
541	1.12247003567e-26
542	2.59964350326e-17
543	1.18861007293e-26
544	3.03433480716e-17
545	1.14304285624e-26
546	4.467607069e-17
547	1.10201135597e-26
548	4.34331881538e-17
549	1.13270327107e-26
550	3.65635463088e-17
551	1.15267926084e-26
552	4.20194291023e-17
553	1.11239706982e-26
554	5.02771585922e-17
555	1.04099079217e-26
556	6.67303095726e-17
557	1.06721183299e-26
558	5.71155771452e-17
559	1.07684871049e-26
560	6.04540374726e-17
561	1.08715753689e-26
562	6.52787963555e-17
563	1.07869174409e-26
564	8.24228476106e-17
565	1.02020858663e-26
566	8.81231031772e-17
567	1.08883362514e-26
568	8.38699136382e-17
569	1.10253746076e-26
570	9.50186627427e-17
571	1.1241965316e-26
572	1.10107993523e-16
573	1.04046794837e-26
574	1.3084538148e-16
575	1.11671570875e-26
576	1.25941869962e-16
577	1.14582680257e-26
578	1.36109388234e-16
579	1.10560796143e-26
580	1.46136346692e-16
581	1.15095582278e-26
582	1.90156390115e-16
583	1.19308892013e-26
584	2.06364174321e-16
585	1.35033785705e-26
586	2.2951017187e-16
587	1.34627014865e-26
588	2.49169107718e-16
589	1.32558956446e-26
590	2.89964797681e-16
591	1.267769961e-26
592	3.3054227381e-16
593	1.57764612412e-26
594	3.24708593239e-16
595	1.57803213639e-26
596	4.02227717862e-16
597	1.71803633381e-26
598	4.73536340958e-16
599	1.72120249714e-26
600	6.76655444569e-16
601	1.87191626041e-26
602	6.29448199243e-16
603	2.53463524122e-26
604	5.81659132748e-16
605	2.12278249081e-26
606	6.61509711517e-16
607	2.43837054765e-26
608	9.55298200009e-16
609	2.61402185638e-26
610	1.41575115205e-15
611	3.64971954814e-26
612	1.17241717992e-15
613	3.72044821162e-26
614	1.13159494145e-15
615	3.32170051882e-26
616	1.24159155982e-15
617	4.10798443543e-26
618	2.20335548266e-15
619	4.6078130613e-26
620	2.59530918983e-15
621	6.56728275555e-26
622	1.85436786198e-15
623	5.09447829905e-26
624	1.92793091825e-15
625	5.42918509073e-26
626	2.46425610027e-15
627	7.61839986424e-26
628	4.89807196896e-15
629	8.95247865639e-26
630	4.58852380963e-15
631	1.14516176483e-25
632	3.12086964899e-15
633	7.94347318201e-26
634	3.58538336886e-15
635	1.03089935708e-25
636	5.3704229538e-15
637	1.4153574905e-25
638	9.31003886501e-15
639	1.61413810598e-25
640	7.26555958788e-15
641	1.73049472337e-25
642	5.83099845064e-15
643	1.33469854398e-25
644	7.33718168177e-15
645	2.05334186742e-25
646	1.21948809239e-14
647	2.33050999653e-25
648	1.57844152748e-14
649	2.7448779933e-25
650	9.63517552297e-15
651	2.52573497085e-25
652	1.03724158183e-14
653	2.39466381691e-25
654	1.36295577556e-14
655	3.94856645627e-25
656	2.43554805606e-14
657	3.62882781313e-25
658	2.58821958711e-14
659	4.58740047739e-25
660	1.51909330088e-14
661	4.07386285284e-25
662	2.07094959831e-14
663	4.61974015825e-25
664	2.64130413761e-14
665	6.57817961583e-25
666	4.25660262766e-14
667	5.74934034192e-25
668	3.68007880469e-14
669	7.08555662497e-25
670	2.73346306795e-14
671	6.26722033575e-25
672	3.8398014901e-14
673	8.51347100705e-25
674	5.00603510796e-14
675	9.30320183719e-25
676	6.87152770872e-14
677	9.17630042813e-25
678	4.506970034e-14
679	1.04387270207e-24
680	4.36795599938e-14
681	8.61646652947e-25
682	5.72572508099e-14
683	1.34039318756e-24
684	8.51282917891e-14
685	1.24313237116e-24
686	1.04486870874e-13
687	1.50824644988e-24
688	6.56520289524e-14
689	1.55549764758e-24
690	7.36616571208e-14
691	1.33720666699e-24
692	8.38336477816e-14
693	1.78986283154e-24
694	1.27293421909e-13
695	1.67166845572e-24
696	1.25430678876e-13
697	2.04305031173e-24
698	9.36839321924e-14
699	1.76931817196e-24
700	1.04940310704e-13
701	1.91026092825e-24
702	1.28324414556e-13
703	2.09440885355e-24
704	1.78558917836e-13
705	2.43908596524e-24
706	1.31399975204e-13
707	2.56024236579e-24
708	1.19257687878e-13
709	1.93086629499e-24
710	1.29329882621e-13
711	2.47467507924e-24
712	2.00419594156e-13
713	2.62925693837e-24
714	2.38797389117e-13
715	3.45070322567e-24
716	1.79726910992e-13
717	2.9415350949e-24
718	1.74518308341e-13
719	2.52984961622e-24
720	1.96554456151e-13
721	2.66601203413e-24
722	2.49994152448e-13
723	3.04354171274e-24
724	2.30493064422e-13
725	3.5694354316e-24
726	2.36846261948e-13
727	3.08502935571e-24
728	2.6664369247e-13
729	3.50433908386e-24
730	4.07101955402e-13
731	4.22303382873e-24
732	3.33174341578e-13
733	4.48396545557e-24
734	2.39312212418e-13
735	3.31223154226e-24
736	3.02232970312e-13
737	4.64876224538e-24
738	4.70369200058e-13
739	5.00127971981e-24
740	6.38572716903e-13
741	6.61504890646e-24
742	4.40477035285e-13
743	5.5455897279e-24
744	3.96591188861e-13
745	4.60265026537e-24
746	4.76435916545e-13
747	6.9675747139e-24
748	9.15764642621e-13
749	9.00233666809e-24
750	7.80841108767e-13
751	1.06768607847e-23
752	6.93140905917e-13
753	6.74949797151e-24
754	7.85544571774e-13
755	1.15364674633e-23
756	1.39898197818e-12
757	1.2949451572e-23
758	1.93955971042e-12
759	1.95577893531e-23
760	1.24467862284e-12
761	1.72902036927e-23
762	1.58656119461e-12
763	1.46000691073e-23
764	1.55406196517e-12
765	2.06355086589e-23
766	2.8103548977e-12
767	2.07796848213e-23
768	2.39698887795e-12
769	2.85783305421e-23
770	1.84891659428e-12
771	1.99671762527e-23
772	2.42984029754e-12
773	3.16251645283e-23
774	3.32582161185e-12
775	3.07776917919e-23
776	5.09010724915e-12
777	4.1777944274e-23
778	2.99930041763e-12
779	3.95856243421e-23
780	3.95870313662e-12
781	3.24946942026e-23
782	4.15883245158e-12
783	5.89320398831e-23
784	7.5213027688e-12
785	5.1025745148e-23
786	8.0938993011e-12
787	7.33270291933e-23
788	5.67970018457e-12
789	5.38800195121e-23
790	7.62499261982e-12
791	6.21440293259e-23
792	7.32588725741e-12
793	6.99646746188e-23
794	1.1072861801e-11
795	7.64751968982e-23
796	8.91853615673e-12
797	9.37620595384e-23
798	9.86589349059e-12
799	7.30472837653e-23
800	1.10165175429e-11
801	1.02568172888e-22
802	1.60132658836e-11
803	9.35030521659e-23
804	1.73553618963e-11
805	1.2962689498e-22
806	1.40205929265e-11
807	1.13609560232e-22
808	1.80183485124e-11
809	1.31540857774e-22
810	1.71022880049e-11
811	1.38201048056e-22
812	2.51810210457e-11
813	1.31172445708e-22
814	2.12277161279e-11
815	1.84520118718e-22
816	2.53279381088e-11
817	1.56523626148e-22
818	2.45031897958e-11
819	1.84788723386e-22
820	2.48945859646e-11
821	1.7351300913e-22
822	3.10512194978e-11
823	2.11729658457e-22
824	2.20908511897e-11
825	1.82090352505e-22
826	3.4130611386e-11
827	2.35024059419e-22
828	3.81281327987e-11
829	2.48237332273e-22
830	4.33108473759e-11
831	2.19725611776e-22
832	4.20745303966e-11
833	3.33286122248e-22
834	4.91948476634e-11
835	2.51644782718e-22
836	4.42379663068e-11
837	2.80217336141e-22
838	5.61881564884e-11
839	3.20494522615e-22
840	6.95684203457e-11
841	3.57194385593e-22
842	5.1674342747e-11
843	3.68789104962e-22
844	7.89913026343e-11
845	4.28201627673e-22
846	7.82491080216e-11
847	3.65711209092e-22
848	8.0161202183e-11
849	3.60566640535e-22
850	8.47241322202e-11
851	4.95544450488e-22
852	9.11074550209e-11
853	3.92440543295e-22
854	8.44078762786e-11
855	4.65944497701e-22
856	1.09927065854e-10
857	4.58551471984e-22
858	1.27591626196e-10
859	5.53465850847e-22
860	1.03320258751e-10
861	5.19243791949e-22
862	1.34066814301e-10
863	5.46091156082e-22
864	1.27575545361e-10
865	6.38147206088e-22
866	1.56619213111e-10
867	5.02991312551e-22
868	1.50480032286e-10
869	7.65229341157e-22
870	1.69116187928e-10
871	7.93649482176e-22
872	1.60583933248e-10
873	5.8885150717e-22
874	1.6567365926e-10
875	7.57357396399e-22
876	2.25599655939e-10
877	8.29061340538e-22
878	1.78387147813e-10
879	6.29420172089e-22
880	2.09736435311e-10
881	9.57230837712e-22
882	2.96333067452e-10
883	1.06956208597e-21
884	3.25002363323e-10
885	9.64203459959e-22
886	2.87585507513e-10
887	1.32116587191e-21
888	4.0088667129e-10
889	1.13318693652e-21
890	3.53244549102e-10
891	9.2949314931e-22
892	4.62919928334e-10
893	1.53809267401e-21
894	7.47778671992e-10
895	1.46902860449e-21
896	5.06394919655e-10
897	9.83013251155e-22
898	4.17322472977e-10
899	1.40729645656e-21
900	5.55476037835e-10
901	1.21628333227e-21
902	4.38503166079e-10
903	1.16667140174e-21
904	5.44223139805e-10
905	1.46166723587e-21
906	8.29283662564e-10
907	1.36197081352e-21
908	7.32029060764e-10
909	1.42933145158e-21
910	1.04494286518e-09
911	1.66011119108e-21
912	1.30017225026e-09
913	2.76037232654e-21
914	1.06197684949e-09
915	2.64721263042e-21
916	1.00734125369e-09
917	1.86495115266e-21
918	1.24229742565e-09
919	2.39551921097e-21
920	1.64991427e-09
921	2.45141056529e-21
922	1.44202799169e-09
923	2.57422752122e-21
924	1.95029795309e-09
925	4.39772480584e-21
926	2.85424445379e-09
927	4.88638993407e-21
928	2.20587481389e-09
929	5.01652634707e-21
930	2.15983690249e-09
931	4.97464182066e-21
932	3.29104343371e-09
933	4.41389026973e-21
934	3.55737804404e-09
935	5.32253219999e-21
936	4.68504249243e-09
937	6.19576484015e-21
938	5.99467145941e-09
939	7.87872687592e-21
940	6.11868336841e-09
941	7.19924888512e-21
942	4.34107368298e-09
943	5.14760782102e-21
944	3.4420368689e-09
945	5.19962061494e-21
946	3.17845746277e-09
947	3.73784948631e-21
948	1.97280020091e-09
949	4.8226670677e-21
950	5.55365886655e-09
951	6.92938126922e-21
952	6.93355501376e-09
953	5.89990314448e-21
954	9.83666799205e-09
955	7.15553208458e-21
956	1.01530853886e-08
957	1.00748230368e-20
958	8.61386349813e-09
959	8.11238781243e-21
960	9.26793395618e-09
961	7.28098548069e-21
962	9.01982257113e-09
963	7.56081550486e-21
964	1.28405615149e-08
965	9.38171534936e-21
966	1.97248618062e-08
967	1.22865274783e-20
968	2.69842723614e-08
969	1.78228571733e-20
970	3.33937799248e-08
971	1.68122482043e-20
972	3.04951582591e-08
973	1.68741814188e-20
974	3.64170894165e-08
975	1.84151425423e-20
976	6.66460107673e-08
977	2.13178044897e-20
978	8.02111432599e-08
979	3.6627906057e-20
980	2.17064496537e-07
981	4.75412951958e-20
982	2.83172529777e-07
983	5.52810511672e-20
984	1.71794117384e-07
985	6.85279697104e-20
986	4.20977560262e-07
987	5.69562814568e-20
988	4.56840238117e-07
989	6.11274713292e-20
990	4.75442737714e-07
991	6.6371400424e-20
992	6.42510103851e-07
993	6.71232948551e-20
994	4.44003465224e-07
995	8.80736385197e-20
996	5.54890663772e-07
997	6.89285037448e-20
998	9.90300601793e-07
999	9.90617314185e-20
1000	1.35266106096e-06
1001	1.32071619659e-19
1002	1.60764730174e-06
1003	2.12614917244e-19
1004	2.85146250902e-06
1005	3.00087004549e-19
1006	3.21458504493e-06
1007	2.59621612568e-19
1008	3.94511993604e-06
1009	3.5474536746e-19
1010	5.65863418041e-06
1011	2.97544946829e-19
1012	7.26963635871e-06
1013	4.85154534818e-19
1014	2.80647473621e-05
1015	7.1431775322e-19
1016	2.23373600985e-05
1017	4.44291767239e-19
1018	1.67898564719e-05
1019	7.29694301392e-19
1020	0.000974506501579
1021	9.71235704326e-19
1022	0.0103039494338
1023	2.79867380592e-18
