0	0.842121839893
1	0.0169334199552
2	0.00504478461914
3	0.00135436917223
4	0.000512441311079
5	7.53040457668e-05
6	1.52857535736e-05
7	2.23907517271e-06
8	1.2137399529e-06
9	1.85023427563e-06
10	8.66380854454e-07
11	5.34380558904e-07
12	1.84106443079e-07
13	2.64331189943e-07
14	1.43048936115e-07
15	8.07462948815e-08
16	2.08797747041e-08
17	2.54805573778e-08
18	1.91454222089e-08
19	1.52748475818e-08
20	7.87835668975e-09
21	9.39399103242e-09
22	8.17332827731e-09
23	6.96630738588e-09
24	5.58928083834e-09
25	5.92285482114e-09
26	4.06903600011e-09
27	3.12821920804e-09
28	1.34201730322e-09
29	1.41625922286e-09
30	9.85272780597e-10
31	8.16791160936e-10
32	4.92933135377e-10
33	2.91304806188e-10
34	1.60417886891e-10
35	1.37486593593e-10
36	9.4908653911e-11
37	7.229017629e-11
38	5.61081183203e-11
39	4.19177382144e-11
40	7.20069481279e-11
41	5.41104876181e-11
42	8.03143121436e-11
43	5.45344852097e-11
44	7.19341977461e-11
45	7.61884170811e-11
46	7.67748288702e-11
47	8.94992917741e-11
48	7.85904094302e-11
49	7.60696399251e-11
50	5.48993378452e-11
51	3.92723441133e-11
52	2.64537053852e-11
53	2.01788170524e-11
54	1.81784398331e-11
55	1.77828101806e-11
56	1.81174271812e-11
57	1.42047183294e-11
58	1.40020920307e-11
59	1.16052920745e-11
60	1.05528323482e-11
61	9.15185230999e-12
62	7.32316921732e-12
63	6.27605444982e-12
64	5.37751324286e-12
65	5.01237110376e-12
66	4.97781046581e-12
67	5.56578814371e-12
68	5.57931512808e-12
69	6.27023458217e-12
70	6.43823327115e-12
71	6.92295321011e-12
72	7.23476640189e-12
73	7.34203710268e-12
74	7.4047133091e-12
75	6.55626220574e-12
76	5.8540155608e-12
77	4.73140038459e-12
78	3.97113254494e-12
79	3.44146949456e-12
80	2.95055045213e-12
81	2.57754976405e-12
82	2.22732792374e-12
83	2.17364614658e-12
84	1.98185695744e-12
85	1.96517512475e-12
86	1.55829774091e-12
87	1.47811609299e-12
88	1.33727457916e-12
89	1.28418478735e-12
90	1.33850338801e-12
91	1.26375645405e-12
92	1.2792450413e-12
93	1.27297494788e-12
94	1.2313287916e-12
95	1.33115565983e-12
96	1.33582685325e-12
97	1.34975659426e-12
98	1.29898080133e-12
99	1.17208400649e-12
100	1.11201116885e-12
101	9.82219713333e-13
102	8.93594011609e-13
103	7.40164366129e-13
104	6.82578792861e-13
105	5.9472397144e-13
106	5.79196224384e-13
107	5.75714781896e-13
108	5.57051063065e-13
109	5.89204628107e-13
110	5.70345758936e-13
111	5.98244647386e-13
112	5.96032229158e-13
113	6.0467256297e-13
114	6.00236941021e-13
115	5.74975936305e-13
116	5.58031733662e-13
117	5.13116014989e-13
118	5.0311577675e-13
119	4.58910234832e-13
120	4.34074265622e-13
121	4.00253222287e-13
122	3.58289760569e-13
123	3.3748591859e-13
124	2.96793946161e-13
125	2.78043106411e-13
126	2.47842564857e-13
127	2.30091392445e-13
128	2.13363843649e-13
129	2.01006217075e-13
130	1.9364925914e-13
131	1.85286792206e-13
132	1.82023561814e-13
133	1.75334204535e-13
134	1.71093060251e-13
135	1.66145955234e-13
136	1.59505051685e-13
137	1.52951422422e-13
138	1.4444014486e-13
139	1.34503789702e-13
140	1.26075766918e-13
141	1.15767985789e-13
142	1.07572428721e-13
143	9.91483852388e-14
144	9.11437035803e-14
145	8.47382127985e-14
146	7.79116056297e-14
147	7.31349270932e-14
148	6.79449241762e-14
149	6.43197397489e-14
150	6.03077273566e-14
151	5.69475231224e-14
152	5.38401324547e-14
153	5.03179152205e-14
154	4.78913105312e-14
155	4.44634787121e-14
156	4.21951807157e-14
157	3.92628850085e-14
158	3.67379461901e-14
159	3.42625476405e-14
160	3.15267723822e-14
161	2.92756537779e-14
162	2.668520019e-14
163	2.45926265527e-14
164	2.24324299958e-14
165	2.05815360235e-14
166	1.8900451243e-14
167	1.73520512437e-14
168	1.60520846967e-14
169	1.48487098639e-14
170	1.38665865949e-14
171	1.29924912792e-14
172	1.22627805703e-14
173	1.16125145684e-14
174	1.10352579052e-14
175	1.05008976595e-14
176	9.99197643029e-15
177	9.51656050936e-15
178	9.04667383462e-15
179	8.60514620043e-15
180	8.1784471851e-15
181	7.76648953979e-15
182	7.38367158804e-15
183	7.00947089839e-15
184	6.66232063533e-15
185	6.33400185217e-15
186	6.02193698762e-15
187	5.73784997144e-15
188	5.46223548045e-15
189	5.21175191607e-15
190	4.96909985687e-15
191	4.74344024631e-15
192	4.52879185217e-15
193	4.32313100263e-15
194	4.13008923571e-15
195	3.94000164218e-15
196	3.76072737647e-15
197	3.58210594043e-15
198	3.41064894041e-15
199	3.24043805282e-15
200	3.07428910828e-15
201	2.9106968965e-15
202	2.7501760012e-15
203	2.59459028929e-15
204	2.44230277848e-15
205	2.29829749899e-15
206	2.15828573234e-15
207	2.02850892712e-15
208	1.90411065271e-15
209	1.78938178167e-15
210	1.681503723e-15
211	1.58081999174e-15
212	1.48789321799e-15
213	1.39953031222e-15
214	1.31890499829e-15
215	1.24120076769e-15
216	1.17018031351e-15
217	1.10158565908e-15
218	1.03817254627e-15
219	9.77461316232e-16
220	9.20506132174e-16
221	8.66865819502e-16
222	8.1575411599e-16
223	7.68562144308e-16
224	7.22860495383e-16
225	6.81345656229e-16
226	6.40792796158e-16
227	6.04148828571e-16
228	5.68508438072e-16
229	5.36002979789e-16
230	5.04959777067e-16
231	4.76076652017e-16
232	4.49137566225e-16
233	4.23484872599e-16
234	4.00005288146e-16
235	3.77216943827e-16
236	3.56581777744e-16
237	3.36292346733e-16
238	3.1795349433e-16
239	2.99846616825e-16
240	2.83376292373e-16
241	2.67210191218e-16
242	2.52304184147e-16
243	2.37916442069e-16
244	2.24387733224e-16
245	2.11645971744e-16
246	1.99409699402e-16
247	1.88160792759e-16
248	1.77159841419e-16
249	1.67236941427e-16
250	1.57404270774e-16
251	1.48629769489e-16
252	1.3988085377e-16
253	1.32075864882e-16
254	1.24315346318e-16
255	1.17320539691e-16
256	1.10454720841e-16
257	1.04137010815e-16
258	9.80725613079e-17
259	9.23311742484e-17
260	8.69775417994e-17
261	8.17500675661e-17
262	7.70120102937e-17
263	7.2257660191e-17
264	6.80462732854e-17
265	6.37449362057e-17
266	5.99787919971e-17
267	5.61105977375e-17
268	5.27209653417e-17
269	4.92708374547e-17
270	4.62030060099e-17
271	4.31462792939e-17
272	4.03596793591e-17
273	3.76694304075e-17
274	3.51342696717e-17
275	3.27760565175e-17
276	3.04735593678e-17
277	2.84105345515e-17
278	2.63315131025e-17
279	2.45232722923e-17
280	2.26619920374e-17
281	2.10749941941e-17
282	1.94252635718e-17
283	1.80292840152e-17
284	1.65841911323e-17
285	1.5354785471e-17
286	1.41051882167e-17
287	1.30213421584e-17
288	1.19559344064e-17
289	1.10015352754e-17
290	1.01040820834e-17
291	9.26852925483e-18
292	8.51948528533e-18
293	7.79479636464e-18
294	7.17377525474e-18
295	6.55216040849e-18
296	6.04072181938e-18
297	5.51449062785e-18
298	5.09422087872e-18
299	4.65625292835e-18
300	4.31064292199e-18
301	3.95317755504e-18
302	3.66822952955e-18
303	3.38216275459e-18
304	3.14665017921e-18
305	2.92229703676e-18
306	2.72749080091e-18
307	2.55453021304e-18
308	2.39356253477e-18
309	2.26199804475e-18
310	2.12941322257e-18
311	2.02983123022e-18
312	1.92112160755e-18
313	1.84533167881e-18
314	1.75675540918e-18
315	1.69739426318e-18
316	1.62576274816e-18
317	1.5769452373e-18
318	1.51931474711e-18
319	1.4765007105e-18
320	1.43007644202e-18
321	1.3901042645e-18
322	1.35233873085e-18
323	1.31304537251e-18
324	1.28155622023e-18
325	1.24187453682e-18
326	1.21439289458e-18
327	1.17404840203e-18
328	1.14858145868e-18
329	1.10795519725e-18
330	1.08265792833e-18
331	1.04242801545e-18
332	1.01593074722e-18
333	9.76915235443e-19
334	9.48384494661e-19
335	9.1099444631e-19
336	8.80405618374e-19
337	8.44735502082e-19
338	8.12476291771e-19
339	7.7855146476e-19
340	7.45148509457e-19
341	7.12923222053e-19
342	6.79092632769e-19
343	6.48528537906e-19
344	6.1488056489e-19
345	5.85957267993e-19
346	5.53239087918e-19
347	5.25651776916e-19
348	4.94684199363e-19
349	4.68218277151e-19
350	4.3954096085e-19
351	4.14213130245e-19
352	3.87990314286e-19
353	3.64050070483e-19
354	3.40157440679e-19
355	3.1805067406e-19
356	2.96117571075e-19
357	2.76208803038e-19
358	2.56107962023e-19
359	2.38373703032e-19
360	2.20143853405e-19
361	2.04438416912e-19
362	1.88207106861e-19
363	1.74126941674e-19
364	1.60137694279e-19
365	1.4737069547e-19
366	1.35554758649e-19
367	1.24041764205e-19
368	1.14162979017e-19
369	1.03921365381e-19
370	9.55787990563e-20
371	8.6817852671e-20
372	7.95309830308e-20
373	7.23481946387e-20
374	6.5855701319e-20
375	6.01474667685e-20
376	5.43359590885e-20
377	4.98703503873e-20
378	4.47806553825e-20
379	4.12029767283e-20
380	3.6944934112e-20
381	3.3958534643e-20
382	3.05296504754e-20
383	2.79703964636e-20
384	2.5294786631e-20
385	2.30718987024e-20
386	2.10027252138e-20
387	1.91281631352e-20
388	1.74828810232e-20
389	1.59655121147e-20
390	1.46136068692e-20
391	1.34311863784e-20
392	1.22887106612e-20
393	1.13896742589e-20
394	1.04322000787e-20
395	9.71794561088e-21
396	8.96612977466e-21
397	8.33523482216e-21
398	7.8038502267e-21
399	7.20983451625e-21
400	6.85540943026e-21
401	6.29505518179e-21
402	6.06315099494e-21
403	5.57291813333e-21
404	5.36816950424e-21
405	4.99717192172e-21
406	4.77649441931e-21
407	4.50382595677e-21
408	4.28142667009e-21
409	4.06816700112e-21
410	3.86741167249e-21
411	3.66665371794e-21
412	3.51984106302e-21
413	3.30467410926e-21
414	3.20413738406e-21
415	2.99372252265e-21
416	2.90022085784e-21
417	2.72482886198e-21
418	2.61705574291e-21
419	2.48095601134e-21
420	2.35530021664e-21
421	2.2597788762e-21
422	2.11689180534e-21
423	2.04701251082e-21
424	1.90567017779e-21
425	1.84885922878e-21
426	1.70606947425e-21
427	1.66665827971e-21
428	1.52552609116e-21
429	1.48910461818e-21
430	1.36679798143e-21
431	1.32142330768e-21
432	1.22800157565e-21
433	1.1605604257e-21
434	1.09933847529e-21
435	1.0216416228e-21
436	9.68558684761e-22
437	9.0471966747e-22
438	8.43064898192e-22
439	8.05490658513e-22
440	7.22468201913e-22
441	7.1715444335e-22
442	6.22252764186e-22
443	6.25048388647e-22
444	5.43270618204e-22
445	5.38462504447e-22
446	4.74247799124e-22
447	4.60523037523e-22
448	4.1328630624e-22
449	3.90498892044e-22
450	3.579996237e-22
451	3.31256254017e-22
452	3.08243512773e-22
453	2.79674680909e-22
454	2.66806399369e-22
455	2.3479000656e-22
456	2.2819410417e-22
457	2.00197502048e-22
458	1.89378763799e-22
459	1.72113056268e-22
460	1.55505599515e-22
461	1.46845663663e-22
462	1.28508152335e-22
463	1.23335071014e-22
464	1.07984958108e-22
465	1.01045508883e-22
466	9.26152615022e-23
467	8.21788508994e-23
468	7.85225993814e-23
469	6.82644502908e-23
470	6.60941917413e-23
471	5.66065707877e-23
472	5.70907454844e-23
473	4.57205094731e-23
474	4.95176682268e-23
475	3.78345460227e-23
476	4.12201700094e-23
477	3.2394497985e-23
478	3.40178610089e-23
479	2.83725517832e-23
480	2.79140722197e-23
481	2.59766675488e-23
482	2.24648885702e-23
483	2.37310376996e-23
484	1.85324987222e-23
485	2.10107741165e-23
486	1.58726818808e-23
487	1.92842326355e-23
488	1.34950462118e-23
489	1.83088522438e-23
490	1.20525915997e-23
491	1.67797997589e-23
492	1.17178708055e-23
493	1.49581288104e-23
494	1.1489768869e-23
495	1.38717884891e-23
496	1.11835503643e-23
497	1.31226908601e-23
498	1.12260865869e-23
499	1.22255561787e-23
500	1.14768771068e-23
501	1.13975999578e-23
502	1.15524403396e-23
503	1.0714144195e-23
504	1.16418859923e-23
505	1.0181387427e-23
506	1.18242529931e-23
507	9.70501781774e-24
508	1.19216307338e-23
509	9.37455461852e-24
510	1.20915631021e-23
511	9.31077826756e-24
512	1.21471286425e-23
513	9.31079639064e-24
514	1.20915740047e-23
515	9.37455530273e-24
516	1.19216277453e-23
517	9.705016372e-24
518	1.18242524737e-23
519	1.01813883565e-23
520	1.16418859811e-23
521	1.07141429285e-23
522	1.15524406999e-23
523	1.13975989436e-23
524	1.1476877273e-23
525	1.22255570041e-23
526	1.12260859939e-23
527	1.31226883952e-23
528	1.11835503577e-23
529	1.38717895611e-23
530	1.14897701744e-23
531	1.49581286567e-23
532	1.17178706867e-23
533	1.6779799701e-23
534	1.20525916129e-23
535	1.83088525393e-23
536	1.34950462325e-23
537	1.92842328572e-23
538	1.58726818935e-23
539	2.10107746885e-23
540	1.85324988534e-23
541	2.37310375672e-23
542	2.24648875374e-23
543	2.59766695728e-23
544	2.79140722175e-23
545	2.83725494021e-23
546	3.40178606558e-23
547	3.23944975308e-23
548	4.12201701466e-23
549	3.78345471528e-23
550	4.95176683077e-23
551	4.57205094003e-23
552	5.70907454822e-23
553	5.66065719319e-23
554	6.60941916091e-23
555	6.82644498696e-23
556	7.85225995049e-23
557	8.21788510162e-23
558	9.26152610357e-23
559	1.01045507445e-22
560	1.07984958103e-22
561	1.23335072441e-22
562	1.28508153176e-22
563	1.46845663073e-22
564	1.55505599198e-22
565	1.72113056873e-22
566	1.89378762946e-22
567	2.00197499132e-22
568	2.2819410423e-22
569	2.34790004518e-22
570	2.66806398941e-22
571	2.79674681392e-22
572	3.08243511335e-22
573	3.31256253201e-22
574	3.57999623078e-22
575	3.90498891627e-22
576	4.1328630624e-22
577	4.60523031845e-22
578	4.74247799744e-22
579	5.38462508067e-22
580	5.4327061871e-22
581	6.25048390232e-22
582	6.22252765547e-22
583	7.17154444473e-22
584	7.22468202029e-22
585	8.05490657286e-22
586	8.43064897939e-22
587	9.04719670534e-22
588	9.68558685545e-22
589	1.02164162659e-21
590	1.09933847441e-21
591	1.1605604244e-21
592	1.22800157563e-21
593	1.32142330919e-21
594	1.36679798123e-21
595	1.48910461893e-21
596	1.52552609082e-21
597	1.66665828003e-21
598	1.70606947839e-21
599	1.8488592347e-21
600	1.90567017782e-21
601	2.04701252175e-21
602	2.11689180375e-21
603	2.25977887723e-21
604	2.35530021316e-21
605	2.48095600937e-21
606	2.6170557476e-21
607	2.72482886103e-21
608	2.90022085784e-21
609	2.9937225132e-21
610	3.20413738757e-21
611	3.30467410134e-21
612	3.51984106042e-21
613	3.6666537175e-21
614	3.86741167002e-21
615	4.06816699933e-21
616	4.28142667009e-21
617	4.50382596228e-21
618	4.77649441708e-21
619	4.9971719324e-21
620	5.36816950449e-21
621	5.57291814111e-21
622	6.06315099612e-21
623	6.2950551717e-21
624	6.85540943024e-21
625	7.20983450912e-21
626	7.80385021204e-21
627	8.33523482372e-21
628	8.96612977653e-21
629	9.71794561411e-21
630	1.04322000799e-20
631	1.13896742631e-20
632	1.22887106609e-20
633	1.34311863867e-20
634	1.46136068713e-20
635	1.59655121135e-20
636	1.7482881022e-20
637	1.91281631194e-20
638	2.10027252032e-20
639	2.30718986285e-20
640	2.5294786631e-20
641	2.79703965029e-20
642	3.05296504349e-20
643	3.39585346175e-20
644	3.69449341007e-20
645	4.12029767341e-20
646	4.47806553863e-20
647	4.98703503747e-20
648	5.43359590873e-20
649	6.01474667439e-20
650	6.58557013296e-20
651	7.23481946384e-20
652	7.95309830346e-20
653	8.68178526297e-20
654	9.55787990491e-20
655	1.03921365403e-19
656	1.14162979017e-19
657	1.2404176415e-19
658	1.35554758667e-19
659	1.47370695477e-19
660	1.60137694272e-19
661	1.7412694167e-19
662	1.88207106856e-19
663	2.04438416928e-19
664	2.20143853405e-19
665	2.38373703098e-19
666	2.56107962056e-19
667	2.76208803081e-19
668	2.96117571052e-19
669	3.18050674135e-19
670	3.40157440653e-19
671	3.64050070391e-19
672	3.87990314286e-19
673	4.14213130305e-19
674	4.39540960841e-19
675	4.68218277113e-19
676	4.94684199308e-19
677	5.25651776916e-19
678	5.53239087951e-19
679	5.85957267988e-19
680	6.14880564891e-19
681	6.48528537915e-19
682	6.79092632776e-19
683	7.12923222053e-19
684	7.45148509455e-19
685	7.78551464817e-19
686	8.12476291765e-19
687	8.44735502152e-19
688	8.80405618374e-19
689	9.10994446249e-19
690	9.48384494622e-19
691	9.76915235363e-19
692	1.01593074724e-18
693	1.04242801551e-18
694	1.08265792826e-18
695	1.10795519723e-18
696	1.14858145867e-18
697	1.1740484021e-18
698	1.21439289448e-18
699	1.24187453682e-18
700	1.28155622016e-18
701	1.31304537274e-18
702	1.35233873082e-18
703	1.39010426465e-18
704	1.43007644202e-18
705	1.47650071075e-18
706	1.51931474729e-18
707	1.57694523718e-18
708	1.62576274816e-18
709	1.69739426307e-18
710	1.75675540924e-18
711	1.84533167905e-18
712	1.92112160754e-18
713	2.02983123035e-18
714	2.12941322256e-18
715	2.26199804457e-18
716	2.39356253475e-18
717	2.55453021305e-18
718	2.72749080088e-18
719	2.92229703671e-18
720	3.14665017921e-18
721	3.38216275484e-18
722	3.66822952946e-18
723	3.95317755512e-18
724	4.31064292195e-18
725	4.65625292844e-18
726	5.09422087875e-18
727	5.51449062783e-18
728	6.04072181939e-18
729	6.55216040835e-18
730	7.17377525495e-18
731	7.79479636479e-18
732	8.51948528516e-18
733	9.26852925433e-18
734	1.01040820832e-17
735	1.10015352761e-17
736	1.19559344064e-17
737	1.30213421587e-17
738	1.41051882168e-17
739	1.53547854704e-17
740	1.65841911322e-17
741	1.8029284015e-17
742	1.94252635721e-17
743	2.10749941947e-17
744	2.26619920374e-17
745	2.45232722926e-17
746	2.63315131025e-17
747	2.84105345516e-17
748	3.0473559368e-17
749	3.27760565178e-17
750	3.51342696715e-17
751	3.76694304085e-17
752	4.0359679359e-17
753	4.31462792946e-17
754	4.62030060086e-17
755	4.92708374552e-17
756	5.27209653418e-17
757	5.61105977373e-17
758	5.99787919975e-17
759	6.37449362063e-17
760	6.80462732854e-17
761	7.22576601896e-17
762	7.70120102937e-17
763	8.17500675662e-17
764	8.69775417986e-17
765	9.23311742485e-17
766	9.80725613104e-17
767	1.04137010827e-16
768	1.10454720841e-16
769	1.17320539702e-16
770	1.24315346318e-16
771	1.32075864878e-16
772	1.39880853768e-16
773	1.48629769489e-16
774	1.57404270774e-16
775	1.67236941427e-16
776	1.7715984142e-16
777	1.8816079276e-16
778	1.99409699402e-16
779	2.11645971745e-16
780	2.24387733224e-16
781	2.3791644207e-16
782	2.52304184147e-16
783	2.67210191217e-16
784	2.83376292373e-16
785	2.99846616823e-16
786	3.1795349433e-16
787	3.36292346732e-16
788	3.56581777745e-16
789	3.77216943829e-16
790	4.00005288146e-16
791	4.23484872597e-16
792	4.49137566225e-16
793	4.76076652015e-16
794	5.04959777067e-16
795	5.36002979788e-16
796	5.68508438072e-16
797	6.04148828569e-16
798	6.40792796158e-16
799	6.81345656234e-16
800	7.22860495383e-16
801	7.68562144314e-16
802	8.15754115988e-16
803	8.668658195e-16
804	9.20506132174e-16
805	9.77461316233e-16
806	1.03817254627e-15
807	1.10158565908e-15
808	1.17018031351e-15
809	1.24120076769e-15
810	1.31890499829e-15
811	1.39953031222e-15
812	1.48789321799e-15
813	1.58081999174e-15
814	1.681503723e-15
815	1.78938178167e-15
816	1.90411065271e-15
817	2.02850892711e-15
818	2.15828573233e-15
819	2.29829749898e-15
820	2.44230277848e-15
821	2.59459028929e-15
822	2.7501760012e-15
823	2.9106968965e-15
824	3.07428910828e-15
825	3.24043805282e-15
826	3.41064894041e-15
827	3.58210594042e-15
828	3.76072737648e-15
829	3.94000164217e-15
830	4.13008923573e-15
831	4.32313100261e-15
832	4.52879185217e-15
833	4.74344024627e-15
834	4.96909985685e-15
835	5.21175191607e-15
836	5.46223548046e-15
837	5.73784997145e-15
838	6.02193698762e-15
839	6.33400185217e-15
840	6.66232063533e-15
841	7.00947089839e-15
842	7.38367158804e-15
843	7.76648953979e-15
844	8.17844718509e-15
845	8.60514620044e-15
846	9.04667383464e-15
847	9.51656050936e-15
848	9.99197643029e-15
849	1.05008976595e-14
850	1.10352579052e-14
851	1.16125145684e-14
852	1.22627805703e-14
853	1.29924912792e-14
854	1.38665865949e-14
855	1.48487098639e-14
856	1.60520846967e-14
857	1.73520512437e-14
858	1.8900451243e-14
859	2.05815360235e-14
860	2.24324299958e-14
861	2.45926265527e-14
862	2.668520019e-14
863	2.9275653778e-14
864	3.15267723822e-14
865	3.42625476404e-14
866	3.673794619e-14
867	3.92628850085e-14
868	4.21951807157e-14
869	4.44634787121e-14
870	4.78913105312e-14
871	5.03179152205e-14
872	5.38401324547e-14
873	5.69475231224e-14
874	6.03077273566e-14
875	6.43197397489e-14
876	6.79449241762e-14
877	7.31349270932e-14
878	7.79116056297e-14
879	8.47382127985e-14
880	9.11437035803e-14
881	9.91483852388e-14
882	1.07572428721e-13
883	1.15767985789e-13
884	1.26075766918e-13
885	1.34503789702e-13
886	1.4444014486e-13
887	1.52951422422e-13
888	1.59505051685e-13
889	1.66145955234e-13
890	1.71093060251e-13
891	1.75334204535e-13
892	1.82023561814e-13
893	1.85286792206e-13
894	1.9364925914e-13
895	2.01006217075e-13
896	2.13363843649e-13
897	2.30091392444e-13
898	2.47842564857e-13
899	2.78043106411e-13
900	2.96793946161e-13
901	3.3748591859e-13
902	3.58289760569e-13
903	4.00253222287e-13
904	4.34074265622e-13
905	4.58910234832e-13
906	5.0311577675e-13
907	5.13116014989e-13
908	5.58031733662e-13
909	5.74975936305e-13
910	6.00236941021e-13
911	6.0467256297e-13
912	5.96032229158e-13
913	5.98244647386e-13
914	5.70345758936e-13
915	5.89204628107e-13
916	5.57051063065e-13
917	5.75714781896e-13
918	5.79196224384e-13
919	5.9472397144e-13
920	6.82578792861e-13
921	7.40164366129e-13
922	8.93594011609e-13
923	9.82219713333e-13
924	1.11201116885e-12
925	1.17208400649e-12
926	1.29898080133e-12
927	1.34975659426e-12
928	1.33582685325e-12
929	1.33115565983e-12
930	1.2313287916e-12
931	1.27297494788e-12
932	1.2792450413e-12
933	1.26375645405e-12
934	1.33850338801e-12
935	1.28418478735e-12
936	1.33727457916e-12
937	1.47811609299e-12
938	1.55829774091e-12
939	1.96517512475e-12
940	1.98185695744e-12
941	2.17364614658e-12
942	2.22732792374e-12
943	2.57754976406e-12
944	2.95055045213e-12
945	3.44146949456e-12
946	3.97113254494e-12
947	4.73140038459e-12
948	5.8540155608e-12
949	6.55626220574e-12
950	7.4047133091e-12
951	7.34203710268e-12
952	7.23476640189e-12
953	6.92295321011e-12
954	6.43823327115e-12
955	6.27023458217e-12
956	5.57931512808e-12
957	5.56578814371e-12
958	4.97781046581e-12
959	5.01237110376e-12
960	5.37751324286e-12
961	6.27605444982e-12
962	7.32316921732e-12
963	9.15185230999e-12
964	1.05528323482e-11
965	1.16052920745e-11
966	1.40020920307e-11
967	1.42047183294e-11
968	1.81174271812e-11
969	1.77828101806e-11
970	1.81784398331e-11
971	2.01788170524e-11
972	2.64537053852e-11
973	3.92723441133e-11
974	5.48993378452e-11
975	7.60696399251e-11
976	7.85904094302e-11
977	8.94992917741e-11
978	7.67748288702e-11
979	7.61884170811e-11
980	7.19341977461e-11
981	5.45344852097e-11
982	8.03143121436e-11
983	5.41104876181e-11
984	7.20069481279e-11
985	4.19177382144e-11
986	5.61081183203e-11
987	7.229017629e-11
988	9.4908653911e-11
989	1.37486593593e-10
990	1.60417886891e-10
991	2.91304806188e-10
992	4.92933135377e-10
993	8.16791160936e-10
994	9.85272780597e-10
995	1.41625922286e-09
996	1.34201730322e-09
997	3.12821920804e-09
998	4.06903600011e-09
999	5.92285482114e-09
1000	5.58928083834e-09
1001	6.96630738588e-09
1002	8.17332827731e-09
1003	9.39399103242e-09
1004	7.87835668975e-09
1005	1.52748475818e-08
1006	1.91454222089e-08
1007	2.54805573778e-08
1008	2.08797747041e-08
1009	8.07462948815e-08
1010	1.43048936115e-07
1011	2.64331189943e-07
1012	1.84106443079e-07
1013	5.34380558904e-07
1014	8.66380854454e-07
1015	1.85023427563e-06
1016	1.2137399529e-06
1017	2.23907517271e-06
1018	1.52857535736e-05
1019	7.53040457668e-05
1020	0.000512441311079
1021	0.00135436917223
1022	0.00504478461914
1023	0.0169334199552
