0	0.880575085647
1	0.00153159494661
2	0.00936851315508
3	0.000395618987987
4	0.000665485624103
5	4.41946833786e-05
6	1.68161231513e-05
7	2.83916984745e-06
8	2.2937098857e-06
9	1.75076793829e-06
10	7.37008283864e-07
11	3.67222391119e-07
12	2.70411044983e-07
13	2.85136374595e-07
14	1.43412655193e-07
15	7.11303152606e-08
16	4.87224354217e-08
17	1.510625595e-08
18	2.308048319e-08
19	1.57620540944e-08
20	2.02002173913e-08
21	7.12049175075e-09
22	1.23318609177e-08
23	7.50556683321e-09
24	7.62569301837e-09
25	5.25054685597e-09
26	4.296261911e-09
27	2.29806800675e-09
28	1.1785044453e-09
29	1.33548728429e-09
30	8.49874164898e-10
31	8.83600930139e-10
32	6.04517636943e-10
33	3.6212860315e-10
34	2.34373248261e-10
35	3.05972298498e-10
36	1.5205475498e-10
37	1.50531309473e-10
38	1.08458458726e-10
39	1.01800321058e-10
40	9.70365906995e-11
41	9.467312717e-11
42	8.56742904755e-11
43	6.96710215634e-11
44	6.98990527067e-11
45	5.34953001857e-11
46	6.26669769779e-11
47	3.2479209758e-11
48	6.56650397654e-11
49	3.76098761734e-11
50	5.61069623441e-11
51	4.19255509489e-11
52	5.245567253e-11
53	4.5024561021e-11
54	3.65566594613e-11
55	3.1830921904e-11
56	3.53589308154e-11
57	2.86418533952e-11
58	2.92769735102e-11
59	2.00636534915e-11
60	2.52578881459e-11
61	1.78687803241e-11
62	1.90942319388e-11
63	1.63097711748e-11
64	1.45784748189e-11
65	1.30310383973e-11
66	1.43757141589e-11
67	1.01238632516e-11
68	1.15468358066e-11
69	8.2298738991e-12
70	7.26879339864e-12
71	7.30188656741e-12
72	4.79884978574e-12
73	4.93550688434e-12
74	3.56708426602e-12
75	2.83427671395e-12
76	3.13072938429e-12
77	2.03945403296e-12
78	2.4652071606e-12
79	1.91197864538e-12
80	2.38386629175e-12
81	1.90986047859e-12
82	2.26209585034e-12
83	1.93037080661e-12
84	2.60694687705e-12
85	2.08187286403e-12
86	2.48259339062e-12
87	2.47394847824e-12
88	2.41061241436e-12
89	2.30179655686e-12
90	1.56370110767e-12
91	1.89976357131e-12
92	1.0352192369e-12
93	1.41587063421e-12
94	9.53530452887e-13
95	9.31894261117e-13
96	9.74539353551e-13
97	7.58806521247e-13
98	9.21258110758e-13
99	7.12901235631e-13
100	8.4886998173e-13
101	5.8813463751e-13
102	6.46407737241e-13
103	4.24493579011e-13
104	4.61701948245e-13
105	3.12669202434e-13
106	3.47103727124e-13
107	3.17936761862e-13
108	2.6711651286e-13
109	3.02502459759e-13
110	2.00655182368e-13
111	2.77317890193e-13
112	1.5590074104e-13
113	1.87823167159e-13
114	1.33788543629e-13
115	1.50133033273e-13
116	1.30409869042e-13
117	1.46153802645e-13
118	1.35988015329e-13
119	1.37752277451e-13
120	1.36910612203e-13
121	1.17240793368e-13
122	1.37622006573e-13
123	9.6736691155e-14
124	1.22703739862e-13
125	7.78770107341e-14
126	9.78208934513e-14
127	8.34520547667e-14
128	8.10420992562e-14
129	8.66685788453e-14
130	6.26768898712e-14
131	7.37176469677e-14
132	4.74469843822e-14
133	5.12894064139e-14
134	3.74505455232e-14
135	3.68741105653e-14
136	3.19274102553e-14
137	3.43347448533e-14
138	3.09184687431e-14
139	3.33574760232e-14
140	3.19919543881e-14
141	2.73023879829e-14
142	2.57202733148e-14
143	1.78833032739e-14
144	1.83952333215e-14
145	1.27204703692e-14
146	1.27954476878e-14
147	1.11871901076e-14
148	1.05871247742e-14
149	1.0434120927e-14
150	1.03676052923e-14
151	9.0786021621e-15
152	1.00208593762e-14
153	7.61717358612e-15
154	9.21001425846e-15
155	7.77427324198e-15
156	8.20243150528e-15
157	8.1096132357e-15
158	7.27148567895e-15
159	7.54347926672e-15
160	6.17734336423e-15
161	6.0587827774e-15
162	4.99890774158e-15
163	4.64774883213e-15
164	3.93783108085e-15
165	3.73346926432e-15
166	3.36765980118e-15
167	3.34981313026e-15
168	3.0663769151e-15
169	2.89943773728e-15
170	2.77817372245e-15
171	2.39353343288e-15
172	2.40834362126e-15
173	1.96598192556e-15
174	2.01875394871e-15
175	1.73661057522e-15
176	1.79585153632e-15
177	1.62060733129e-15
178	1.7073823652e-15
179	1.55067732374e-15
180	1.65162906475e-15
181	1.4232768412e-15
182	1.52721345053e-15
183	1.2977882307e-15
184	1.35465693592e-15
185	1.20378591447e-15
186	1.17677428265e-15
187	1.13655431671e-15
188	1.0240935764e-15
189	1.01704792353e-15
190	8.86223041146e-16
191	8.70876094522e-16
192	7.40332598718e-16
193	6.86765071039e-16
194	5.88034193609e-16
195	5.18599099223e-16
196	4.59097499625e-16
197	3.96722485534e-16
198	3.77753053501e-16
199	3.17511970207e-16
200	3.29987759347e-16
201	2.74240423908e-16
202	2.97689442338e-16
203	2.51891082428e-16
204	2.57864531711e-16
205	2.35550028045e-16
206	2.18944583695e-16
207	2.21375898797e-16
208	1.92496989873e-16
209	1.98254763438e-16
210	1.74725264944e-16
211	1.66628841091e-16
212	1.58003900966e-16
213	1.36671935598e-16
214	1.39693046012e-16
215	1.16567199983e-16
216	1.19765700384e-16
217	1.08835615609e-16
218	1.05912207268e-16
219	1.05234817008e-16
220	9.33880786482e-17
221	9.47175272145e-17
222	7.97041078391e-17
223	7.60327080097e-17
224	6.50857694141e-17
225	5.50991172327e-17
226	5.17453625656e-17
227	3.92559033741e-17
228	4.21272348635e-17
229	3.20375357866e-17
230	3.50806433543e-17
231	3.01119461647e-17
232	2.91242419396e-17
233	2.91847807683e-17
234	2.46046430213e-17
235	2.65296328939e-17
236	2.17681637988e-17
237	2.19233150854e-17
238	2.01384432445e-17
239	1.7307140867e-17
240	1.85212156748e-17
241	1.41506036778e-17
242	1.61751070508e-17
243	1.28782507109e-17
244	1.37362456177e-17
245	1.27682655164e-17
246	1.20159205061e-17
247	1.25575157427e-17
248	1.11987175775e-17
249	1.16646551329e-17
250	1.08405429843e-17
251	1.02944251949e-17
252	1.03512828726e-17
253	9.06269680369e-18
254	9.53995083099e-18
255	8.34850934531e-18
256	8.56789961073e-18
257	8.00054053388e-18
258	7.67137527108e-18
259	7.65595425438e-18
260	7.02744728269e-18
261	7.13829543949e-18
262	6.63850251149e-18
263	6.55353978431e-18
264	6.39716512026e-18
265	6.10793140397e-18
266	6.16047702909e-18
267	5.85967590207e-18
268	5.84607101852e-18
269	5.69363743968e-18
270	5.47488950908e-18
271	5.46375940849e-18
272	5.12094731651e-18
273	5.12912374059e-18
274	4.83622451741e-18
275	4.76645029452e-18
276	4.61475226524e-18
277	4.47431595717e-18
278	4.41667957056e-18
279	4.28372103955e-18
280	4.21251207649e-18
281	4.1448236906e-18
282	3.9997409274e-18
283	3.98540629191e-18
284	3.79147711778e-18
285	3.77255240105e-18
286	3.59580203485e-18
287	3.5296609563e-18
288	3.41097699357e-18
289	3.30324583332e-18
290	3.23032234406e-18
291	3.11977546058e-18
292	3.05130224292e-18
293	2.96916850606e-18
294	2.87609119372e-18
295	2.8218443727e-18
296	2.70716876625e-18
297	2.65755135062e-18
298	2.54492670959e-18
299	2.47865760528e-18
300	2.38706450971e-18
301	2.30188120962e-18
302	2.23206207574e-18
303	2.14156856208e-18
304	2.08006499711e-18
305	1.99906851401e-18
306	1.93335215236e-18
307	1.86618615919e-18
308	1.79392268723e-18
309	1.73423970353e-18
310	1.66193832543e-18
311	1.60144399918e-18
312	1.53624333415e-18
313	1.47177477751e-18
314	1.41543951326e-18
315	1.35022389186e-18
316	1.29924784335e-18
317	1.23846821694e-18
318	1.18836716529e-18
319	1.13436034865e-18
320	1.08388792918e-18
321	1.03524957907e-18
322	9.85905685823e-19
323	9.39957014674e-19
324	8.94007310368e-19
325	8.49335314927e-19
326	8.07716795573e-19
327	7.64763515754e-19
328	7.26789554036e-19
329	6.87036253962e-19
330	6.51592854193e-19
331	6.15618103472e-19
332	5.82256459327e-19
333	5.49860780799e-19
334	5.18759049048e-19
335	4.89175869116e-19
336	4.60744627775e-19
337	4.33430583421e-19
338	4.07868239263e-19
339	3.82749254765e-19
340	3.59744592071e-19
341	3.37053803799e-19
342	3.16263238902e-19
343	2.96065324985e-19
344	2.77160338508e-19
345	2.59295853591e-19
346	2.42245425925e-19
347	2.26334647786e-19
348	2.11143294838e-19
349	1.96851079899e-19
350	1.83481067618e-19
351	1.70713500924e-19
352	1.58937329556e-19
353	1.47643140639e-19
354	1.3724947392e-19
355	1.2741309538e-19
356	1.18210507784e-19
357	1.09651796062e-19
358	1.01605926788e-19
359	9.41162538572e-20
360	8.7136132977e-20
361	8.05843813503e-20
362	7.45469222532e-20
363	6.8863302022e-20
364	6.3629227866e-20
365	5.87745287223e-20
366	5.41929905567e-20
367	5.00815344426e-20
368	4.6115666878e-20
369	4.26099740647e-20
370	3.92076467408e-20
371	3.6202615638e-20
372	3.33264253699e-20
373	3.07282785119e-20
374	2.82951794787e-20
375	2.60888640731e-20
376	2.40033302021e-20
377	2.21510462806e-20
378	2.03568060321e-20
379	1.88162222382e-20
380	1.7278473389e-20
381	1.59811813271e-20
382	1.46920809508e-20
383	1.3575116974e-20
384	1.25039360473e-20
385	1.15544721404e-20
386	1.06507542749e-20
387	9.85313327013e-21
388	9.0739985046e-21
389	8.43085724732e-21
390	7.74725198424e-21
391	7.22101016821e-21
392	6.63844561474e-21
393	6.1955848588e-21
394	5.70935101933e-21
395	5.3255685248e-21
396	4.92590122094e-21
397	4.59326720948e-21
398	4.26079186504e-21
399	3.97784592527e-21
400	3.69439394395e-21
401	3.45614279199e-21
402	3.21447992804e-21
403	3.01329642475e-21
404	2.80934005223e-21
405	2.63564775891e-21
406	2.46573648037e-21
407	2.31085499116e-21
408	2.17066673523e-21
409	2.03184077971e-21
410	1.91841635921e-21
411	1.79380649506e-21
412	1.69951314398e-21
413	1.58702123022e-21
414	1.50753707692e-21
415	1.40925372568e-21
416	1.34064731988e-21
417	1.25372302557e-21
418	1.19601347117e-21
419	1.11729952683e-21
420	1.06946648568e-21
421	9.96058880661e-22
422	9.5774401987e-22
423	8.88870827879e-22
424	8.57967539915e-22
425	7.93847220399e-22
426	7.68772768229e-22
427	7.0995671191e-22
428	6.88740477734e-22
429	6.3617786723e-22
430	6.17518359241e-22
431	5.69743381721e-22
432	5.52901484497e-22
433	5.10432529495e-22
434	4.95333609367e-22
435	4.5644692199e-22
436	4.43321759651e-22
437	4.08569742693e-22
438	3.96801809979e-22
439	3.65786277711e-22
440	3.54507001213e-22
441	3.27210389515e-22
442	3.16918315853e-22
443	2.92307590973e-22
444	2.82590976291e-22
445	2.60487592236e-22
446	2.5180111825e-22
447	2.32266556304e-22
448	2.24094358671e-22
449	2.06725798757e-22
450	1.99190468048e-22
451	1.83897541155e-22
452	1.76966028862e-22
453	1.63437541311e-22
454	1.56853661526e-22
455	1.45403600574e-22
456	1.38794655002e-22
457	1.28998255879e-22
458	1.22610977286e-22
459	1.14343924194e-22
460	1.08358793878e-22
461	1.01191967738e-22
462	9.56916264198e-23
463	8.95933654642e-23
464	8.47868240595e-23
465	7.94423279327e-23
466	7.51614311915e-23
467	7.02459033563e-23
468	6.68769767258e-23
469	6.20343990784e-23
470	5.90584561976e-23
471	5.46968793017e-23
472	5.22572693295e-23
473	4.81002926963e-23
474	4.61339905501e-23
475	4.23504786325e-23
476	4.09825963674e-23
477	3.73446671128e-23
478	3.64200316985e-23
479	3.27259032673e-23
480	3.24861611898e-23
481	2.88559894238e-23
482	2.90176278043e-23
483	2.56438212942e-23
484	2.58032106185e-23
485	2.27418924187e-23
486	2.29217774899e-23
487	2.01522433523e-23
488	2.04198627269e-23
489	1.79085063127e-23
490	1.83541095109e-23
491	1.61250129727e-23
492	1.65269789352e-23
493	1.45772151467e-23
494	1.51150859766e-23
495	1.34046509375e-23
496	1.38279062329e-23
497	1.23718213876e-23
498	1.2727569279e-23
499	1.15089563057e-23
500	1.1690632224e-23
501	1.07946836339e-23
502	1.08168769669e-23
503	1.0194767823e-23
504	1.02176746737e-23
505	9.82855360243e-24
506	9.68680020404e-24
507	9.63086440277e-24
508	9.34480263875e-24
509	9.53562194572e-24
510	9.0951251988e-24
511	9.49290055787e-24
512	9.05317632401e-24
513	9.49290145667e-24
514	9.0951220472e-24
515	9.53562220154e-24
516	9.34480362047e-24
517	9.63086417035e-24
518	9.68680032268e-24
519	9.82855350316e-24
520	1.02176746206e-23
521	1.0194767858e-23
522	1.08168771228e-23
523	1.07946837027e-23
524	1.16906322659e-23
525	1.15089563489e-23
526	1.27275688199e-23
527	1.23718217113e-23
528	1.38279062416e-23
529	1.34046508384e-23
530	1.51150855352e-23
531	1.45772153637e-23
532	1.65269789167e-23
533	1.61250129897e-23
534	1.83541096385e-23
535	1.79085064603e-23
536	2.04198627242e-23
537	2.01522433807e-23
538	2.29217776772e-23
539	2.27418924589e-23
540	2.58032105155e-23
541	2.56438212678e-23
542	2.90176271221e-23
543	2.88559897541e-23
544	3.24861611887e-23
545	3.2725903341e-23
546	3.64200320486e-23
547	3.73446677894e-23
548	4.09825961796e-23
549	4.23504788394e-23
550	4.61339909471e-23
551	4.81002923674e-23
552	5.22572693051e-23
553	5.46968788318e-23
554	5.90584561394e-23
555	6.20343988723e-23
556	6.68769768901e-23
557	7.02459036827e-23
558	7.516143031e-23
559	7.94423278334e-23
560	8.47868240634e-23
561	8.95933646171e-23
562	9.56916267544e-23
563	1.01191966812e-22
564	1.08358794004e-22
565	1.14343923687e-22
566	1.22610977586e-22
567	1.28998255845e-22
568	1.38794655085e-22
569	1.45403600884e-22
570	1.56853661914e-22
571	1.63437541111e-22
572	1.76966028725e-22
573	1.83897538389e-22
574	1.99190470732e-22
575	2.06725803664e-22
576	2.2409435867e-22
577	2.32266559058e-22
578	2.51801117519e-22
579	2.60487589811e-22
580	2.82590976459e-22
581	2.9230759068e-22
582	3.16918315979e-22
583	3.27210389611e-22
584	3.54507001232e-22
585	3.65786277889e-22
586	3.96801810161e-22
587	4.08569740008e-22
588	4.4332175973e-22
589	4.56446920637e-22
590	4.95333610152e-22
591	5.10432527541e-22
592	5.52901484491e-22
593	5.69743379808e-22
594	6.17518355633e-22
595	6.36177866816e-22
596	6.88740477653e-22
597	7.09956712057e-22
598	7.68772767708e-22
599	7.9384722073e-22
600	8.57967540012e-22
601	8.88870827926e-22
602	9.57744020958e-22
603	9.96058878901e-22
604	1.06946648567e-21
605	1.11729952526e-21
606	1.19601347285e-21
607	1.25372303066e-21
608	1.34064731988e-21
609	1.40925372666e-21
610	1.50753708184e-21
611	1.58702123369e-21
612	1.69951314434e-21
613	1.79380649478e-21
614	1.91841635948e-21
615	2.03184077961e-21
616	2.17066673519e-21
617	2.31085499015e-21
618	2.46573647926e-21
619	2.63564776054e-21
620	2.80934005253e-21
621	3.01329642057e-21
622	3.21447993807e-21
623	3.45614279079e-21
624	3.69439394394e-21
625	3.97784592187e-21
626	4.26079187154e-21
627	4.59326720989e-21
628	4.92590122135e-21
629	5.32556852348e-21
630	5.70935102933e-21
631	6.19558485724e-21
632	6.63844561469e-21
633	7.22101016808e-21
634	7.74725197625e-21
635	8.43085724395e-21
636	9.07399852448e-21
637	9.85313326445e-21
638	1.06507542619e-20
639	1.15544721435e-20
640	1.25039360473e-20
641	1.35751169554e-20
642	1.46920810631e-20
643	1.59811813261e-20
644	1.72784733873e-20
645	1.88162222329e-20
646	2.0356806037e-20
647	2.21510462823e-20
648	2.40033302017e-20
649	2.60888640746e-20
650	2.82951794833e-20
651	3.07282785152e-20
652	3.33264253714e-20
653	3.6202615641e-20
654	3.92076467632e-20
655	4.26099740731e-20
656	4.6115666878e-20
657	5.00815344529e-20
658	5.41929905547e-20
659	5.87745287244e-20
660	6.36292278794e-20
661	6.88633020187e-20
662	7.45469222522e-20
663	8.05843813601e-20
664	8.71361329755e-20
665	9.41162538513e-20
666	1.01605926776e-19
667	1.09651796084e-19
668	1.18210507768e-19
669	1.27413095382e-19
670	1.37249473853e-19
671	1.47643140587e-19
672	1.58937329556e-19
673	1.70713500924e-19
674	1.83481067692e-19
675	1.96851079886e-19
676	2.1114329483e-19
677	2.26334647808e-19
678	2.42245425883e-19
679	2.59295853606e-19
680	2.77160338507e-19
681	2.96065324978e-19
682	3.16263238885e-19
683	3.37053803808e-19
684	3.59744592045e-19
685	3.82749254788e-19
686	4.07868239263e-19
687	4.33430583406e-19
688	4.60744627776e-19
689	4.89175869152e-19
690	5.18759049089e-19
691	5.49860780797e-19
692	5.82256459312e-19
693	6.15618103459e-19
694	6.51592854199e-19
695	6.87036253963e-19
696	7.26789554034e-19
697	7.64763515727e-19
698	8.07716795627e-19
699	8.49335314907e-19
700	8.9400731045e-19
701	9.39957014765e-19
702	9.85905685645e-19
703	1.03524957893e-18
704	1.08388792918e-18
705	1.13436034843e-18
706	1.18836716582e-18
707	1.23846821699e-18
708	1.29924784335e-18
709	1.35022389185e-18
710	1.41543951312e-18
711	1.4717747775e-18
712	1.53624333415e-18
713	1.60144399918e-18
714	1.66193832534e-18
715	1.73423970345e-18
716	1.79392268727e-18
717	1.86618615917e-18
718	1.93335215251e-18
719	1.99906851407e-18
720	2.08006499711e-18
721	2.14156856218e-18
722	2.23206207581e-18
723	2.30188120978e-18
724	2.38706450971e-18
725	2.47865760536e-18
726	2.54492670949e-18
727	2.65755135054e-18
728	2.70716876625e-18
729	2.82184437264e-18
730	2.87609119367e-18
731	2.9691685061e-18
732	3.051302243e-18
733	3.11977546061e-18
734	3.23032234381e-18
735	3.30324583358e-18
736	3.41097699357e-18
737	3.52966095656e-18
738	3.59580203488e-18
739	3.77255240122e-18
740	3.79147711785e-18
741	3.98540629195e-18
742	3.99974092749e-18
743	4.14482369057e-18
744	4.2125120765e-18
745	4.28372103944e-18
746	4.41667957048e-18
747	4.47431595715e-18
748	4.61475226516e-18
749	4.76645029441e-18
750	4.8362245172e-18
751	5.12912374076e-18
752	5.12094731651e-18
753	5.46375940864e-18
754	5.47488950916e-18
755	5.6936374398e-18
756	5.84607101847e-18
757	5.85967590207e-18
758	6.16047702921e-18
759	6.10793140398e-18
760	6.39716512029e-18
761	6.55353978432e-18
762	6.63850251162e-18
763	7.13829543942e-18
764	7.02744728269e-18
765	7.65595425475e-18
766	7.67137527155e-18
767	8.00054053454e-18
768	8.56789961073e-18
769	8.34850934515e-18
770	9.53995082984e-18
771	9.0626968038e-18
772	1.03512828716e-17
773	1.02944251948e-17
774	1.08405429847e-17
775	1.16646551328e-17
776	1.11987175775e-17
777	1.25575157427e-17
778	1.20159205057e-17
779	1.27682655164e-17
780	1.37362456176e-17
781	1.28782507108e-17
782	1.61751070506e-17
783	1.4150603678e-17
784	1.85212156748e-17
785	1.73071408672e-17
786	2.01384432438e-17
787	2.19233150853e-17
788	2.1768163799e-17
789	2.65296328937e-17
790	2.46046430212e-17
791	2.91847807686e-17
792	2.91242419396e-17
793	3.01119461645e-17
794	3.50806433544e-17
795	3.20375357866e-17
796	4.21272348637e-17
797	3.92559033737e-17
798	5.17453625639e-17
799	5.50991172337e-17
800	6.50857694141e-17
801	7.60327080105e-17
802	7.97041078388e-17
803	9.47175272148e-17
804	9.33880786478e-17
805	1.05234817008e-16
806	1.05912207269e-16
807	1.08835615609e-16
808	1.19765700384e-16
809	1.16567199983e-16
810	1.39693046012e-16
811	1.36671935598e-16
812	1.58003900965e-16
813	1.66628841091e-16
814	1.74725264943e-16
815	1.98254763437e-16
816	1.92496989873e-16
817	2.21375898797e-16
818	2.18944583694e-16
819	2.35550028046e-16
820	2.57864531711e-16
821	2.51891082428e-16
822	2.97689442338e-16
823	2.74240423907e-16
824	3.29987759347e-16
825	3.17511970206e-16
826	3.77753053498e-16
827	3.96722485534e-16
828	4.59097499626e-16
829	5.18599099226e-16
830	5.88034193605e-16
831	6.86765071037e-16
832	7.40332598718e-16
833	8.7087609452e-16
834	8.86223041134e-16
835	1.01704792353e-15
836	1.02409357641e-15
837	1.13655431671e-15
838	1.17677428265e-15
839	1.20378591447e-15
840	1.35465693592e-15
841	1.2977882307e-15
842	1.52721345054e-15
843	1.4232768412e-15
844	1.65162906476e-15
845	1.55067732374e-15
846	1.70738236521e-15
847	1.62060733129e-15
848	1.79585153632e-15
849	1.73661057521e-15
850	2.0187539487e-15
851	1.96598192556e-15
852	2.40834362127e-15
853	2.39353343287e-15
854	2.77817372244e-15
855	2.89943773728e-15
856	3.0663769151e-15
857	3.34981313026e-15
858	3.36765980118e-15
859	3.73346926432e-15
860	3.93783108085e-15
861	4.64774883214e-15
862	4.99890774158e-15
863	6.05878277739e-15
864	6.17734336423e-15
865	7.54347926672e-15
866	7.27148567896e-15
867	8.1096132357e-15
868	8.20243150527e-15
869	7.77427324198e-15
870	9.21001425846e-15
871	7.61717358612e-15
872	1.00208593762e-14
873	9.0786021621e-15
874	1.03676052923e-14
875	1.0434120927e-14
876	1.05871247742e-14
877	1.11871901076e-14
878	1.27954476878e-14
879	1.27204703693e-14
880	1.83952333215e-14
881	1.78833032739e-14
882	2.57202733148e-14
883	2.73023879829e-14
884	3.19919543881e-14
885	3.33574760232e-14
886	3.09184687431e-14
887	3.43347448533e-14
888	3.19274102553e-14
889	3.68741105653e-14
890	3.74505455232e-14
891	5.12894064139e-14
892	4.74469843822e-14
893	7.37176469677e-14
894	6.26768898711e-14
895	8.66685788453e-14
896	8.10420992562e-14
897	8.34520547667e-14
898	9.78208934512e-14
899	7.78770107341e-14
900	1.22703739862e-13
901	9.6736691155e-14
902	1.37622006573e-13
903	1.17240793368e-13
904	1.36910612203e-13
905	1.3775227745e-13
906	1.35988015329e-13
907	1.46153802645e-13
908	1.30409869042e-13
909	1.50133033273e-13
910	1.33788543629e-13
911	1.87823167158e-13
912	1.5590074104e-13
913	2.77317890193e-13
914	2.00655182368e-13
915	3.02502459759e-13
916	2.6711651286e-13
917	3.17936761862e-13
918	3.47103727124e-13
919	3.12669202434e-13
920	4.61701948245e-13
921	4.24493579011e-13
922	6.46407737241e-13
923	5.8813463751e-13
924	8.4886998173e-13
925	7.12901235631e-13
926	9.21258110758e-13
927	7.58806521247e-13
928	9.74539353551e-13
929	9.31894261117e-13
930	9.53530452887e-13
931	1.41587063421e-12
932	1.0352192369e-12
933	1.89976357131e-12
934	1.56370110767e-12
935	2.30179655686e-12
936	2.41061241436e-12
937	2.47394847824e-12
938	2.48259339062e-12
939	2.08187286403e-12
940	2.60694687705e-12
941	1.93037080661e-12
942	2.26209585034e-12
943	1.90986047859e-12
944	2.38386629175e-12
945	1.91197864538e-12
946	2.4652071606e-12
947	2.03945403296e-12
948	3.13072938429e-12
949	2.83427671395e-12
950	3.56708426602e-12
951	4.93550688434e-12
952	4.79884978574e-12
953	7.30188656741e-12
954	7.26879339864e-12
955	8.2298738991e-12
956	1.15468358066e-11
957	1.01238632516e-11
958	1.43757141589e-11
959	1.30310383973e-11
960	1.45784748189e-11
961	1.63097711748e-11
962	1.90942319388e-11
963	1.78687803241e-11
964	2.52578881459e-11
965	2.00636534915e-11
966	2.92769735102e-11
967	2.86418533952e-11
968	3.53589308154e-11
969	3.1830921904e-11
970	3.65566594613e-11
971	4.5024561021e-11
972	5.245567253e-11
973	4.19255509489e-11
974	5.6106962344e-11
975	3.76098761734e-11
976	6.56650397654e-11
977	3.2479209758e-11
978	6.26669769779e-11
979	5.34953001857e-11
980	6.98990527067e-11
981	6.96710215634e-11
982	8.56742904755e-11
983	9.467312717e-11
984	9.70365906995e-11
985	1.01800321058e-10
986	1.08458458726e-10
987	1.50531309473e-10
988	1.5205475498e-10
989	3.05972298498e-10
990	2.34373248261e-10
991	3.6212860315e-10
992	6.04517636943e-10
993	8.83600930139e-10
994	8.49874164897e-10
995	1.33548728429e-09
996	1.1785044453e-09
997	2.29806800675e-09
998	4.296261911e-09
999	5.25054685597e-09
1000	7.62569301837e-09
1001	7.50556683321e-09
1002	1.23318609177e-08
1003	7.12049175075e-09
1004	2.02002173913e-08
1005	1.57620540944e-08
1006	2.308048319e-08
1007	1.510625595e-08
1008	4.87224354217e-08
1009	7.11303152606e-08
1010	1.43412655193e-07
1011	2.85136374595e-07
1012	2.70411044983e-07
1013	3.67222391119e-07
1014	7.37008283864e-07
1015	1.75076793829e-06
1016	2.2937098857e-06
1017	2.83916984745e-06
1018	1.68161231513e-05
1019	4.41946833786e-05
1020	0.000665485624103
1021	0.000395618987987
1022	0.00936851315508
1023	0.00153159494661
