0	0.942029227654
1	2.15245062051e-19
2	9.8183777732e-05
3	5.3449325525e-20
4	0.00268630811027
5	6.27317230441e-21
6	6.74578562793e-06
7	4.98330058808e-21
8	1.46260081239e-05
9	1.29487688945e-21
10	2.34576819467e-06
11	3.69649458326e-21
12	4.61798066858e-06
13	1.16719415338e-21
14	1.7756780607e-06
15	3.25432670907e-21
16	2.27286190109e-06
17	7.94140372368e-22
18	1.40018959333e-06
19	2.62169755915e-21
20	1.46961327065e-06
21	6.62603994494e-22
22	9.42912480998e-07
23	1.84475386421e-21
24	1.3635841712e-06
25	6.06446285952e-22
26	5.35871623081e-07
27	1.04354372009e-21
28	1.55905499437e-06
29	5.56898306519e-22
30	3.75847310044e-07
31	7.29318742664e-22
32	6.08567389884e-07
33	4.52860528471e-22
34	2.25789690225e-07
35	5.85978274625e-22
36	6.66432362986e-07
37	2.73632265379e-22
38	1.69953666675e-07
39	4.65417725449e-22
40	1.52724420003e-07
41	1.95856087712e-22
42	1.29463551356e-07
43	2.7845217672e-22
44	7.3081202531e-08
45	1.72024088503e-22
46	6.89160482151e-08
47	1.27539657343e-22
48	7.18970627679e-08
49	1.54338802944e-22
50	3.26019031559e-08
51	6.46674229327e-23
52	4.40376729304e-08
53	1.39412393392e-22
54	2.22057939223e-08
55	4.85646134766e-23
56	2.58241353921e-08
57	1.2350702175e-22
58	1.90959324272e-08
59	4.52560430853e-23
60	2.47663713386e-08
61	1.06955542839e-22
62	2.28056518378e-08
63	5.2424179614e-23
64	2.7506987715e-08
65	8.89471109103e-23
66	1.06771880308e-08
67	4.80120380804e-23
68	1.78160754745e-08
69	6.26605267894e-23
70	1.57341305955e-08
71	4.10881462926e-23
72	6.3174090865e-09
73	4.80020928984e-23
74	9.94519083126e-09
75	3.22287574062e-23
76	7.5032112179e-09
77	3.94113744614e-23
78	5.37359623388e-09
79	2.36652224395e-23
80	8.42820987321e-09
81	3.2704671194e-23
82	5.88363900413e-09
83	1.83312173839e-23
84	7.20978214567e-09
85	2.63200336917e-23
86	3.42906432267e-09
87	1.43668182194e-23
88	5.53880294118e-09
89	1.89851847925e-23
90	2.50230369272e-09
91	1.16181986879e-23
92	3.97374576324e-09
93	1.4321582529e-23
94	1.77244434229e-09
95	1.06483503735e-23
96	2.53357984581e-09
97	1.2065456546e-23
98	2.291468042e-09
99	8.19801459181e-24
100	1.53015394248e-09
101	9.6294756602e-24
102	1.95775939604e-09
103	7.90407942232e-24
104	8.98951921804e-10
105	7.71177378206e-24
106	9.67809039615e-10
107	6.78803179037e-24
108	8.56213161444e-10
109	6.57476130233e-24
110	1.57534458084e-09
111	5.45759789605e-24
112	1.26164040112e-09
113	6.67912967849e-24
114	1.16522826805e-09
115	4.94428804609e-24
116	1.60287616116e-09
117	6.23647342148e-24
118	7.4713784779e-10
119	4.12862676812e-24
120	1.37197933523e-09
121	4.54882064177e-24
122	7.44810173348e-10
123	3.35723249802e-24
124	8.41942892974e-10
125	3.12576044268e-24
126	5.39704389009e-10
127	2.67627310951e-24
128	4.67004409152e-10
129	2.36717693783e-24
130	3.92367635258e-10
131	2.38892990052e-24
132	3.09741008198e-10
133	1.83916257936e-24
134	2.71631044331e-10
135	2.28771151864e-24
136	2.34253623057e-10
137	1.58737198339e-24
138	3.99581917221e-10
139	1.99994697826e-24
140	2.24166769706e-10
141	1.72686649912e-24
142	3.3106912357e-10
143	1.93986300721e-24
144	3.11557040054e-10
145	2.13823119348e-24
146	2.58894732493e-10
147	1.62594337971e-24
148	3.71500715644e-10
149	1.96122076374e-24
150	3.03978996924e-10
151	1.1428710874e-24
152	3.07590172978e-10
153	1.58476033871e-24
154	2.06245624579e-10
155	8.61356190802e-25
156	2.01781070828e-10
157	1.07964770501e-24
158	1.22080285917e-10
159	7.37051312705e-25
160	1.31058103537e-10
161	7.01720172264e-25
162	1.13632828501e-10
163	7.18016555326e-25
164	9.479111693e-11
165	6.0778002178e-25
166	1.16185183899e-10
167	7.07628654399e-25
168	8.20109284397e-11
169	6.28635413357e-25
170	9.63466831573e-11
171	7.19727015401e-25
172	8.64279053526e-11
173	6.8326845066e-25
174	8.37760675884e-11
175	6.60948397283e-25
176	9.26908042834e-11
177	7.02128219027e-25
178	9.0059346333e-11
179	5.10154822374e-25
180	8.68875212152e-11
181	6.28944573389e-25
182	6.90807076723e-11
183	3.71972305579e-25
184	7.58393399504e-11
185	4.83508615215e-25
186	5.24906431648e-11
187	2.97485939225e-25
188	5.75545189768e-11
189	3.35235543039e-25
190	4.86894826807e-11
191	2.90789635796e-25
192	3.97345703817e-11
193	2.66244991469e-25
194	4.41316342896e-11
195	3.09569847944e-25
196	3.50638431601e-11
197	2.41482699322e-25
198	3.74544246618e-11
199	3.32926657681e-25
200	3.34297263806e-11
201	2.69337529556e-25
202	3.16957888096e-11
203	2.9774839789e-25
204	2.97809703192e-11
205	2.67762489735e-25
206	2.76179896957e-11
207	2.25989614904e-25
208	2.84097796278e-11
209	2.28721859378e-25
210	2.31694990495e-11
211	1.69330123988e-25
212	2.71080145785e-11
213	1.91277480094e-25
214	2.00762142088e-11
215	1.46066785012e-25
216	2.12857210988e-11
217	1.51749765262e-25
218	1.91706812048e-11
219	1.30691553035e-25
220	1.68541470345e-11
221	1.26505626538e-25
222	1.82564347602e-11
223	1.25991183037e-25
224	1.51344716695e-11
225	1.11685640823e-25
226	1.5718296156e-11
227	1.36872352478e-25
228	1.2809646656e-11
229	1.16903667915e-25
230	1.27629616134e-11
231	1.34701388924e-25
232	1.11739042832e-11
233	1.12684298888e-25
234	1.0172959322e-11
235	1.18130239137e-25
236	1.09189846313e-11
237	1.13611576129e-25
238	8.55732539973e-12
239	9.8262223137e-26
240	1.00108612729e-11
241	8.90002424774e-26
242	7.85809532302e-12
243	8.62709421861e-26
244	8.14736066394e-12
245	8.31507281789e-26
246	7.66599412208e-12
247	6.52435165326e-26
248	6.95134416547e-12
249	7.89823783543e-26
250	7.31402588762e-12
251	7.06709136323e-26
252	6.17310396058e-12
253	7.44963228985e-26
254	6.43682417476e-12
255	7.87790788777e-26
256	5.2100570902e-12
257	7.11648652643e-26
258	5.28549078655e-12
259	8.2559836158e-26
260	4.64420210188e-12
261	6.01930843842e-26
262	4.17871778822e-12
263	6.44754340475e-26
264	4.42316419583e-12
265	5.65077643379e-26
266	3.43177762424e-12
267	5.4117478423e-26
268	3.96411803908e-12
269	4.72112684552e-26
270	3.14714058042e-12
271	4.83778488145e-26
272	3.35268849819e-12
273	4.50864725935e-26
274	3.11358514172e-12
275	4.26750010707e-26
276	2.87400415423e-12
277	3.40796674272e-26
278	2.99336949008e-12
279	3.79714305112e-26
280	2.48537976065e-12
281	3.49563465476e-26
282	2.65872497895e-12
283	2.98931969774e-26
284	2.14714738674e-12
285	2.43548034117e-26
286	2.21773005937e-12
287	3.03069005406e-26
288	1.96380989276e-12
289	2.90946845607e-26
290	1.80205469893e-12
291	2.34892775697e-26
292	1.84777054585e-12
293	2.08439151558e-26
294	1.49376013115e-12
295	2.5146018405e-26
296	1.65324530086e-12
297	2.29617107228e-26
298	1.33035216625e-12
299	2.14629326857e-26
300	1.42579907111e-12
301	2.02209163685e-26
302	1.27338352455e-12
303	2.10560491844e-26
304	1.22364096574e-12
305	1.92142678649e-26
306	1.21760789931e-12
307	1.74059116265e-26
308	1.03932685379e-12
309	1.42978308372e-26
310	1.10358592295e-12
311	1.72204178451e-26
312	9.00934316619e-13
313	1.47175323146e-26
314	9.46691258146e-13
315	1.27126186856e-26
316	8.27824117286e-13
317	1.31336511832e-26
318	7.87446194478e-13
319	1.23490099648e-26
320	7.72434153872e-13
321	1.3284348378e-26
322	6.63462724078e-13
323	1.14271665785e-26
324	6.96592062433e-13
325	1.14478308296e-26
326	5.85535626198e-13
327	1.23504233052e-26
328	6.1076333203e-13
329	9.96369437317e-27
330	5.39330381007e-13
331	8.75476955611e-27
332	5.24256559597e-13
333	8.52448753927e-27
334	5.01718389766e-13
335	8.72664834156e-27
336	4.44206227185e-13
337	7.67870979578e-27
338	4.56267099585e-13
339	7.71264033334e-27
340	3.85977913292e-13
341	8.38860804551e-27
342	4.00133170885e-13
343	6.69632076972e-27
344	3.49805311698e-13
345	6.25110813165e-27
346	3.4186050048e-13
347	6.253066273e-27
348	3.21016504744e-13
349	7.02088880595e-27
350	2.9303573556e-13
351	5.8922433793e-27
352	2.90855234343e-13
353	5.94953648789e-27
354	2.57296862734e-13
355	5.91489427701e-27
356	2.57502224066e-13
357	5.26873864101e-27
358	2.3139008468e-13
359	4.93004409138e-27
360	2.22144142979e-13
361	4.93383793577e-27
362	2.09964979185e-13
363	4.15805107691e-27
364	1.89780889223e-13
365	4.24717050577e-27
366	1.88464208626e-13
367	3.15554840613e-27
368	1.65021032634e-13
369	4.01792883798e-27
370	1.65914251206e-13
371	4.10817006188e-27
372	1.47191225392e-13
373	3.46992264439e-27
374	1.44155855695e-13
375	2.58689006985e-27
376	1.33098327623e-13
377	3.10993438303e-27
378	1.25106582427e-13
379	2.4272456421e-27
380	1.20006837981e-13
381	3.5049359253e-27
382	1.09460037239e-13
383	3.79329349652e-27
384	1.06375722847e-13
385	3.10550585509e-27
386	9.68026013497e-14
387	2.78250940442e-27
388	9.24776224536e-14
389	2.98847979557e-27
390	8.59532626098e-14
391	2.43461853134e-27
392	7.98039534271e-14
393	2.49590633855e-27
394	7.59348819596e-14
395	2.42534615497e-27
396	6.94235132098e-14
397	2.30574157431e-27
398	6.65993462392e-14
399	1.72233116077e-27
400	6.12904521047e-14
401	1.76119352054e-27
402	5.81192830128e-14
403	1.62943440889e-27
404	5.46970030192e-14
405	1.68231017158e-27
406	5.06340819667e-14
407	1.55992215672e-27
408	4.88108739399e-14
409	2.0025045696e-27
410	4.42149041855e-14
411	1.55978135896e-27
412	4.31318155591e-14
413	1.33624077803e-27
414	3.8750084354e-14
415	1.49757960394e-27
416	3.76609869043e-14
417	1.82201951371e-27
418	3.39908585886e-14
419	1.40663634098e-27
420	3.26847386454e-14
421	1.3387128724e-27
422	2.97658985494e-14
423	1.07100159226e-27
424	2.84373365051e-14
425	1.29850351093e-27
426	2.60035857105e-14
427	1.14615197496e-27
428	2.49413331543e-14
429	1.18406337338e-27
430	2.26824509247e-14
431	1.11460579194e-27
432	2.2036108444e-14
433	1.12853014824e-27
434	1.97940632222e-14
435	1.01720579927e-27
436	1.95110453054e-14
437	1.06517847569e-27
438	1.73015329134e-14
439	8.79662178529e-28
440	1.72140158775e-14
441	1.17613470802e-27
442	1.51297767695e-14
443	1.06413876682e-27
444	1.51027129079e-14
445	1.02669176347e-27
446	1.32134938007e-14
447	1.06519704941e-27
448	1.32059146181e-14
449	9.996719302e-28
450	1.15208951971e-14
451	7.98589777126e-28
452	1.15628947147e-14
453	7.79661818332e-28
454	1.00415800916e-14
455	7.68589064023e-28
456	1.01792616585e-14
457	7.2649394863e-28
458	8.77232881868e-15
459	9.37710216962e-28
460	9.01841049836e-15
461	7.94747590681e-28
462	7.69647035433e-15
463	8.79557077165e-28
464	8.02202533955e-15
465	9.36208215363e-28
466	6.77994768687e-15
467	8.91557401318e-28
468	7.14334445274e-15
469	1.03146820936e-27
470	5.9828510541e-15
471	7.51220918983e-28
472	6.35995015968e-15
473	1.03693665501e-27
474	5.27919807325e-15
475	1.22318379935e-27
476	5.66974154036e-15
477	8.24454324284e-28
478	4.66085790877e-15
479	1.1385125584e-27
480	5.07856766447e-15
481	1.1464131469e-27
482	4.13499769122e-15
483	1.15493804649e-27
484	4.58769512398e-15
485	1.36820313704e-27
486	3.70835700373e-15
487	1.40440322912e-27
488	4.18926279908e-15
489	1.40719030012e-27
490	3.37514451284e-15
491	1.7445969018e-27
492	3.86782352383e-15
493	1.8138286948e-27
494	3.11684131388e-15
495	1.3338931509e-27
496	3.60954220111e-15
497	1.50792605951e-27
498	2.91040597677e-15
499	1.76168482156e-27
500	3.40645134653e-15
501	2.06080285598e-27
502	2.7427782055e-15
503	2.82342868154e-27
504	3.2573897438e-15
505	2.30100382063e-27
506	2.61704314263e-15
507	3.2293832896e-27
508	3.16530235036e-15
509	4.7336082429e-27
510	2.5479648242e-15
511	7.75323004459e-27
512	3.13394782622e-15
513	7.75323004459e-27
514	2.5479648242e-15
515	4.7336082429e-27
516	3.16530235035e-15
517	3.2293832896e-27
518	2.61704314263e-15
519	2.30100382063e-27
520	3.2573897438e-15
521	2.82342868154e-27
522	2.7427782055e-15
523	2.06080285598e-27
524	3.40645134653e-15
525	1.76168482156e-27
526	2.91040597677e-15
527	1.50792605951e-27
528	3.60954220111e-15
529	1.3338931509e-27
530	3.11684131388e-15
531	1.8138286948e-27
532	3.86782352383e-15
533	1.7445969018e-27
534	3.37514451284e-15
535	1.40719030012e-27
536	4.18926279908e-15
537	1.40440322912e-27
538	3.70835700372e-15
539	1.36820313704e-27
540	4.58769512398e-15
541	1.15493804649e-27
542	4.13499769122e-15
543	1.1464131469e-27
544	5.07856766447e-15
545	1.1385125584e-27
546	4.66085790877e-15
547	8.24454324283e-28
548	5.66974154037e-15
549	1.22318379935e-27
550	5.27919807324e-15
551	1.03693665501e-27
552	6.35995015968e-15
553	7.51220918983e-28
554	5.9828510541e-15
555	1.03146820936e-27
556	7.14334445275e-15
557	8.91557401317e-28
558	6.77994768687e-15
559	9.36208215363e-28
560	8.02202533955e-15
561	8.79557077165e-28
562	7.69647035432e-15
563	7.94747590682e-28
564	9.01841049836e-15
565	9.37710216962e-28
566	8.77232881868e-15
567	7.2649394863e-28
568	1.01792616585e-14
569	7.68589064023e-28
570	1.00415800916e-14
571	7.79661818332e-28
572	1.15628947147e-14
573	7.98589777126e-28
574	1.15208951971e-14
575	9.996719302e-28
576	1.32059146181e-14
577	1.06519704941e-27
578	1.32134938007e-14
579	1.02669176347e-27
580	1.51027129079e-14
581	1.06413876682e-27
582	1.51297767695e-14
583	1.17613470802e-27
584	1.72140158775e-14
585	8.79662178529e-28
586	1.73015329134e-14
587	1.06517847569e-27
588	1.95110453054e-14
589	1.01720579927e-27
590	1.97940632222e-14
591	1.12853014824e-27
592	2.2036108444e-14
593	1.11460579194e-27
594	2.26824509247e-14
595	1.18406337338e-27
596	2.49413331543e-14
597	1.14615197496e-27
598	2.60035857105e-14
599	1.29850351093e-27
600	2.84373365051e-14
601	1.07100159226e-27
602	2.97658985494e-14
603	1.3387128724e-27
604	3.26847386454e-14
605	1.40663634098e-27
606	3.39908585886e-14
607	1.82201951371e-27
608	3.76609869043e-14
609	1.49757960394e-27
610	3.8750084354e-14
611	1.33624077803e-27
612	4.31318155591e-14
613	1.55978135896e-27
614	4.42149041855e-14
615	2.0025045696e-27
616	4.88108739399e-14
617	1.55992215672e-27
618	5.06340819667e-14
619	1.68231017158e-27
620	5.46970030192e-14
621	1.62943440889e-27
622	5.81192830128e-14
623	1.76119352054e-27
624	6.12904521047e-14
625	1.72233116077e-27
626	6.65993462392e-14
627	2.30574157431e-27
628	6.94235132097e-14
629	2.42534615497e-27
630	7.59348819596e-14
631	2.49590633855e-27
632	7.98039534271e-14
633	2.43461853134e-27
634	8.59532626098e-14
635	2.98847979557e-27
636	9.24776224536e-14
637	2.78250940442e-27
638	9.68026013497e-14
639	3.10550585509e-27
640	1.06375722847e-13
641	3.79329349652e-27
642	1.09460037239e-13
643	3.5049359253e-27
644	1.20006837981e-13
645	2.4272456421e-27
646	1.25106582427e-13
647	3.10993438303e-27
648	1.33098327623e-13
649	2.58689006985e-27
650	1.44155855695e-13
651	3.46992264439e-27
652	1.47191225392e-13
653	4.10817006188e-27
654	1.65914251206e-13
655	4.01792883798e-27
656	1.65021032634e-13
657	3.15554840613e-27
658	1.88464208626e-13
659	4.24717050577e-27
660	1.89780889223e-13
661	4.15805107691e-27
662	2.09964979185e-13
663	4.93383793577e-27
664	2.22144142979e-13
665	4.93004409138e-27
666	2.3139008468e-13
667	5.26873864101e-27
668	2.57502224066e-13
669	5.91489427701e-27
670	2.57296862734e-13
671	5.94953648789e-27
672	2.90855234343e-13
673	5.8922433793e-27
674	2.9303573556e-13
675	7.02088880595e-27
676	3.21016504744e-13
677	6.253066273e-27
678	3.4186050048e-13
679	6.25110813165e-27
680	3.49805311698e-13
681	6.69632076972e-27
682	4.00133170885e-13
683	8.38860804551e-27
684	3.85977913292e-13
685	7.71264033334e-27
686	4.56267099585e-13
687	7.67870979578e-27
688	4.44206227185e-13
689	8.72664834156e-27
690	5.01718389766e-13
691	8.52448753927e-27
692	5.24256559597e-13
693	8.75476955611e-27
694	5.39330381007e-13
695	9.96369437317e-27
696	6.1076333203e-13
697	1.23504233052e-26
698	5.85535626198e-13
699	1.14478308296e-26
700	6.96592062433e-13
701	1.14271665785e-26
702	6.63462724078e-13
703	1.3284348378e-26
704	7.72434153872e-13
705	1.23490099648e-26
706	7.87446194478e-13
707	1.31336511832e-26
708	8.27824117286e-13
709	1.27126186856e-26
710	9.46691258146e-13
711	1.47175323146e-26
712	9.00934316619e-13
713	1.72204178451e-26
714	1.10358592295e-12
715	1.42978308372e-26
716	1.03932685379e-12
717	1.74059116265e-26
718	1.21760789931e-12
719	1.92142678649e-26
720	1.22364096574e-12
721	2.10560491844e-26
722	1.27338352455e-12
723	2.02209163685e-26
724	1.42579907111e-12
725	2.14629326857e-26
726	1.33035216625e-12
727	2.29617107228e-26
728	1.65324530086e-12
729	2.5146018405e-26
730	1.49376013115e-12
731	2.08439151558e-26
732	1.84777054585e-12
733	2.34892775697e-26
734	1.80205469893e-12
735	2.90946845607e-26
736	1.96380989276e-12
737	3.03069005406e-26
738	2.21773005937e-12
739	2.43548034117e-26
740	2.14714738674e-12
741	2.98931969774e-26
742	2.65872497895e-12
743	3.49563465476e-26
744	2.48537976065e-12
745	3.79714305112e-26
746	2.99336949008e-12
747	3.40796674272e-26
748	2.87400415423e-12
749	4.26750010707e-26
750	3.11358514172e-12
751	4.50864725935e-26
752	3.35268849819e-12
753	4.83778488145e-26
754	3.14714058042e-12
755	4.72112684552e-26
756	3.96411803908e-12
757	5.4117478423e-26
758	3.43177762424e-12
759	5.65077643379e-26
760	4.42316419583e-12
761	6.44754340475e-26
762	4.17871778822e-12
763	6.01930843842e-26
764	4.64420210188e-12
765	8.2559836158e-26
766	5.28549078655e-12
767	7.11648652643e-26
768	5.2100570902e-12
769	7.87790788777e-26
770	6.43682417476e-12
771	7.44963228985e-26
772	6.17310396058e-12
773	7.06709136323e-26
774	7.31402588762e-12
775	7.89823783543e-26
776	6.95134416547e-12
777	6.52435165326e-26
778	7.66599412208e-12
779	8.31507281789e-26
780	8.14736066394e-12
781	8.62709421861e-26
782	7.85809532302e-12
783	8.90002424774e-26
784	1.00108612729e-11
785	9.8262223137e-26
786	8.55732539973e-12
787	1.13611576129e-25
788	1.09189846313e-11
789	1.18130239137e-25
790	1.0172959322e-11
791	1.12684298888e-25
792	1.11739042832e-11
793	1.34701388924e-25
794	1.27629616134e-11
795	1.16903667915e-25
796	1.2809646656e-11
797	1.36872352478e-25
798	1.5718296156e-11
799	1.11685640823e-25
800	1.51344716695e-11
801	1.25991183037e-25
802	1.82564347602e-11
803	1.26505626538e-25
804	1.68541470345e-11
805	1.30691553035e-25
806	1.91706812048e-11
807	1.51749765262e-25
808	2.12857210988e-11
809	1.46066785012e-25
810	2.00762142088e-11
811	1.91277480094e-25
812	2.71080145785e-11
813	1.69330123988e-25
814	2.31694990495e-11
815	2.28721859378e-25
816	2.84097796278e-11
817	2.25989614904e-25
818	2.76179896957e-11
819	2.67762489735e-25
820	2.97809703192e-11
821	2.9774839789e-25
822	3.16957888096e-11
823	2.69337529556e-25
824	3.34297263806e-11
825	3.32926657681e-25
826	3.74544246618e-11
827	2.41482699322e-25
828	3.50638431601e-11
829	3.09569847944e-25
830	4.41316342896e-11
831	2.66244991469e-25
832	3.97345703817e-11
833	2.90789635796e-25
834	4.86894826807e-11
835	3.35235543039e-25
836	5.75545189768e-11
837	2.97485939225e-25
838	5.24906431648e-11
839	4.83508615215e-25
840	7.58393399504e-11
841	3.71972305579e-25
842	6.90807076723e-11
843	6.28944573389e-25
844	8.68875212152e-11
845	5.10154822374e-25
846	9.0059346333e-11
847	7.02128219027e-25
848	9.26908042834e-11
849	6.60948397283e-25
850	8.37760675884e-11
851	6.8326845066e-25
852	8.64279053526e-11
853	7.19727015401e-25
854	9.63466831573e-11
855	6.28635413357e-25
856	8.20109284397e-11
857	7.07628654399e-25
858	1.16185183899e-10
859	6.0778002178e-25
860	9.479111693e-11
861	7.18016555326e-25
862	1.13632828501e-10
863	7.01720172264e-25
864	1.31058103537e-10
865	7.37051312705e-25
866	1.22080285917e-10
867	1.07964770501e-24
868	2.01781070828e-10
869	8.61356190802e-25
870	2.06245624579e-10
871	1.58476033871e-24
872	3.07590172978e-10
873	1.1428710874e-24
874	3.03978996924e-10
875	1.96122076374e-24
876	3.71500715644e-10
877	1.62594337971e-24
878	2.58894732493e-10
879	2.13823119348e-24
880	3.11557040054e-10
881	1.93986300721e-24
882	3.3106912357e-10
883	1.72686649912e-24
884	2.24166769706e-10
885	1.99994697826e-24
886	3.99581917221e-10
887	1.58737198339e-24
888	2.34253623057e-10
889	2.28771151864e-24
890	2.71631044331e-10
891	1.83916257936e-24
892	3.09741008198e-10
893	2.38892990052e-24
894	3.92367635258e-10
895	2.36717693783e-24
896	4.67004409152e-10
897	2.67627310951e-24
898	5.39704389009e-10
899	3.12576044268e-24
900	8.41942892974e-10
901	3.35723249802e-24
902	7.44810173348e-10
903	4.54882064177e-24
904	1.37197933523e-09
905	4.12862676812e-24
906	7.4713784779e-10
907	6.23647342148e-24
908	1.60287616116e-09
909	4.94428804609e-24
910	1.16522826805e-09
911	6.67912967849e-24
912	1.26164040112e-09
913	5.45759789605e-24
914	1.57534458084e-09
915	6.57476130233e-24
916	8.56213161444e-10
917	6.78803179037e-24
918	9.67809039615e-10
919	7.71177378206e-24
920	8.98951921804e-10
921	7.90407942232e-24
922	1.95775939604e-09
923	9.6294756602e-24
924	1.53015394248e-09
925	8.19801459181e-24
926	2.291468042e-09
927	1.2065456546e-23
928	2.53357984581e-09
929	1.06483503735e-23
930	1.77244434229e-09
931	1.4321582529e-23
932	3.97374576324e-09
933	1.16181986879e-23
934	2.50230369272e-09
935	1.89851847925e-23
936	5.53880294118e-09
937	1.43668182194e-23
938	3.42906432267e-09
939	2.63200336917e-23
940	7.20978214567e-09
941	1.83312173839e-23
942	5.88363900413e-09
943	3.2704671194e-23
944	8.42820987321e-09
945	2.36652224395e-23
946	5.37359623388e-09
947	3.94113744614e-23
948	7.5032112179e-09
949	3.22287574062e-23
950	9.94519083126e-09
951	4.80020928984e-23
952	6.3174090865e-09
953	4.10881462926e-23
954	1.57341305955e-08
955	6.26605267894e-23
956	1.78160754745e-08
957	4.80120380804e-23
958	1.06771880308e-08
959	8.89471109103e-23
960	2.7506987715e-08
961	5.2424179614e-23
962	2.28056518378e-08
963	1.06955542839e-22
964	2.47663713386e-08
965	4.52560430853e-23
966	1.90959324272e-08
967	1.2350702175e-22
968	2.58241353921e-08
969	4.85646134766e-23
970	2.22057939223e-08
971	1.39412393392e-22
972	4.40376729304e-08
973	6.46674229327e-23
974	3.26019031559e-08
975	1.54338802944e-22
976	7.18970627679e-08
977	1.27539657343e-22
978	6.89160482151e-08
979	1.72024088503e-22
980	7.3081202531e-08
981	2.7845217672e-22
982	1.29463551356e-07
983	1.95856087712e-22
984	1.52724420003e-07
985	4.65417725449e-22
986	1.69953666675e-07
987	2.73632265379e-22
988	6.66432362986e-07
989	5.85978274625e-22
990	2.25789690225e-07
991	4.52860528471e-22
992	6.08567389884e-07
993	7.29318742664e-22
994	3.75847310044e-07
995	5.56898306519e-22
996	1.55905499437e-06
997	1.04354372009e-21
998	5.35871623081e-07
999	6.06446285952e-22
1000	1.3635841712e-06
1001	1.84475386421e-21
1002	9.42912480998e-07
1003	6.62603994494e-22
1004	1.46961327065e-06
1005	2.62169755915e-21
1006	1.40018959333e-06
1007	7.94140372368e-22
1008	2.27286190109e-06
1009	3.25432670907e-21
1010	1.7756780607e-06
1011	1.16719415338e-21
1012	4.61798066858e-06
1013	3.69649458326e-21
1014	2.34576819467e-06
1015	1.29487688945e-21
1016	1.46260081239e-05
1017	4.98330058808e-21
1018	6.74578562793e-06
1019	6.27317230441e-21
1020	0.00268630811027
1021	5.3449325525e-20
1022	9.8183777732e-05
1023	2.15245062051e-19
