0	0.778063981599
1	0.0231916932263
2	0.00371903279376
3	0.000888219020404
4	0.000215036430353
5	3.66977003341e-05
6	9.63131711702e-06
7	5.20294460357e-06
8	3.06190514892e-06
9	1.0591112554e-06
10	8.97241654195e-07
11	6.14003968728e-07
12	6.28005779654e-07
13	3.52377477598e-07
14	1.86485097449e-07
15	1.26394281832e-07
16	1.33906752181e-07
17	1.65978325787e-07
18	1.06039371162e-07
19	6.04498277629e-08
20	5.18113787727e-08
21	4.64691080644e-08
22	4.77533335544e-08
23	4.32324311465e-08
24	3.66568293624e-08
25	3.12058036355e-08
26	2.51434943078e-08
27	1.55357705238e-08
28	1.08591728685e-08
29	8.57333005249e-09
30	6.91981831738e-09
31	5.60655086244e-09
32	4.55618233459e-09
33	3.81714716147e-09
34	2.69288230311e-09
35	1.86416701942e-09
36	1.79415379314e-09
37	1.74821022798e-09
38	1.94338338954e-09
39	2.28339696597e-09
40	1.42271938421e-09
41	1.00689782151e-09
42	9.93534647141e-10
43	8.37885403186e-10
44	9.06351111739e-10
45	8.37806608346e-10
46	7.03949943533e-10
47	8.70202784512e-10
48	8.10002034585e-10
49	6.59981714365e-10
50	5.74935616533e-10
51	5.49825709771e-10
52	5.04906520857e-10
53	4.20155088725e-10
54	3.60968689479e-10
55	5.09382188508e-10
56	5.07325046832e-10
57	4.47379735401e-10
58	3.77731122259e-10
59	3.39673222113e-10
60	2.82667780238e-10
61	2.07244612885e-10
62	2.1548851244e-10
63	2.07652974584e-10
64	1.87577738153e-10
65	2.10091622985e-10
66	1.74131779643e-10
67	1.57432976143e-10
68	1.29853682651e-10
69	1.17565110672e-10
70	1.03899612198e-10
71	7.77289736028e-11
72	7.46182955481e-11
73	6.96247949988e-11
74	5.88584208471e-11
75	4.77200174145e-11
76	3.72907473477e-11
77	3.56169422877e-11
78	3.90036068911e-11
79	4.02596503122e-11
80	5.11734239421e-11
81	4.79242507486e-11
82	4.54449002095e-11
83	4.02715114112e-11
84	3.6802086755e-11
85	2.7584363432e-11
86	2.89108943578e-11
87	2.75095503775e-11
88	2.50286477251e-11
89	2.13068569274e-11
90	2.15982592583e-11
91	1.89328627402e-11
92	1.54175463974e-11
93	1.09279101368e-11
94	1.37731087722e-11
95	1.71315441807e-11
96	1.50899244647e-11
97	1.44718727095e-11
98	1.80819313484e-11
99	1.66538586609e-11
100	1.35815767454e-11
101	1.02621946835e-11
102	1.20083556204e-11
103	1.00192256114e-11
104	1.21694049648e-11
105	1.46387211193e-11
106	1.37730189708e-11
107	1.20162313509e-11
108	1.04426950798e-11
109	1.06099242684e-11
110	1.00945100464e-11
111	8.64834751197e-12
112	8.63455544136e-12
113	8.41789053448e-12
114	6.45157310379e-12
115	5.55519556887e-12
116	4.79424937772e-12
117	4.73987479018e-12
118	5.65921686557e-12
119	5.66077512462e-12
120	4.89476881821e-12
121	4.18511165918e-12
122	4.43856842072e-12
123	3.9113616106e-12
124	4.74447998519e-12
125	3.98623908715e-12
126	4.19764314673e-12
127	4.01138112808e-12
128	3.33675260297e-12
129	2.96110219659e-12
130	2.4817113851e-12
131	2.62238976962e-12
132	2.7649393224e-12
133	3.09066355729e-12
134	3.03755098395e-12
135	2.74793710753e-12
136	2.39472135291e-12
137	2.24812967117e-12
138	2.15780120372e-12
139	2.24135117689e-12
140	2.08733029828e-12
141	1.46595401335e-12
142	1.08325756904e-12
143	1.21451625418e-12
144	1.21719142431e-12
145	9.8064304556e-13
146	1.13135314044e-12
147	1.13150045827e-12
148	9.64014680382e-13
149	9.18465400466e-13
150	9.016039697e-13
151	9.07480841039e-13
152	8.70923289033e-13
153	9.06643300572e-13
154	7.99510108248e-13
155	6.33140301787e-13
156	5.39024838678e-13
157	4.97974353909e-13
158	4.92540783373e-13
159	5.63830600822e-13
160	5.40335444676e-13
161	3.63665248209e-13
162	2.74526714531e-13
163	3.02830970931e-13
164	3.2645446001e-13
165	3.46305908275e-13
166	3.68913297675e-13
167	3.19081202627e-13
168	2.75725608964e-13
169	2.68071068414e-13
170	2.57512325064e-13
171	2.53781325756e-13
172	2.42655630821e-13
173	2.43580209417e-13
174	2.10314762924e-13
175	1.74961482327e-13
176	1.69728089363e-13
177	1.57163736631e-13
178	1.60814951627e-13
179	1.7427518252e-13
180	1.62014362907e-13
181	1.36123512544e-13
182	1.22321655369e-13
183	1.11853301427e-13
184	1.14341678568e-13
185	1.09168355609e-13
186	9.4132698889e-14
187	8.34626674285e-14
188	7.07175160284e-14
189	6.22524035264e-14
190	5.83471666391e-14
191	5.23422481065e-14
192	4.72173862325e-14
193	4.02685707309e-14
194	3.3371815284e-14
195	3.12285847987e-14
196	2.61486674861e-14
197	2.52934741896e-14
198	2.67940795284e-14
199	2.3739650186e-14
200	2.37751278322e-14
201	2.24702257486e-14
202	2.19274561824e-14
203	2.29579110512e-14
204	2.38620308732e-14
205	2.37562526535e-14
206	2.31909155439e-14
207	2.22484343833e-14
208	2.21097368141e-14
209	2.19755372826e-14
210	2.17381891959e-14
211	2.16530958842e-14
212	2.01727431208e-14
213	1.9415601707e-14
214	1.86970351926e-14
215	1.77428823185e-14
216	1.73802202396e-14
217	1.70238662088e-14
218	1.59792930205e-14
219	1.51404988966e-14
220	1.44919044194e-14
221	1.3554043905e-14
222	1.2707703245e-14
223	1.19631627485e-14
224	1.10823508152e-14
225	9.87157214787e-15
226	8.82489216659e-15
227	7.80917435248e-15
228	6.84920792309e-15
229	6.27235725661e-15
230	5.82013737887e-15
231	5.22019481407e-15
232	4.67661043854e-15
233	4.19733032806e-15
234	3.68793260224e-15
235	3.30310188833e-15
236	2.98968440411e-15
237	2.67103255393e-15
238	2.33559629331e-15
239	2.03327050012e-15
240	1.74996876275e-15
241	1.44943669792e-15
242	1.25504373405e-15
243	1.13896707281e-15
244	1.01195545973e-15
245	9.65416593484e-16
246	8.70538579322e-16
247	7.61659256331e-16
248	7.31978978984e-16
249	7.1012334337e-16
250	6.93214239349e-16
251	6.91066868464e-16
252	6.67196054766e-16
253	6.28463406265e-16
254	5.70398264296e-16
255	5.29896803159e-16
256	5.33927817557e-16
257	5.08544436862e-16
258	5.03157319932e-16
259	4.88969593647e-16
260	4.45434240419e-16
261	4.3337122142e-16
262	4.12251254527e-16
263	3.88431376662e-16
264	3.87940817569e-16
265	3.6579079072e-16
266	3.42283698997e-16
267	3.25227540533e-16
268	2.96177532151e-16
269	2.83831808936e-16
270	2.62657264776e-16
271	2.47628932542e-16
272	2.37006619433e-16
273	2.11030796787e-16
274	1.94387476143e-16
275	1.78492935834e-16
276	1.59724884196e-16
277	1.49352133923e-16
278	1.37538424936e-16
279	1.22037811397e-16
280	1.10970643331e-16
281	9.6847195267e-17
282	8.65967763018e-17
283	7.73032626241e-17
284	6.73262124003e-17
285	6.15951576471e-17
286	5.49228810857e-17
287	4.90077285338e-17
288	4.48089386253e-17
289	4.00178132282e-17
290	3.599838641e-17
291	3.24216351944e-17
292	2.81855206869e-17
293	2.56044190972e-17
294	2.27179544421e-17
295	1.9957135664e-17
296	1.80984538172e-17
297	1.5931073964e-17
298	1.43261279893e-17
299	1.33117095241e-17
300	1.28178652435e-17
301	1.25352732979e-17
302	1.21384881551e-17
303	1.14833162665e-17
304	1.09362328804e-17
305	1.04457517125e-17
306	9.93905122102e-18
307	9.45916292921e-18
308	9.02155173584e-18
309	8.55196376344e-18
310	7.88394246762e-18
311	7.18585794283e-18
312	6.64314041832e-18
313	6.24152451073e-18
314	5.9340824005e-18
315	5.7003929045e-18
316	5.44927186615e-18
317	5.11367926231e-18
318	4.76517968615e-18
319	4.47862733089e-18
320	4.19134290679e-18
321	3.96510190745e-18
322	3.73209907066e-18
323	3.36091106213e-18
324	3.00655451225e-18
325	2.70363016821e-18
326	2.36981925614e-18
327	2.14490271996e-18
328	1.95608911023e-18
329	1.76320340241e-18
330	1.60993345154e-18
331	1.42319422867e-18
332	1.27705394915e-18
333	1.15255339786e-18
334	1.04000364085e-18
335	9.89668103521e-19
336	8.87419551741e-19
337	7.69752939046e-19
338	7.0423443787e-19
339	5.94719098173e-19
340	5.20185886465e-19
341	4.80570350228e-19
342	4.1266017772e-19
343	3.74295692907e-19
344	3.25781441363e-19
345	2.81366171489e-19
346	2.56337344837e-19
347	2.20150494412e-19
348	2.10440883319e-19
349	1.97652544791e-19
350	1.68334814127e-19
351	1.63385420876e-19
352	1.47060221846e-19
353	1.28101647101e-19
354	1.27609416907e-19
355	1.14092508628e-19
356	1.08088290944e-19
357	1.0368667886e-19
358	9.36530869329e-20
359	9.06933629941e-20
360	8.23151445068e-20
361	7.78667732277e-20
362	7.8294910443e-20
363	7.20397597308e-20
364	7.00655143947e-20
365	6.76845929303e-20
366	6.20943225941e-20
367	6.20681418587e-20
368	5.93391581853e-20
369	5.6202609747e-20
370	5.47194682385e-20
371	5.13352984254e-20
372	4.88199038422e-20
373	4.59849601418e-20
374	4.29821647949e-20
375	4.10849808892e-20
376	3.79947303393e-20
377	3.51888709821e-20
378	3.31433130349e-20
379	3.02588592048e-20
380	2.83366582417e-20
381	2.6325208987e-20
382	2.39731184617e-20
383	2.2235160869e-20
384	2.04582987205e-20
385	1.87725633324e-20
386	1.71555131612e-20
387	1.55592376603e-20
388	1.41661714127e-20
389	1.2849935419e-20
390	1.15261122296e-20
391	1.0361178146e-20
392	9.24388082216e-21
393	8.2303075184e-21
394	7.39296779206e-21
395	6.62725453236e-21
396	5.96749015015e-21
397	5.3381494177e-21
398	4.79869999182e-21
399	4.31282896901e-21
400	3.9225839939e-21
401	3.55870281189e-21
402	3.21302096804e-21
403	2.88815980284e-21
404	2.61989709104e-21
405	2.39069382996e-21
406	2.18874774299e-21
407	2.00330962879e-21
408	1.83082702209e-21
409	1.6887211607e-21
410	1.57389594607e-21
411	1.48679522543e-21
412	1.39717583996e-21
413	1.30657663468e-21
414	1.23808400719e-21
415	1.19000429771e-21
416	1.12949742468e-21
417	1.06445617851e-21
418	9.95078169458e-22
419	9.47474428648e-22
420	9.05491870248e-22
421	8.68676916621e-22
422	8.16538222764e-22
423	7.61380268443e-22
424	7.16228287565e-22
425	6.82036294646e-22
426	6.35576912734e-22
427	5.93120062281e-22
428	5.54532956227e-22
429	5.20033538525e-22
430	4.84260114881e-22
431	4.54336491215e-22
432	4.19728964675e-22
433	3.91794547524e-22
434	3.59651044624e-22
435	3.38002606131e-22
436	3.09930409712e-22
437	2.86042170797e-22
438	2.65011485942e-22
439	2.46262657828e-22
440	2.2182000532e-22
441	2.04884823479e-22
442	1.91515810663e-22
443	1.73303611058e-22
444	1.54876523555e-22
445	1.49362414948e-22
446	1.35128196106e-22
447	1.23011350177e-22
448	1.1487888703e-22
449	1.10464347117e-22
450	1.02757567969e-22
451	9.52041689622e-23
452	8.9057248982e-23
453	8.29708126209e-23
454	7.66283016329e-23
455	6.74288681061e-23
456	6.37092434586e-23
457	5.68652329166e-23
458	5.3748739822e-23
459	4.69869367838e-23
460	4.0256831517e-23
461	3.4367345367e-23
462	3.04594935282e-23
463	2.95004015906e-23
464	2.79163049691e-23
465	2.42503701184e-23
466	2.25736606826e-23
467	2.348205659e-23
468	2.16077040503e-23
469	1.8992875698e-23
470	1.92109759428e-23
471	1.84813793331e-23
472	1.74928761377e-23
473	1.74009236006e-23
474	1.8310395201e-23
475	1.66173402845e-23
476	1.64657744106e-23
477	1.82891415141e-23
478	1.98622290869e-23
479	2.11309250485e-23
480	2.31650017886e-23
481	2.23416274695e-23
482	2.11450930208e-23
483	1.98336393821e-23
484	1.86641356553e-23
485	1.84618596807e-23
486	1.8135488445e-23
487	1.57134530189e-23
488	1.51475358191e-23
489	1.41523274948e-23
490	1.29235694983e-23
491	1.18840759705e-23
492	1.0965170605e-23
493	1.1097914267e-23
494	1.06908493789e-23
495	9.67021462347e-24
496	9.06508292304e-24
497	9.5689137395e-24
498	9.24303338368e-24
499	8.81023214466e-24
500	9.27543044568e-24
501	9.46037946595e-24
502	9.82339300966e-24
503	1.00360403468e-23
504	1.00959753588e-23
505	1.04164560105e-23
506	1.01083007013e-23
507	9.09460471179e-24
508	8.76368200428e-24
509	8.3356637495e-24
510	7.80019839111e-24
511	6.99754317181e-24
512	7.08974822235e-24
513	6.99754016474e-24
514	7.80019928659e-24
515	8.33566468829e-24
516	8.76368250615e-24
517	9.09460499574e-24
518	1.0108300833e-23
519	1.04164565527e-23
520	1.00959753082e-23
521	1.00360398326e-23
522	9.82339294864e-24
523	9.46037909236e-24
524	9.2754303313e-24
525	8.81023181243e-24
526	9.24303340171e-24
527	9.56891400316e-24
528	9.06508289597e-24
529	9.6702171253e-24
530	1.069084967e-23
531	1.10979148319e-23
532	1.09651705812e-23
533	1.18840755418e-23
534	1.29235692157e-23
535	1.41523276767e-23
536	1.51475358362e-23
537	1.57134527746e-23
538	1.8135488644e-23
539	1.84618599028e-23
540	1.86641355732e-23
541	1.98336399325e-23
542	2.11450935034e-23
543	2.23416287423e-23
544	2.31650017856e-23
545	2.11309237449e-23
546	1.98622284461e-23
547	1.82891413974e-23
548	1.64657742311e-23
549	1.66173400861e-23
550	1.83103949315e-23
551	1.7400923545e-23
552	1.74928761448e-23
553	1.84813798928e-23
554	1.92109760164e-23
555	1.89928756525e-23
556	2.16077041169e-23
557	2.34820570304e-23
558	2.25736610777e-23
559	2.42503708208e-23
560	2.7916304972e-23
561	2.95004011835e-23
562	3.04594936765e-23
563	3.43673468717e-23
564	4.0256831745e-23
565	4.69869376147e-23
566	5.3748740001e-23
567	5.68652326543e-23
568	6.37092433583e-23
569	6.7428868025e-23
570	7.66283018144e-23
571	8.29708117572e-23
572	8.90572489902e-23
573	9.52041690621e-23
574	1.02757570243e-22
575	1.1046435494e-22
576	1.14878887032e-22
577	1.23011335414e-22
578	1.35128188874e-22
579	1.49362417617e-22
580	1.54876523828e-22
581	1.7330361399e-22
582	1.91515813482e-22
583	2.04884825248e-22
584	2.21820005347e-22
585	2.46262659362e-22
586	2.65011485623e-22
587	2.86042168615e-22
588	3.09930410119e-22
589	3.38002607527e-22
590	3.59651042441e-22
591	3.91794540728e-22
592	4.19728964693e-22
593	4.54336488599e-22
594	4.84260112436e-22
595	5.20033538749e-22
596	5.54532956267e-22
597	5.93120062426e-22
598	6.35576914543e-22
599	6.82036296073e-22
600	7.16228287621e-22
601	7.61380269191e-22
602	8.16538222323e-22
603	8.68676917674e-22
604	9.05491871138e-22
605	9.47474425161e-22
606	9.95078172759e-22
607	1.06445618087e-21
608	1.12949742468e-21
609	1.19000429355e-21
610	1.23808400771e-21
611	1.3065766334e-21
612	1.39717583854e-21
613	1.48679522229e-21
614	1.57389594237e-21
615	1.68872115916e-21
616	1.83082702215e-21
617	2.00330962262e-21
618	2.18874774149e-21
619	2.3906938328e-21
620	2.61989709156e-21
621	2.8881598077e-21
622	3.21302096846e-21
623	3.5587028056e-21
624	3.92258399392e-21
625	4.31282895568e-21
626	4.79869999186e-21
627	5.33814941059e-21
628	5.96749015124e-21
629	6.62725452169e-21
630	7.39296779221e-21
631	8.23030752291e-21
632	9.2438808226e-21
633	1.03611781358e-20
634	1.15261122261e-20
635	1.28499354222e-20
636	1.41661714105e-20
637	1.55592376449e-20
638	1.71555131434e-20
639	1.87725633558e-20
640	2.04582987205e-20
641	2.2235160813e-20
642	2.397311842e-20
643	2.63252089827e-20
644	2.83366582486e-20
645	3.02588592152e-20
646	3.3143313029e-20
647	3.51888710085e-20
648	3.79947303387e-20
649	4.10849808618e-20
650	4.29821648044e-20
651	4.59849601556e-20
652	4.88199038458e-20
653	5.13352984275e-20
654	5.47194682484e-20
655	5.62026097473e-20
656	5.93391581855e-20
657	6.2068141897e-20
658	6.20943226416e-20
659	6.76845929543e-20
660	7.0065514393e-20
661	7.20397597312e-20
662	7.82949104447e-20
663	7.78667732231e-20
664	8.23151445072e-20
665	9.06933630683e-20
666	9.36530869392e-20
667	1.0368667886e-19
668	1.08088290951e-19
669	1.14092508619e-19
670	1.27609416811e-19
671	1.28101647181e-19
672	1.47060221846e-19
673	1.63385420723e-19
674	1.68334814151e-19
675	1.97652544751e-19
676	2.10440883322e-19
677	2.20150494411e-19
678	2.56337344818e-19
679	2.81366171478e-19
680	3.25781441363e-19
681	3.74295692925e-19
682	4.12660177736e-19
683	4.80570350223e-19
684	5.20185886459e-19
685	5.94719098196e-19
686	7.04234437835e-19
687	7.69752939116e-19
688	8.87419551742e-19
689	9.89668103399e-19
690	1.04000364089e-18
691	1.15255339786e-18
692	1.27705394914e-18
693	1.42319422875e-18
694	1.60993345148e-18
695	1.76320340247e-18
696	1.95608911023e-18
697	2.14490271986e-18
698	2.3698192563e-18
699	2.70363016842e-18
700	3.00655451226e-18
701	3.36091106192e-18
702	3.73209907044e-18
703	3.96510190689e-18
704	4.19134290679e-18
705	4.47862733087e-18
706	4.76517968595e-18
707	5.11367926218e-18
708	5.44927186619e-18
709	5.70039290459e-18
710	5.93408240038e-18
711	6.24152451078e-18
712	6.64314041833e-18
713	7.18585794314e-18
714	7.88394246748e-18
715	8.55196376346e-18
716	9.02155173583e-18
717	9.4591629291e-18
718	9.93905122114e-18
719	1.04457517119e-17
720	1.09362328804e-17
721	1.14833162667e-17
722	1.2138488155e-17
723	1.25352732976e-17
724	1.28178652436e-17
725	1.33117095243e-17
726	1.43261279895e-17
727	1.59310739647e-17
728	1.80984538172e-17
729	1.99571356638e-17
730	2.27179544422e-17
731	2.5604419097e-17
732	2.81855206867e-17
733	3.24216351949e-17
734	3.59983864105e-17
735	4.00178132277e-17
736	4.48089386253e-17
737	4.90077285338e-17
738	5.49228810861e-17
739	6.15951576465e-17
740	6.73262124e-17
741	7.73032626242e-17
742	8.65967763017e-17
743	9.68471952669e-17
744	1.10970643331e-16
745	1.22037811397e-16
746	1.37538424935e-16
747	1.49352133923e-16
748	1.59724884196e-16
749	1.78492935835e-16
750	1.94387476142e-16
751	2.11030796788e-16
752	2.37006619433e-16
753	2.47628932541e-16
754	2.62657264774e-16
755	2.83831808937e-16
756	2.96177532151e-16
757	3.25227540533e-16
758	3.42283698995e-16
759	3.65790790717e-16
760	3.87940817569e-16
761	3.88431376659e-16
762	4.12251254526e-16
763	4.33371221421e-16
764	4.45434240422e-16
765	4.88969593651e-16
766	5.03157319944e-16
767	5.08544436832e-16
768	5.33927817557e-16
769	5.29896803158e-16
770	5.70398264306e-16
771	6.28463406273e-16
772	6.67196054772e-16
773	6.91066868465e-16
774	6.93214239352e-16
775	7.10123343371e-16
776	7.31978978983e-16
777	7.6165925633e-16
778	8.70538579324e-16
779	9.65416593487e-16
780	1.01195545973e-15
781	1.13896707281e-15
782	1.25504373405e-15
783	1.44943669792e-15
784	1.74996876275e-15
785	2.03327050011e-15
786	2.33559629331e-15
787	2.67103255393e-15
788	2.98968440411e-15
789	3.30310188833e-15
790	3.68793260224e-15
791	4.19733032805e-15
792	4.67661043854e-15
793	5.22019481407e-15
794	5.82013737887e-15
795	6.27235725661e-15
796	6.84920792309e-15
797	7.80917435248e-15
798	8.82489216658e-15
799	9.87157214788e-15
800	1.10823508152e-14
801	1.19631627485e-14
802	1.2707703245e-14
803	1.35540439049e-14
804	1.44919044194e-14
805	1.51404988966e-14
806	1.59792930205e-14
807	1.70238662088e-14
808	1.73802202396e-14
809	1.77428823185e-14
810	1.86970351926e-14
811	1.9415601707e-14
812	2.01727431208e-14
813	2.16530958842e-14
814	2.17381891959e-14
815	2.19755372825e-14
816	2.21097368141e-14
817	2.22484343833e-14
818	2.31909155439e-14
819	2.37562526535e-14
820	2.38620308732e-14
821	2.29579110512e-14
822	2.19274561824e-14
823	2.24702257486e-14
824	2.37751278322e-14
825	2.37396501861e-14
826	2.67940795284e-14
827	2.52934741896e-14
828	2.61486674861e-14
829	3.12285847987e-14
830	3.3371815284e-14
831	4.02685707308e-14
832	4.72173862325e-14
833	5.23422481067e-14
834	5.83471666392e-14
835	6.22524035263e-14
836	7.07175160284e-14
837	8.34626674285e-14
838	9.41326988889e-14
839	1.09168355609e-13
840	1.14341678568e-13
841	1.11853301427e-13
842	1.22321655369e-13
843	1.36123512544e-13
844	1.62014362907e-13
845	1.7427518252e-13
846	1.60814951627e-13
847	1.57163736631e-13
848	1.69728089363e-13
849	1.74961482327e-13
850	2.10314762924e-13
851	2.43580209417e-13
852	2.42655630821e-13
853	2.53781325756e-13
854	2.57512325064e-13
855	2.68071068414e-13
856	2.75725608964e-13
857	3.19081202627e-13
858	3.68913297675e-13
859	3.46305908275e-13
860	3.2645446001e-13
861	3.02830970931e-13
862	2.74526714532e-13
863	3.63665248209e-13
864	5.40335444676e-13
865	5.63830600822e-13
866	4.92540783373e-13
867	4.97974353909e-13
868	5.39024838678e-13
869	6.33140301787e-13
870	7.99510108248e-13
871	9.06643300572e-13
872	8.70923289033e-13
873	9.07480841039e-13
874	9.016039697e-13
875	9.18465400466e-13
876	9.64014680382e-13
877	1.13150045827e-12
878	1.13135314044e-12
879	9.80643045559e-13
880	1.21719142431e-12
881	1.21451625418e-12
882	1.08325756904e-12
883	1.46595401335e-12
884	2.08733029828e-12
885	2.24135117689e-12
886	2.15780120372e-12
887	2.24812967117e-12
888	2.39472135291e-12
889	2.74793710753e-12
890	3.03755098395e-12
891	3.09066355729e-12
892	2.7649393224e-12
893	2.62238976962e-12
894	2.4817113851e-12
895	2.96110219659e-12
896	3.33675260297e-12
897	4.01138112807e-12
898	4.19764314673e-12
899	3.98623908715e-12
900	4.74447998519e-12
901	3.9113616106e-12
902	4.43856842072e-12
903	4.18511165918e-12
904	4.89476881821e-12
905	5.66077512462e-12
906	5.65921686557e-12
907	4.73987479018e-12
908	4.79424937772e-12
909	5.55519556887e-12
910	6.45157310379e-12
911	8.41789053448e-12
912	8.63455544136e-12
913	8.64834751197e-12
914	1.00945100464e-11
915	1.06099242684e-11
916	1.04426950798e-11
917	1.20162313509e-11
918	1.37730189708e-11
919	1.46387211193e-11
920	1.21694049648e-11
921	1.00192256114e-11
922	1.20083556204e-11
923	1.02621946835e-11
924	1.35815767454e-11
925	1.66538586609e-11
926	1.80819313484e-11
927	1.44718727095e-11
928	1.50899244647e-11
929	1.71315441807e-11
930	1.37731087722e-11
931	1.09279101368e-11
932	1.54175463974e-11
933	1.89328627402e-11
934	2.15982592583e-11
935	2.13068569274e-11
936	2.50286477251e-11
937	2.75095503775e-11
938	2.89108943578e-11
939	2.7584363432e-11
940	3.6802086755e-11
941	4.02715114112e-11
942	4.54449002094e-11
943	4.79242507486e-11
944	5.11734239421e-11
945	4.02596503122e-11
946	3.90036068911e-11
947	3.56169422877e-11
948	3.72907473477e-11
949	4.77200174145e-11
950	5.88584208471e-11
951	6.96247949988e-11
952	7.46182955481e-11
953	7.77289736028e-11
954	1.03899612198e-10
955	1.17565110672e-10
956	1.29853682651e-10
957	1.57432976143e-10
958	1.74131779643e-10
959	2.10091622985e-10
960	1.87577738153e-10
961	2.07652974584e-10
962	2.1548851244e-10
963	2.07244612885e-10
964	2.82667780238e-10
965	3.39673222113e-10
966	3.77731122259e-10
967	4.47379735401e-10
968	5.07325046832e-10
969	5.09382188508e-10
970	3.60968689479e-10
971	4.20155088725e-10
972	5.04906520857e-10
973	5.49825709771e-10
974	5.74935616533e-10
975	6.59981714365e-10
976	8.10002034585e-10
977	8.70202784512e-10
978	7.03949943533e-10
979	8.37806608346e-10
980	9.06351111739e-10
981	8.37885403186e-10
982	9.93534647142e-10
983	1.00689782151e-09
984	1.42271938421e-09
985	2.28339696597e-09
986	1.94338338954e-09
987	1.74821022798e-09
988	1.79415379314e-09
989	1.86416701942e-09
990	2.69288230311e-09
991	3.81714716147e-09
992	4.55618233459e-09
993	5.60655086244e-09
994	6.91981831738e-09
995	8.57333005249e-09
996	1.08591728685e-08
997	1.55357705238e-08
998	2.51434943078e-08
999	3.12058036355e-08
1000	3.66568293624e-08
1001	4.32324311465e-08
1002	4.77533335544e-08
1003	4.64691080644e-08
1004	5.18113787727e-08
1005	6.04498277629e-08
1006	1.06039371162e-07
1007	1.65978325787e-07
1008	1.33906752181e-07
1009	1.26394281832e-07
1010	1.86485097449e-07
1011	3.52377477598e-07
1012	6.28005779654e-07
1013	6.14003968728e-07
1014	8.97241654195e-07
1015	1.0591112554e-06
1016	3.06190514892e-06
1017	5.20294460357e-06
1018	9.63131711702e-06
1019	3.66977003341e-05
1020	0.000215036430353
1021	0.000888219020404
1022	0.00371903279376
1023	0.0231916932263
