0	0.771860528442
1	0.0234951398949
2	0.00362192031671
3	0.000907302844524
4	0.000228903327703
5	3.96532483655e-05
6	7.6495396467e-06
7	6.71991780473e-06
8	3.8279098393e-06
9	3.32490544939e-06
10	1.55449959986e-06
11	8.22890513307e-07
12	8.97019938707e-07
13	8.3805017678e-07
14	4.40030378954e-07
15	2.1426311046e-07
16	1.37194444014e-07
17	1.41676604937e-07
18	1.47114233758e-07
19	1.29324316506e-07
20	6.78094260049e-08
21	4.54410598901e-08
22	5.1132971624e-08
23	4.41421392201e-08
24	4.0923846656e-08
25	3.62278501644e-08
26	2.12549301716e-08
27	1.82673743781e-08
28	1.52960899263e-08
29	1.01050002249e-08
30	1.70750278357e-08
31	1.25038723939e-08
32	8.65023942066e-09
33	4.73811438457e-09
34	4.28397130616e-09
35	6.3018405906e-09
36	6.09415261746e-09
37	5.00402819338e-09
38	2.97422266053e-09
39	3.45638523917e-09
40	5.11332667378e-09
41	4.88694894196e-09
42	3.90056042182e-09
43	2.99895794413e-09
44	3.16527584476e-09
45	2.8576183583e-09
46	2.51967316837e-09
47	2.32254713341e-09
48	1.52674971799e-09
49	1.37932136025e-09
50	1.2129306562e-09
51	1.00955300195e-09
52	9.38974741472e-10
53	9.00037336497e-10
54	1.04404212733e-09
55	1.24420645056e-09
56	1.27007503229e-09
57	1.0367307931e-09
58	6.83453041008e-10
59	5.54754086839e-10
60	6.9593639181e-10
61	7.6812179117e-10
62	7.91388119947e-10
63	7.61284150695e-10
64	6.27297563173e-10
65	4.63749615198e-10
66	3.01904940739e-10
67	2.65698548558e-10
68	2.6115209604e-10
69	3.42004078857e-10
70	2.63717710908e-10
71	1.47771567377e-10
72	2.42650307742e-10
73	2.87147727053e-10
74	2.15931912896e-10
75	1.41129745434e-10
76	2.01458122698e-10
77	1.6819467092e-10
78	2.00122085102e-10
79	2.32858323475e-10
80	2.00535547244e-10
81	1.73682762566e-10
82	1.28244386916e-10
83	1.07579039741e-10
84	1.39825019884e-10
85	1.42812244139e-10
86	1.06435295116e-10
87	7.74011288735e-11
88	6.36612036896e-11
89	6.92094804084e-11
90	8.31074264682e-11
91	8.88092196307e-11
92	7.38391945609e-11
93	4.84466485472e-11
94	5.00777331392e-11
95	4.59914892905e-11
96	6.37650560213e-11
97	8.0718665586e-11
98	4.25885776395e-11
99	3.10163475138e-11
100	3.33886661195e-11
101	4.65809177621e-11
102	6.63471722719e-11
103	4.91600570699e-11
104	2.76331610937e-11
105	2.26869049459e-11
106	2.95903244406e-11
107	3.8343070418e-11
108	3.54994048213e-11
109	2.68328406937e-11
110	1.86597292395e-11
111	2.04313686467e-11
112	2.8484720496e-11
113	2.96795416789e-11
114	2.62669774294e-11
115	1.85658681309e-11
116	1.2926854141e-11
117	1.7203364569e-11
118	2.0500514639e-11
119	1.94809522761e-11
120	1.60352954743e-11
121	9.95312276744e-12
122	8.88848970708e-12
123	1.29477385529e-11
124	1.55628826214e-11
125	1.22573993445e-11
126	7.51589109458e-12
127	5.97478742171e-12
128	8.18733307047e-12
129	1.17005188372e-11
130	1.16504565235e-11
131	8.64358771324e-12
132	5.76793057968e-12
133	4.93655835309e-12
134	5.98372332946e-12
135	7.27339088564e-12
136	6.89496997802e-12
137	4.83456660951e-12
138	3.32985922359e-12
139	3.21825954532e-12
140	4.1560387485e-12
141	4.60987815248e-12
142	3.69375924362e-12
143	2.83954737843e-12
144	2.23048013043e-12
145	2.41180339265e-12
146	2.79081424303e-12
147	2.44796317515e-12
148	2.3570966055e-12
149	2.20201237496e-12
150	2.29379215055e-12
151	2.28417786182e-12
152	1.80915951879e-12
153	1.839067152e-12
154	1.71951380946e-12
155	1.62473001339e-12
156	1.4960198123e-12
157	1.16485534402e-12
158	1.33005632795e-12
159	1.32094213361e-12
160	1.17498033626e-12
161	9.6315076363e-13
162	7.97858693329e-13
163	9.90349487743e-13
164	1.02077488428e-12
165	1.00536672495e-12
166	7.88617846873e-13
167	6.48128230726e-13
168	8.14374858832e-13
169	7.8486400326e-13
170	7.55940051326e-13
171	6.20037166918e-13
172	5.20285902498e-13
173	6.56829090642e-13
174	6.53025447511e-13
175	6.25315580972e-13
176	5.55737225015e-13
177	4.65296466941e-13
178	4.84035672104e-13
179	4.66650632322e-13
180	4.66177362697e-13
181	4.4596076684e-13
182	3.94744471255e-13
183	3.61105804904e-13
184	3.30483996706e-13
185	3.55753015439e-13
186	3.62847049812e-13
187	3.31134183001e-13
188	2.85313338541e-13
189	2.4386520398e-13
190	2.65279083939e-13
191	2.89158410776e-13
192	2.85705866876e-13
193	2.56810384361e-13
194	2.14390438753e-13
195	2.1105156707e-13
196	2.24706758553e-13
197	2.29953937286e-13
198	2.0584272544e-13
199	1.67598744459e-13
200	1.61088456207e-13
201	1.66599159478e-13
202	1.73268077564e-13
203	1.5892445623e-13
204	1.28500063189e-13
205	1.22500254809e-13
206	1.23598665405e-13
207	1.28534835303e-13
208	1.2400942798e-13
209	1.03541212041e-13
210	9.20230116346e-14
211	9.06929182077e-14
212	9.98118455629e-14
213	9.7133003093e-14
214	8.07739301219e-14
215	6.676838753e-14
216	6.35301892934e-14
217	7.46227128884e-14
218	7.09397288949e-14
219	5.64973421553e-14
220	4.54342378088e-14
221	4.46763879311e-14
222	5.51691492892e-14
223	5.10167765691e-14
224	3.89024008843e-14
225	3.05785409469e-14
226	3.25230179986e-14
227	4.12254862527e-14
228	3.68358006847e-14
229	2.81420544357e-14
230	2.30856338147e-14
231	2.58197888792e-14
232	3.1586951221e-14
233	2.71654421959e-14
234	2.1787916227e-14
235	2.01545521505e-14
236	2.15427280856e-14
237	2.2626139945e-14
238	1.92813079858e-14
239	1.85544632732e-14
240	1.98126224127e-14
241	1.89133524813e-14
242	1.57503558546e-14
243	1.38136318386e-14
244	1.71987306936e-14
245	1.97508649859e-14
246	1.66711373887e-14
247	1.15209572058e-14
248	1.0483521445e-14
249	1.51123566628e-14
250	1.75945127738e-14
251	1.410595528e-14
252	9.55675164685e-15
253	9.02583253817e-15
254	1.25591558099e-14
255	1.41971515577e-14
256	1.17113294321e-14
257	8.80870684593e-15
258	8.24956856497e-15
259	9.90172456959e-15
260	1.04921200213e-14
261	9.23436543668e-15
262	8.05798130221e-15
263	7.57354316786e-15
264	7.85501523775e-15
265	7.66115124704e-15
266	7.08069849107e-15
267	6.92728358355e-15
268	6.7318864072e-15
269	6.48651505127e-15
270	5.88547951438e-15
271	5.46868325766e-15
272	5.58986110557e-15
273	5.71113423805e-15
274	5.63309117099e-15
275	4.98132502944e-15
276	4.40778002532e-15
277	4.35632284477e-15
278	4.63181356668e-15
279	4.9036410534e-15
280	4.44205709641e-15
281	3.70831098731e-15
282	3.41162021767e-15
283	3.72779847996e-15
284	4.20807273739e-15
285	3.97229466999e-15
286	3.2463244802e-15
287	2.8179680152e-15
288	3.11535802793e-15
289	3.62325256328e-15
290	3.49065539558e-15
291	2.87087143772e-15
292	2.48463691746e-15
293	2.76138338008e-15
294	3.15897472942e-15
295	2.97949817408e-15
296	2.47665580825e-15
297	2.28438917808e-15
298	2.5782096872e-15
299	2.75868015858e-15
300	2.43792429966e-15
301	2.07256332915e-15
302	2.14101023477e-15
303	2.44267281909e-15
304	2.35866107859e-15
305	1.90715089564e-15
306	1.72715656056e-15
307	2.01760958144e-15
308	2.24549052075e-15
309	1.92306941032e-15
310	1.44810142609e-15
311	1.47614280493e-15
312	1.87236586052e-15
313	1.94558126044e-15
314	1.48075545448e-15
315	1.10853752563e-15
316	1.30396246745e-15
317	1.66157482638e-15
318	1.5608500294e-15
319	1.08784632642e-15
320	8.94553460321e-16
321	1.16760817984e-15
322	1.38399539592e-15
323	1.159169181e-15
324	7.9247716874e-16
325	7.74563792434e-16
326	1.02447916518e-15
327	1.07164483237e-15
328	8.07655889714e-16
329	5.99323015271e-16
330	6.95613837859e-16
331	8.56871838118e-16
332	7.73301863843e-16
333	5.44726153079e-16
334	4.80327116474e-16
335	6.13861954956e-16
336	6.74190504016e-16
337	5.28767499638e-16
338	3.72533441559e-16
339	3.98533096683e-16
340	5.12581294179e-16
341	4.98562994958e-16
342	3.53439448072e-16
343	2.69766921345e-16
344	3.29762921404e-16
345	4.00791806343e-16
346	3.51105946456e-16
347	2.40482294172e-16
348	2.08926247209e-16
349	2.65423578999e-16
350	2.95604469299e-16
351	2.4047862042e-16
352	1.71310395943e-16
353	1.68553711661e-16
354	2.07256952596e-16
355	2.10559163723e-16
356	1.64847614301e-16
357	1.28292471106e-16
358	1.3719400321e-16
359	1.58973103555e-16
360	1.49642636426e-16
361	1.16468119954e-16
362	9.96146080845e-17
363	1.10930405574e-16
364	1.21912529124e-16
365	1.09473602424e-16
366	8.66027577828e-17
367	7.936712128e-17
368	8.93759574176e-17
369	9.49906992143e-17
370	8.3893994612e-17
371	6.81216189291e-17
372	6.47769370088e-17
373	7.25463128573e-17
374	7.58142745075e-17
375	6.72236077567e-17
376	5.61211042189e-17
377	5.42495076096e-17
378	6.00016525775e-17
379	6.21424104456e-17
380	5.56836031274e-17
381	4.76529238978e-17
382	4.65189943249e-17
383	5.08599425156e-17
384	5.22650274105e-17
385	4.71665187562e-17
386	4.111526753e-17
387	4.05943681589e-17
388	4.41500264511e-17
389	4.49903821887e-17
390	4.05571932924e-17
391	3.57487663539e-17
392	3.58327970259e-17
393	3.90769493313e-17
394	3.94551984238e-17
395	3.52172475085e-17
396	3.12052431179e-17
397	3.19118232582e-17
398	3.50811071657e-17
399	3.50032763548e-17
400	3.07070999062e-17
401	2.7323575508e-17
402	2.87001441805e-17
403	3.18139953922e-17
404	3.11505305734e-17
405	2.67108683619e-17
406	2.40283852719e-17
407	2.6124156348e-17
408	2.9016923152e-17
409	2.75617526091e-17
410	2.30441464727e-17
411	2.12970827483e-17
412	2.40934197599e-17
413	2.64487175e-17
414	2.40329205067e-17
415	1.9677803791e-17
416	1.91334259184e-17
417	2.245229381e-17
418	2.38655386573e-17
419	2.04923804072e-17
420	1.6709189321e-17
421	1.75225274005e-17
422	2.09606085953e-17
423	2.10739815372e-17
424	1.70081185608e-17
425	1.42931246998e-17
426	1.63665527125e-17
427	1.93445966324e-17
428	1.79991320975e-17
429	1.37841575281e-17
430	1.2531111673e-17
431	1.54567673494e-17
432	1.73767279585e-17
433	1.47452123618e-17
434	1.10706386312e-17
435	1.13896211429e-17
436	1.45043365045e-17
437	1.49761088442e-17
438	1.15761257874e-17
439	9.05363748032e-18
440	1.06721897599e-17
441	1.32493579852e-17
442	1.225924044e-17
443	8.81630811843e-18
444	7.75678384187e-18
445	1.00783838044e-17
446	1.15737900854e-17
447	9.5027548728e-18
448	6.71025768328e-18
449	7.0170693925e-18
450	9.32522944619e-18
451	9.55710132962e-18
452	7.03443058835e-18
453	5.32244393632e-18
454	6.55304909514e-18
455	8.264902235e-18
456	7.43357460545e-18
457	5.10108090928e-18
458	4.52525141958e-18
459	6.09068277977e-18
460	6.92515514661e-18
461	5.48299859888e-18
462	3.77944261233e-18
463	4.08069530668e-18
464	5.46652095725e-18
465	5.46989850442e-18
466	3.91178358173e-18
467	2.98311733582e-18
468	3.75075984219e-18
469	4.66378238898e-18
470	4.09943141846e-18
471	2.79426633886e-18
472	2.53171544547e-18
473	3.38409299694e-18
474	3.77231194209e-18
475	2.96458571973e-18
476	2.07835949866e-18
477	2.24584395055e-18
478	2.93849999206e-18
479	2.91599402406e-18
480	2.12285430066e-18
481	1.64692720839e-18
482	2.0063861968e-18
483	2.44919083738e-18
484	2.18929013465e-18
485	1.5510300268e-18
486	1.38257440625e-18
487	1.76465715936e-18
488	1.97949393342e-18
489	1.63222378458e-18
490	1.1847279818e-18
491	1.20190099344e-18
492	1.52473243971e-18
493	1.58044353696e-18
494	1.23818099992e-18
495	9.56722447882e-19
496	1.06512838648e-18
497	1.31127863545e-18
498	1.27471624058e-18
499	9.78807245221e-19
500	8.16966426118e-19
501	9.63854812534e-19
502	1.14588280816e-18
503	1.06539032324e-18
504	8.19946270837e-19
505	7.38758948938e-19
506	9.02766291413e-19
507	1.04304905059e-18
508	9.42049648904e-19
509	7.36172257801e-19
510	7.11971280969e-19
511	8.9176902166e-19
512	1.00838465765e-18
513	8.91769021669e-19
514	7.1197128082e-19
515	7.36172257841e-19
516	9.42049648958e-19
517	1.04304905067e-18
518	9.02766291448e-19
519	7.38758948893e-19
520	8.19946270852e-19
521	1.06539032322e-18
522	1.14588280818e-18
523	9.63854812496e-19
524	8.16966426137e-19
525	9.7880724526e-19
526	1.2747162406e-18
527	1.31127863539e-18
528	1.06512838649e-18
529	9.56722447933e-19
530	1.23818099991e-18
531	1.5804435369e-18
532	1.5247324397e-18
533	1.20190099344e-18
534	1.18472798177e-18
535	1.63222378459e-18
536	1.97949393342e-18
537	1.76465715941e-18
538	1.38257440628e-18
539	1.55103002675e-18
540	2.18929013465e-18
541	2.44919083736e-18
542	2.00638619678e-18
543	1.64692720834e-18
544	2.12285430066e-18
545	2.91599402402e-18
546	2.93849999204e-18
547	2.2458439505e-18
548	2.07835949866e-18
549	2.96458571967e-18
550	3.7723119421e-18
551	3.384092997e-18
552	2.53171544547e-18
553	2.79426633894e-18
554	4.09943141843e-18
555	4.66378238895e-18
556	3.75075984216e-18
557	2.98311733589e-18
558	3.9117835817e-18
559	5.46989850436e-18
560	5.46652095725e-18
561	4.08069530659e-18
562	3.77944261241e-18
563	5.4829985988e-18
564	6.92515514662e-18
565	6.09068277976e-18
566	4.52525141954e-18
567	5.10108090928e-18
568	7.43357460545e-18
569	8.26490223489e-18
570	6.55304909509e-18
571	5.32244393617e-18
572	7.03443058842e-18
573	9.55710132966e-18
574	9.32522944636e-18
575	7.01706939286e-18
576	6.71025768328e-18
577	9.50275487244e-18
578	1.1573790086e-17
579	1.00783838046e-17
580	7.7567838419e-18
581	8.81630811836e-18
582	1.22592404401e-17
583	1.32493579853e-17
584	1.06721897599e-17
585	9.05363748014e-18
586	1.15761257874e-17
587	1.49761088442e-17
588	1.45043365046e-17
589	1.1389621143e-17
590	1.1070638631e-17
591	1.47452123618e-17
592	1.73767279585e-17
593	1.5456767349e-17
594	1.25311116731e-17
595	1.37841575278e-17
596	1.79991320975e-17
597	1.93445966324e-17
598	1.63665527125e-17
599	1.42931246995e-17
600	1.70081185608e-17
601	2.10739815369e-17
602	2.09606085953e-17
603	1.75225274005e-17
604	1.6709189321e-17
605	2.04923804076e-17
606	2.38655386574e-17
607	2.24522938097e-17
608	1.91334259184e-17
609	1.96778037917e-17
610	2.4032920507e-17
611	2.64487175001e-17
612	2.40934197598e-17
613	2.12970827482e-17
614	2.30441464727e-17
615	2.75617526092e-17
616	2.9016923152e-17
617	2.61241563482e-17
618	2.40283852718e-17
619	2.67108683619e-17
620	3.11505305734e-17
621	3.18139953921e-17
622	2.87001441807e-17
623	2.73235755078e-17
624	3.07070999062e-17
625	3.50032763553e-17
626	3.50811071658e-17
627	3.1911823258e-17
628	3.12052431178e-17
629	3.52172475087e-17
630	3.9455198424e-17
631	3.90769493308e-17
632	3.58327970259e-17
633	3.57487663543e-17
634	4.05571932923e-17
635	4.49903821891e-17
636	4.41500264513e-17
637	4.05943681594e-17
638	4.11152675282e-17
639	4.71665187557e-17
640	5.22650274105e-17
641	5.08599425138e-17
642	4.6518994323e-17
643	4.76529238969e-17
644	5.56836031274e-17
645	6.21424104456e-17
646	6.00016525773e-17
647	5.42495076099e-17
648	5.61211042189e-17
649	6.72236077564e-17
650	7.58142745074e-17
651	7.25463128572e-17
652	6.47769370089e-17
653	6.8121618929e-17
654	8.38939946126e-17
655	9.4990699214e-17
656	8.93759574176e-17
657	7.93671212801e-17
658	8.66027577828e-17
659	1.09473602425e-16
660	1.21912529124e-16
661	1.10930405573e-16
662	9.96146080841e-17
663	1.16468119954e-16
664	1.49642636426e-16
665	1.58973103555e-16
666	1.3719400321e-16
667	1.28292471106e-16
668	1.64847614301e-16
669	2.10559163723e-16
670	2.07256952596e-16
671	1.68553711665e-16
672	1.71310395942e-16
673	2.40478620421e-16
674	2.95604469298e-16
675	2.65423578997e-16
676	2.08926247209e-16
677	2.40482294172e-16
678	3.51105946456e-16
679	4.00791806341e-16
680	3.29762921403e-16
681	2.69766921345e-16
682	3.53439448071e-16
683	4.98562994958e-16
684	5.12581294179e-16
685	3.98533096682e-16
686	3.72533441563e-16
687	5.28767499642e-16
688	6.74190504016e-16
689	6.13861954958e-16
690	4.80327116473e-16
691	5.4472615308e-16
692	7.73301863843e-16
693	8.56871838117e-16
694	6.9561383786e-16
695	5.99323015273e-16
696	8.07655889714e-16
697	1.07164483237e-15
698	1.02447916518e-15
699	7.74563792434e-16
700	7.9247716874e-16
701	1.159169181e-15
702	1.38399539592e-15
703	1.16760817984e-15
704	8.94553460321e-16
705	1.08784632644e-15
706	1.5608500294e-15
707	1.66157482638e-15
708	1.30396246745e-15
709	1.10853752563e-15
710	1.48075545448e-15
711	1.94558126044e-15
712	1.87236586052e-15
713	1.47614280493e-15
714	1.44810142609e-15
715	1.92306941032e-15
716	2.24549052075e-15
717	2.01760958144e-15
718	1.72715656056e-15
719	1.90715089565e-15
720	2.35866107859e-15
721	2.44267281909e-15
722	2.14101023476e-15
723	2.07256332915e-15
724	2.43792429966e-15
725	2.75868015858e-15
726	2.5782096872e-15
727	2.28438917808e-15
728	2.47665580825e-15
729	2.97949817408e-15
730	3.15897472942e-15
731	2.76138338008e-15
732	2.48463691746e-15
733	2.87087143772e-15
734	3.49065539558e-15
735	3.62325256329e-15
736	3.11535802793e-15
737	2.81796801519e-15
738	3.2463244802e-15
739	3.97229466999e-15
740	4.20807273739e-15
741	3.72779847996e-15
742	3.41162021767e-15
743	3.70831098731e-15
744	4.44205709641e-15
745	4.90364105341e-15
746	4.63181356667e-15
747	4.35632284477e-15
748	4.40778002532e-15
749	4.98132502944e-15
750	5.63309117099e-15
751	5.71113423803e-15
752	5.58986110557e-15
753	5.46868325766e-15
754	5.88547951438e-15
755	6.48651505126e-15
756	6.7318864072e-15
757	6.92728358356e-15
758	7.08069849107e-15
759	7.66115124704e-15
760	7.85501523775e-15
761	7.57354316786e-15
762	8.05798130221e-15
763	9.23436543668e-15
764	1.04921200213e-14
765	9.90172456955e-15
766	8.24956856494e-15
767	8.80870684595e-15
768	1.17113294321e-14
769	1.41971515579e-14
770	1.255915581e-14
771	9.02583253819e-15
772	9.55675164685e-15
773	1.410595528e-14
774	1.75945127738e-14
775	1.51123566628e-14
776	1.04835214451e-14
777	1.15209572058e-14
778	1.66711373887e-14
779	1.97508649859e-14
780	1.71987306936e-14
781	1.38136318386e-14
782	1.57503558546e-14
783	1.89133524813e-14
784	1.98126224127e-14
785	1.85544632732e-14
786	1.92813079858e-14
787	2.2626139945e-14
788	2.15427280856e-14
789	2.01545521505e-14
790	2.1787916227e-14
791	2.71654421959e-14
792	3.1586951221e-14
793	2.58197888792e-14
794	2.30856338147e-14
795	2.81420544357e-14
796	3.68358006847e-14
797	4.12254862527e-14
798	3.25230179986e-14
799	3.0578540947e-14
800	3.89024008843e-14
801	5.10167765691e-14
802	5.51691492892e-14
803	4.46763879311e-14
804	4.54342378088e-14
805	5.64973421553e-14
806	7.09397288949e-14
807	7.46227128884e-14
808	6.35301892934e-14
809	6.676838753e-14
810	8.07739301219e-14
811	9.7133003093e-14
812	9.98118455629e-14
813	9.06929182078e-14
814	9.20230116346e-14
815	1.03541212041e-13
816	1.2400942798e-13
817	1.28534835303e-13
818	1.23598665405e-13
819	1.22500254809e-13
820	1.28500063189e-13
821	1.5892445623e-13
822	1.73268077564e-13
823	1.66599159478e-13
824	1.61088456207e-13
825	1.67598744459e-13
826	2.0584272544e-13
827	2.29953937286e-13
828	2.24706758553e-13
829	2.1105156707e-13
830	2.14390438753e-13
831	2.56810384361e-13
832	2.85705866876e-13
833	2.89158410776e-13
834	2.65279083939e-13
835	2.43865203981e-13
836	2.85313338541e-13
837	3.31134183001e-13
838	3.62847049812e-13
839	3.55753015439e-13
840	3.30483996706e-13
841	3.61105804904e-13
842	3.94744471255e-13
843	4.4596076684e-13
844	4.66177362697e-13
845	4.66650632322e-13
846	4.84035672104e-13
847	4.65296466941e-13
848	5.55737225015e-13
849	6.25315580972e-13
850	6.53025447511e-13
851	6.56829090642e-13
852	5.20285902498e-13
853	6.20037166918e-13
854	7.55940051326e-13
855	7.8486400326e-13
856	8.14374858832e-13
857	6.48128230726e-13
858	7.88617846873e-13
859	1.00536672495e-12
860	1.02077488428e-12
861	9.90349487743e-13
862	7.97858693329e-13
863	9.6315076363e-13
864	1.17498033626e-12
865	1.32094213361e-12
866	1.33005632795e-12
867	1.16485534402e-12
868	1.4960198123e-12
869	1.62473001339e-12
870	1.71951380946e-12
871	1.839067152e-12
872	1.80915951879e-12
873	2.28417786182e-12
874	2.29379215055e-12
875	2.20201237496e-12
876	2.3570966055e-12
877	2.44796317515e-12
878	2.79081424303e-12
879	2.41180339265e-12
880	2.23048013043e-12
881	2.83954737843e-12
882	3.69375924362e-12
883	4.60987815248e-12
884	4.1560387485e-12
885	3.21825954532e-12
886	3.32985922359e-12
887	4.83456660951e-12
888	6.89496997802e-12
889	7.27339088565e-12
890	5.98372332946e-12
891	4.93655835309e-12
892	5.76793057968e-12
893	8.64358771324e-12
894	1.16504565235e-11
895	1.17005188372e-11
896	8.18733307047e-12
897	5.97478742171e-12
898	7.51589109458e-12
899	1.22573993445e-11
900	1.55628826214e-11
901	1.29477385529e-11
902	8.88848970708e-12
903	9.95312276744e-12
904	1.60352954743e-11
905	1.94809522761e-11
906	2.0500514639e-11
907	1.7203364569e-11
908	1.2926854141e-11
909	1.85658681309e-11
910	2.62669774294e-11
911	2.96795416789e-11
912	2.8484720496e-11
913	2.04313686467e-11
914	1.86597292395e-11
915	2.68328406937e-11
916	3.54994048213e-11
917	3.8343070418e-11
918	2.95903244406e-11
919	2.26869049459e-11
920	2.76331610937e-11
921	4.91600570699e-11
922	6.63471722719e-11
923	4.65809177621e-11
924	3.33886661195e-11
925	3.10163475138e-11
926	4.25885776395e-11
927	8.0718665586e-11
928	6.37650560213e-11
929	4.59914892905e-11
930	5.00777331392e-11
931	4.84466485472e-11
932	7.38391945609e-11
933	8.88092196307e-11
934	8.31074264682e-11
935	6.92094804084e-11
936	6.36612036896e-11
937	7.74011288735e-11
938	1.06435295116e-10
939	1.42812244139e-10
940	1.39825019884e-10
941	1.07579039741e-10
942	1.28244386916e-10
943	1.73682762566e-10
944	2.00535547244e-10
945	2.32858323475e-10
946	2.00122085102e-10
947	1.6819467092e-10
948	2.01458122698e-10
949	1.41129745434e-10
950	2.15931912896e-10
951	2.87147727053e-10
952	2.42650307742e-10
953	1.47771567377e-10
954	2.63717710908e-10
955	3.42004078857e-10
956	2.6115209604e-10
957	2.65698548558e-10
958	3.01904940739e-10
959	4.63749615198e-10
960	6.27297563173e-10
961	7.61284150695e-10
962	7.91388119947e-10
963	7.6812179117e-10
964	6.9593639181e-10
965	5.54754086839e-10
966	6.83453041008e-10
967	1.0367307931e-09
968	1.27007503229e-09
969	1.24420645056e-09
970	1.04404212733e-09
971	9.00037336497e-10
972	9.38974741472e-10
973	1.00955300195e-09
974	1.2129306562e-09
975	1.37932136025e-09
976	1.52674971799e-09
977	2.32254713341e-09
978	2.51967316837e-09
979	2.8576183583e-09
980	3.16527584476e-09
981	2.99895794413e-09
982	3.90056042182e-09
983	4.88694894196e-09
984	5.11332667378e-09
985	3.45638523917e-09
986	2.97422266053e-09
987	5.00402819338e-09
988	6.09415261746e-09
989	6.3018405906e-09
990	4.28397130616e-09
991	4.73811438457e-09
992	8.65023942066e-09
993	1.25038723939e-08
994	1.70750278357e-08
995	1.01050002249e-08
996	1.52960899263e-08
997	1.82673743781e-08
998	2.12549301716e-08
999	3.62278501644e-08
1000	4.0923846656e-08
1001	4.41421392201e-08
1002	5.1132971624e-08
1003	4.54410598901e-08
1004	6.78094260049e-08
1005	1.29324316506e-07
1006	1.47114233758e-07
1007	1.41676604937e-07
1008	1.37194444014e-07
1009	2.1426311046e-07
1010	4.40030378954e-07
1011	8.3805017678e-07
1012	8.97019938707e-07
1013	8.22890513307e-07
1014	1.55449959986e-06
1015	3.32490544939e-06
1016	3.8279098393e-06
1017	6.71991780473e-06
1018	7.6495396467e-06
1019	3.96532483655e-05
1020	0.000228903327703
1021	0.000907302844524
1022	0.00362192031671
1023	0.0234951398949
