0	0.895336864811
1	4.08477542016e-18
2	0.0107996714045
3	5.75479757599e-18
4	0.000583876139993
5	1.74294348644e-18
6	4.94256950948e-05
7	1.16011972791e-18
8	3.75418666435e-05
9	1.97432893344e-18
10	3.83603903227e-05
11	7.8486489613e-19
12	2.17862446013e-05
13	5.51767672821e-19
14	6.13988636495e-06
15	3.94726905127e-19
16	4.69706543675e-06
17	4.51501679879e-19
18	3.39713835767e-06
19	3.66028363611e-19
20	1.26303218178e-06
21	3.05551218488e-19
22	1.08705755582e-06
23	1.72083703969e-19
24	9.99380834424e-07
25	2.46916518759e-19
26	3.29792458048e-07
27	1.48070820145e-19
28	3.29345003851e-07
29	1.564296581e-19
30	4.33103293711e-07
31	1.42250368557e-19
32	1.57784448821e-07
33	1.61417514913e-19
34	1.13255411857e-07
35	1.01508537571e-19
36	3.49860417734e-07
37	1.76233645555e-19
38	8.31971784447e-08
39	1.05507704707e-19
40	1.64721295035e-07
41	1.29125259125e-19
42	1.40302376367e-07
43	8.86361352638e-20
44	1.4276207983e-07
45	1.69857053576e-19
46	1.09891086915e-07
47	5.71697592184e-20
48	5.37701543908e-08
49	5.89680202856e-20
50	7.40441554919e-08
51	5.04794291665e-20
52	2.43645212806e-08
53	4.15484998842e-20
54	3.23692725828e-08
55	2.8045767499e-20
56	2.0424994468e-08
57	2.84230472837e-20
58	1.26440713131e-08
59	3.25618140366e-20
60	1.36242430199e-08
61	2.31162279137e-20
62	1.29934774564e-08
63	1.72070283928e-20
64	8.17814404165e-09
65	2.04881914058e-20
66	6.08602277102e-09
67	1.54366625947e-20
68	8.00656608875e-09
69	1.51629571152e-20
70	6.87698475425e-09
71	1.58816217072e-20
72	3.65888720974e-09
73	1.16753519769e-20
74	3.40613556727e-09
75	1.22410761392e-20
76	4.27682795548e-09
77	1.32867474399e-20
78	3.82295231862e-09
79	1.30949874911e-20
80	2.19301961657e-09
81	8.11036852295e-21
82	2.16180704759e-09
83	8.30418293028e-21
84	2.55721048185e-09
85	7.99068575563e-21
86	2.09034570968e-09
87	9.69371945031e-21
88	1.23686809604e-09
89	3.84721282852e-21
90	1.05420613491e-09
91	2.83259775982e-21
92	6.91568454311e-10
93	2.99160057307e-21
94	5.40179760221e-10
95	3.69597009755e-21
96	7.73669353017e-10
97	2.26073075922e-21
98	5.32528204835e-10
99	2.2105719678e-21
100	4.13533632613e-10
101	2.22225723659e-21
102	4.36036159016e-10
103	2.06203908519e-21
104	6.77051563539e-10
105	1.53126939288e-21
106	3.90924601285e-10
107	1.30146688436e-21
108	3.92103339463e-10
109	1.53459700406e-21
110	4.19135457055e-10
111	1.67459535887e-21
112	3.62778938628e-10
113	1.41272253169e-21
114	3.39913594473e-10
115	1.34328502429e-21
116	3.75378138455e-10
117	1.85392674128e-21
118	4.02924822511e-10
119	1.55367040454e-21
120	3.0307563969e-10
121	1.35911792036e-21
122	3.85865228601e-10
123	1.80209888305e-21
124	2.29382240136e-10
125	1.74842138936e-21
126	3.04852829034e-10
127	1.8584037534e-21
128	3.09382363849e-10
129	1.2240797795e-21
130	3.01098226066e-10
131	1.99320064826e-21
132	2.09523019555e-10
133	1.43145237098e-21
134	1.80913511151e-10
135	1.54110942567e-21
136	2.7271088523e-10
137	1.21630941525e-21
138	1.88775134019e-10
139	1.65920445576e-21
140	1.93122780617e-10
141	1.32523341671e-21
142	1.47707478791e-10
143	1.15783824632e-21
144	1.87685315853e-10
145	1.26043839528e-21
146	1.33614745235e-10
147	1.25608551373e-21
148	1.4421347552e-10
149	1.05902074311e-21
150	1.12203099034e-10
151	8.58614328242e-22
152	9.63806738032e-11
153	8.77741506404e-22
154	7.47192742478e-11
155	7.13122842119e-22
156	8.19312689712e-11
157	5.66591222051e-22
158	5.76649275675e-11
159	5.03119248737e-22
160	4.56083516203e-11
161	4.37805373194e-22
162	3.61082330064e-11
163	3.75505592912e-22
164	3.73235189359e-11
165	3.35476254881e-22
166	2.92560701272e-11
167	3.23540500475e-22
168	3.1101921264e-11
169	3.00124992643e-22
170	2.76500125147e-11
171	3.29418366312e-22
172	3.25948496607e-11
173	3.17635054559e-22
174	2.54594609512e-11
175	3.44680258081e-22
176	3.064977777e-11
177	3.58396042724e-22
178	2.42853565498e-11
179	2.92543782023e-22
180	3.60113107435e-11
181	3.40744062747e-22
182	2.42020356827e-11
183	2.66518534918e-22
184	2.42540984801e-11
185	2.99006099763e-22
186	2.1664848221e-11
187	1.74034013446e-22
188	2.36538572122e-11
189	2.66424505332e-22
190	2.18203473016e-11
191	1.90131694685e-22
192	1.82628655834e-11
193	2.06730740169e-22
194	1.87051330848e-11
195	1.61944737133e-22
196	1.4587048156e-11
197	2.03674185296e-22
198	1.82839469138e-11
199	1.63815173967e-22
200	1.40412406645e-11
201	1.55359060778e-22
202	1.50082712127e-11
203	1.50289244935e-22
204	9.03785539452e-12
205	1.36921816785e-22
206	1.3996762706e-11
207	1.38586769422e-22
208	8.48509472104e-12
209	1.05524250304e-22
210	9.58781892547e-12
211	1.3035946089e-22
212	6.76765094613e-12
213	8.41234213048e-23
214	7.85487701306e-12
215	1.09996007683e-22
216	6.47245625399e-12
217	7.6592733492e-23
218	4.12506045684e-12
219	9.2466513155e-23
220	5.61642391736e-12
221	6.39601921208e-23
222	3.85784209451e-12
223	7.65292419782e-23
224	4.84870675002e-12
225	6.82745401064e-23
226	3.20410970212e-12
227	6.49988838042e-23
228	3.9384434808e-12
229	5.82922060602e-23
230	2.86225083655e-12
231	6.43494264851e-23
232	3.79579439571e-12
233	6.24807094005e-23
234	3.2159343095e-12
235	5.61707319673e-23
236	3.52174586279e-12
237	5.96418000404e-23
238	2.36091773405e-12
239	5.53466551967e-23
240	3.33762543053e-12
241	6.25626076093e-23
242	2.8272229464e-12
243	4.43104840022e-23
244	3.01011270562e-12
245	6.05176791137e-23
246	2.37403021951e-12
247	4.04663469379e-23
248	2.3461419691e-12
249	5.38708522449e-23
250	2.65577025518e-12
251	3.64101788459e-23
252	2.0563717434e-12
253	4.63897838515e-23
254	2.55239471218e-12
255	3.53734985179e-23
256	1.80565158771e-12
257	3.90171983825e-23
258	2.4496965199e-12
259	3.72822730323e-23
260	1.80755818452e-12
261	3.49830754443e-23
262	2.52468679081e-12
263	3.68007349659e-23
264	1.98531279738e-12
265	3.60715927952e-23
266	2.47328871504e-12
267	4.04181318896e-23
268	1.88902268137e-12
269	3.34412336616e-23
270	2.51435162837e-12
271	4.34206691003e-23
272	2.1012287125e-12
273	3.39562998048e-23
274	2.36485678002e-12
275	4.51825148007e-23
276	2.02179010863e-12
277	2.96842587034e-23
278	1.94653823571e-12
279	4.51669669134e-23
280	2.15278277746e-12
281	2.89277607969e-23
282	1.50517998431e-12
283	3.80185177451e-23
284	2.06025165405e-12
285	2.90519266758e-23
286	1.12194601607e-12
287	2.86923359246e-23
288	1.77055253842e-12
289	3.07313131703e-23
290	9.95283927983e-13
291	1.9179456873e-23
292	1.32016085176e-12
293	2.96518562124e-23
294	1.07463780662e-12
295	1.59109806001e-23
296	9.58313698312e-13
297	2.57621305549e-23
298	1.07923816906e-12
299	1.64018343644e-23
300	7.73603482519e-13
301	2.1447448498e-23
302	1.0171342023e-12
303	1.85097313362e-23
304	7.916156986e-13
305	1.93366306159e-23
306	9.64649175513e-13
307	1.90126965743e-23
308	7.85823937248e-13
309	1.8483955084e-23
310	8.87095129797e-13
311	1.92338911495e-23
312	7.61195976361e-13
313	1.72395973909e-23
314	8.46794272601e-13
315	1.82571296179e-23
316	7.20731085968e-13
317	1.54274298313e-23
318	7.44175313095e-13
319	1.68859390515e-23
320	6.41770317271e-13
321	1.29624379286e-23
322	6.14285739312e-13
323	1.48404959926e-23
324	5.83994146684e-13
325	1.08812284725e-23
326	4.82526843757e-13
327	1.26050736178e-23
328	5.21790284491e-13
329	9.76845345984e-24
330	3.61297712086e-13
331	1.00348292513e-23
332	4.50633896036e-13
333	9.87293021259e-24
334	3.07417897335e-13
335	7.97310954361e-24
336	3.57628990902e-13
337	9.96486515198e-24
338	3.11969471276e-13
339	7.31553208858e-24
340	2.74739714898e-13
341	9.21008698569e-24
342	3.10384760685e-13
343	7.77919176869e-24
344	2.33931305393e-13
345	7.83876167802e-24
346	2.78354940279e-13
347	7.99197705639e-24
348	2.38315382998e-13
349	6.7992736253e-24
350	2.35322754465e-13
351	7.11272384617e-24
352	2.30270522351e-13
353	6.20735600603e-24
354	2.02369632721e-13
355	5.76008552178e-24
356	2.02701728315e-13
357	5.46294219974e-24
358	1.88001460043e-13
359	4.73506007579e-24
360	1.70568396396e-13
361	4.53923443679e-24
362	1.66782914729e-13
363	4.17739470606e-24
364	1.44445694485e-13
365	3.83666629917e-24
366	1.40192914941e-13
367	3.8347491576e-24
368	1.26625266552e-13
369	3.51473552468e-24
370	1.18603249465e-13
371	3.62591792247e-24
372	1.09426008567e-13
373	3.38085644167e-24
374	9.78607901086e-14
375	3.48737856203e-24
376	9.28297260677e-14
377	3.22469064076e-24
378	7.94728459043e-14
379	3.22014041707e-24
380	7.96691712696e-14
381	3.00432572862e-24
382	6.50233398106e-14
383	2.73596706694e-24
384	6.31161753957e-14
385	2.65620878673e-24
386	5.40055737168e-14
387	2.20716748476e-24
388	4.77786715556e-14
389	2.1233954999e-24
390	4.62332220132e-14
391	1.77366687048e-24
392	3.85081559113e-14
393	1.58397287323e-24
394	3.74209602412e-14
395	1.45547822653e-24
396	3.37440034835e-14
397	1.26575527582e-24
398	3.15039412821e-14
399	1.22329883336e-24
400	3.11134222471e-14
401	1.16332838516e-24
402	2.98897856711e-14
403	1.14632820225e-24
404	2.8583256337e-14
405	1.15856743169e-24
406	2.88032190494e-14
407	1.18839448008e-24
408	2.73882208197e-14
409	1.16650417822e-24
410	2.58510861148e-14
411	1.19941659624e-24
412	2.61360453525e-14
413	1.17098381229e-24
414	2.25114756549e-14
415	1.08076057224e-24
416	2.22197350624e-14
417	1.08994634542e-24
418	1.95243359146e-14
419	9.13496267261e-25
420	1.61976284496e-14
421	8.83089552188e-25
422	1.60168076178e-14
423	7.51487874267e-25
424	1.17954050338e-14
425	6.22132527366e-25
426	1.13134820704e-14
427	5.8144568128e-25
428	9.14815778969e-15
429	4.36170866787e-25
430	7.23562678598e-15
431	4.15811330983e-25
432	7.23507590911e-15
433	3.52392058915e-25
434	5.7352818194e-15
435	3.20846791753e-25
436	5.72732834487e-15
437	3.17270900614e-25
438	5.56369488331e-15
439	3.09339874664e-25
440	5.21549307746e-15
441	3.14875364433e-25
442	5.45767904653e-15
443	3.31678255322e-25
444	5.52887341358e-15
445	3.31801428518e-25
446	5.40084004221e-15
447	3.30970081031e-25
448	5.42157001282e-15
449	3.40149532956e-25
450	5.31257836138e-15
451	3.14392824657e-25
452	4.73895102946e-15
453	2.94680348064e-25
454	4.72729086588e-15
455	2.79738526591e-25
456	4.11826091368e-15
457	2.29349105374e-25
458	3.54948253722e-15
459	2.24579642049e-25
460	3.40783442028e-15
461	1.81706095869e-25
462	2.47420761361e-15
463	1.50425035248e-25
464	2.43887329327e-15
465	1.4310823382e-25
466	1.93385276436e-15
467	1.03901997978e-25
468	1.54779330344e-15
469	1.09504563225e-25
470	1.5638976816e-15
471	9.14268232189e-26
472	1.16971432695e-15
473	8.61978382224e-26
474	1.21793447733e-15
475	8.93303049349e-26
476	1.15366888954e-15
477	8.34276360648e-26
478	1.07480918332e-15
479	8.72263180067e-26
480	1.16008175715e-15
481	8.74115463995e-26
482	1.13725899087e-15
483	8.7488789348e-26
484	1.13833979643e-15
485	8.72901539032e-26
486	1.16547770002e-15
487	8.60840832832e-26
488	1.15316771911e-15
489	8.15440363944e-26
490	1.12753146815e-15
491	7.70197949879e-26
492	1.11012887383e-15
493	7.42766038036e-26
494	1.07587051981e-15
495	7.140870406e-26
496	9.79117759855e-16
497	6.45660920085e-26
498	1.01026555202e-15
499	6.31147915943e-26
500	8.91396983886e-16
501	5.7173990428e-26
502	8.76738411798e-16
503	6.05633439909e-26
504	8.46135053337e-16
505	5.7739379374e-26
506	7.67584282213e-16
507	5.79731311575e-26
508	7.9835300784e-16
509	5.71532903377e-26
510	7.39509851406e-16
511	6.15602442131e-26
512	7.63825871438e-16
513	6.15602442131e-26
514	7.39509851416e-16
515	5.71532903377e-26
516	7.98353007834e-16
517	5.79731311575e-26
518	7.67584282214e-16
519	5.7739379374e-26
520	8.46135053341e-16
521	6.05633439909e-26
522	8.76738411799e-16
523	5.7173990428e-26
524	8.91396983883e-16
525	6.31147915943e-26
526	1.01026555203e-15
527	6.45660920085e-26
528	9.79117759856e-16
529	7.140870406e-26
530	1.07587051982e-15
531	7.42766038036e-26
532	1.11012887383e-15
533	7.70197949879e-26
534	1.12753146815e-15
535	8.15440363944e-26
536	1.15316771911e-15
537	8.60840832832e-26
538	1.16547770002e-15
539	8.72901539032e-26
540	1.13833979643e-15
541	8.7488789348e-26
542	1.13725899087e-15
543	8.74115463995e-26
544	1.16008175715e-15
545	8.72263180067e-26
546	1.07480918331e-15
547	8.34276360648e-26
548	1.15366888954e-15
549	8.93303049349e-26
550	1.21793447733e-15
551	8.61978382224e-26
552	1.16971432695e-15
553	9.14268232189e-26
554	1.56389768159e-15
555	1.09504563225e-25
556	1.54779330344e-15
557	1.03901997978e-25
558	1.93385276437e-15
559	1.4310823382e-25
560	2.43887329327e-15
561	1.50425035248e-25
562	2.47420761361e-15
563	1.81706095869e-25
564	3.40783442028e-15
565	2.24579642049e-25
566	3.54948253722e-15
567	2.29349105374e-25
568	4.11826091368e-15
569	2.79738526591e-25
570	4.72729086588e-15
571	2.94680348064e-25
572	4.73895102944e-15
573	3.14392824657e-25
574	5.31257836137e-15
575	3.40149532956e-25
576	5.42157001282e-15
577	3.30970081031e-25
578	5.40084004221e-15
579	3.31801428518e-25
580	5.52887341359e-15
581	3.31678255322e-25
582	5.45767904653e-15
583	3.14875364433e-25
584	5.21549307746e-15
585	3.09339874664e-25
586	5.56369488331e-15
587	3.17270900614e-25
588	5.72732834487e-15
589	3.20846791753e-25
590	5.7352818194e-15
591	3.52392058915e-25
592	7.23507590911e-15
593	4.15811330983e-25
594	7.23562678599e-15
595	4.36170866787e-25
596	9.14815778969e-15
597	5.8144568128e-25
598	1.13134820704e-14
599	6.22132527366e-25
600	1.17954050338e-14
601	7.51487874267e-25
602	1.60168076178e-14
603	8.83089552188e-25
604	1.61976284497e-14
605	9.13496267261e-25
606	1.95243359146e-14
607	1.08994634542e-24
608	2.22197350624e-14
609	1.08076057224e-24
610	2.25114756549e-14
611	1.17098381229e-24
612	2.61360453525e-14
613	1.19941659624e-24
614	2.58510861148e-14
615	1.16650417822e-24
616	2.73882208197e-14
617	1.18839448008e-24
618	2.88032190493e-14
619	1.15856743169e-24
620	2.8583256337e-14
621	1.14632820225e-24
622	2.9889785671e-14
623	1.16332838516e-24
624	3.11134222471e-14
625	1.22329883336e-24
626	3.15039412821e-14
627	1.26575527582e-24
628	3.37440034835e-14
629	1.45547822653e-24
630	3.74209602412e-14
631	1.58397287323e-24
632	3.85081559113e-14
633	1.77366687048e-24
634	4.62332220132e-14
635	2.1233954999e-24
636	4.77786715556e-14
637	2.20716748476e-24
638	5.4005573717e-14
639	2.65620878673e-24
640	6.31161753957e-14
641	2.73596706694e-24
642	6.50233398107e-14
643	3.00432572862e-24
644	7.96691712697e-14
645	3.22014041707e-24
646	7.94728459043e-14
647	3.22469064076e-24
648	9.28297260677e-14
649	3.48737856203e-24
650	9.78607901086e-14
651	3.38085644167e-24
652	1.09426008567e-13
653	3.62591792247e-24
654	1.18603249465e-13
655	3.51473552468e-24
656	1.26625266552e-13
657	3.8347491576e-24
658	1.40192914941e-13
659	3.83666629917e-24
660	1.44445694485e-13
661	4.17739470606e-24
662	1.66782914729e-13
663	4.53923443679e-24
664	1.70568396396e-13
665	4.73506007579e-24
666	1.88001460043e-13
667	5.46294219974e-24
668	2.02701728315e-13
669	5.76008552178e-24
670	2.02369632721e-13
671	6.20735600603e-24
672	2.30270522351e-13
673	7.11272384617e-24
674	2.35322754465e-13
675	6.7992736253e-24
676	2.38315382998e-13
677	7.99197705639e-24
678	2.78354940279e-13
679	7.83876167802e-24
680	2.33931305393e-13
681	7.77919176869e-24
682	3.10384760685e-13
683	9.21008698569e-24
684	2.74739714898e-13
685	7.31553208858e-24
686	3.11969471276e-13
687	9.96486515198e-24
688	3.57628990902e-13
689	7.97310954361e-24
690	3.07417897335e-13
691	9.87293021259e-24
692	4.50633896036e-13
693	1.00348292513e-23
694	3.61297712086e-13
695	9.76845345984e-24
696	5.21790284491e-13
697	1.26050736178e-23
698	4.82526843757e-13
699	1.08812284725e-23
700	5.83994146684e-13
701	1.48404959926e-23
702	6.14285739312e-13
703	1.29624379286e-23
704	6.41770317271e-13
705	1.68859390515e-23
706	7.44175313095e-13
707	1.54274298313e-23
708	7.20731085968e-13
709	1.82571296179e-23
710	8.46794272601e-13
711	1.72395973909e-23
712	7.61195976361e-13
713	1.92338911495e-23
714	8.87095129797e-13
715	1.8483955084e-23
716	7.85823937248e-13
717	1.90126965743e-23
718	9.64649175513e-13
719	1.93366306159e-23
720	7.916156986e-13
721	1.85097313362e-23
722	1.0171342023e-12
723	2.1447448498e-23
724	7.73603482519e-13
725	1.64018343644e-23
726	1.07923816906e-12
727	2.57621305549e-23
728	9.58313698312e-13
729	1.59109806001e-23
730	1.07463780662e-12
731	2.96518562124e-23
732	1.32016085176e-12
733	1.9179456873e-23
734	9.95283927983e-13
735	3.07313131703e-23
736	1.77055253842e-12
737	2.86923359246e-23
738	1.12194601607e-12
739	2.90519266758e-23
740	2.06025165405e-12
741	3.80185177451e-23
742	1.50517998431e-12
743	2.89277607969e-23
744	2.15278277746e-12
745	4.51669669134e-23
746	1.94653823571e-12
747	2.96842587034e-23
748	2.02179010863e-12
749	4.51825148007e-23
750	2.36485678002e-12
751	3.39562998048e-23
752	2.1012287125e-12
753	4.34206691003e-23
754	2.51435162837e-12
755	3.34412336616e-23
756	1.88902268137e-12
757	4.04181318896e-23
758	2.47328871504e-12
759	3.60715927952e-23
760	1.98531279738e-12
761	3.68007349659e-23
762	2.52468679081e-12
763	3.49830754443e-23
764	1.80755818452e-12
765	3.72822730323e-23
766	2.4496965199e-12
767	3.90171983825e-23
768	1.80565158771e-12
769	3.53734985179e-23
770	2.55239471218e-12
771	4.63897838515e-23
772	2.0563717434e-12
773	3.64101788459e-23
774	2.65577025518e-12
775	5.38708522449e-23
776	2.3461419691e-12
777	4.04663469379e-23
778	2.37403021951e-12
779	6.05176791137e-23
780	3.01011270562e-12
781	4.43104840022e-23
782	2.8272229464e-12
783	6.25626076093e-23
784	3.33762543053e-12
785	5.53466551967e-23
786	2.36091773405e-12
787	5.96418000404e-23
788	3.52174586279e-12
789	5.61707319673e-23
790	3.2159343095e-12
791	6.24807094005e-23
792	3.79579439571e-12
793	6.43494264851e-23
794	2.86225083655e-12
795	5.82922060602e-23
796	3.9384434808e-12
797	6.49988838042e-23
798	3.20410970212e-12
799	6.82745401064e-23
800	4.84870675002e-12
801	7.65292419782e-23
802	3.85784209451e-12
803	6.39601921208e-23
804	5.61642391737e-12
805	9.2466513155e-23
806	4.12506045684e-12
807	7.6592733492e-23
808	6.47245625399e-12
809	1.09996007683e-22
810	7.85487701306e-12
811	8.41234213048e-23
812	6.76765094613e-12
813	1.3035946089e-22
814	9.58781892547e-12
815	1.05524250304e-22
816	8.48509472104e-12
817	1.38586769422e-22
818	1.3996762706e-11
819	1.36921816785e-22
820	9.03785539452e-12
821	1.50289244935e-22
822	1.50082712127e-11
823	1.55359060778e-22
824	1.40412406645e-11
825	1.63815173967e-22
826	1.82839469138e-11
827	2.03674185296e-22
828	1.4587048156e-11
829	1.61944737133e-22
830	1.87051330848e-11
831	2.06730740169e-22
832	1.82628655834e-11
833	1.90131694685e-22
834	2.18203473016e-11
835	2.66424505332e-22
836	2.36538572122e-11
837	1.74034013446e-22
838	2.1664848221e-11
839	2.99006099763e-22
840	2.42540984801e-11
841	2.66518534918e-22
842	2.42020356827e-11
843	3.40744062747e-22
844	3.60113107435e-11
845	2.92543782023e-22
846	2.42853565498e-11
847	3.58396042724e-22
848	3.064977777e-11
849	3.44680258081e-22
850	2.54594609512e-11
851	3.17635054559e-22
852	3.25948496607e-11
853	3.29418366312e-22
854	2.76500125147e-11
855	3.00124992643e-22
856	3.1101921264e-11
857	3.23540500475e-22
858	2.92560701272e-11
859	3.35476254881e-22
860	3.73235189359e-11
861	3.75505592912e-22
862	3.61082330064e-11
863	4.37805373194e-22
864	4.56083516203e-11
865	5.03119248737e-22
866	5.76649275675e-11
867	5.66591222051e-22
868	8.19312689712e-11
869	7.13122842119e-22
870	7.47192742478e-11
871	8.77741506404e-22
872	9.63806738032e-11
873	8.58614328242e-22
874	1.12203099034e-10
875	1.05902074311e-21
876	1.4421347552e-10
877	1.25608551373e-21
878	1.33614745235e-10
879	1.26043839528e-21
880	1.87685315853e-10
881	1.15783824632e-21
882	1.47707478791e-10
883	1.32523341671e-21
884	1.93122780617e-10
885	1.65920445576e-21
886	1.88775134019e-10
887	1.21630941525e-21
888	2.7271088523e-10
889	1.54110942567e-21
890	1.80913511151e-10
891	1.43145237098e-21
892	2.09523019555e-10
893	1.99320064826e-21
894	3.01098226066e-10
895	1.2240797795e-21
896	3.09382363849e-10
897	1.8584037534e-21
898	3.04852829034e-10
899	1.74842138936e-21
900	2.29382240136e-10
901	1.80209888305e-21
902	3.85865228601e-10
903	1.35911792036e-21
904	3.0307563969e-10
905	1.55367040454e-21
906	4.02924822511e-10
907	1.85392674128e-21
908	3.75378138455e-10
909	1.34328502429e-21
910	3.39913594473e-10
911	1.41272253169e-21
912	3.62778938628e-10
913	1.67459535887e-21
914	4.19135457055e-10
915	1.53459700406e-21
916	3.92103339463e-10
917	1.30146688436e-21
918	3.90924601285e-10
919	1.53126939288e-21
920	6.77051563539e-10
921	2.06203908519e-21
922	4.36036159016e-10
923	2.22225723659e-21
924	4.13533632613e-10
925	2.2105719678e-21
926	5.32528204835e-10
927	2.26073075922e-21
928	7.73669353017e-10
929	3.69597009755e-21
930	5.40179760221e-10
931	2.99160057307e-21
932	6.91568454311e-10
933	2.83259775982e-21
934	1.05420613491e-09
935	3.84721282852e-21
936	1.23686809604e-09
937	9.69371945031e-21
938	2.09034570968e-09
939	7.99068575563e-21
940	2.55721048185e-09
941	8.30418293028e-21
942	2.16180704759e-09
943	8.11036852295e-21
944	2.19301961657e-09
945	1.30949874911e-20
946	3.82295231862e-09
947	1.32867474399e-20
948	4.27682795548e-09
949	1.22410761392e-20
950	3.40613556727e-09
951	1.16753519769e-20
952	3.65888720974e-09
953	1.58816217072e-20
954	6.87698475425e-09
955	1.51629571152e-20
956	8.00656608875e-09
957	1.54366625947e-20
958	6.08602277102e-09
959	2.04881914058e-20
960	8.17814404165e-09
961	1.72070283928e-20
962	1.29934774564e-08
963	2.31162279137e-20
964	1.36242430199e-08
965	3.25618140366e-20
966	1.26440713131e-08
967	2.84230472837e-20
968	2.0424994468e-08
969	2.8045767499e-20
970	3.23692725828e-08
971	4.15484998842e-20
972	2.43645212806e-08
973	5.04794291665e-20
974	7.40441554919e-08
975	5.89680202856e-20
976	5.37701543908e-08
977	5.71697592184e-20
978	1.09891086915e-07
979	1.69857053576e-19
980	1.4276207983e-07
981	8.86361352638e-20
982	1.40302376367e-07
983	1.29125259125e-19
984	1.64721295035e-07
985	1.05507704707e-19
986	8.31971784447e-08
987	1.76233645555e-19
988	3.49860417734e-07
989	1.01508537571e-19
990	1.13255411857e-07
991	1.61417514913e-19
992	1.57784448821e-07
993	1.42250368557e-19
994	4.33103293711e-07
995	1.564296581e-19
996	3.29345003851e-07
997	1.48070820145e-19
998	3.29792458048e-07
999	2.46916518759e-19
1000	9.99380834424e-07
1001	1.72083703969e-19
1002	1.08705755582e-06
1003	3.05551218488e-19
1004	1.26303218178e-06
1005	3.66028363611e-19
1006	3.39713835767e-06
1007	4.51501679879e-19
1008	4.69706543675e-06
1009	3.94726905127e-19
1010	6.13988636495e-06
1011	5.51767672821e-19
1012	2.17862446013e-05
1013	7.8486489613e-19
1014	3.83603903227e-05
1015	1.97432893344e-18
1016	3.75418666435e-05
1017	1.16011972791e-18
1018	4.94256950948e-05
1019	1.74294348644e-18
1020	0.000583876139993
1021	5.75479757599e-18
1022	0.0107996714045
1023	4.08477542016e-18
