0	0.958027651211
1	4.15056153748e-20
2	2.47327358594e-06
3	1.90921139662e-21
4	0.00118888114007
5	1.82250487018e-21
6	2.68864874625e-06
7	2.69014351271e-22
8	5.45838409517e-05
9	2.55321075664e-22
10	2.19337770745e-07
11	8.00071805751e-23
12	3.74037910453e-06
13	6.49114715254e-23
14	1.01939033234e-07
15	3.29716211768e-23
16	7.45525291384e-07
17	2.01889975298e-23
18	8.24506810604e-08
19	1.7912059e-23
20	1.96145544331e-07
21	8.26116399757e-24
22	7.95920711256e-08
23	1.24635349074e-23
24	5.20549817055e-08
25	4.13977138649e-24
26	4.98304167146e-08
27	5.32951636751e-24
28	1.45436735619e-08
29	3.9055479822e-24
30	2.18890946723e-08
31	2.58202634409e-24
32	5.73966610015e-09
33	2.94402912362e-24
34	9.07259805492e-09
35	1.73834889914e-24
36	3.81271037507e-09
37	1.75822348935e-24
38	4.32393369843e-09
39	1.42339500307e-24
40	3.11817897276e-09
41	9.67262302173e-25
42	2.20031507691e-09
43	1.10352482347e-24
44	2.35318788284e-09
45	5.40370366449e-25
46	1.13404033826e-09
47	7.043288285e-25
48	1.57472892351e-09
49	3.5059149216e-25
50	6.39177602811e-10
51	4.5472120113e-25
52	9.83326337049e-10
53	2.38755704183e-25
54	4.12789665858e-10
55	2.42215426553e-25
56	5.89214138006e-10
57	2.0978029225e-25
58	2.86116749797e-10
59	1.23768779336e-25
60	3.34972581243e-10
61	1.86435683984e-25
62	1.9245333302e-10
63	9.15012210143e-26
64	1.80137606842e-10
65	1.55392200857e-25
66	1.20470588458e-10
67	9.22996194526e-26
68	9.70510830251e-11
69	1.12568403188e-25
70	7.42560409656e-11
71	1.08925397772e-25
72	5.98546347002e-11
73	7.75197670882e-26
74	5.1180937141e-11
75	9.18125727915e-26
76	4.63267267238e-11
77	6.38128740353e-26
78	4.1663301824e-11
79	8.19997207095e-26
80	4.1412616117e-11
81	5.57169616172e-26
82	3.68492976086e-11
83	6.67119627774e-26
84	3.74442587458e-11
85	6.40840463434e-26
86	3.22773031088e-11
87	5.1993779683e-26
88	3.2090633104e-11
89	5.62902119044e-26
90	2.6942497353e-11
91	4.07832619813e-26
92	2.57369479124e-11
93	5.42309449864e-26
94	2.13118051424e-11
95	3.4219822045e-26
96	1.94615585302e-11
97	3.5998861221e-26
98	1.60764668744e-11
99	3.40381819994e-26
100	1.40559102961e-11
101	2.53980464872e-26
102	1.16766329856e-11
103	3.34962431005e-26
104	9.83014604053e-12
105	2.03214430025e-26
106	8.24479920958e-12
107	2.15304131643e-26
108	6.74622843903e-12
109	1.8632696233e-26
110	5.70892508194e-12
111	2.16358871078e-26
112	4.59612654567e-12
113	1.84893458297e-26
114	3.90623533212e-12
115	1.55945055252e-26
116	3.13409584986e-12
117	1.61117098819e-26
118	2.65834216068e-12
119	1.27129165777e-26
120	2.14750583081e-12
121	1.38224604387e-26
122	1.80841048793e-12
123	1.21063896742e-26
124	1.47871340028e-12
125	9.60528716256e-27
126	1.2335680937e-12
127	1.08710985086e-26
128	1.02128751403e-12
129	6.82887202753e-27
130	8.44238693227e-13
131	1.08133585467e-26
132	7.05674424503e-13
133	6.07337907232e-27
134	5.78942839094e-13
135	1.01777312308e-26
136	4.86388402204e-13
137	5.89599573816e-27
138	3.97186443883e-13
139	6.09963402881e-27
140	3.33362354705e-13
141	5.42271456508e-27
142	2.71834295163e-13
143	5.94559970238e-27
144	2.26957491308e-13
145	6.65559659856e-27
146	1.85104362099e-13
147	4.16039731535e-27
148	1.53187688565e-13
149	5.46383821331e-27
150	1.24888643592e-13
151	4.44859643168e-27
152	1.02395266937e-13
153	4.44851032372e-27
154	8.35874465347e-14
155	4.76727275481e-27
156	6.79767198544e-14
157	4.21922677608e-27
158	5.56337940615e-14
159	3.88011233297e-27
160	4.4961525325e-14
161	3.00384565784e-27
162	3.68595870118e-14
163	4.37307052985e-27
164	2.97615553406e-14
165	2.60747619161e-27
166	2.44691620743e-14
167	3.8786638749e-27
168	1.97534274502e-14
169	3.70271234333e-27
170	1.63571927249e-14
171	3.52567120744e-27
172	1.3255288896e-14
173	3.40010586071e-27
174	1.10016335803e-14
175	3.18944733322e-27
176	8.97605184229e-15
177	3.93356603217e-27
178	7.44056875169e-15
179	3.01000171033e-27
180	6.0565257033e-15
181	3.6965519572e-27
182	5.03080257813e-15
183	2.62941641393e-27
184	4.12467508964e-15
185	2.73335398678e-27
186	3.39662917779e-15
187	3.45068954924e-27
188	2.77192993564e-15
189	3.03712413571e-27
190	2.27154948853e-15
191	2.67761500943e-27
192	1.82840763227e-15
193	2.90547268436e-27
194	1.48526828256e-15
195	2.38724279724e-27
196	1.20458751084e-15
197	2.3769151549e-27
198	9.72076962906e-16
199	2.09867205088e-27
200	7.58799770388e-16
201	2.28574431397e-27
202	6.13473479743e-16
203	2.2899295634e-27
204	4.76628100589e-16
205	2.22166254487e-27
206	3.79689649013e-16
207	2.47540900037e-27
208	2.97172436388e-16
209	2.87404821846e-27
210	2.35071078696e-16
211	2.52851943274e-27
212	1.77010813488e-16
213	2.80694251564e-27
214	1.3959557645e-16
215	2.59403101432e-27
216	1.13506545347e-16
217	2.66393807243e-27
218	8.57691841367e-17
219	3.17984025619e-27
220	6.91874700574e-17
221	2.40056063162e-27
222	5.51764720848e-17
223	3.74555971847e-27
224	4.59975612113e-17
225	4.12141491786e-27
226	3.66281503121e-17
227	3.5261773047e-27
228	3.21530874835e-17
229	4.45915826567e-27
230	2.85969402516e-17
231	3.87593648367e-27
232	2.42423338872e-17
233	3.95487056215e-27
234	2.18536484013e-17
235	4.51789861948e-27
236	2.0368443769e-17
237	6.21656668978e-27
238	1.95083584272e-17
239	6.05281559521e-27
240	1.78150787956e-17
241	6.45028568981e-27
242	1.67455297022e-17
243	5.84517537476e-27
244	1.6279835354e-17
245	7.82760449397e-27
246	1.54358450473e-17
247	1.12348330238e-26
248	1.46956845323e-17
249	1.00164243092e-26
250	1.40240622497e-17
251	1.49285430126e-26
252	1.34727870321e-17
253	1.62971766397e-26
254	1.2670502914e-17
255	1.90439052608e-26
256	1.19404008961e-17
257	2.04538405312e-26
258	1.14478980983e-17
259	1.19400636026e-26
260	1.07369358355e-17
261	1.19335770745e-26
262	1.00412019192e-17
263	8.95802313155e-27
264	9.32812333534e-18
265	7.62247284029e-27
266	8.78627436649e-18
267	6.02059528276e-27
268	8.16104055473e-18
269	5.70280979851e-27
270	7.52846365403e-18
271	5.5513525485e-27
272	6.95935619408e-18
273	4.16644314028e-27
274	6.38884159005e-18
275	3.84387836019e-27
276	5.91456389955e-18
277	3.19572004377e-27
278	5.38198461755e-18
279	2.64126225644e-27
280	4.94474748798e-18
281	2.00737741009e-27
282	4.4737384112e-18
283	1.7941124047e-27
284	4.09776292023e-18
285	1.74933953437e-27
286	3.7121224148e-18
287	1.50496332808e-27
288	3.36221548478e-18
289	1.70050617591e-27
290	3.04067063067e-18
291	1.17592021012e-27
292	2.73621609929e-18
293	1.03028564294e-27
294	2.48508526374e-18
295	1.0318761269e-27
296	2.21735763985e-18
297	1.03358213892e-27
298	2.01208945476e-18
299	6.52870829912e-28
300	1.78607543123e-18
301	7.77393965424e-28
302	1.62641021636e-18
303	7.25490222591e-28
304	1.43950186258e-18
305	7.96995827413e-28
306	1.30911736795e-18
307	5.08134691977e-28
308	1.15477121172e-18
309	7.25969244634e-28
310	1.051084299e-18
311	4.96134989237e-28
312	9.34618690682e-19
313	4.78866873108e-28
314	8.39719512302e-19
315	5.10826443594e-28
316	7.57543636218e-19
317	5.67061505297e-28
318	6.71812239482e-19
319	5.03620413578e-28
320	6.1361371946e-19
321	4.80338729352e-28
322	5.41063716384e-19
323	4.08201173067e-28
324	4.93016478393e-19
325	4.7091639893e-28
326	4.39110007365e-19
327	4.20758755484e-28
328	3.95944973873e-19
329	4.76248851738e-28
330	3.55290525079e-19
331	3.7429024928e-28
332	3.22825551731e-19
333	3.72353255375e-28
334	2.79861275092e-19
335	3.88534091326e-28
336	2.71341810549e-19
337	3.68611182069e-28
338	2.11658864279e-19
339	4.49767314273e-28
340	2.3496406939e-19
341	3.78482594082e-28
342	1.53839048638e-19
343	2.85167520876e-28
344	2.03807444089e-19
345	3.72915826273e-28
346	1.09789364543e-19
347	2.43215187434e-28
348	1.71459199672e-19
349	3.75847159308e-28
350	8.27185298557e-20
351	3.28373086885e-28
352	1.33232043407e-19
353	3.64551232189e-28
354	6.99303318635e-20
355	3.11703132496e-28
356	9.33750049792e-20
357	2.9004816608e-28
358	6.38653400281e-20
359	3.04346852665e-28
360	6.1815458015e-20
361	3.09594179409e-28
362	5.80204215834e-20
363	3.53441099623e-28
364	4.1048658382e-20
365	2.6205839772e-28
366	4.92378881291e-20
367	3.30213187854e-28
368	2.92797993044e-20
369	2.45850378575e-28
370	3.84135067525e-20
371	3.11983470547e-28
372	2.3912185856e-20
373	2.44069847316e-28
374	2.75587759339e-20
375	3.24652407098e-28
376	2.14995334038e-20
377	3.05351150495e-28
378	1.87828555246e-20
379	2.85603605898e-28
380	2.0393913595e-20
381	2.83116392724e-28
382	1.27412567453e-20
383	4.54147196711e-28
384	1.93295629331e-20
385	4.1840588508e-28
386	9.43178346142e-21
387	3.14961514644e-28
388	1.76680152614e-20
389	3.1979413341e-28
390	8.94529728259e-21
391	2.75982739015e-28
392	1.56760754733e-20
393	2.54642700811e-28
394	9.80515372964e-21
395	2.48512630884e-28
396	1.41209324463e-20
397	2.25203564304e-28
398	1.11145954029e-20
399	2.55023406184e-28
400	1.33472227415e-20
401	2.68566806828e-28
402	1.20604578192e-20
403	2.24944783198e-28
404	1.28321189406e-20
405	2.47343484056e-28
406	1.24374372432e-20
407	2.24419830972e-28
408	1.20290798246e-20
409	2.56656240826e-28
410	1.23809490412e-20
411	2.03486526641e-28
412	1.14714495982e-20
413	2.27621166481e-28
414	1.13193612495e-20
415	2.42254620103e-28
416	1.11639660304e-20
417	2.24162631704e-28
418	9.26156954077e-21
419	2.30080020832e-28
420	9.92581730403e-21
421	2.12769845693e-28
422	6.92938848101e-21
423	2.6073032549e-28
424	7.62127429409e-21
425	1.98755851745e-28
426	5.10568175418e-21
427	2.33293199516e-28
428	5.3534851953e-21
429	2.09738884838e-28
430	4.08500779534e-21
431	2.27079888574e-28
432	3.75900719694e-21
433	2.10353387905e-28
434	3.72310900489e-21
435	2.24573986456e-28
436	2.65392354105e-21
437	2.07231755957e-28
438	3.42068233312e-21
439	3.0083823782e-28
440	2.11312335659e-21
441	2.22104441771e-28
442	2.75763554697e-21
443	2.94581238628e-28
444	2.13899838424e-21
445	2.32688250425e-28
446	1.96906397798e-21
447	2.71467552546e-28
448	2.4176361555e-21
449	2.46537497712e-28
450	1.3524547232e-21
451	2.82822378624e-28
452	2.48414530571e-21
453	1.9840244916e-28
454	1.11367093828e-21
455	2.2307110475e-28
456	2.03744996357e-21
457	2.15427334664e-28
458	1.27488382274e-21
459	2.4247543681e-28
460	1.3549905688e-21
461	2.12519804236e-28
462	1.45268446843e-21
463	2.35035636074e-28
464	8.98188649285e-22
465	2.2836923631e-28
466	1.38233008347e-21
467	2.58514869555e-28
468	7.44450340316e-22
469	3.46016652165e-28
470	1.11521766715e-21
471	2.75784421968e-28
472	7.41419919563e-22
473	2.64263916071e-28
474	7.9446052082e-22
475	3.72443797153e-28
476	7.35660067497e-22
477	3.96915331625e-28
478	5.98474929924e-22
479	4.24191108198e-28
480	6.69720365394e-22
481	3.64785771514e-28
482	5.30594256224e-22
483	3.43541710153e-28
484	5.90349853332e-22
485	4.92226654151e-28
486	5.37834085046e-22
487	5.2845511589e-28
488	5.35827780007e-22
489	5.43148327043e-28
490	5.48849095349e-22
491	5.29640052203e-28
492	5.08269735594e-22
493	1.01828105295e-27
494	5.28940687704e-22
495	7.7436389439e-28
496	4.97023111403e-22
497	8.20623939388e-28
498	5.05035619427e-22
499	1.02908529944e-27
500	4.7847171653e-22
501	1.13279188778e-27
502	5.00534794022e-22
503	1.32339859058e-27
504	4.54981993425e-22
505	1.70370313303e-27
506	5.04752347456e-22
507	2.54306573434e-27
508	4.39473256426e-22
509	3.61423362066e-27
510	5.14858427687e-22
511	7.23295608756e-27
512	4.31655953399e-22
513	7.23295608756e-27
514	5.14858428551e-22
515	3.61423362066e-27
516	4.39473230873e-22
517	2.54306573434e-27
518	5.04752346992e-22
519	1.70370313303e-27
520	4.54981991898e-22
521	1.32339859058e-27
522	5.00534794157e-22
523	1.13279188778e-27
524	4.78471717156e-22
525	1.02908529944e-27
526	5.05035619798e-22
527	8.20623939388e-28
528	4.97023110917e-22
529	7.7436389439e-28
530	5.28940688278e-22
531	1.01828105296e-27
532	5.08269730376e-22
533	5.29640052203e-28
534	5.48849095616e-22
535	5.43148327043e-28
536	5.35827780027e-22
537	5.2845511589e-28
538	5.37834084933e-22
539	4.92226654151e-28
540	5.90349848899e-22
541	3.43541710153e-28
542	5.30594256817e-22
543	3.64785771514e-28
544	6.69720365538e-22
545	4.24191108198e-28
546	5.98474929817e-22
547	3.96915331625e-28
548	7.3566006701e-22
549	3.72443797153e-28
550	7.9446052101e-22
551	2.64263916071e-28
552	7.41419918285e-22
553	2.75784421968e-28
554	1.11521766684e-21
555	3.46016652165e-28
556	7.44450335573e-22
557	2.58514869555e-28
558	1.38233008348e-21
559	2.2836923631e-28
560	8.9818864935e-22
561	2.35035636074e-28
562	1.4526844683e-21
563	2.12519804236e-28
564	1.35499057379e-21
565	2.4247543681e-28
566	1.27488382241e-21
567	2.15427334664e-28
568	2.03744996947e-21
569	2.2307110475e-28
570	1.11367093741e-21
571	1.9840244916e-28
572	2.48414530299e-21
573	2.82822378624e-28
574	1.35245472181e-21
575	2.46537497712e-28
576	2.41763615543e-21
577	2.71467552546e-28
578	1.96906397692e-21
579	2.32688250425e-28
580	2.13899838032e-21
581	2.94581238628e-28
582	2.75763554961e-21
583	2.22104441771e-28
584	2.11312335845e-21
585	3.0083823782e-28
586	3.42068233255e-21
587	2.07231755957e-28
588	2.65392353826e-21
589	2.24573986456e-28
590	3.72310900462e-21
591	2.10353387905e-28
592	3.75900719448e-21
593	2.27079888574e-28
594	4.08500779446e-21
595	2.09738884838e-28
596	5.35348520689e-21
597	2.33293199516e-28
598	5.10568175521e-21
599	1.98755851745e-28
600	7.62127429368e-21
601	2.6073032549e-28
602	6.92938848048e-21
603	2.12769845693e-28
604	9.92581728078e-21
605	2.30080020832e-28
606	9.26156954321e-21
607	2.24162631704e-28
608	1.11639660304e-20
609	2.42254620103e-28
610	1.13193612493e-20
611	2.27621166481e-28
612	1.14714495864e-20
613	2.03486526641e-28
614	1.23809490421e-20
615	2.56656240826e-28
616	1.20290798226e-20
617	2.24419830972e-28
618	1.24374372406e-20
619	2.47343484056e-28
620	1.28321189283e-20
621	2.24944783198e-28
622	1.206045782e-20
623	2.68566806828e-28
624	1.33472227412e-20
625	2.55023406184e-28
626	1.11145954027e-20
627	2.25203564304e-28
628	1.41209324346e-20
629	2.48512630884e-28
630	9.8051537296e-21
631	2.54642700811e-28
632	1.56760754624e-20
633	2.75982739015e-28
634	8.94529728173e-21
635	3.1979413341e-28
636	1.76680153333e-20
637	3.14961514644e-28
638	9.43178346609e-21
639	4.1840588508e-28
640	1.93295629331e-20
641	4.54147196711e-28
642	1.27412567537e-20
643	2.83116392724e-28
644	2.03939136282e-20
645	2.85603605898e-28
646	1.87828555295e-20
647	3.05351150495e-28
648	2.14995333704e-20
649	3.24652407098e-28
650	2.75587759354e-20
651	2.44069847316e-28
652	2.39121857573e-20
653	3.11983470547e-28
654	3.84135067581e-20
655	2.45850378575e-28
656	2.92797993051e-20
657	3.30213187854e-28
658	4.92378881335e-20
659	2.6205839772e-28
660	4.1048658483e-20
661	3.53441099623e-28
662	5.80204215867e-20
663	3.09594179409e-28
664	6.18154580138e-20
665	3.04346852665e-28
666	6.38653400258e-20
667	2.9004816608e-28
668	9.33750049162e-20
669	3.11703132496e-28
670	6.99303318615e-20
671	3.64551232189e-28
672	1.33232043408e-19
673	3.28373086885e-28
674	8.27185298527e-20
675	3.75847159308e-28
676	1.71459199613e-19
677	2.43215187434e-28
678	1.09789364546e-19
679	3.72915826273e-28
680	2.03807444101e-19
681	2.85167520876e-28
682	1.53839048626e-19
683	3.78482594082e-28
684	2.34964068916e-19
685	4.49767314273e-28
686	2.11658864263e-19
687	3.68611182069e-28
688	2.71341810542e-19
689	3.88534091326e-28
690	2.79861275066e-19
691	3.72353255375e-28
692	3.22825551794e-19
693	3.7429024928e-28
694	3.55290525062e-19
695	4.76248851738e-28
696	3.95944974044e-19
697	4.20758755484e-28
698	4.39110007372e-19
699	4.7091639893e-28
700	4.93016478979e-19
701	4.08201173067e-28
702	5.4106371641e-19
703	4.80338729352e-28
704	6.13613719459e-19
705	5.03620413578e-28
706	6.71812239469e-19
707	5.67061505297e-28
708	7.5754363521e-19
709	5.10826443594e-28
710	8.3971951231e-19
711	4.78866873108e-28
712	9.34618690368e-19
713	4.96134989237e-28
714	1.05108429901e-18
715	7.25969244634e-28
716	1.15477121175e-18
717	5.08134691977e-28
718	1.30911736796e-18
719	7.96995827413e-28
720	1.43950186255e-18
721	7.25490222591e-28
722	1.62641021638e-18
723	7.77393965424e-28
724	1.78607543144e-18
725	6.52870829912e-28
726	2.01208945476e-18
727	1.03358213892e-27
728	2.2173576399e-18
729	1.0318761269e-27
730	2.48508526373e-18
731	1.03028564294e-27
732	2.73621609931e-18
733	1.17592021012e-27
734	3.04067063066e-18
735	1.70050617591e-27
736	3.36221548476e-18
737	1.50496332808e-27
738	3.7121224148e-18
739	1.74933953437e-27
740	4.09776292007e-18
741	1.7941124047e-27
742	4.47373841125e-18
743	2.00737741009e-27
744	4.94474748797e-18
745	2.64126225644e-27
746	5.38198461754e-18
747	3.19572004377e-27
748	5.91456389957e-18
749	3.84387836019e-27
750	6.38884159006e-18
751	4.16644314028e-27
752	6.95935619413e-18
753	5.5513525485e-27
754	7.52846365402e-18
755	5.70280979851e-27
756	8.16104055481e-18
757	6.02059528276e-27
758	8.78627436648e-18
759	7.62247284029e-27
760	9.32812333602e-18
761	8.95802313155e-27
762	1.00412019192e-17
763	1.19335770745e-26
764	1.07369358344e-17
765	1.19400636026e-26
766	1.14478980984e-17
767	2.04538405312e-26
768	1.19404008961e-17
769	1.90439052608e-26
770	1.26705029142e-17
771	1.62971766397e-26
772	1.34727870308e-17
773	1.49285430126e-26
774	1.40240622498e-17
775	1.00164243092e-26
776	1.46956845312e-17
777	1.12348330238e-26
778	1.54358450473e-17
779	7.82760449397e-27
780	1.62798353538e-17
781	5.84517537476e-27
782	1.67455297022e-17
783	6.45028568981e-27
784	1.78150787954e-17
785	6.05281559521e-27
786	1.95083584272e-17
787	6.21656668978e-27
788	2.03684437695e-17
789	4.51789861948e-27
790	2.18536484013e-17
791	3.95487056215e-27
792	2.42423338871e-17
793	3.87593648367e-27
794	2.85969402517e-17
795	4.45915826567e-27
796	3.21530874845e-17
797	3.5261773047e-27
798	3.6628150312e-17
799	4.12141491786e-27
800	4.59975612113e-17
801	3.74555971847e-27
802	5.51764720848e-17
803	2.40056063162e-27
804	6.91874700581e-17
805	3.17984025619e-27
806	8.57691841368e-17
807	2.66393807243e-27
808	1.13506545347e-16
809	2.59403101432e-27
810	1.3959557645e-16
811	2.80694251564e-27
812	1.77010813488e-16
813	2.52851943274e-27
814	2.35071078696e-16
815	2.87404821846e-27
816	2.97172436388e-16
817	2.47540900037e-27
818	3.79689649013e-16
819	2.22166254487e-27
820	4.76628100587e-16
821	2.2899295634e-27
822	6.13473479743e-16
823	2.28574431397e-27
824	7.58799770389e-16
825	2.09867205088e-27
826	9.72076962906e-16
827	2.3769151549e-27
828	1.20458751084e-15
829	2.38724279724e-27
830	1.48526828256e-15
831	2.90547268436e-27
832	1.82840763227e-15
833	2.67761500944e-27
834	2.27154948853e-15
835	3.03712413571e-27
836	2.77192993564e-15
837	3.45068954924e-27
838	3.39662917779e-15
839	2.73335398678e-27
840	4.12467508965e-15
841	2.62941641393e-27
842	5.03080257813e-15
843	3.6965519572e-27
844	6.0565257033e-15
845	3.01000171033e-27
846	7.44056875169e-15
847	3.93356603217e-27
848	8.97605184229e-15
849	3.18944733322e-27
850	1.10016335803e-14
851	3.40010586071e-27
852	1.3255288896e-14
853	3.52567120744e-27
854	1.63571927249e-14
855	3.70271234333e-27
856	1.97534274502e-14
857	3.8786638749e-27
858	2.44691620743e-14
859	2.60747619161e-27
860	2.97615553406e-14
861	4.37307052985e-27
862	3.68595870118e-14
863	3.00384565784e-27
864	4.4961525325e-14
865	3.88011233297e-27
866	5.56337940615e-14
867	4.21922677608e-27
868	6.79767198545e-14
869	4.76727275481e-27
870	8.35874465347e-14
871	4.44851032372e-27
872	1.02395266937e-13
873	4.44859643168e-27
874	1.24888643592e-13
875	5.46383821331e-27
876	1.53187688565e-13
877	4.16039731535e-27
878	1.85104362099e-13
879	6.65559659856e-27
880	2.26957491308e-13
881	5.94559970238e-27
882	2.71834295163e-13
883	5.42271456508e-27
884	3.33362354705e-13
885	6.09963402881e-27
886	3.97186443883e-13
887	5.89599573816e-27
888	4.86388402204e-13
889	1.01777312308e-26
890	5.78942839094e-13
891	6.07337907232e-27
892	7.05674424503e-13
893	1.08133585467e-26
894	8.44238693227e-13
895	6.82887202753e-27
896	1.02128751403e-12
897	1.08710985086e-26
898	1.2335680937e-12
899	9.60528716256e-27
900	1.47871340028e-12
901	1.21063896742e-26
902	1.80841048793e-12
903	1.38224604387e-26
904	2.14750583081e-12
905	1.27129165777e-26
906	2.65834216068e-12
907	1.61117098819e-26
908	3.13409584986e-12
909	1.55945055252e-26
910	3.90623533212e-12
911	1.84893458297e-26
912	4.59612654567e-12
913	2.16358871078e-26
914	5.70892508194e-12
915	1.8632696233e-26
916	6.74622843903e-12
917	2.15304131643e-26
918	8.24479920958e-12
919	2.03214430025e-26
920	9.83014604053e-12
921	3.34962431005e-26
922	1.16766329856e-11
923	2.53980464872e-26
924	1.40559102961e-11
925	3.40381819994e-26
926	1.60764668744e-11
927	3.5998861221e-26
928	1.94615585302e-11
929	3.4219822045e-26
930	2.13118051424e-11
931	5.42309449864e-26
932	2.57369479124e-11
933	4.07832619813e-26
934	2.6942497353e-11
935	5.62902119044e-26
936	3.2090633104e-11
937	5.1993779683e-26
938	3.22773031088e-11
939	6.40840463434e-26
940	3.74442587458e-11
941	6.67119627774e-26
942	3.68492976086e-11
943	5.57169616172e-26
944	4.1412616117e-11
945	8.19997207095e-26
946	4.1663301824e-11
947	6.38128740353e-26
948	4.63267267238e-11
949	9.18125727915e-26
950	5.1180937141e-11
951	7.75197670882e-26
952	5.98546347002e-11
953	1.08925397772e-25
954	7.42560409656e-11
955	1.12568403188e-25
956	9.70510830251e-11
957	9.22996194526e-26
958	1.20470588458e-10
959	1.55392200857e-25
960	1.80137606842e-10
961	9.15012210143e-26
962	1.9245333302e-10
963	1.86435683984e-25
964	3.34972581243e-10
965	1.23768779336e-25
966	2.86116749797e-10
967	2.0978029225e-25
968	5.89214138006e-10
969	2.42215426553e-25
970	4.12789665858e-10
971	2.38755704183e-25
972	9.83326337049e-10
973	4.5472120113e-25
974	6.39177602811e-10
975	3.5059149216e-25
976	1.57472892351e-09
977	7.043288285e-25
978	1.13404033826e-09
979	5.40370366449e-25
980	2.35318788284e-09
981	1.10352482347e-24
982	2.20031507691e-09
983	9.67262302173e-25
984	3.11817897276e-09
985	1.42339500307e-24
986	4.32393369843e-09
987	1.75822348935e-24
988	3.81271037507e-09
989	1.73834889914e-24
990	9.07259805492e-09
991	2.94402912362e-24
992	5.73966610015e-09
993	2.58202634409e-24
994	2.18890946723e-08
995	3.9055479822e-24
996	1.45436735619e-08
997	5.32951636751e-24
998	4.98304167146e-08
999	4.13977138649e-24
1000	5.20549817055e-08
1001	1.24635349074e-23
1002	7.95920711256e-08
1003	8.26116399757e-24
1004	1.96145544331e-07
1005	1.7912059e-23
1006	8.24506810604e-08
1007	2.01889975298e-23
1008	7.45525291384e-07
1009	3.29716211768e-23
1010	1.01939033234e-07
1011	6.49114715254e-23
1012	3.74037910453e-06
1013	8.00071805751e-23
1014	2.19337770745e-07
1015	2.55321075664e-22
1016	5.45838409517e-05
1017	2.69014351271e-22
1018	2.68864874625e-06
1019	1.82250487018e-21
1020	0.00118888114007
1021	1.90921139662e-21
1022	2.47327358594e-06
1023	4.15056153748e-20
