0	0.882994387512
1	3.30858119613e-13
2	0.0101782944039
3	8.43796860811e-14
4	0.000857090081718
5	1.23992698302e-14
6	3.1770872491e-05
7	1.89442089718e-15
8	6.10267134461e-06
9	1.2434469352e-15
10	2.1716766057e-06
11	5.28980442027e-16
12	1.37056691117e-06
13	3.67521528988e-16
14	3.83446663118e-07
15	2.09582860012e-16
16	2.08110458131e-07
17	1.35396946801e-16
18	2.13198562577e-07
19	1.66793180485e-16
20	1.63286289749e-07
21	1.19628010649e-16
22	9.48301978285e-08
23	1.18545120428e-16
24	4.92487010926e-08
25	1.10720433785e-16
26	2.87384286251e-08
27	1.26664634248e-16
28	3.05300572456e-08
29	1.10773011132e-16
30	3.42520768976e-08
31	8.81943381678e-17
32	3.63017262719e-08
33	7.87416678114e-17
34	2.88973915633e-08
35	7.28478331227e-17
36	1.80977775407e-08
37	6.88035430017e-17
38	9.76947361354e-09
39	5.4753909821e-17
40	9.92388097622e-09
41	4.90275409973e-17
42	1.07425320984e-08
43	6.12742169859e-17
44	1.05578454702e-08
45	7.5513208349e-17
46	1.00280719267e-08
47	7.23291287572e-17
48	9.78640246095e-09
49	5.43276959979e-17
50	8.6723376904e-09
51	3.56991210995e-17
52	5.20116152443e-09
53	2.52668921942e-17
54	2.36730644092e-09
55	1.87314340871e-17
56	2.32443350557e-09
57	1.5382258664e-17
58	1.72248841968e-09
59	1.40316799201e-17
60	1.0377148681e-09
61	1.4321205617e-17
62	8.13108100756e-10
63	1.3081724875e-17
64	8.47591537313e-10
65	1.1323636899e-17
66	9.10789531889e-10
67	9.92553857137e-18
68	6.03404522982e-10
69	9.60269809004e-18
70	5.03535875712e-10
71	1.06329553503e-17
72	6.03611400232e-10
73	1.13273005958e-17
74	6.80985691628e-10
75	1.14922002199e-17
76	8.18932805855e-10
77	1.07195968115e-17
78	8.41934593352e-10
79	9.52167758132e-18
80	6.48545327382e-10
81	8.6242559651e-18
82	7.17081154155e-10
83	8.35246682692e-18
84	6.03995048776e-10
85	8.23206528565e-18
86	4.84624611533e-10
87	8.12822874819e-18
88	5.6946167966e-10
89	7.95720476111e-18
90	5.04319990232e-10
91	7.05178643298e-18
92	2.99681479956e-10
93	6.51049516657e-18
94	2.84898183519e-10
95	6.24953585466e-18
96	2.75401383256e-10
97	5.59917894832e-18
98	2.82558558484e-10
99	4.65692922138e-18
100	2.36942877381e-10
101	3.51926881414e-18
102	1.62917439398e-10
103	2.7089387136e-18
104	1.68143224096e-10
105	2.03801177214e-18
106	1.24870137814e-10
107	1.5496587563e-18
108	9.91999939787e-11
109	1.37630010733e-18
110	6.49895297858e-11
111	9.90830182793e-19
112	5.37928503238e-11
113	9.3483360495e-19
114	4.42647164809e-11
115	9.72369510504e-19
116	4.7062612067e-11
117	1.02466301675e-18
118	5.86422584818e-11
119	1.00919549992e-18
120	4.77148929125e-11
121	9.54537003445e-19
122	4.0980021847e-11
123	8.1814527956e-19
124	2.92629534167e-11
125	7.04942940312e-19
126	2.61647619261e-11
127	6.295145628e-19
128	2.29982528902e-11
129	5.16882935927e-19
130	1.69846348623e-11
131	4.21248608997e-19
132	1.31988222112e-11
133	3.73775712494e-19
134	1.10049860669e-11
135	3.23633503678e-19
136	9.50954547352e-12
137	2.81145680705e-19
138	8.55034890156e-12
139	2.47657178414e-19
140	7.91819108433e-12
141	2.12255672903e-19
142	6.74339903177e-12
143	1.80311148231e-19
144	5.06764633281e-12
145	1.60271115789e-19
146	4.13935315141e-12
147	1.49469165919e-19
148	3.80429987517e-12
149	1.39036085821e-19
150	3.66038207072e-12
151	1.35693976985e-19
152	3.79990000539e-12
153	1.39516005013e-19
154	4.01942764565e-12
155	1.39197157312e-19
156	3.78044645799e-12
157	1.32326597528e-19
158	3.16848344418e-12
159	1.18121258467e-19
160	2.64499646326e-12
161	1.00936888805e-19
162	1.99580459011e-12
163	8.15509468958e-20
164	1.43352778168e-12
165	6.41743015308e-20
166	1.12436543395e-12
167	5.36379720144e-20
168	8.9028634499e-13
169	4.59888570388e-20
170	7.20018502204e-13
171	4.18547830317e-20
172	7.0864419982e-13
173	4.06239415366e-20
174	7.15566078998e-13
175	4.16139448572e-20
176	6.79994096628e-13
177	3.7354334605e-20
178	4.87920386798e-13
179	3.12548753051e-20
180	4.32671943188e-13
181	3.07569214701e-20
182	5.12490914948e-13
183	2.92961171935e-20
184	4.11917735415e-13
185	2.44132083069e-20
186	3.31438051756e-13
187	2.16180858662e-20
188	3.18757390325e-13
189	1.86601403276e-20
190	2.73700923482e-13
191	1.44090108503e-20
192	2.33226835913e-13
193	1.21718400339e-20
194	2.26624272037e-13
195	1.05876027555e-20
196	2.02030415406e-13
197	8.28362163338e-21
198	1.41100810976e-13
199	6.82639124812e-21
200	1.17713591146e-13
201	6.57887891812e-21
202	1.15999197271e-13
203	6.30282541624e-21
204	1.14626407223e-13
205	6.18131832734e-21
206	1.03064020639e-13
207	5.81994742754e-21
208	9.37229010605e-14
209	5.32917378745e-21
210	9.47934275012e-14
211	4.60530235528e-21
212	8.30847414533e-14
213	3.85934967734e-21
214	7.11698111213e-14
215	3.40259272366e-21
216	6.00228963772e-14
217	2.9361346931e-21
218	5.81537862512e-14
219	2.94132209884e-21
220	5.21054956114e-14
221	2.50875782511e-21
222	3.86737332032e-14
223	2.47791674026e-21
224	3.94696938615e-14
225	2.79001218436e-21
226	3.21608880773e-14
227	2.28016580056e-21
228	2.65532608756e-14
229	2.39057238191e-21
230	2.84347742705e-14
231	2.26727914473e-21
232	2.27173620341e-14
233	1.87385131047e-21
234	2.32737401083e-14
235	1.94998343133e-21
236	2.23525852437e-14
237	1.49765170848e-21
238	1.61871218121e-14
239	1.12135324129e-21
240	1.58858739908e-14
241	1.06707592794e-21
242	1.44486679392e-14
243	7.99789264054e-22
244	1.10834351936e-14
245	6.241328228e-22
246	9.54356663603e-15
247	5.33875165613e-22
248	7.99287939053e-15
249	4.16235463278e-22
250	6.52788517916e-15
251	3.52082020098e-22
252	5.53499994768e-15
253	3.13053242055e-22
254	4.57914061126e-15
255	2.70530693742e-22
256	3.91537046998e-15
257	2.37181767534e-22
258	3.6899022787e-15
259	2.21241479751e-22
260	3.38028580374e-15
261	1.94232984907e-22
262	2.92839785196e-15
263	1.61358965911e-22
264	2.74788173561e-15
265	1.48398222752e-22
266	2.72016023196e-15
267	1.3061047196e-22
268	2.37922872471e-15
269	9.3867036055e-23
270	2.00557581456e-15
271	7.40677231655e-23
272	1.96636570902e-15
273	7.67531634994e-23
274	1.90476177822e-15
275	6.40873556341e-23
276	1.72274610095e-15
277	5.61408458066e-23
278	1.74165007252e-15
279	6.73164152719e-23
280	1.70052022508e-15
281	6.1770755069e-23
282	1.57017689228e-15
283	6.24339182086e-23
284	1.64010892891e-15
285	6.94722044333e-23
286	1.57142290377e-15
287	5.62575440522e-23
288	1.42647541665e-15
289	5.34918817823e-23
290	1.38074020722e-15
291	4.97313850962e-23
292	1.25009008909e-15
293	3.69623498352e-23
294	1.17597106767e-15
295	3.45987505857e-23
296	1.10412491609e-15
297	2.78058833534e-23
298	9.80611377505e-16
299	2.18391731096e-23
300	9.23762593568e-16
301	2.01726276153e-23
302	8.59559649876e-16
303	1.67487246387e-23
304	7.93902165628e-16
305	1.50317945137e-23
306	7.36123773003e-16
307	1.34096653503e-23
308	6.89932980111e-16
309	1.36460492204e-23
310	6.53545945048e-16
311	1.12113271021e-23
312	5.98999085809e-16
313	9.22216526325e-24
314	5.70110622142e-16
315	1.0591218973e-23
316	5.35050690952e-16
317	7.26942172723e-24
318	4.83234974583e-16
319	5.55023944644e-24
320	4.6049706373e-16
321	6.54251043297e-24
322	4.26866752108e-16
323	4.25098081346e-24
324	3.84922827477e-16
325	3.77161010124e-24
326	3.60970664422e-16
327	4.04609173585e-24
328	3.29873612382e-16
329	2.73780669272e-24
330	2.96971632694e-16
331	2.75117888976e-24
332	2.69293520682e-16
333	2.51469973285e-24
334	2.4025856118e-16
335	1.95637387816e-24
336	2.15026993874e-16
337	1.92943443685e-24
338	1.89021056572e-16
339	1.56916159372e-24
340	1.6393076798e-16
341	1.28181886292e-24
342	1.42219726938e-16
343	1.19728921401e-24
344	1.21388191482e-16
345	9.67608605793e-25
346	1.02233413149e-16
347	8.05577549422e-25
348	8.4684707355e-17
349	6.58467130194e-25
350	6.9393865569e-17
351	6.14222193227e-25
352	5.6598562375e-17
353	5.17049184653e-25
354	4.47358627035e-17
355	4.22719908168e-25
356	3.51156574706e-17
357	4.67457663873e-25
358	2.74798323936e-17
359	3.74389899644e-25
360	2.05176567243e-17
361	2.71394463706e-25
362	1.53934389644e-17
363	3.16281771056e-25
364	1.15524227427e-17
365	2.39570409643e-25
366	7.87001601837e-18
367	1.55844628855e-25
368	5.65992111765e-18
369	1.89545423141e-25
370	4.13721573299e-18
371	1.34119329097e-25
372	2.59938040905e-18
373	8.40728355071e-26
374	1.87142836358e-18
375	1.06695559278e-25
376	1.45412281563e-18
377	7.49571688875e-26
378	1.06545319661e-18
379	6.09348289097e-26
380	9.83991362188e-19
381	6.72405858468e-26
382	9.25760819056e-19
383	4.83051980874e-26
384	9.12879154253e-19
385	4.66025309141e-26
386	9.94846580575e-19
387	4.56989896662e-26
388	9.9785027747e-19
389	3.29398919229e-26
390	1.00487975519e-18
391	3.12043824003e-26
392	1.02509646968e-18
393	2.96295649392e-26
394	1.00950638145e-18
395	2.550893217e-26
396	9.57882057398e-19
397	2.10175150497e-26
398	9.17487717395e-19
399	2.50200339405e-26
400	8.67887663006e-19
401	2.19552899064e-26
402	7.65421453583e-19
403	1.53476566255e-26
404	6.95626747416e-19
405	1.85216787319e-26
406	6.52898176845e-19
407	1.84826285266e-26
408	5.35444261776e-19
409	1.12935682961e-26
410	4.61864773075e-19
411	1.5589424845e-26
412	4.19455537952e-19
413	1.38667193564e-26
414	3.35643325734e-19
415	6.93594466515e-27
416	2.76670451479e-19
417	1.08290725513e-26
418	2.35063309004e-19
419	7.72513687238e-27
420	1.78411169795e-19
421	5.45389541955e-27
422	1.49040973493e-19
423	6.50203374452e-27
424	1.15394262597e-19
425	3.86517628508e-27
426	8.48691282602e-20
427	4.08692722518e-27
428	6.61672885618e-20
429	3.88948601229e-27
430	5.0788394699e-20
431	3.29886159163e-27
432	3.73459622082e-20
433	3.31917620466e-27
434	2.90450052134e-20
435	3.32430444256e-27
436	2.21862853953e-20
437	2.23888594291e-27
438	1.85061228083e-20
439	2.4639562203e-27
440	1.72919630042e-20
441	2.41657342871e-27
442	1.66413998157e-20
443	2.37970504784e-27
444	1.58956841576e-20
445	1.80349851464e-27
446	1.61590474435e-20
447	2.21730085164e-27
448	1.85018874379e-20
449	1.96784434524e-27
450	1.86411212233e-20
451	1.59478556645e-27
452	1.92271976254e-20
453	1.73730510397e-27
454	1.98446087384e-20
455	1.69833831818e-27
456	2.0202296322e-20
457	1.54071705148e-27
458	1.97481081406e-20
459	1.73730457504e-27
460	1.98983280852e-20
461	1.54557174736e-27
462	1.84096513136e-20
463	1.61742173734e-27
464	1.78418736399e-20
465	1.56867157592e-27
466	1.6958572638e-20
467	1.68087003285e-27
468	1.59042020864e-20
469	1.50950713589e-27
470	1.4122771048e-20
471	1.70088834592e-27
472	1.32397538224e-20
473	2.49587026225e-27
474	1.18334717341e-20
475	1.98819402825e-27
476	1.05085328623e-20
477	2.27878425573e-27
478	9.10163894608e-21
479	2.59849460391e-27
480	8.12040081167e-21
481	2.37994557389e-27
482	6.99942526695e-21
483	1.71295599901e-27
484	6.07213821603e-21
485	3.49116669823e-27
486	5.15570934414e-21
487	2.82556095868e-27
488	4.45210008007e-21
489	2.64580198187e-27
490	3.78386645238e-21
491	2.06860785753e-27
492	3.27469255068e-21
493	2.27300589485e-27
494	2.74112771538e-21
495	2.74328830227e-27
496	2.35905277456e-21
497	2.91128735596e-27
498	2.08877621394e-21
499	3.06798943977e-27
500	1.77519590913e-21
501	3.15479308711e-27
502	1.57713712873e-21
503	3.29170576917e-27
504	1.4059382621e-21
505	4.91515639712e-27
506	1.30926870206e-21
507	4.96184892502e-27
508	1.21018836195e-21
509	5.76840814281e-27
510	1.17833267997e-21
511	1.03614918034e-26
512	1.13591677903e-21
513	1.0361491804e-26
514	1.17833276771e-21
515	5.76840814283e-27
516	1.21018836373e-21
517	4.96184892488e-27
518	1.30926869596e-21
519	4.91515639705e-27
520	1.40593826277e-21
521	3.29170576915e-27
522	1.57713713318e-21
523	3.15479308714e-27
524	1.77519591002e-21
525	3.06798943985e-27
526	2.08877620252e-21
527	2.91128735589e-27
528	2.35905277514e-21
529	2.74328830231e-27
530	2.74112772482e-21
531	2.27300589484e-27
532	3.27469255337e-21
533	2.06860785752e-27
534	3.78386644735e-21
535	2.6458019819e-27
536	4.45210007974e-21
537	2.8255609587e-27
538	5.15570934369e-21
539	3.49116669826e-27
540	6.07213821982e-21
541	1.71295599893e-27
542	6.99942526811e-21
543	2.37994557391e-27
544	8.12040081176e-21
545	2.59849460394e-27
546	9.1016389434e-21
547	2.27878425575e-27
548	1.05085328688e-20
549	1.98819402823e-27
550	1.1833471738e-20
551	2.4958702622e-27
552	1.32397538223e-20
553	1.70088834589e-27
554	1.41227710477e-20
555	1.50950713585e-27
556	1.59042020846e-20
557	1.68087003282e-27
558	1.6958572654e-20
559	1.56867157595e-27
560	1.78418736402e-20
561	1.61742173726e-27
562	1.84096512861e-20
563	1.54557174737e-27
564	1.98983280825e-20
565	1.73730457504e-27
566	1.97481081409e-20
567	1.54071705149e-27
568	2.02022963241e-20
569	1.69833831816e-27
570	1.98446087521e-20
571	1.73730510394e-27
572	1.92271976214e-20
573	1.59478556653e-27
574	1.86411212288e-20
575	1.96784434543e-27
576	1.85018874379e-20
577	2.21730085174e-27
578	1.6159047415e-20
579	1.80349851463e-27
580	1.58956841507e-20
581	2.37970504785e-27
582	1.66413998109e-20
583	2.41657342874e-27
584	1.72919630057e-20
585	2.46395622033e-27
586	1.85061228096e-20
587	2.23888594289e-27
588	2.21862853908e-20
589	3.32430444257e-27
590	2.90450052223e-20
591	3.31917620467e-27
592	3.73459622083e-20
593	3.2988615916e-27
594	5.07883946919e-20
595	3.88948601234e-27
596	6.61672885645e-20
597	4.08692722512e-27
598	8.48691282588e-20
599	3.86517628502e-27
600	1.15394262598e-19
601	6.50203374463e-27
602	1.49040973455e-19
603	5.45389541957e-27
604	1.78411169776e-19
605	7.72513687231e-27
606	2.35063309037e-19
607	1.08290725513e-26
608	2.76670451478e-19
609	6.93594466526e-27
610	3.356433258e-19
611	1.38667193565e-26
612	4.19455537907e-19
613	1.5589424845e-26
614	4.61864773072e-19
615	1.12935682961e-26
616	5.35444261775e-19
617	1.84826285265e-26
618	6.52898176868e-19
619	1.85216787318e-26
620	6.95626747383e-19
621	1.53476566255e-26
622	7.6542145366e-19
623	2.19552899064e-26
624	8.67887663007e-19
625	2.50200339407e-26
626	9.17487717368e-19
627	2.10175150497e-26
628	9.57882057386e-19
629	2.550893217e-26
630	1.00950638143e-18
631	2.96295649391e-26
632	1.02509646966e-18
633	3.12043824004e-26
634	1.00487975519e-18
635	3.29398919229e-26
636	9.97850277518e-19
637	4.56989896669e-26
638	9.94846580613e-19
639	4.66025309131e-26
640	9.12879154253e-19
641	4.83051980864e-26
642	9.2576081895e-19
643	6.72405858469e-26
644	9.83991362234e-19
645	6.09348289098e-26
646	1.0654531967e-18
647	7.49571688877e-26
648	1.45412281563e-18
649	1.06695559278e-25
650	1.87142836365e-18
651	8.40728355074e-26
652	2.59938040902e-18
653	1.34119329097e-25
654	4.13721573314e-18
655	1.89545423141e-25
656	5.65992111764e-18
657	1.55844628855e-25
658	7.87001601786e-18
659	2.39570409643e-25
660	1.15524227427e-17
661	3.16281771056e-25
662	1.53934389648e-17
663	2.71394463706e-25
664	2.05176567243e-17
665	3.74389899644e-25
666	2.74798323937e-17
667	4.67457663872e-25
668	3.51156574706e-17
669	4.22719908169e-25
670	4.47358627043e-17
671	5.17049184652e-25
672	5.6598562375e-17
673	6.14222193228e-25
674	6.93938655685e-17
675	6.58467130192e-25
676	8.46847073557e-17
677	8.05577549422e-25
678	1.02233413149e-16
679	9.67608605793e-25
680	1.21388191482e-16
681	1.19728921401e-24
682	1.42219726939e-16
683	1.28181886292e-24
684	1.63930767981e-16
685	1.56916159372e-24
686	1.8902105657e-16
687	1.92943443685e-24
688	2.15026993874e-16
689	1.95637387816e-24
690	2.4025856118e-16
691	2.51469973285e-24
692	2.69293520682e-16
693	2.75117888976e-24
694	2.96971632693e-16
695	2.73780669272e-24
696	3.29873612381e-16
697	4.04609173585e-24
698	3.60970664423e-16
699	3.77161010124e-24
700	3.84922827478e-16
701	4.25098081346e-24
702	4.26866752117e-16
703	6.54251043297e-24
704	4.6049706373e-16
705	5.55023944644e-24
706	4.8323497457e-16
707	7.26942172723e-24
708	5.35050690953e-16
709	1.0591218973e-23
710	5.70110622143e-16
711	9.22216526326e-24
712	5.98999085809e-16
713	1.12113271021e-23
714	6.53545945047e-16
715	1.36460492204e-23
716	6.89932980111e-16
717	1.34096653503e-23
718	7.36123773003e-16
719	1.50317945137e-23
720	7.93902165628e-16
721	1.67487246387e-23
722	8.59559649881e-16
723	2.01726276153e-23
724	9.23762593567e-16
725	2.18391731096e-23
726	9.80611377503e-16
727	2.78058833534e-23
728	1.10412491609e-15
729	3.45987505857e-23
730	1.17597106768e-15
731	3.69623498352e-23
732	1.25009008909e-15
733	4.97313850962e-23
734	1.38074020722e-15
735	5.34918817823e-23
736	1.42647541665e-15
737	5.62575440522e-23
738	1.57142290377e-15
739	6.94722044333e-23
740	1.64010892891e-15
741	6.24339182086e-23
742	1.57017689228e-15
743	6.1770755069e-23
744	1.70052022508e-15
745	6.73164152719e-23
746	1.74165007253e-15
747	5.61408458066e-23
748	1.72274610095e-15
749	6.40873556341e-23
750	1.90476177823e-15
751	7.67531634994e-23
752	1.96636570902e-15
753	7.40677231655e-23
754	2.00557581457e-15
755	9.3867036055e-23
756	2.37922872471e-15
757	1.3061047196e-22
758	2.72016023196e-15
759	1.48398222752e-22
760	2.74788173561e-15
761	1.61358965911e-22
762	2.92839785195e-15
763	1.94232984907e-22
764	3.38028580373e-15
765	2.21241479751e-22
766	3.68990227874e-15
767	2.37181767534e-22
768	3.91537046998e-15
769	2.70530693742e-22
770	4.57914061125e-15
771	3.13053242055e-22
772	5.53499994767e-15
773	3.52082020098e-22
774	6.52788517917e-15
775	4.16235463278e-22
776	7.99287939053e-15
777	5.33875165613e-22
778	9.54356663603e-15
779	6.241328228e-22
780	1.10834351936e-14
781	7.99789264054e-22
782	1.44486679392e-14
783	1.06707592794e-21
784	1.58858739908e-14
785	1.12135324129e-21
786	1.61871218121e-14
787	1.49765170848e-21
788	2.23525852437e-14
789	1.94998343133e-21
790	2.32737401083e-14
791	1.87385131047e-21
792	2.27173620341e-14
793	2.26727914473e-21
794	2.84347742705e-14
795	2.39057238191e-21
796	2.65532608756e-14
797	2.28016580056e-21
798	3.21608880773e-14
799	2.79001218436e-21
800	3.94696938615e-14
801	2.47791674026e-21
802	3.86737332031e-14
803	2.50875782511e-21
804	5.21054956114e-14
805	2.94132209884e-21
806	5.81537862512e-14
807	2.9361346931e-21
808	6.00228963772e-14
809	3.40259272366e-21
810	7.11698111213e-14
811	3.85934967734e-21
812	8.30847414533e-14
813	4.60530235528e-21
814	9.47934275013e-14
815	5.32917378745e-21
816	9.37229010605e-14
817	5.81994742754e-21
818	1.0306402064e-13
819	6.18131832734e-21
820	1.14626407223e-13
821	6.30282541624e-21
822	1.15999197271e-13
823	6.57887891812e-21
824	1.17713591146e-13
825	6.82639124812e-21
826	1.41100810976e-13
827	8.28362163338e-21
828	2.02030415406e-13
829	1.05876027555e-20
830	2.26624272037e-13
831	1.21718400339e-20
832	2.33226835913e-13
833	1.44090108503e-20
834	2.73700923483e-13
835	1.86601403276e-20
836	3.18757390325e-13
837	2.16180858662e-20
838	3.31438051756e-13
839	2.44132083069e-20
840	4.11917735415e-13
841	2.92961171935e-20
842	5.12490914948e-13
843	3.07569214701e-20
844	4.32671943188e-13
845	3.12548753051e-20
846	4.87920386798e-13
847	3.7354334605e-20
848	6.79994096628e-13
849	4.16139448572e-20
850	7.15566078998e-13
851	4.06239415366e-20
852	7.0864419982e-13
853	4.18547830317e-20
854	7.20018502204e-13
855	4.59888570388e-20
856	8.9028634499e-13
857	5.36379720144e-20
858	1.12436543395e-12
859	6.41743015308e-20
860	1.43352778168e-12
861	8.15509468958e-20
862	1.99580459011e-12
863	1.00936888805e-19
864	2.64499646326e-12
865	1.18121258467e-19
866	3.16848344418e-12
867	1.32326597528e-19
868	3.78044645799e-12
869	1.39197157312e-19
870	4.01942764565e-12
871	1.39516005013e-19
872	3.79990000539e-12
873	1.35693976985e-19
874	3.66038207072e-12
875	1.39036085821e-19
876	3.80429987517e-12
877	1.49469165919e-19
878	4.13935315141e-12
879	1.60271115789e-19
880	5.06764633281e-12
881	1.80311148231e-19
882	6.74339903177e-12
883	2.12255672903e-19
884	7.91819108433e-12
885	2.47657178414e-19
886	8.55034890156e-12
887	2.81145680705e-19
888	9.50954547352e-12
889	3.23633503678e-19
890	1.10049860669e-11
891	3.73775712494e-19
892	1.31988222112e-11
893	4.21248608997e-19
894	1.69846348623e-11
895	5.16882935927e-19
896	2.29982528902e-11
897	6.295145628e-19
898	2.61647619261e-11
899	7.04942940312e-19
900	2.92629534167e-11
901	8.1814527956e-19
902	4.0980021847e-11
903	9.54537003445e-19
904	4.77148929125e-11
905	1.00919549992e-18
906	5.86422584818e-11
907	1.02466301675e-18
908	4.7062612067e-11
909	9.72369510504e-19
910	4.42647164809e-11
911	9.3483360495e-19
912	5.37928503238e-11
913	9.90830182793e-19
914	6.49895297858e-11
915	1.37630010733e-18
916	9.91999939787e-11
917	1.5496587563e-18
918	1.24870137814e-10
919	2.03801177214e-18
920	1.68143224096e-10
921	2.7089387136e-18
922	1.62917439398e-10
923	3.51926881414e-18
924	2.36942877381e-10
925	4.65692922138e-18
926	2.82558558484e-10
927	5.59917894832e-18
928	2.75401383256e-10
929	6.24953585466e-18
930	2.84898183519e-10
931	6.51049516657e-18
932	2.99681479956e-10
933	7.05178643298e-18
934	5.04319990232e-10
935	7.95720476111e-18
936	5.6946167966e-10
937	8.12822874819e-18
938	4.84624611533e-10
939	8.23206528565e-18
940	6.03995048776e-10
941	8.35246682692e-18
942	7.17081154155e-10
943	8.6242559651e-18
944	6.48545327382e-10
945	9.52167758132e-18
946	8.41934593352e-10
947	1.07195968115e-17
948	8.18932805855e-10
949	1.14922002199e-17
950	6.80985691628e-10
951	1.13273005958e-17
952	6.03611400232e-10
953	1.06329553503e-17
954	5.03535875712e-10
955	9.60269809004e-18
956	6.03404522982e-10
957	9.92553857137e-18
958	9.10789531889e-10
959	1.1323636899e-17
960	8.47591537313e-10
961	1.3081724875e-17
962	8.13108100756e-10
963	1.4321205617e-17
964	1.0377148681e-09
965	1.40316799201e-17
966	1.72248841968e-09
967	1.5382258664e-17
968	2.32443350557e-09
969	1.87314340871e-17
970	2.36730644092e-09
971	2.52668921942e-17
972	5.20116152443e-09
973	3.56991210995e-17
974	8.6723376904e-09
975	5.43276959979e-17
976	9.78640246095e-09
977	7.23291287572e-17
978	1.00280719267e-08
979	7.5513208349e-17
980	1.05578454702e-08
981	6.12742169859e-17
982	1.07425320984e-08
983	4.90275409973e-17
984	9.92388097622e-09
985	5.4753909821e-17
986	9.76947361353e-09
987	6.88035430017e-17
988	1.80977775407e-08
989	7.28478331227e-17
990	2.88973915633e-08
991	7.87416678114e-17
992	3.63017262719e-08
993	8.81943381678e-17
994	3.42520768976e-08
995	1.10773011132e-16
996	3.05300572456e-08
997	1.26664634248e-16
998	2.87384286251e-08
999	1.10720433785e-16
1000	4.92487010926e-08
1001	1.18545120428e-16
1002	9.48301978285e-08
1003	1.19628010649e-16
1004	1.63286289749e-07
1005	1.66793180485e-16
1006	2.13198562577e-07
1007	1.35396946801e-16
1008	2.08110458131e-07
1009	2.09582860012e-16
1010	3.83446663118e-07
1011	3.67521528988e-16
1012	1.37056691117e-06
1013	5.28980442027e-16
1014	2.1716766057e-06
1015	1.2434469352e-15
1016	6.10267134461e-06
1017	1.89442089718e-15
1018	3.1770872491e-05
1019	1.23992698302e-14
1020	0.000857090081718
1021	8.43796860811e-14
1022	0.0101782944039
1023	3.30858119613e-13
