0	0.776718749823
1	0.0234855189823
2	0.00362891948983
3	0.000824227620285
4	0.000223711443762
5	3.68609875969e-05
6	1.08054067001e-05
7	5.63843462617e-06
8	2.44567911804e-06
9	1.03296514611e-06
10	6.31211478806e-07
11	7.03617181787e-07
12	6.7820239227e-07
13	6.03159557009e-07
14	2.59214496979e-07
15	1.77808847411e-07
16	8.59968558953e-08
17	1.01974318687e-07
18	1.217087717e-07
19	9.48248703038e-08
20	5.17324783649e-08
21	4.94607529961e-08
22	3.64661963506e-08
23	3.28605579357e-08
24	2.72752263108e-08
25	3.09919303463e-08
26	2.05207382093e-08
27	1.35116598089e-08
28	1.22291460819e-08
29	7.69563051861e-09
30	6.47183684058e-09
31	5.27863019937e-09
32	6.00256117172e-09
33	4.40820477856e-09
34	3.72143472334e-09
35	2.8523378759e-09
36	2.0075399442e-09
37	1.81138830466e-09
38	1.73136028881e-09
39	1.63762853429e-09
40	1.57331874387e-09
41	1.12805012979e-09
42	8.89196684815e-10
43	1.2507724385e-09
44	1.68546462514e-09
45	1.21118560191e-09
46	7.72638808114e-10
47	6.81727474429e-10
48	4.7413065054e-10
49	5.58590143797e-10
50	4.47656826589e-10
51	5.85097657522e-10
52	5.66229238595e-10
53	5.17668468719e-10
54	6.997331896e-10
55	5.8394878563e-10
56	4.18895523524e-10
57	2.46892662047e-10
58	2.18901065776e-10
59	2.94924442507e-10
60	3.50523728365e-10
61	3.94917696389e-10
62	3.37046931911e-10
63	2.01762221581e-10
64	1.40783040816e-10
65	1.35474369359e-10
66	1.39742522246e-10
67	1.06062947343e-10
68	1.21284072487e-10
69	1.20040728968e-10
70	5.61900678586e-11
71	5.89998557641e-11
72	8.10217627325e-11
73	9.07546927643e-11
74	7.51248019612e-11
75	6.47853963738e-11
76	6.40312136208e-11
77	5.16070275598e-11
78	5.55988052997e-11
79	4.15484070157e-11
80	3.02076084462e-11
81	2.25597029688e-11
82	3.54059813265e-11
83	5.10339807228e-11
84	3.76315961516e-11
85	1.98963314242e-11
86	2.21660799095e-11
87	2.99864673642e-11
88	2.49623123081e-11
89	2.1931614454e-11
90	1.29588477518e-11
91	1.5350254067e-11
92	2.41653152047e-11
93	2.34557535189e-11
94	2.03078186563e-11
95	1.46954530574e-11
96	1.15868847906e-11
97	1.50583161497e-11
98	1.55892533085e-11
99	1.35539905516e-11
100	1.1241172112e-11
101	1.10379308544e-11
102	1.24994091546e-11
103	1.23257269198e-11
104	1.24532175974e-11
105	1.20249165623e-11
106	8.4749446108e-12
107	6.16368811727e-12
108	5.27594635312e-12
109	4.89502570001e-12
110	4.27427148647e-12
111	4.42121479837e-12
112	4.3151643774e-12
113	3.88626287507e-12
114	3.79194725547e-12
115	3.45398287922e-12
116	3.32677736677e-12
117	2.73410043018e-12
118	2.23423368524e-12
119	2.0752513416e-12
120	2.14224250823e-12
121	2.09730260269e-12
122	2.00504560312e-12
123	1.87485433494e-12
124	1.91359765096e-12
125	1.69461756721e-12
126	1.29750142814e-12
127	1.398376759e-12
128	1.62138315564e-12
129	1.82183179854e-12
130	2.16229012685e-12
131	2.23663028745e-12
132	1.9494420804e-12
133	1.71103397449e-12
134	1.44163665033e-12
135	1.42976756545e-12
136	1.54164293755e-12
137	1.49616100161e-12
138	1.40293354315e-12
139	1.15137499431e-12
140	1.00282158103e-12
141	1.01851683345e-12
142	9.44553337268e-13
143	7.78629987414e-13
144	6.70401101091e-13
145	5.83607984002e-13
146	4.77018980495e-13
147	4.46521384601e-13
148	4.79891465103e-13
149	5.44269992261e-13
150	5.56399753914e-13
151	4.27330235915e-13
152	3.3008400849e-13
153	3.28913935174e-13
154	2.98822694441e-13
155	2.65709165107e-13
156	2.58722449758e-13
157	2.64783865607e-13
158	2.55476750349e-13
159	2.20709862564e-13
160	2.08770468924e-13
161	2.20275493241e-13
162	2.05504691739e-13
163	1.75807953477e-13
164	1.92969810954e-13
165	2.25377834319e-13
166	2.10022355021e-13
167	1.90241015881e-13
168	2.0060511293e-13
169	2.0991053541e-13
170	1.8856756324e-13
171	1.7075516764e-13
172	1.78377112936e-13
173	1.60833189231e-13
174	1.31348356967e-13
175	1.43200345746e-13
176	1.47530208336e-13
177	1.15584472629e-13
178	9.18372615813e-14
179	8.010591884e-14
180	6.75942788886e-14
181	5.38425520652e-14
182	4.19456005602e-14
183	4.0135103873e-14
184	3.72056830523e-14
185	2.96923034608e-14
186	3.2915700434e-14
187	3.38970716232e-14
188	2.84641054291e-14
189	3.19882073267e-14
190	3.44712835542e-14
191	3.27093319584e-14
192	3.71860146538e-14
193	3.88278398375e-14
194	3.32638961999e-14
195	3.17380456205e-14
196	3.58497304084e-14
197	3.87847663948e-14
198	3.61008664483e-14
199	3.17319874442e-14
200	3.36850454193e-14
201	3.76721490558e-14
202	3.55823926462e-14
203	3.24555178057e-14
204	3.34149162928e-14
205	3.33055007092e-14
206	2.86937402221e-14
207	2.40164683935e-14
208	2.3196607131e-14
209	2.28566048847e-14
210	1.92345282874e-14
211	1.63080172894e-14
212	1.67296639994e-14
213	1.57271632293e-14
214	1.26406695622e-14
215	1.13735859115e-14
216	1.07365226424e-14
217	8.87230475808e-15
218	7.28449562036e-15
219	6.07413960285e-15
220	4.68276428645e-15
221	3.90596235437e-15
222	3.6144098799e-15
223	2.96917377698e-15
224	2.62461255863e-15
225	3.16549532095e-15
226	3.27125587206e-15
227	2.62937283796e-15
228	2.80081003795e-15
229	3.68273874195e-15
230	3.70078775218e-15
231	3.06617179161e-15
232	3.2080594794e-15
233	3.84359535692e-15
234	3.63313296347e-15
235	2.97804631806e-15
236	3.04696160749e-15
237	3.39857400811e-15
238	3.1690675259e-15
239	2.71756407395e-15
240	2.64210397146e-15
241	2.6626043305e-15
242	2.38195477409e-15
243	2.05551943215e-15
244	1.88173227461e-15
245	1.68245419097e-15
246	1.46801744501e-15
247	1.31203971527e-15
248	1.15534845623e-15
249	1.03381931991e-15
250	9.55950133582e-16
251	8.76796488956e-16
252	8.17717489875e-16
253	7.62331297607e-16
254	6.97547982082e-16
255	6.54318622095e-16
256	6.2738907249e-16
257	6.09657311311e-16
258	5.87762252271e-16
259	5.50870347954e-16
260	5.39274498457e-16
261	5.50073782568e-16
262	5.38572493331e-16
263	5.25463933571e-16
264	5.3245718088e-16
265	5.31835643119e-16
266	5.16626885675e-16
267	4.99760375268e-16
268	4.84384264433e-16
269	4.67909092817e-16
270	4.4142729331e-16
271	4.10215554343e-16
272	3.87475513164e-16
273	3.66120639736e-16
274	3.43653180823e-16
275	3.29366992837e-16
276	3.1999014011e-16
277	3.12392890785e-16
278	3.03251152085e-16
279	2.89407956093e-16
280	2.8917947353e-16
281	3.01531439942e-16
282	2.91008957184e-16
283	2.70799518283e-16
284	2.88413952915e-16
285	3.17113851786e-16
286	3.01489415983e-16
287	2.80455086884e-16
288	3.13866768921e-16
289	3.47921056002e-16
290	3.20396599364e-16
291	2.99010140946e-16
292	3.38182894855e-16
293	3.55588911307e-16
294	3.12512697782e-16
295	2.99216953518e-16
296	3.3289909239e-16
297	3.25123852365e-16
298	2.81547081654e-16
299	2.81750543485e-16
300	3.01410438235e-16
301	2.75667982867e-16
302	2.43122744714e-16
303	2.51127470548e-16
304	2.51664356805e-16
305	2.17123394404e-16
306	2.00073765008e-16
307	2.0835383012e-16
308	1.92334148016e-16
309	1.63411609403e-16
310	1.635791863e-16
311	1.66939826057e-16
312	1.43704322375e-16
313	1.29802852644e-16
314	1.41122952151e-16
315	1.36226064955e-16
316	1.13172455513e-16
317	1.1466029747e-16
318	1.29004917497e-16
319	1.15655565849e-16
320	9.81955321953e-17
321	1.11547482014e-16
322	1.22405641803e-16
323	1.03424417207e-16
324	9.42141734236e-17
325	1.12681393327e-16
326	1.15665215211e-16
327	9.4682290565e-17
328	9.2979930461e-17
329	1.09616610153e-16
330	1.03750907764e-16
331	8.47236538826e-17
332	8.85649281387e-17
333	9.90818785991e-17
334	8.69359146039e-17
335	7.3373722071e-17
336	8.00245679211e-17
337	8.28879941776e-17
338	6.85997529416e-17
339	6.18018294928e-17
340	6.80591209996e-17
341	6.42393756699e-17
342	5.18352105268e-17
343	5.09725739977e-17
344	5.45722639913e-17
345	4.68961280853e-17
346	3.91163884202e-17
347	4.19944825666e-17
348	4.20457118847e-17
349	3.36750968131e-17
350	3.10725373556e-17
351	3.4982949007e-17
352	3.18814907958e-17
353	2.51508715383e-17
354	2.65464007875e-17
355	2.94248293921e-17
356	2.44677948913e-17
357	2.04870368177e-17
358	2.39359166932e-17
359	2.48059313866e-17
360	1.94784153745e-17
361	1.81431465725e-17
362	2.17398093363e-17
363	2.06137450521e-17
364	1.60432290668e-17
365	1.65203218133e-17
366	1.90315667107e-17
367	1.65885898238e-17
368	1.33733442124e-17
369	1.468628969e-17
370	1.57011876449e-17
371	1.28258401534e-17
372	1.10611783596e-17
373	1.24142668043e-17
374	1.21179587541e-17
375	9.55257227626e-18
376	8.96851785775e-18
377	9.88409568968e-18
378	8.77872240504e-18
379	6.95916367458e-18
380	7.12625696936e-18
381	7.44859448175e-18
382	6.07785447754e-18
383	5.11375056464e-18
384	5.59852803366e-18
385	5.39195547589e-18
386	4.16423792769e-18
387	3.91507922463e-18
388	4.38236992195e-18
389	3.82973463703e-18
390	2.9615421032e-18
391	3.16381584802e-18
392	3.42817123051e-18
393	2.74304030572e-18
394	2.27458650509e-18
395	2.65604924392e-18
396	2.67315406298e-18
397	2.02885825985e-18
398	1.88163023555e-18
399	2.2386943162e-18
400	2.06018468047e-18
401	1.55903541715e-18
402	1.60772717887e-18
403	1.83542677457e-18
404	1.55494097808e-18
405	1.22944895365e-18
406	1.35674936666e-18
407	1.43566432011e-18
408	1.14377064999e-18
409	9.74902231881e-19
410	1.09953499569e-18
411	1.06338827268e-18
412	8.20697422044e-19
413	7.64928554612e-19
414	8.46734415342e-19
415	7.47040855427e-19
416	5.8110111231e-19
417	5.90128476572e-19
418	6.2049374819e-19
419	5.04959610981e-19
420	4.13850609944e-19
421	4.48673356918e-19
422	4.38140811313e-19
423	3.36162209674e-19
424	3.03135720036e-19
425	3.39124330957e-19
426	3.02545696696e-19
427	2.28342841398e-19
428	2.32219275717e-19
429	2.55282468839e-19
430	2.08884450948e-19
431	1.64229421742e-19
432	1.84191039662e-19
433	1.91989864174e-19
434	1.47120690682e-19
435	1.2583452698e-19
436	1.48504298214e-19
437	1.43443694842e-19
438	1.06404003581e-19
439	1.00991666736e-19
440	1.18631449401e-19
441	1.05496414061e-19
442	7.89622050132e-20
443	8.21229614682e-20
444	9.20257239433e-20
445	7.58984733442e-20
446	5.94857901496e-20
447	6.57981427311e-20
448	6.85211215577e-20
449	5.32793549667e-20
450	4.5127657078e-20
451	5.11372492895e-20
452	4.88150670321e-20
453	3.68275265595e-20
454	3.42685988715e-20
455	3.83395538881e-20
456	3.35113973934e-20
457	2.54007227722e-20
458	2.60078703739e-20
459	2.79360216524e-20
460	2.24370673223e-20
461	1.78517379923e-20
462	1.9886081107e-20
463	1.99050702943e-20
464	1.49252240637e-20
465	1.31437895844e-20
466	1.52701980224e-20
467	1.39925265207e-20
468	1.02196015271e-20
469	1.01542563687e-20
470	1.1754472032e-20
471	9.87292228647e-21
472	7.32801701102e-21
473	8.16277208084e-21
474	9.03225889251e-21
475	7.00060707306e-21
476	5.58358553203e-21
477	6.67666937721e-21
478	6.84409032984e-21
479	5.04247614408e-21
480	4.47578601751e-21
481	5.43026560292e-21
482	5.08053394451e-21
483	3.71502421458e-21
484	3.66402457553e-21
485	4.29295637838e-21
486	3.70235255322e-21
487	2.78018976515e-21
488	2.99979154781e-21
489	3.30151385531e-21
490	2.64483071896e-21
491	2.13514891344e-21
492	2.42900397305e-21
493	2.46770560754e-21
494	1.89240371562e-21
495	1.68311062423e-21
496	1.95059087502e-21
497	1.81652129943e-21
498	1.39824610798e-21
499	1.38860000334e-21
500	1.54891422321e-21
501	1.37339884628e-21
502	1.114197119e-21
503	1.16686192673e-21
504	1.26729622092e-21
505	1.10129488555e-21
506	9.49371101436e-22
507	1.03130139314e-21
508	1.08961509723e-21
509	9.72838170785e-22
510	8.90355041959e-22
511	9.62303282046e-22
512	1.02899755627e-21
513	9.62303249156e-22
514	8.90355039416e-22
515	9.72838167688e-22
516	1.08961509581e-21
517	1.03130139178e-21
518	9.49371101558e-22
519	1.10129488548e-21
520	1.26729622089e-21
521	1.16686192828e-21
522	1.11419711907e-21
523	1.37339884664e-21
524	1.54891422365e-21
525	1.38860000353e-21
526	1.39824610994e-21
527	1.81652129782e-21
528	1.95059087505e-21
529	1.68311062709e-21
530	1.89240371681e-21
531	2.46770560666e-21
532	2.42900397292e-21
533	2.13514891577e-21
534	2.64483071727e-21
535	3.30151385766e-21
536	2.9997915477e-21
537	2.78018976595e-21
538	3.70235255188e-21
539	4.29295637693e-21
540	3.66402457607e-21
541	3.71502421666e-21
542	5.08053395045e-21
543	5.43026561487e-21
544	4.47578601758e-21
545	5.04247613961e-21
546	6.84409033179e-21
547	6.67666937906e-21
548	5.58358553201e-21
549	7.00060707372e-21
550	9.03225888892e-21
551	8.16277208392e-21
552	7.32801701117e-21
553	9.87292228662e-21
554	1.17544720314e-20
555	1.01542563681e-20
556	1.02196015272e-20
557	1.39925265173e-20
558	1.52701980203e-20
559	1.31437895852e-20
560	1.49252240637e-20
561	1.99050702985e-20
562	1.9886081106e-20
563	1.78517379965e-20
564	2.24370673218e-20
565	2.7936021646e-20
566	2.60078703786e-20
567	2.54007227852e-20
568	3.35113973931e-20
569	3.83395538919e-20
570	3.42685988717e-20
571	3.68275265592e-20
572	4.88150670351e-20
573	5.11372492824e-20
574	4.51276570532e-20
575	5.32793550124e-20
576	6.85211215576e-20
577	6.57981427509e-20
578	5.94857901596e-20
579	7.5898473355e-20
580	9.20257239469e-20
581	8.21229614678e-20
582	7.89622050056e-20
583	1.05496414025e-19
584	1.18631449401e-19
585	1.00991666726e-19
586	1.06404003578e-19
587	1.43443694855e-19
588	1.48504298212e-19
589	1.2583452699e-19
590	1.47120690682e-19
591	1.91989864181e-19
592	1.84191039662e-19
593	1.64229421754e-19
594	2.08884450948e-19
595	2.5528246882e-19
596	2.32219275716e-19
597	2.28342841403e-19
598	3.02545696693e-19
599	3.3912433097e-19
600	3.03135720036e-19
601	3.36162209677e-19
602	4.38140811331e-19
603	4.4867335693e-19
604	4.13850609951e-19
605	5.04959611003e-19
606	6.20493748164e-19
607	5.90128476686e-19
608	5.8110111231e-19
609	7.47040855422e-19
610	8.46734415347e-19
611	7.64928554569e-19
612	8.20697422023e-19
613	1.0633882727e-18
614	1.09953499569e-18
615	9.74902231852e-19
616	1.14377064999e-18
617	1.43566432005e-18
618	1.35674936663e-18
619	1.22944895363e-18
620	1.55494097806e-18
621	1.83542677453e-18
622	1.60772717884e-18
623	1.55903541723e-18
624	2.06018468047e-18
625	2.23869431624e-18
626	1.88163023559e-18
627	2.0288582598e-18
628	2.67315406298e-18
629	2.65604924388e-18
630	2.27458650513e-18
631	2.7430403057e-18
632	3.4281712305e-18
633	3.16381584795e-18
634	2.96154210322e-18
635	3.82973463699e-18
636	4.38236992193e-18
637	3.9150792245e-18
638	4.16423792766e-18
639	5.39195547546e-18
640	5.59852803366e-18
641	5.11375056455e-18
642	6.0778544777e-18
643	7.44859448162e-18
644	7.12625696948e-18
645	6.95916367455e-18
646	8.77872240508e-18
647	9.88409568944e-18
648	8.96851785776e-18
649	9.55257227626e-18
650	1.21179587542e-17
651	1.24142668045e-17
652	1.10611783597e-17
653	1.28258401531e-17
654	1.57011876446e-17
655	1.46862896893e-17
656	1.33733442124e-17
657	1.65885898244e-17
658	1.90315667109e-17
659	1.65203218134e-17
660	1.60432290668e-17
661	2.0613745052e-17
662	2.17398093365e-17
663	1.81431465722e-17
664	1.94784153745e-17
665	2.48059313863e-17
666	2.39359166934e-17
667	2.04870368172e-17
668	2.44677948912e-17
669	2.94248293918e-17
670	2.65464007878e-17
671	2.51508715382e-17
672	3.18814907958e-17
673	3.49829490076e-17
674	3.10725373561e-17
675	3.36750968128e-17
676	4.20457118847e-17
677	4.19944825667e-17
678	3.91163884203e-17
679	4.6896128085e-17
680	5.45722639914e-17
681	5.09725739972e-17
682	5.18352105268e-17
683	6.42393756699e-17
684	6.80591209996e-17
685	6.18018294926e-17
686	6.85997529415e-17
687	8.28879941783e-17
688	8.00245679211e-17
689	7.33737220714e-17
690	8.69359146034e-17
691	9.90818785988e-17
692	8.85649281385e-17
693	8.47236538823e-17
694	1.03750907764e-16
695	1.09616610154e-16
696	9.2979930461e-17
697	9.46822905657e-17
698	1.1566521521e-16
699	1.12681393328e-16
700	9.42141734234e-17
701	1.03424417207e-16
702	1.22405641804e-16
703	1.11547482017e-16
704	9.81955321953e-17
705	1.15655565846e-16
706	1.29004917498e-16
707	1.14660297471e-16
708	1.13172455513e-16
709	1.36226064956e-16
710	1.41122952151e-16
711	1.29802852644e-16
712	1.43704322375e-16
713	1.66939826057e-16
714	1.635791863e-16
715	1.63411609404e-16
716	1.92334148017e-16
717	2.08353830119e-16
718	2.00073765008e-16
719	2.17123394405e-16
720	2.51664356805e-16
721	2.51127470549e-16
722	2.43122744715e-16
723	2.75667982868e-16
724	3.01410438235e-16
725	2.81750543485e-16
726	2.81547081655e-16
727	3.25123852365e-16
728	3.3289909239e-16
729	2.99216953518e-16
730	3.12512697781e-16
731	3.55588911306e-16
732	3.38182894855e-16
733	2.99010140947e-16
734	3.20396599364e-16
735	3.47921056e-16
736	3.13866768921e-16
737	2.80455086885e-16
738	3.01489415985e-16
739	3.17113851786e-16
740	2.88413952914e-16
741	2.70799518281e-16
742	2.91008957184e-16
743	3.01531439943e-16
744	2.8917947353e-16
745	2.89407956093e-16
746	3.03251152085e-16
747	3.12392890784e-16
748	3.19990140109e-16
749	3.29366992837e-16
750	3.43653180824e-16
751	3.66120639738e-16
752	3.87475513164e-16
753	4.10215554342e-16
754	4.41427293308e-16
755	4.67909092817e-16
756	4.84384264433e-16
757	4.99760375269e-16
758	5.16626885674e-16
759	5.31835643123e-16
760	5.3245718088e-16
761	5.25463933569e-16
762	5.3857249333e-16
763	5.50073782571e-16
764	5.39274498455e-16
765	5.50870347952e-16
766	5.87762252283e-16
767	6.09657311294e-16
768	6.2738907249e-16
769	6.5431862209e-16
770	6.97547982101e-16
771	7.62331297616e-16
772	8.17717489877e-16
773	8.76796488951e-16
774	9.55950133583e-16
775	1.03381931991e-15
776	1.15534845623e-15
777	1.31203971527e-15
778	1.46801744501e-15
779	1.68245419097e-15
780	1.88173227461e-15
781	2.05551943215e-15
782	2.38195477409e-15
783	2.66260433049e-15
784	2.64210397146e-15
785	2.71756407396e-15
786	3.1690675259e-15
787	3.39857400812e-15
788	3.04696160749e-15
789	2.97804631807e-15
790	3.63313296346e-15
791	3.84359535692e-15
792	3.2080594794e-15
793	3.06617179162e-15
794	3.70078775218e-15
795	3.68273874196e-15
796	2.80081003795e-15
797	2.62937283797e-15
798	3.27125587206e-15
799	3.16549532095e-15
800	2.62461255863e-15
801	2.96917377695e-15
802	3.61440987991e-15
803	3.90596235437e-15
804	4.68276428645e-15
805	6.07413960285e-15
806	7.28449562035e-15
807	8.87230475807e-15
808	1.07365226424e-14
809	1.13735859115e-14
810	1.26406695622e-14
811	1.57271632293e-14
812	1.67296639994e-14
813	1.63080172895e-14
814	1.92345282874e-14
815	2.28566048847e-14
816	2.3196607131e-14
817	2.40164683935e-14
818	2.86937402221e-14
819	3.33055007092e-14
820	3.34149162928e-14
821	3.24555178057e-14
822	3.55823926462e-14
823	3.76721490558e-14
824	3.36850454193e-14
825	3.17319874442e-14
826	3.61008664483e-14
827	3.87847663948e-14
828	3.58497304084e-14
829	3.17380456204e-14
830	3.32638961998e-14
831	3.88278398374e-14
832	3.71860146538e-14
833	3.27093319585e-14
834	3.44712835542e-14
835	3.19882073267e-14
836	2.84641054291e-14
837	3.38970716232e-14
838	3.2915700434e-14
839	2.96923034608e-14
840	3.72056830523e-14
841	4.0135103873e-14
842	4.19456005602e-14
843	5.38425520652e-14
844	6.75942788886e-14
845	8.010591884e-14
846	9.18372615813e-14
847	1.15584472629e-13
848	1.47530208336e-13
849	1.43200345746e-13
850	1.31348356967e-13
851	1.60833189231e-13
852	1.78377112936e-13
853	1.7075516764e-13
854	1.8856756324e-13
855	2.0991053541e-13
856	2.0060511293e-13
857	1.90241015881e-13
858	2.10022355021e-13
859	2.25377834319e-13
860	1.92969810954e-13
861	1.75807953477e-13
862	2.05504691739e-13
863	2.20275493241e-13
864	2.08770468924e-13
865	2.20709862564e-13
866	2.55476750348e-13
867	2.64783865607e-13
868	2.58722449758e-13
869	2.65709165107e-13
870	2.98822694441e-13
871	3.28913935174e-13
872	3.3008400849e-13
873	4.27330235915e-13
874	5.56399753914e-13
875	5.44269992261e-13
876	4.79891465103e-13
877	4.46521384601e-13
878	4.77018980495e-13
879	5.83607984002e-13
880	6.70401101091e-13
881	7.78629987414e-13
882	9.44553337269e-13
883	1.01851683345e-12
884	1.00282158103e-12
885	1.15137499431e-12
886	1.40293354315e-12
887	1.49616100161e-12
888	1.54164293755e-12
889	1.42976756545e-12
890	1.44163665033e-12
891	1.71103397449e-12
892	1.9494420804e-12
893	2.23663028745e-12
894	2.16229012685e-12
895	1.82183179854e-12
896	1.62138315564e-12
897	1.398376759e-12
898	1.29750142814e-12
899	1.69461756721e-12
900	1.91359765096e-12
901	1.87485433494e-12
902	2.00504560312e-12
903	2.09730260269e-12
904	2.14224250823e-12
905	2.0752513416e-12
906	2.23423368524e-12
907	2.73410043018e-12
908	3.32677736677e-12
909	3.45398287922e-12
910	3.79194725547e-12
911	3.88626287507e-12
912	4.3151643774e-12
913	4.42121479837e-12
914	4.27427148647e-12
915	4.89502570001e-12
916	5.27594635312e-12
917	6.16368811727e-12
918	8.4749446108e-12
919	1.20249165623e-11
920	1.24532175974e-11
921	1.23257269198e-11
922	1.24994091546e-11
923	1.10379308544e-11
924	1.1241172112e-11
925	1.35539905516e-11
926	1.55892533085e-11
927	1.50583161497e-11
928	1.15868847906e-11
929	1.46954530574e-11
930	2.03078186563e-11
931	2.34557535189e-11
932	2.41653152047e-11
933	1.5350254067e-11
934	1.29588477518e-11
935	2.1931614454e-11
936	2.49623123081e-11
937	2.99864673642e-11
938	2.21660799095e-11
939	1.98963314242e-11
940	3.76315961516e-11
941	5.10339807228e-11
942	3.54059813265e-11
943	2.25597029688e-11
944	3.02076084462e-11
945	4.15484070157e-11
946	5.55988052997e-11
947	5.16070275598e-11
948	6.40312136208e-11
949	6.47853963738e-11
950	7.51248019612e-11
951	9.07546927643e-11
952	8.10217627325e-11
953	5.89998557641e-11
954	5.61900678586e-11
955	1.20040728968e-10
956	1.21284072487e-10
957	1.06062947343e-10
958	1.39742522246e-10
959	1.35474369359e-10
960	1.40783040816e-10
961	2.01762221581e-10
962	3.37046931911e-10
963	3.94917696389e-10
964	3.50523728364e-10
965	2.94924442507e-10
966	2.18901065776e-10
967	2.46892662047e-10
968	4.18895523524e-10
969	5.8394878563e-10
970	6.997331896e-10
971	5.17668468719e-10
972	5.66229238595e-10
973	5.85097657522e-10
974	4.47656826589e-10
975	5.58590143797e-10
976	4.7413065054e-10
977	6.81727474429e-10
978	7.72638808114e-10
979	1.21118560191e-09
980	1.68546462514e-09
981	1.2507724385e-09
982	8.89196684815e-10
983	1.12805012979e-09
984	1.57331874387e-09
985	1.63762853429e-09
986	1.73136028881e-09
987	1.81138830466e-09
988	2.0075399442e-09
989	2.8523378759e-09
990	3.72143472334e-09
991	4.40820477855e-09
992	6.00256117172e-09
993	5.27863019937e-09
994	6.47183684058e-09
995	7.69563051861e-09
996	1.22291460819e-08
997	1.35116598089e-08
998	2.05207382093e-08
999	3.09919303463e-08
1000	2.72752263108e-08
1001	3.28605579357e-08
1002	3.64661963506e-08
1003	4.94607529961e-08
1004	5.17324783649e-08
1005	9.48248703038e-08
1006	1.217087717e-07
1007	1.01974318687e-07
1008	8.59968558953e-08
1009	1.77808847411e-07
1010	2.59214496979e-07
1011	6.03159557009e-07
1012	6.7820239227e-07
1013	7.03617181787e-07
1014	6.31211478806e-07
1015	1.03296514611e-06
1016	2.44567911804e-06
1017	5.63843462617e-06
1018	1.08054067001e-05
1019	3.68609875969e-05
1020	0.000223711443762
1021	0.000824227620285
1022	0.00362891948983
1023	0.0234855189823
