0	0.781569062228
1	0.0259454726614
2	0.0061191030209
3	0.00181055807228
4	0.000311719889294
5	7.37698529346e-05
6	2.26941509026e-05
7	4.96405837354e-06
8	3.44189269242e-06
9	2.66527700797e-06
10	1.25163004742e-06
11	6.11120079067e-07
12	5.44369866169e-07
13	4.3530864726e-07
14	4.49312331167e-07
15	3.96560151017e-07
16	2.00265734756e-07
17	1.01848075991e-07
18	1.01918922582e-07
19	8.37812789915e-08
20	7.51754148062e-08
21	6.61497292721e-08
22	5.34574201798e-08
23	4.15264198091e-08
24	3.1314266171e-08
25	3.0297748657e-08
26	2.93947543393e-08
27	2.20804751269e-08
28	1.84630565749e-08
29	1.3617652426e-08
30	1.12329776372e-08
31	1.13290477891e-08
32	1.08125097808e-08
33	9.90069182624e-09
34	8.97886614699e-09
35	7.63934343467e-09
36	5.88911390911e-09
37	4.79852740641e-09
38	4.13088716508e-09
39	3.31721047852e-09
40	2.89433502713e-09
41	2.68529426318e-09
42	2.78179100582e-09
43	2.61774626948e-09
44	2.33666898137e-09
45	2.0884246016e-09
46	1.6492810174e-09
47	1.54489145133e-09
48	1.2415738943e-09
49	1.09683337002e-09
50	9.0175663817e-10
51	8.48576335339e-10
52	7.97717856561e-10
53	7.31074243801e-10
54	8.12204229706e-10
55	6.74473652231e-10
56	6.69062662755e-10
57	6.32978153389e-10
58	5.34106931423e-10
59	3.90116246962e-10
60	3.37389410563e-10
61	3.4599285676e-10
62	2.87443862262e-10
63	3.01324338949e-10
64	3.107717634e-10
65	3.10489808852e-10
66	3.06847408957e-10
67	2.72976701228e-10
68	2.17396333459e-10
69	1.68541844181e-10
70	1.7383803178e-10
71	1.57868538666e-10
72	1.3237711505e-10
73	1.39138170692e-10
74	1.37562858008e-10
75	1.29732692377e-10
76	1.09070458607e-10
77	1.12283440777e-10
78	1.05440355585e-10
79	9.12084508154e-11
80	8.50950234182e-11
81	6.75996903366e-11
82	5.9831594036e-11
83	5.32562129864e-11
84	5.92546799248e-11
85	5.6587224056e-11
86	5.31149371351e-11
87	5.54354346626e-11
88	4.57010944254e-11
89	3.98874690217e-11
90	3.2881413299e-11
91	3.35141133947e-11
92	2.94127096461e-11
93	2.63166573602e-11
94	2.99087429659e-11
95	2.52465101696e-11
96	2.51722448734e-11
97	2.25549235261e-11
98	2.40069588383e-11
99	1.99668517069e-11
100	1.6500887709e-11
101	1.77524291565e-11
102	1.49920158117e-11
103	1.58320270411e-11
104	1.4005302773e-11
105	1.56824622405e-11
106	1.39373782364e-11
107	1.30181983252e-11
108	1.28433301397e-11
109	9.81672996729e-12
110	1.06519592229e-11
111	9.83805734813e-12
112	1.02026183964e-11
113	9.14150779216e-12
114	9.63487258357e-12
115	9.96839892533e-12
116	8.1354749091e-12
117	7.97805683893e-12
118	6.58996586198e-12
119	6.84169877269e-12
120	6.07274881624e-12
121	6.21746481405e-12
122	6.71735678564e-12
123	6.06166665761e-12
124	6.20738143676e-12
125	5.21151841165e-12
126	4.83879864981e-12
127	4.0838102924e-12
128	4.16955704886e-12
129	4.20771775247e-12
130	3.76752083638e-12
131	4.07918893712e-12
132	3.58354133148e-12
133	3.51836841872e-12
134	3.04479284965e-12
135	2.91038116455e-12
136	2.87428151487e-12
137	2.50794197357e-12
138	2.53957387278e-12
139	2.24125782982e-12
140	2.31034238254e-12
141	2.08592880454e-12
142	2.02262119088e-12
143	2.02312119765e-12
144	1.81822178213e-12
145	1.78677419503e-12
146	1.50888115528e-12
147	1.5872122169e-12
148	1.41798558838e-12
149	1.35691904147e-12
150	1.42831330296e-12
151	1.26673711186e-12
152	1.27990046663e-12
153	1.16573818719e-12
154	1.12785596893e-12
155	9.82863052268e-13
156	1.02621684621e-12
157	9.81840961586e-13
158	8.63310135852e-13
159	9.68706029295e-13
160	8.3637635355e-13
161	8.07714855036e-13
162	7.73207461126e-13
163	7.24249611517e-13
164	6.77847790618e-13
165	6.73181364899e-13
166	6.71584880459e-13
167	5.76820469532e-13
168	6.39560777438e-13
169	5.61824423982e-13
170	4.92681543314e-13
171	5.22789691983e-13
172	4.92457649038e-13
173	4.49943219577e-13
174	4.41427285342e-13
175	4.74450775239e-13
176	3.8215106303e-13
177	3.72066008365e-13
178	3.94882693863e-13
179	3.29616802983e-13
180	3.21084090574e-13
181	3.41634691646e-13
182	3.26824987829e-13
183	2.70303970755e-13
184	2.90025905599e-13
185	2.79223717222e-13
186	2.27738789544e-13
187	2.40856133445e-13
188	2.40100889541e-13
189	2.21757329918e-13
190	2.07616176811e-13
191	2.10645325007e-13
192	1.93806151381e-13
193	1.71431632893e-13
194	1.7453350827e-13
195	1.63474982928e-13
196	1.58802504245e-13
197	1.4963607643e-13
198	1.47029668954e-13
199	1.4407427041e-13
200	1.23792659687e-13
201	1.21956415774e-13
202	1.2004564662e-13
203	1.12558633219e-13
204	1.00914104145e-13
205	1.07589153463e-13
206	1.04484015354e-13
207	8.42146888343e-14
208	9.05624103595e-14
209	8.79997443339e-14
210	7.55656401811e-14
211	7.24602129304e-14
212	7.88859097637e-14
213	7.03051387927e-14
214	5.96231271098e-14
215	6.84352323631e-14
216	6.05116185206e-14
217	5.24017654127e-14
218	5.41001908271e-14
219	5.53279541046e-14
220	4.71181972477e-14
221	4.41864012531e-14
222	4.96146416994e-14
223	4.05586244357e-14
224	3.82694551461e-14
225	3.96914113563e-14
226	3.75304517762e-14
227	3.29502194137e-14
228	3.31294985778e-14
229	3.4068382642e-14
230	2.81251768242e-14
231	2.86224829981e-14
232	2.75538540696e-14
233	2.58247992585e-14
234	2.40357639561e-14
235	2.3614874876e-14
236	2.33512315748e-14
237	2.05247092205e-14
238	2.05116329591e-14
239	1.89629966659e-14
240	1.85698760305e-14
241	1.70048611073e-14
242	1.64337425345e-14
243	1.6534039853e-14
244	1.47879354975e-14
245	1.4260501163e-14
246	1.35423761958e-14
247	1.33263376126e-14
248	1.16623338099e-14
249	1.16458770416e-14
250	1.17107012766e-14
251	1.02638729462e-14
252	1.00226407389e-14
253	9.84616483407e-15
254	9.21581773869e-15
255	8.09403610055e-15
256	8.43394219215e-15
257	7.97343602797e-15
258	7.06382988043e-15
259	7.22919431852e-15
260	6.88686633734e-15
261	6.27591819414e-15
262	5.88464089926e-15
263	5.889481501e-15
264	5.33188943076e-15
265	5.0632136158e-15
266	5.023851837e-15
267	4.65804077291e-15
268	4.45116216074e-15
269	4.17869076415e-15
270	3.9799986551e-15
271	3.72946426468e-15
272	3.56565900947e-15
273	3.36600996735e-15
274	3.23080550873e-15
275	3.12340432339e-15
276	2.86152345856e-15
277	2.73417925585e-15
278	2.63300260567e-15
279	2.43737953768e-15
280	2.27668776573e-15
281	2.26261872578e-15
282	2.13198340915e-15
283	1.93070261332e-15
284	1.90737970747e-15
285	1.82804078553e-15
286	1.63833175531e-15
287	1.58040125243e-15
288	1.56223555665e-15
289	1.41892040195e-15
290	1.32773057389e-15
291	1.31748195006e-15
292	1.2332641065e-15
293	1.1182623725e-15
294	1.09031718137e-15
295	1.05044307464e-15
296	9.62488113273e-16
297	9.08253743058e-16
298	8.90033281643e-16
299	8.35926510277e-16
300	7.58997399954e-16
301	7.38930509085e-16
302	7.08803164105e-16
303	6.50098706896e-16
304	6.10966874458e-16
305	6.019924515e-16
306	5.66550108824e-16
307	5.11462509173e-16
308	4.97305243863e-16
309	4.77334506951e-16
310	4.34513822663e-16
311	4.07598341195e-16
312	4.11212617838e-16
313	3.80859282795e-16
314	3.38370156022e-16
315	3.3788629985e-16
316	3.21819004995e-16
317	2.85696346472e-16
318	2.76321251139e-16
319	2.79283879709e-16
320	2.47526635729e-16
321	2.27999093643e-16
322	2.31444440596e-16
323	2.11376722124e-16
324	1.90398054813e-16
325	1.89176680001e-16
326	1.83088865173e-16
327	1.62065991364e-16
328	1.55627189237e-16
329	1.52554482329e-16
330	1.39331867253e-16
331	1.29918894218e-16
332	1.25085244115e-16
333	1.18520036672e-16
334	1.07684504737e-16
335	1.02881161751e-16
336	9.98422844564e-17
337	9.34460923597e-17
338	8.50632715887e-17
339	8.02574088743e-17
340	7.82122191703e-17
341	7.08920166269e-17
342	6.60677985834e-17
343	6.58834593491e-17
344	6.08193237786e-17
345	5.29626490906e-17
346	5.31820414037e-17
347	5.14615518002e-17
348	4.41613936376e-17
349	4.36218065764e-17
350	4.3032401803e-17
351	3.68391325099e-17
352	3.46106469157e-17
353	3.55691342488e-17
354	3.17359680382e-17
355	2.87997683293e-17
356	2.87220984762e-17
357	2.61285971586e-17
358	2.39632771529e-17
359	2.36322357417e-17
360	2.20959322359e-17
361	2.0115731904e-17
362	1.92449945948e-17
363	1.80663404214e-17
364	1.70021528645e-17
365	1.65071378533e-17
366	1.50696238672e-17
367	1.38749066258e-17
368	1.36665021223e-17
369	1.26624872041e-17
370	1.15930772199e-17
371	1.18353325686e-17
372	1.09443018568e-17
373	9.32690059409e-18
374	9.62292232956e-18
375	9.44729539344e-18
376	8.05364334598e-18
377	8.03280443074e-18
378	7.94510071035e-18
379	6.71505204104e-18
380	6.68699297989e-18
381	6.81352243643e-18
382	5.87767539267e-18
383	5.48443117136e-18
384	5.40430644518e-18
385	4.98335832587e-18
386	4.83071985042e-18
387	4.55040663229e-18
388	4.13279176145e-18
389	4.00854835042e-18
390	3.69199174347e-18
391	3.42530556926e-18
392	3.46288140703e-18
393	3.1849132195e-18
394	2.69297547341e-18
395	2.73696224891e-18
396	2.78957114593e-18
397	2.30078366626e-18
398	2.19536085107e-18
399	2.29634577788e-18
400	1.88825457788e-18
401	1.73838924865e-18
402	2.0066185856e-18
403	1.67620599025e-18
404	1.32999061429e-18
405	1.51825153919e-18
406	1.48385771501e-18
407	1.17982817099e-18
408	1.19337596586e-18
409	1.24028794566e-18
410	1.00450536671e-18
411	9.27687628404e-19
412	1.05811094886e-18
413	9.25016929568e-19
414	7.24247324309e-19
415	7.96728260265e-19
416	8.34105991702e-19
417	6.63979662966e-19
418	6.4079014531e-19
419	6.83399970624e-19
420	5.69481733757e-19
421	5.11944134273e-19
422	5.79576724924e-19
423	5.35808042792e-19
424	4.22974231318e-19
425	4.31642665015e-19
426	4.79152377145e-19
427	3.98490846549e-19
428	3.32466477997e-19
429	3.80585477221e-19
430	3.50398126963e-19
431	2.7116319348e-19
432	3.1373940809e-19
433	3.16478067527e-19
434	2.1994207612e-19
435	2.29876760535e-19
436	2.75264891984e-19
437	2.03393150529e-19
438	1.69909998716e-19
439	2.11857918367e-19
440	1.80609003966e-19
441	1.48082563698e-19
442	1.68286291396e-19
443	1.53598199952e-19
444	1.22176717169e-19
445	1.24353522571e-19
446	1.31447314308e-19
447	1.11784454412e-19
448	8.88645032051e-20
449	1.02484821979e-19
450	1.03412118701e-19
451	7.60498665332e-20
452	7.7563603069e-20
453	8.39345201634e-20
454	6.42019337903e-20
455	6.12166736932e-20
456	7.03639317208e-20
457	5.77154865875e-20
458	4.60725629664e-20
459	5.49755864508e-20
460	5.44853646582e-20
461	3.97646289516e-20
462	4.17356105225e-20
463	4.47501991555e-20
464	3.62111569744e-20
465	3.33832511442e-20
466	3.65492697669e-20
467	3.09122938694e-20
468	2.6586699419e-20
469	2.98610751189e-20
470	2.7580108875e-20
471	2.22696295538e-20
472	2.18939850624e-20
473	2.27022947244e-20
474	1.89700352391e-20
475	1.73599396102e-20
476	1.86030313647e-20
477	1.71178403491e-20
478	1.39357967848e-20
479	1.40652367871e-20
480	1.44605225131e-20
481	1.12496208263e-20
482	1.09927207518e-20
483	1.16246142659e-20
484	9.7691668947e-21
485	9.27616970868e-21
486	9.31653829822e-21
487	8.30525068392e-21
488	7.02348124437e-21
489	7.378936122e-21
490	6.90047654999e-21
491	6.24864495415e-21
492	5.89456345523e-21
493	5.84900332453e-21
494	5.32709747192e-21
495	4.54993047555e-21
496	4.76418419363e-21
497	4.60290683799e-21
498	3.96577278822e-21
499	3.89492204703e-21
500	3.95407139222e-21
501	3.5292711106e-21
502	3.477300083e-21
503	3.37917721344e-21
504	3.03247480883e-21
505	3.10108086671e-21
506	3.17465066146e-21
507	2.81275361027e-21
508	2.68402517706e-21
509	2.87853351858e-21
510	2.92545302953e-21
511	2.69249685507e-21
512	2.6384349034e-21
513	2.6924968166e-21
514	2.92545306491e-21
515	2.87853351517e-21
516	2.68402516907e-21
517	2.81275361517e-21
518	3.17465065746e-21
519	3.10108087139e-21
520	3.03247480816e-21
521	3.37917721038e-21
522	3.47730008474e-21
523	3.5292711083e-21
524	3.95407139217e-21
525	3.89492204555e-21
526	3.96577278586e-21
527	4.60290681254e-21
528	4.76418419346e-21
529	4.54993047129e-21
530	5.32709747256e-21
531	5.84900332917e-21
532	5.89456345523e-21
533	6.24864494938e-21
534	6.90047654548e-21
535	7.37893611298e-21
536	7.02348124453e-21
537	8.30525066932e-21
538	9.31653830783e-21
539	9.27616971199e-21
540	9.76916689115e-21
541	1.16246142714e-20
542	1.09927207583e-20
543	1.12496208216e-20
544	1.44605225132e-20
545	1.40652367825e-20
546	1.39357967587e-20
547	1.7117840332e-20
548	1.86030313642e-20
549	1.73599396036e-20
550	1.89700352387e-20
551	2.27022947232e-20
552	2.18939850621e-20
553	2.22696295597e-20
554	2.75801088742e-20
555	2.98610751208e-20
556	2.65866994218e-20
557	3.09122938577e-20
558	3.65492697958e-20
559	3.33832511854e-20
560	3.62111569747e-20
561	4.47501991652e-20
562	4.17356105144e-20
563	3.97646289491e-20
564	5.44853646516e-20
565	5.49755864019e-20
566	4.60725629731e-20
567	5.77154865793e-20
568	7.03639317261e-20
569	6.12166736724e-20
570	6.42019338079e-20
571	8.39345201892e-20
572	7.75636030756e-20
573	7.6049866489e-20
574	1.03412118664e-19
575	1.02484821933e-19
576	8.88645032051e-20
577	1.11784454289e-19
578	1.31447314291e-19
579	1.24353522583e-19
580	1.22176717162e-19
581	1.53598199992e-19
582	1.68286291421e-19
583	1.48082563684e-19
584	1.80609003973e-19
585	2.11857918354e-19
586	1.69909998703e-19
587	2.03393150508e-19
588	2.75264891971e-19
589	2.29876760613e-19
590	2.19942076269e-19
591	3.16478067478e-19
592	3.13739408091e-19
593	2.71163193544e-19
594	3.50398127064e-19
595	3.80585477262e-19
596	3.32466477993e-19
597	3.9849084653e-19
598	4.79152377153e-19
599	4.31642665072e-19
600	4.22974231317e-19
601	5.35808042765e-19
602	5.79576724889e-19
603	5.11944134306e-19
604	5.69481733755e-19
605	6.8339997072e-19
606	6.40790145311e-19
607	6.63979663084e-19
608	8.34105991702e-19
609	7.96728260186e-19
610	7.24247324253e-19
611	9.25016929606e-19
612	1.05811094884e-18
613	9.27687628445e-19
614	1.0045053667e-18
615	1.24028794545e-18
616	1.19337596586e-18
617	1.179828171e-18
618	1.48385771503e-18
619	1.51825153904e-18
620	1.3299906143e-18
621	1.67620599018e-18
622	2.00661858563e-18
623	1.73838924885e-18
624	1.88825457788e-18
625	2.29634577791e-18
626	2.19536085102e-18
627	2.30078366638e-18
628	2.78957114594e-18
629	2.73696224887e-18
630	2.69297547334e-18
631	3.18491321968e-18
632	3.46288140703e-18
633	3.42530556929e-18
634	3.6919917436e-18
635	4.00854835045e-18
636	4.13279176151e-18
637	4.55040663226e-18
638	4.83071985056e-18
639	4.98335832546e-18
640	5.40430644518e-18
641	5.48443117274e-18
642	5.8776753926e-18
643	6.81352243551e-18
644	6.68699297988e-18
645	6.71505204127e-18
646	7.94510071068e-18
647	8.03280443002e-18
648	8.05364334597e-18
649	9.44729539359e-18
650	9.62292232931e-18
651	9.32690059411e-18
652	1.0944301857e-17
653	1.1835332569e-17
654	1.15930772202e-17
655	1.26624872041e-17
656	1.36665021223e-17
657	1.38749066253e-17
658	1.50696238669e-17
659	1.65071378539e-17
660	1.70021528645e-17
661	1.80663404218e-17
662	1.92449945947e-17
663	2.01157319041e-17
664	2.20959322359e-17
665	2.36322357421e-17
666	2.39632771531e-17
667	2.61285971585e-17
668	2.87220984761e-17
669	2.87997683292e-17
670	3.17359680387e-17
671	3.55691342503e-17
672	3.46106469157e-17
673	3.6839132509e-17
674	4.30324018023e-17
675	4.36218065771e-17
676	4.41613936377e-17
677	5.14615517997e-17
678	5.3182041403e-17
679	5.29626490906e-17
680	6.08193237786e-17
681	6.58834593508e-17
682	6.60677985833e-17
683	7.08920166276e-17
684	7.82122191701e-17
685	8.02574088743e-17
686	8.50632715903e-17
687	9.34460923629e-17
688	9.98422844564e-17
689	1.02881161751e-16
690	1.07684504738e-16
691	1.18520036673e-16
692	1.25085244115e-16
693	1.29918894218e-16
694	1.39331867254e-16
695	1.52554482329e-16
696	1.55627189237e-16
697	1.62065991363e-16
698	1.83088865173e-16
699	1.89176680001e-16
700	1.90398054813e-16
701	2.11376722123e-16
702	2.3144444059e-16
703	2.27999093642e-16
704	2.47526635729e-16
705	2.79283879717e-16
706	2.76321251138e-16
707	2.85696346475e-16
708	3.21819004997e-16
709	3.37886299851e-16
710	3.38370156023e-16
711	3.80859282795e-16
712	4.11212617838e-16
713	4.07598341194e-16
714	4.34513822664e-16
715	4.77334506952e-16
716	4.97305243863e-16
717	5.11462509175e-16
718	5.66550108827e-16
719	6.019924515e-16
720	6.10966874458e-16
721	6.50098706893e-16
722	7.088031641e-16
723	7.38930509091e-16
724	7.58997399954e-16
725	8.35926510276e-16
726	8.90033281643e-16
727	9.08253743058e-16
728	9.62488113273e-16
729	1.05044307464e-15
730	1.09031718137e-15
731	1.1182623725e-15
732	1.2332641065e-15
733	1.31748195006e-15
734	1.32773057389e-15
735	1.41892040194e-15
736	1.56223555665e-15
737	1.58040125243e-15
738	1.63833175532e-15
739	1.82804078553e-15
740	1.90737970747e-15
741	1.93070261332e-15
742	2.13198340915e-15
743	2.26261872578e-15
744	2.27668776573e-15
745	2.43737953767e-15
746	2.63300260568e-15
747	2.73417925585e-15
748	2.86152345856e-15
749	3.12340432339e-15
750	3.23080550873e-15
751	3.36600996736e-15
752	3.56565900947e-15
753	3.72946426467e-15
754	3.9799986551e-15
755	4.17869076414e-15
756	4.45116216074e-15
757	4.65804077291e-15
758	5.02385183699e-15
759	5.06321361581e-15
760	5.33188943077e-15
761	5.88948150101e-15
762	5.88464089926e-15
763	6.27591819415e-15
764	6.88686633732e-15
765	7.22919431851e-15
766	7.06382988038e-15
767	7.97343602802e-15
768	8.43394219215e-15
769	8.09403610056e-15
770	9.21581773869e-15
771	9.84616483412e-15
772	1.00226407389e-14
773	1.02638729462e-14
774	1.17107012766e-14
775	1.16458770417e-14
776	1.16623338099e-14
777	1.33263376126e-14
778	1.35423761958e-14
779	1.4260501163e-14
780	1.47879354975e-14
781	1.6534039853e-14
782	1.64337425345e-14
783	1.70048611073e-14
784	1.85698760305e-14
785	1.89629966658e-14
786	2.05116329591e-14
787	2.05247092205e-14
788	2.33512315748e-14
789	2.3614874876e-14
790	2.40357639562e-14
791	2.58247992585e-14
792	2.75538540696e-14
793	2.86224829981e-14
794	2.81251768242e-14
795	3.4068382642e-14
796	3.31294985778e-14
797	3.29502194137e-14
798	3.75304517762e-14
799	3.96914113563e-14
800	3.82694551461e-14
801	4.05586244357e-14
802	4.96146416995e-14
803	4.41864012531e-14
804	4.71181972477e-14
805	5.53279541046e-14
806	5.41001908271e-14
807	5.24017654128e-14
808	6.05116185206e-14
809	6.84352323632e-14
810	5.96231271098e-14
811	7.03051387927e-14
812	7.88859097637e-14
813	7.24602129304e-14
814	7.55656401811e-14
815	8.79997443339e-14
816	9.05624103595e-14
817	8.42146888344e-14
818	1.04484015354e-13
819	1.07589153463e-13
820	1.00914104145e-13
821	1.12558633219e-13
822	1.2004564662e-13
823	1.21956415774e-13
824	1.23792659687e-13
825	1.4407427041e-13
826	1.47029668954e-13
827	1.4963607643e-13
828	1.58802504245e-13
829	1.63474982928e-13
830	1.7453350827e-13
831	1.71431632893e-13
832	1.93806151381e-13
833	2.10645325007e-13
834	2.07616176811e-13
835	2.21757329918e-13
836	2.40100889541e-13
837	2.40856133445e-13
838	2.27738789544e-13
839	2.79223717222e-13
840	2.90025905599e-13
841	2.70303970755e-13
842	3.26824987829e-13
843	3.41634691646e-13
844	3.21084090574e-13
845	3.29616802983e-13
846	3.94882693863e-13
847	3.72066008365e-13
848	3.8215106303e-13
849	4.74450775239e-13
850	4.41427285342e-13
851	4.49943219577e-13
852	4.92457649038e-13
853	5.22789691983e-13
854	4.92681543314e-13
855	5.61824423982e-13
856	6.39560777438e-13
857	5.76820469532e-13
858	6.71584880459e-13
859	6.73181364899e-13
860	6.77847790618e-13
861	7.24249611517e-13
862	7.73207461126e-13
863	8.07714855036e-13
864	8.3637635355e-13
865	9.68706029294e-13
866	8.63310135852e-13
867	9.81840961586e-13
868	1.02621684621e-12
869	9.82863052268e-13
870	1.12785596893e-12
871	1.16573818719e-12
872	1.27990046663e-12
873	1.26673711186e-12
874	1.42831330296e-12
875	1.35691904147e-12
876	1.41798558838e-12
877	1.5872122169e-12
878	1.50888115528e-12
879	1.78677419503e-12
880	1.81822178213e-12
881	2.02312119765e-12
882	2.02262119088e-12
883	2.08592880454e-12
884	2.31034238254e-12
885	2.24125782982e-12
886	2.53957387278e-12
887	2.50794197357e-12
888	2.87428151487e-12
889	2.91038116455e-12
890	3.04479284965e-12
891	3.51836841872e-12
892	3.58354133148e-12
893	4.07918893712e-12
894	3.76752083638e-12
895	4.20771775247e-12
896	4.16955704886e-12
897	4.0838102924e-12
898	4.83879864981e-12
899	5.21151841165e-12
900	6.20738143676e-12
901	6.06166665761e-12
902	6.71735678564e-12
903	6.21746481405e-12
904	6.07274881624e-12
905	6.84169877269e-12
906	6.58996586198e-12
907	7.97805683893e-12
908	8.1354749091e-12
909	9.96839892533e-12
910	9.63487258357e-12
911	9.14150779215e-12
912	1.02026183964e-11
913	9.83805734813e-12
914	1.06519592229e-11
915	9.81672996729e-12
916	1.28433301397e-11
917	1.30181983252e-11
918	1.39373782364e-11
919	1.56824622405e-11
920	1.4005302773e-11
921	1.58320270411e-11
922	1.49920158117e-11
923	1.77524291565e-11
924	1.6500887709e-11
925	1.99668517069e-11
926	2.40069588383e-11
927	2.25549235261e-11
928	2.51722448734e-11
929	2.52465101696e-11
930	2.99087429659e-11
931	2.63166573602e-11
932	2.94127096461e-11
933	3.35141133947e-11
934	3.2881413299e-11
935	3.98874690217e-11
936	4.57010944254e-11
937	5.54354346626e-11
938	5.31149371351e-11
939	5.6587224056e-11
940	5.92546799248e-11
941	5.32562129864e-11
942	5.9831594036e-11
943	6.75996903366e-11
944	8.50950234182e-11
945	9.12084508154e-11
946	1.05440355585e-10
947	1.12283440777e-10
948	1.09070458607e-10
949	1.29732692377e-10
950	1.37562858008e-10
951	1.39138170692e-10
952	1.3237711505e-10
953	1.57868538666e-10
954	1.7383803178e-10
955	1.68541844181e-10
956	2.17396333459e-10
957	2.72976701228e-10
958	3.06847408957e-10
959	3.10489808852e-10
960	3.107717634e-10
961	3.01324338949e-10
962	2.87443862262e-10
963	3.4599285676e-10
964	3.37389410563e-10
965	3.90116246962e-10
966	5.34106931423e-10
967	6.32978153389e-10
968	6.69062662755e-10
969	6.74473652231e-10
970	8.12204229706e-10
971	7.31074243801e-10
972	7.97717856561e-10
973	8.48576335339e-10
974	9.0175663817e-10
975	1.09683337002e-09
976	1.2415738943e-09
977	1.54489145133e-09
978	1.6492810174e-09
979	2.0884246016e-09
980	2.33666898137e-09
981	2.61774626948e-09
982	2.78179100582e-09
983	2.68529426318e-09
984	2.89433502713e-09
985	3.31721047852e-09
986	4.13088716508e-09
987	4.79852740641e-09
988	5.88911390911e-09
989	7.63934343467e-09
990	8.97886614699e-09
991	9.90069182624e-09
992	1.08125097808e-08
993	1.13290477891e-08
994	1.12329776372e-08
995	1.3617652426e-08
996	1.84630565749e-08
997	2.20804751269e-08
998	2.93947543393e-08
999	3.0297748657e-08
1000	3.1314266171e-08
1001	4.15264198091e-08
1002	5.34574201798e-08
1003	6.61497292721e-08
1004	7.51754148062e-08
1005	8.37812789915e-08
1006	1.01918922582e-07
1007	1.01848075991e-07
1008	2.00265734756e-07
1009	3.96560151017e-07
1010	4.49312331167e-07
1011	4.3530864726e-07
1012	5.44369866169e-07
1013	6.11120079067e-07
1014	1.25163004742e-06
1015	2.66527700797e-06
1016	3.44189269242e-06
1017	4.96405837354e-06
1018	2.26941509026e-05
1019	7.37698529346e-05
1020	0.000311719889294
1021	0.00181055807228
1022	0.0061191030209
1023	0.0259454726614
