0	0.884130456207
1	3.41683475034e-12
2	0.0103992117153
3	9.03904830338e-13
4	0.000820265537433
5	1.09551196289e-13
6	2.89486726953e-05
7	1.3478101337e-14
8	5.52761360853e-06
9	1.11470749256e-14
10	2.08133990713e-06
11	7.12956389837e-15
12	9.93458892834e-07
13	5.16823283239e-15
14	4.89966953032e-07
15	2.01120301162e-15
16	1.33259398704e-07
17	1.94591566318e-15
18	1.19912454399e-07
19	2.21991671172e-15
20	1.35652164955e-07
21	1.55231596497e-15
22	7.40091838207e-08
23	1.33886890944e-15
24	6.68657470146e-08
25	1.07270702329e-15
26	3.61159329812e-08
27	7.7424555316e-16
28	1.66823431624e-08
29	7.21979920471e-16
30	1.75200253253e-08
31	6.3003237414e-16
32	2.32928717589e-08
33	5.15605247346e-16
34	2.07280242132e-08
35	4.17715864949e-16
36	1.50129852472e-08
37	4.06191255277e-16
38	1.04584847709e-08
39	3.92164710594e-16
40	9.37186733018e-09
41	3.94631257714e-16
42	6.42009496422e-09
43	3.55407053156e-16
44	4.84944290016e-09
45	3.05294893381e-16
46	2.79135315891e-09
47	2.65059620204e-16
48	2.4185639469e-09
49	2.59452369286e-16
50	2.31656530966e-09
51	2.43763850728e-16
52	1.85798356835e-09
53	1.91619987654e-16
54	1.17907466469e-09
55	1.50844919766e-16
56	1.00356944851e-09
57	1.24382968595e-16
58	9.29063085468e-10
59	1.11180725212e-16
60	9.29933619873e-10
61	1.06969548985e-16
62	1.1130021754e-09
63	1.07215456654e-16
64	1.20353372904e-09
65	1.04899502993e-16
66	9.72639013751e-10
67	1.02470627777e-16
68	8.79595279107e-10
69	1.14285314573e-16
70	9.36587197523e-10
71	1.21176493364e-16
72	9.17828800692e-10
73	1.11536276151e-16
74	7.48755009031e-10
75	9.32832174994e-17
76	5.50612118794e-10
77	6.88449924843e-17
78	3.92876376755e-10
79	5.13600786941e-17
80	2.84811866938e-10
81	3.62856311638e-17
82	1.8426284396e-10
83	2.80028925941e-17
84	1.7306133281e-10
85	2.19382419485e-17
86	1.18757924844e-10
87	1.60474526975e-17
88	1.03829409242e-10
89	1.49832757534e-17
90	9.92142498607e-11
91	1.51733518692e-17
92	9.34978547046e-11
93	1.5702654032e-17
94	7.97949297744e-11
95	1.45253644765e-17
96	5.46448736783e-11
97	1.20165797554e-17
98	4.03554749641e-11
99	1.04094830379e-17
100	3.09718550307e-11
101	8.22374288248e-18
102	2.64047175035e-11
103	6.75455763846e-18
104	2.79388586992e-11
105	6.10365060386e-18
106	2.73286890701e-11
107	5.23973070885e-18
108	2.22935032656e-11
109	4.52868656886e-18
110	1.92721163257e-11
111	4.21519215034e-18
112	1.51123625945e-11
113	3.63424530792e-18
114	1.25548311702e-11
115	3.24578220348e-18
116	1.13298587262e-11
117	2.97888680857e-18
118	1.05109031796e-11
119	2.83818296867e-18
120	1.09707276285e-11
121	2.83702216277e-18
122	1.01093404331e-11
123	2.4303100672e-18
124	7.67554033747e-12
125	1.90323356429e-18
126	6.64922587351e-12
127	1.66712646438e-18
128	6.10638811744e-12
129	1.52406018909e-18
130	5.11410341055e-12
131	1.43027474352e-18
132	4.48531182995e-12
133	1.40728056176e-18
134	4.12078819009e-12
135	1.34638863793e-18
136	3.37541540957e-12
137	1.19046653895e-18
138	2.98403355443e-12
139	1.1075245844e-18
140	2.85164315996e-12
141	9.94250995705e-19
142	2.46539470197e-12
143	8.75065663098e-19
144	2.239821501e-12
145	7.70233001091e-19
146	1.80304108309e-12
147	6.53363075827e-19
148	1.55160922188e-12
149	5.71807669025e-19
150	1.23099148739e-12
151	4.75042804768e-19
152	1.08502735242e-12
153	4.29678162713e-19
154	7.86697420931e-13
155	3.33193639725e-19
156	6.5989549547e-13
157	3.10816647384e-19
158	5.79249836292e-13
159	2.57207978849e-19
160	4.76654804773e-13
161	2.34433312285e-19
162	4.14442755796e-13
163	2.19086434304e-19
164	3.62182622244e-13
165	2.10730243919e-19
166	3.54990923088e-13
167	2.07815512298e-19
168	3.42266660182e-13
169	1.93632180684e-19
170	2.91847863621e-13
171	1.87709561554e-19
172	3.09899553893e-13
173	1.74386386807e-19
174	2.9620552145e-13
175	1.63467248789e-19
176	3.13254232073e-13
177	1.5060082326e-19
178	2.8269591489e-13
179	1.28217707076e-19
180	3.05912814421e-13
181	1.22831094297e-19
182	2.4902993551e-13
183	9.34776608274e-20
184	2.24412000388e-13
185	9.10920800728e-20
186	2.31719993354e-13
187	6.91747583123e-20
188	1.90370468647e-13
189	6.09838670281e-20
190	1.74422753291e-13
191	5.23701687176e-20
192	1.336699065e-13
193	3.43529394748e-20
194	1.08910961201e-13
195	3.18606149715e-20
196	9.02191128095e-14
197	2.62576801106e-20
198	8.10858120211e-14
199	2.29189211004e-20
200	7.5563580962e-14
201	2.16998426927e-20
202	6.1580417018e-14
203	2.02971812841e-20
204	5.68482629924e-14
205	1.96666547028e-20
206	5.38825797821e-14
207	1.95247129893e-20
208	4.56425624362e-14
209	1.92425216344e-20
210	4.24137671317e-14
211	1.85139093609e-20
212	4.23638784931e-14
213	1.82398639511e-20
214	3.61760372852e-14
215	1.6933007661e-20
216	3.24353196193e-14
217	1.64935053722e-20
218	3.18509011345e-14
219	1.45327854109e-20
220	2.8195822269e-14
221	1.44409187073e-20
222	2.65705896914e-14
223	1.22933341816e-20
224	2.19051084873e-14
225	9.91261181041e-21
226	2.04040026687e-14
227	9.96849283708e-21
228	1.57339538307e-14
229	6.65667163627e-21
230	1.24414102713e-14
231	5.96786687924e-21
232	1.2161479321e-14
233	5.31903063562e-21
234	8.43982115663e-15
235	3.64037456898e-21
236	6.95290946965e-15
237	3.47735653161e-21
238	6.56172808965e-15
239	3.00990257634e-21
240	4.82271384193e-15
241	2.34952510821e-21
242	4.00623606278e-15
243	2.17670210429e-21
244	3.673506217e-15
245	1.92811269538e-21
246	2.78987946909e-15
247	1.59108999404e-21
248	2.22158135054e-15
249	1.39782548903e-21
250	1.97531134418e-15
251	1.18685788339e-21
252	1.53303725757e-15
253	1.00159523118e-21
254	1.19274771184e-15
255	8.52057689382e-22
256	1.03966343984e-15
257	7.41151549594e-22
258	9.16163831496e-16
259	6.4591460228e-22
260	7.3149069523e-16
261	5.67882077699e-22
262	7.14168517015e-16
263	5.61197741176e-22
264	6.50516780943e-16
265	4.4868677751e-22
266	5.59279524755e-16
267	4.65372816924e-22
268	5.6230303631e-16
269	3.992226171e-22
270	4.35162208259e-16
271	3.03585738086e-22
272	4.35121946072e-16
273	3.2664553736e-22
274	3.78200853052e-16
275	2.14956493602e-22
276	2.97637515526e-16
277	1.83164632719e-22
278	3.36376113906e-16
279	1.81647360517e-22
280	2.9325112054e-16
281	1.11490359502e-22
282	2.59886958881e-16
283	9.95226465319e-23
284	2.84561492795e-16
285	9.46153442197e-23
286	2.71943414959e-16
287	6.56756670679e-23
288	2.56980096608e-16
289	5.60926216192e-23
290	2.65461707404e-16
291	5.12207197234e-23
292	2.60199783197e-16
293	4.00891689725e-23
294	2.47654963528e-16
295	3.34789486668e-23
296	2.44876741658e-16
297	2.93278820534e-23
298	2.40922165463e-16
299	2.61978132186e-23
300	2.30480427406e-16
301	2.41434323349e-23
302	2.22570172466e-16
303	2.30190388635e-23
304	2.14228403707e-16
305	2.04037266321e-23
306	2.01380812868e-16
307	2.11684508104e-23
308	1.92170313029e-16
309	2.09358752944e-23
310	1.78364228931e-16
311	1.51308711547e-23
312	1.63653564955e-16
313	1.73148421983e-23
314	1.52568420163e-16
315	1.50258278769e-23
316	1.3662799901e-16
317	9.68316148592e-24
318	1.2405624389e-16
319	1.15585573001e-23
320	1.1210900168e-16
321	8.35255441035e-24
322	9.91879954162e-17
323	6.35615964299e-24
324	8.93744836248e-17
325	6.80197192308e-24
326	7.89661725808e-17
327	4.95751691381e-24
328	6.97320500822e-17
329	4.53639678679e-24
330	6.18247268809e-17
331	4.06914256467e-24
332	5.40097280818e-17
333	3.44273465172e-24
334	4.7377648583e-17
335	3.07848571247e-24
336	4.13250879747e-17
337	2.65366653721e-24
338	3.57727661603e-17
339	2.35148677635e-24
340	3.09539386105e-17
341	1.95823873521e-24
342	2.67019924821e-17
343	1.77757148196e-24
344	2.29607319512e-17
345	1.56973818933e-24
346	1.95710529919e-17
347	1.29242251555e-24
348	1.67944777711e-17
349	1.30751641002e-24
350	1.42512362393e-17
351	1.0086163504e-24
352	1.20413070408e-17
353	9.33077080298e-25
354	1.02944351964e-17
355	8.98262648847e-25
356	8.59411629462e-18
357	6.12461599779e-25
358	7.21412816703e-18
359	6.77222027574e-25
360	6.13688038188e-18
361	5.48922095527e-25
362	5.03043275769e-18
363	3.67214865525e-25
364	4.25177490352e-18
365	4.4148861099e-25
366	3.55550671123e-18
367	2.89022241311e-25
368	2.9018400663e-18
369	2.35313756231e-25
370	2.46468541025e-18
371	2.46713818177e-25
372	2.03242436264e-18
373	1.46141879948e-25
374	1.68115938194e-18
375	1.52190777385e-25
376	1.41631377093e-18
377	1.1888476067e-25
378	1.17163367939e-18
379	9.51583529225e-26
380	9.8416246919e-19
381	9.47023075228e-26
382	8.24189139378e-19
383	7.34071675345e-26
384	6.93656929424e-19
385	7.43407645965e-26
386	5.86179833093e-19
387	5.72216296533e-26
388	4.92970853015e-19
389	5.89565970939e-26
390	4.25795173283e-19
391	5.55598270463e-26
392	3.56248486174e-19
393	3.52382822765e-26
394	3.06885669209e-19
395	4.89841511547e-26
396	2.67417401228e-19
397	3.27907151234e-26
398	2.22324068625e-19
399	2.66755735007e-26
400	1.96888631778e-19
401	3.20689556581e-26
402	1.68916268292e-19
403	1.96194041893e-26
404	1.43569058895e-19
405	2.02620521437e-26
406	1.26784682006e-19
407	1.91963917158e-26
408	1.08166034579e-19
409	1.09679545633e-26
410	9.41741862765e-20
411	1.57364475021e-26
412	8.22020167184e-20
413	9.91879553878e-27
414	6.97968231881e-20
415	9.01801378616e-27
416	6.18279949667e-20
417	1.01060219928e-26
418	5.2577783861e-20
419	6.87795239299e-27
420	4.55503115257e-20
421	8.13092902087e-27
422	3.9683524204e-20
423	6.76091967998e-27
424	3.33982906429e-20
425	5.49194301591e-27
426	2.93208464741e-20
427	6.54771921213e-27
428	2.49836180665e-20
429	4.84482299057e-27
430	2.11024421094e-20
431	4.77535094461e-27
432	1.83334188554e-20
433	4.36009434713e-27
434	1.5385343912e-20
435	3.74424315569e-27
436	1.31851381539e-20
437	3.98129367859e-27
438	1.11298924374e-20
439	2.85592481157e-27
440	9.36205881143e-21
441	2.80192941336e-27
442	8.06578562718e-21
443	2.87581283086e-27
444	6.57208843867e-21
445	2.40882567938e-27
446	5.69836554801e-21
447	2.55260223951e-27
448	4.70737126865e-21
449	2.07799129253e-27
450	3.87318939282e-21
451	1.75120888512e-27
452	3.37976985077e-21
453	2.05887853648e-27
454	2.79569057982e-21
455	1.52421403193e-27
456	2.30957643283e-21
457	1.78749621216e-27
458	1.99462269276e-21
459	1.58355019096e-27
460	1.62243465543e-21
461	1.55058655749e-27
462	1.37667744223e-21
463	1.59299448806e-27
464	1.17770611758e-21
465	1.66137458333e-27
466	9.86142010921e-22
467	1.57773016937e-27
468	8.57531964968e-22
469	1.37152987232e-27
470	7.15081930583e-22
471	1.56590978485e-27
472	6.29079082327e-22
473	2.56708066344e-27
474	5.42884672353e-22
475	1.9227592567e-27
476	4.64764653724e-22
477	2.26372160965e-27
478	3.9007752004e-22
479	2.31441394771e-27
480	3.48739852343e-22
481	2.41624877505e-27
482	3.00037292201e-22
483	1.74036103089e-27
484	2.74500443508e-22
485	3.13704453534e-27
486	2.40064354199e-22
487	2.65607567847e-27
488	2.29731382164e-22
489	2.59040033235e-27
490	1.99204975005e-22
491	2.20448990846e-27
492	2.02544546508e-22
493	2.15243795972e-27
494	1.85987523977e-22
495	2.50254521665e-27
496	1.65707848814e-22
497	2.87583504046e-27
498	1.59319957624e-22
499	3.00145001078e-27
500	1.53320835119e-22
501	3.15339230849e-27
502	1.34882329984e-22
503	3.1751145117e-27
504	1.32576503113e-22
505	5.19963064317e-27
506	1.29730113884e-22
507	4.97992128414e-27
508	1.16191438204e-22
509	5.77202268655e-27
510	1.11940026311e-22
511	1.03387532403e-26
512	1.22438947856e-22
513	1.03387532421e-26
514	1.11940053202e-22
515	5.77202268665e-27
516	1.16191443865e-22
517	4.97992128407e-27
518	1.29730111531e-22
519	5.19963064286e-27
520	1.32576502407e-22
521	3.17511451174e-27
522	1.34882330786e-22
523	3.15339230863e-27
524	1.53320835334e-22
525	3.00145001086e-27
526	1.59319958909e-22
527	2.87583504054e-27
528	1.65707848787e-22
529	2.50254521668e-27
530	1.85987523789e-22
531	2.15243795979e-27
532	2.02544547158e-22
533	2.20448990847e-27
534	1.99204974637e-22
535	2.59040033246e-27
536	2.29731382066e-22
537	2.65607567854e-27
538	2.40064355103e-22
539	3.13704453534e-27
540	2.74500444304e-22
541	1.74036103079e-27
542	3.00037298466e-22
543	2.41624877478e-27
544	3.48739852346e-22
545	2.31441394749e-27
546	3.90077519966e-22
547	2.26372160978e-27
548	4.64764655204e-22
549	1.92275925673e-27
550	5.42884674072e-22
551	2.56708066339e-27
552	6.29079082009e-22
553	1.5659097849e-27
554	7.1508192876e-22
555	1.37152987229e-27
556	8.57531964596e-22
557	1.57773016938e-27
558	9.86142005876e-22
559	1.6613745832e-27
560	1.17770611757e-21
561	1.59299448799e-27
562	1.37667744173e-21
563	1.55058655762e-27
564	1.62243465571e-21
565	1.58355019099e-27
566	1.9946226898e-21
567	1.7874962123e-27
568	2.30957643293e-21
569	1.52421403193e-27
570	2.79569058206e-21
571	2.05887853638e-27
572	3.37976984468e-21
573	1.75120888526e-27
574	3.87318937386e-21
575	2.07799129313e-27
576	4.70737126862e-21
577	2.55260223963e-27
578	5.69836557837e-21
579	2.40882567945e-27
580	6.57208843734e-21
581	2.87581283091e-27
582	8.06578561934e-21
583	2.8019294134e-27
584	9.36205881171e-21
585	2.85592481182e-27
586	1.11298924213e-20
587	3.98129367864e-27
588	1.31851381556e-20
589	3.74424315564e-27
590	1.5385343906e-20
591	4.36009434701e-27
592	1.83334188553e-20
593	4.77535094459e-27
594	2.11024420693e-20
595	4.84482299039e-27
596	2.4983618057e-20
597	6.5477192123e-27
598	2.93208464767e-20
599	5.49194301602e-27
600	3.33982906413e-20
601	6.76091967993e-27
602	3.96835242124e-20
603	8.13092902098e-27
604	4.55503115116e-20
605	6.87795239298e-27
606	5.25777838738e-20
607	1.01060219936e-26
608	6.18279949668e-20
609	9.01801378659e-27
610	6.97968232064e-20
611	9.9187955389e-27
612	8.2202016704e-20
613	1.5736447502e-26
614	9.41741862624e-20
615	1.09679545636e-26
616	1.08166034583e-19
617	1.9196391716e-26
618	1.26784681988e-19
619	2.02620521437e-26
620	1.43569058892e-19
621	1.96194041897e-26
622	1.68916268302e-19
623	3.20689556586e-26
624	1.96888631776e-19
625	2.66755735005e-26
626	2.22324068573e-19
627	3.2790715123e-26
628	2.67417401228e-19
629	4.89841511543e-26
630	3.06885669183e-19
631	3.52382822765e-26
632	3.5624848617e-19
633	5.55598270465e-26
634	4.257951733e-19
635	5.89565970936e-26
636	4.92970853151e-19
637	5.72216296526e-26
638	5.86179832963e-19
639	7.43407645941e-26
640	6.93656929424e-19
641	7.34071675324e-26
642	8.24189139472e-19
643	9.47023075231e-26
644	9.84162469236e-19
645	9.5158352924e-26
646	1.1716336795e-18
647	1.1888476067e-25
648	1.41631377093e-18
649	1.52190777383e-25
650	1.68115938204e-18
651	1.46141879948e-25
652	2.0324243627e-18
653	2.46713818177e-25
654	2.46468540997e-18
655	2.35313756233e-25
656	2.9018400663e-18
657	2.89022241313e-25
658	3.55550671141e-18
659	4.4148861099e-25
660	4.25177490347e-18
661	3.67214865525e-25
662	5.03043275785e-18
663	5.48922095528e-25
664	6.13688038187e-18
665	6.77222027576e-25
666	7.21412816694e-18
667	6.12461599778e-25
668	8.59411629466e-18
669	8.98262648841e-25
670	1.02944351962e-17
671	9.33077080308e-25
672	1.20413070408e-17
673	1.00861635041e-24
674	1.4251236241e-17
675	1.30751641002e-24
676	1.67944777711e-17
677	1.29242251555e-24
678	1.95710529917e-17
679	1.56973818933e-24
680	2.29607319513e-17
681	1.77757148196e-24
682	2.67019924823e-17
683	1.95823873521e-24
684	3.09539386103e-17
685	2.35148677635e-24
686	3.57727661616e-17
687	2.65366653721e-24
688	4.13250879747e-17
689	3.07848571247e-24
690	4.73776485834e-17
691	3.44273465172e-24
692	5.40097280818e-17
693	4.06914256467e-24
694	6.18247268812e-17
695	4.53639678678e-24
696	6.97320500823e-17
697	4.95751691381e-24
698	7.89661725807e-17
699	6.80197192308e-24
700	8.93744836249e-17
701	6.356159643e-24
702	9.91879954132e-17
703	8.35255441032e-24
704	1.1210900168e-16
705	1.15585573002e-23
706	1.24056243888e-16
707	9.68316148592e-24
708	1.36627999009e-16
709	1.50258278769e-23
710	1.52568420163e-16
711	1.73148421983e-23
712	1.63653564955e-16
713	1.51308711547e-23
714	1.7836422893e-16
715	2.09358752944e-23
716	1.92170313029e-16
717	2.11684508104e-23
718	2.01380812872e-16
719	2.04037266321e-23
720	2.14228403707e-16
721	2.30190388635e-23
722	2.22570172466e-16
723	2.41434323349e-23
724	2.30480427405e-16
725	2.61978132186e-23
726	2.40922165463e-16
727	2.93278820534e-23
728	2.44876741658e-16
729	3.34789486668e-23
730	2.47654963528e-16
731	4.00891689724e-23
732	2.60199783197e-16
733	5.12207197233e-23
734	2.65461707407e-16
735	5.60926216192e-23
736	2.56980096608e-16
737	6.56756670679e-23
738	2.71943414961e-16
739	9.46153442197e-23
740	2.84561492795e-16
741	9.95226465319e-23
742	2.59886958882e-16
743	1.11490359502e-22
744	2.9325112054e-16
745	1.81647360517e-22
746	3.36376113906e-16
747	1.83164632719e-22
748	2.97637515525e-16
749	2.14956493602e-22
750	3.78200853052e-16
751	3.2664553736e-22
752	4.35121946072e-16
753	3.03585738086e-22
754	4.35162208258e-16
755	3.992226171e-22
756	5.6230303631e-16
757	4.65372816925e-22
758	5.59279524754e-16
759	4.4868677751e-22
760	6.50516780943e-16
761	5.61197741176e-22
762	7.14168517015e-16
763	5.67882077699e-22
764	7.3149069524e-16
765	6.4591460228e-22
766	9.16163831504e-16
767	7.41151549594e-22
768	1.03966343984e-15
769	8.52057689381e-22
770	1.19274771185e-15
771	1.00159523118e-21
772	1.53303725758e-15
773	1.18685788339e-21
774	1.97531134417e-15
775	1.39782548903e-21
776	2.22158135054e-15
777	1.59108999404e-21
778	2.78987946908e-15
779	1.92811269538e-21
780	3.673506217e-15
781	2.17670210429e-21
782	4.00623606277e-15
783	2.34952510821e-21
784	4.82271384193e-15
785	3.00990257634e-21
786	6.56172808964e-15
787	3.47735653161e-21
788	6.95290946964e-15
789	3.64037456898e-21
790	8.43982115663e-15
791	5.31903063562e-21
792	1.2161479321e-14
793	5.96786687924e-21
794	1.24414102713e-14
795	6.65667163627e-21
796	1.57339538307e-14
797	9.96849283708e-21
798	2.04040026687e-14
799	9.91261181041e-21
800	2.19051084873e-14
801	1.22933341816e-20
802	2.65705896914e-14
803	1.44409187073e-20
804	2.8195822269e-14
805	1.45327854109e-20
806	3.18509011345e-14
807	1.64935053722e-20
808	3.24353196193e-14
809	1.6933007661e-20
810	3.61760372852e-14
811	1.82398639511e-20
812	4.23638784931e-14
813	1.85139093609e-20
814	4.24137671316e-14
815	1.92425216344e-20
816	4.56425624362e-14
817	1.95247129893e-20
818	5.38825797821e-14
819	1.96666547028e-20
820	5.68482629924e-14
821	2.02971812841e-20
822	6.1580417018e-14
823	2.16998426927e-20
824	7.5563580962e-14
825	2.29189211004e-20
826	8.10858120211e-14
827	2.62576801106e-20
828	9.02191128095e-14
829	3.18606149715e-20
830	1.08910961201e-13
831	3.43529394748e-20
832	1.336699065e-13
833	5.23701687176e-20
834	1.74422753291e-13
835	6.09838670281e-20
836	1.90370468647e-13
837	6.91747583123e-20
838	2.31719993354e-13
839	9.10920800728e-20
840	2.24412000388e-13
841	9.34776608274e-20
842	2.4902993551e-13
843	1.22831094297e-19
844	3.05912814421e-13
845	1.28217707076e-19
846	2.8269591489e-13
847	1.5060082326e-19
848	3.13254232073e-13
849	1.63467248789e-19
850	2.9620552145e-13
851	1.74386386807e-19
852	3.09899553893e-13
853	1.87709561554e-19
854	2.91847863621e-13
855	1.93632180684e-19
856	3.42266660182e-13
857	2.07815512298e-19
858	3.54990923088e-13
859	2.10730243919e-19
860	3.62182622244e-13
861	2.19086434304e-19
862	4.14442755796e-13
863	2.34433312285e-19
864	4.76654804773e-13
865	2.57207978849e-19
866	5.79249836292e-13
867	3.10816647384e-19
868	6.5989549547e-13
869	3.33193639725e-19
870	7.86697420931e-13
871	4.29678162713e-19
872	1.08502735242e-12
873	4.75042804768e-19
874	1.23099148739e-12
875	5.71807669025e-19
876	1.55160922188e-12
877	6.53363075827e-19
878	1.80304108309e-12
879	7.70233001091e-19
880	2.239821501e-12
881	8.75065663098e-19
882	2.46539470197e-12
883	9.94250995705e-19
884	2.85164315996e-12
885	1.1075245844e-18
886	2.98403355443e-12
887	1.19046653895e-18
888	3.37541540957e-12
889	1.34638863793e-18
890	4.12078819009e-12
891	1.40728056176e-18
892	4.48531182995e-12
893	1.43027474352e-18
894	5.11410341055e-12
895	1.52406018909e-18
896	6.10638811744e-12
897	1.66712646438e-18
898	6.64922587351e-12
899	1.90323356429e-18
900	7.67554033747e-12
901	2.4303100672e-18
902	1.01093404331e-11
903	2.83702216277e-18
904	1.09707276285e-11
905	2.83818296867e-18
906	1.05109031796e-11
907	2.97888680857e-18
908	1.13298587262e-11
909	3.24578220348e-18
910	1.25548311702e-11
911	3.63424530792e-18
912	1.51123625945e-11
913	4.21519215034e-18
914	1.92721163257e-11
915	4.52868656886e-18
916	2.22935032656e-11
917	5.23973070885e-18
918	2.73286890701e-11
919	6.10365060386e-18
920	2.79388586992e-11
921	6.75455763846e-18
922	2.64047175035e-11
923	8.22374288248e-18
924	3.09718550307e-11
925	1.04094830379e-17
926	4.03554749641e-11
927	1.20165797554e-17
928	5.46448736783e-11
929	1.45253644765e-17
930	7.97949297744e-11
931	1.5702654032e-17
932	9.34978547046e-11
933	1.51733518692e-17
934	9.92142498607e-11
935	1.49832757534e-17
936	1.03829409242e-10
937	1.60474526975e-17
938	1.18757924844e-10
939	2.19382419485e-17
940	1.7306133281e-10
941	2.80028925941e-17
942	1.8426284396e-10
943	3.62856311638e-17
944	2.84811866938e-10
945	5.13600786941e-17
946	3.92876376755e-10
947	6.88449924843e-17
948	5.50612118794e-10
949	9.32832174994e-17
950	7.48755009031e-10
951	1.11536276151e-16
952	9.17828800692e-10
953	1.21176493364e-16
954	9.36587197523e-10
955	1.14285314573e-16
956	8.79595279107e-10
957	1.02470627777e-16
958	9.72639013751e-10
959	1.04899502993e-16
960	1.20353372904e-09
961	1.07215456654e-16
962	1.1130021754e-09
963	1.06969548985e-16
964	9.29933619873e-10
965	1.11180725212e-16
966	9.29063085468e-10
967	1.24382968595e-16
968	1.00356944851e-09
969	1.50844919766e-16
970	1.17907466469e-09
971	1.91619987654e-16
972	1.85798356835e-09
973	2.43763850728e-16
974	2.31656530966e-09
975	2.59452369286e-16
976	2.4185639469e-09
977	2.65059620204e-16
978	2.79135315891e-09
979	3.05294893381e-16
980	4.84944290016e-09
981	3.55407053156e-16
982	6.42009496422e-09
983	3.94631257714e-16
984	9.37186733018e-09
985	3.92164710594e-16
986	1.04584847709e-08
987	4.06191255277e-16
988	1.50129852472e-08
989	4.17715864949e-16
990	2.07280242132e-08
991	5.15605247346e-16
992	2.32928717589e-08
993	6.3003237414e-16
994	1.75200253253e-08
995	7.21979920471e-16
996	1.66823431624e-08
997	7.7424555316e-16
998	3.61159329812e-08
999	1.07270702329e-15
1000	6.68657470146e-08
1001	1.33886890944e-15
1002	7.40091838207e-08
1003	1.55231596497e-15
1004	1.35652164955e-07
1005	2.21991671172e-15
1006	1.19912454399e-07
1007	1.94591566318e-15
1008	1.33259398704e-07
1009	2.01120301162e-15
1010	4.89966953032e-07
1011	5.16823283239e-15
1012	9.93458892834e-07
1013	7.12956389837e-15
1014	2.08133990713e-06
1015	1.11470749256e-14
1016	5.52761360853e-06
1017	1.3478101337e-14
1018	2.89486726953e-05
1019	1.09551196289e-13
1020	0.000820265537433
1021	9.03904830338e-13
1022	0.0103992117153
1023	3.41683475034e-12
