0	0.772832377049
1	0.0238240730428
2	0.0037411602116
3	0.000924551914879
4	0.000204610365912
5	3.13421714099e-05
6	1.26691687848e-05
7	6.42869301312e-06
8	4.76440217908e-06
9	2.69302998586e-06
10	1.75902892368e-06
11	1.67620730992e-06
12	1.06227673461e-06
13	7.19853359503e-07
14	5.20441618039e-07
15	3.98328459349e-07
16	4.28253721412e-07
17	3.96458516996e-07
18	2.31217889293e-07
19	1.91491423396e-07
20	1.88374053514e-07
21	1.236758536e-07
22	1.32574572152e-07
23	1.35095270454e-07
24	1.17400686414e-07
25	1.0923143327e-07
26	6.34771232437e-08
27	5.35750521454e-08
28	5.38432200941e-08
29	4.92974538983e-08
30	4.62396885459e-08
31	3.99388593277e-08
32	3.27832668619e-08
33	3.15457116048e-08
34	2.27611283877e-08
35	2.49674044389e-08
36	2.69682896276e-08
37	2.07771434657e-08
38	2.14045734037e-08
39	1.83168993076e-08
40	1.37109700754e-08
41	1.04043788517e-08
42	1.02047175596e-08
43	9.90674805918e-09
44	9.318471125e-09
45	7.08880784385e-09
46	6.83221151671e-09
47	6.69179295653e-09
48	7.74138343648e-09
49	7.96347634056e-09
50	7.0628386515e-09
51	5.8241741804e-09
52	5.75105296258e-09
53	4.78728601631e-09
54	5.27989890136e-09
55	4.14966134219e-09
56	4.15459236217e-09
57	4.0118917696e-09
58	3.79626410689e-09
59	3.9629063576e-09
60	3.45396058113e-09
61	3.94026987543e-09
62	3.36972699611e-09
63	3.56363600895e-09
64	3.29845805921e-09
65	2.93628911926e-09
66	2.59643335178e-09
67	2.06065796815e-09
68	2.05574318175e-09
69	1.95865679176e-09
70	1.65256887207e-09
71	1.57609750959e-09
72	1.28739763963e-09
73	9.74624270447e-10
74	9.42903324574e-10
75	8.08241795074e-10
76	7.8623009883e-10
77	6.95268372827e-10
78	6.8806526113e-10
79	6.8163324857e-10
80	5.56291077813e-10
81	6.16244017697e-10
82	6.12178064888e-10
83	4.39918249647e-10
84	4.98319488538e-10
85	3.8723430045e-10
86	3.77055019407e-10
87	4.74277026769e-10
88	3.73253363886e-10
89	3.63034043971e-10
90	3.51956091347e-10
91	3.19776502688e-10
92	3.63019981051e-10
93	3.20089510301e-10
94	2.44208924203e-10
95	1.76005298709e-10
96	1.75997486692e-10
97	1.77278426625e-10
98	1.65218831325e-10
99	1.5036297532e-10
100	1.54434422749e-10
101	1.30145793547e-10
102	1.13289572329e-10
103	1.09113928206e-10
104	1.44388288991e-10
105	1.53908327516e-10
106	1.55651531582e-10
107	1.20196773386e-10
108	9.77734214222e-11
109	9.98461265638e-11
110	1.11801207116e-10
111	1.13436004734e-10
112	1.02714438591e-10
113	6.83327793013e-11
114	5.80229523255e-11
115	5.50105082043e-11
116	5.17761069438e-11
117	5.60088186216e-11
118	5.65402804653e-11
119	5.44618578586e-11
120	4.80990634456e-11
121	4.17453473558e-11
122	4.20787550468e-11
123	4.26599084061e-11
124	3.87891814836e-11
125	4.22076352304e-11
126	3.31071715318e-11
127	3.17268529475e-11
128	3.21367396296e-11
129	2.95160568735e-11
130	2.94861608048e-11
131	2.2789701294e-11
132	1.90813848506e-11
133	1.71383475311e-11
134	1.82999205696e-11
135	2.06433049147e-11
136	1.89682447958e-11
137	1.97413648936e-11
138	1.8736722787e-11
139	1.59518510012e-11
140	1.81626550892e-11
141	1.53697335073e-11
142	1.39616362828e-11
143	1.2765203905e-11
144	1.18035421338e-11
145	1.19904967285e-11
146	1.00951813877e-11
147	9.4806046924e-12
148	9.85386100214e-12
149	8.76602460185e-12
150	8.77403864942e-12
151	7.16340875579e-12
152	8.48107056033e-12
153	8.71691380097e-12
154	7.11699040081e-12
155	6.55675734039e-12
156	5.67030519141e-12
157	4.97358117896e-12
158	4.70581670873e-12
159	4.84586825392e-12
160	5.49942934625e-12
161	4.99221195137e-12
162	4.60350548174e-12
163	3.33994942207e-12
164	3.39985667382e-12
165	4.17003813627e-12
166	3.6194441719e-12
167	3.61849400556e-12
168	3.61291424257e-12
169	3.63324230569e-12
170	3.29226280656e-12
171	3.02805239497e-12
172	2.46711906964e-12
173	2.51378404791e-12
174	2.31362835475e-12
175	2.87662852787e-12
176	2.93946040843e-12
177	3.32538685905e-12
178	3.26204632155e-12
179	2.79742891502e-12
180	2.23282543769e-12
181	1.97966627964e-12
182	1.86043209286e-12
183	2.33137967763e-12
184	2.86083297675e-12
185	2.71079351821e-12
186	2.50665373688e-12
187	1.7983879197e-12
188	1.44196082697e-12
189	1.18926587832e-12
190	1.36082615917e-12
191	1.53125082997e-12
192	1.61624470748e-12
193	1.38736569747e-12
194	1.20859921632e-12
195	8.50084803995e-13
196	8.41412508126e-13
197	7.87103163643e-13
198	8.02347902004e-13
199	7.60442087461e-13
200	6.39805015986e-13
201	5.89255538447e-13
202	5.51415055605e-13
203	5.15858482352e-13
204	5.57127233773e-13
205	5.34212935497e-13
206	4.65238682057e-13
207	4.11817031666e-13
208	3.83164263135e-13
209	4.10589314858e-13
210	3.88043219044e-13
211	4.31873523419e-13
212	4.4553430352e-13
213	4.21461620955e-13
214	4.19935473123e-13
215	4.40783666857e-13
216	3.93686155967e-13
217	3.99065909044e-13
218	3.69935973226e-13
219	3.90042679527e-13
220	4.05443711042e-13
221	4.23709895974e-13
222	4.00760457457e-13
223	3.72075038059e-13
224	3.17275996023e-13
225	3.34341453298e-13
226	3.31486049532e-13
227	3.52090050055e-13
228	3.6032802666e-13
229	3.23423918663e-13
230	2.67135715044e-13
231	2.28406082768e-13
232	2.2296447978e-13
233	2.55137470984e-13
234	2.78622365662e-13
235	2.74342332327e-13
236	2.44504140826e-13
237	1.81159965319e-13
238	1.64104800544e-13
239	1.57332362438e-13
240	1.80829303792e-13
241	1.98672027725e-13
242	1.99535042558e-13
243	1.71246961132e-13
244	1.37259876446e-13
245	1.14739410538e-13
246	1.33333504937e-13
247	1.4448179299e-13
248	1.51379364521e-13
249	1.37109952356e-13
250	1.20144205565e-13
251	1.07423829102e-13
252	1.00872118937e-13
253	1.13871082319e-13
254	1.28910405614e-13
255	1.27727867359e-13
256	1.10270418476e-13
257	8.49962195886e-14
258	7.80076365789e-14
259	8.74724121559e-14
260	9.49813731329e-14
261	1.07074208431e-13
262	1.07581769141e-13
263	9.51017942039e-14
264	7.3416865446e-14
265	6.09172036237e-14
266	6.71908598157e-14
267	7.86574508815e-14
268	8.11053648555e-14
269	8.22451380724e-14
270	7.61035150378e-14
271	6.4568311544e-14
272	5.21635767824e-14
273	5.04140969914e-14
274	6.01023902993e-14
275	6.6742301025e-14
276	6.14372576598e-14
277	5.59704826303e-14
278	5.09456450058e-14
279	4.49571089418e-14
280	4.1221207561e-14
281	4.26440882467e-14
282	4.9685321552e-14
283	5.1470241729e-14
284	4.37039792133e-14
285	3.77780898024e-14
286	3.6365896403e-14
287	3.60989187924e-14
288	3.68019015109e-14
289	3.69110360666e-14
290	3.97466696071e-14
291	3.82226305753e-14
292	3.11083284731e-14
293	2.7261624406e-14
294	2.81336551723e-14
295	3.08092945899e-14
296	3.23795837296e-14
297	2.99657569767e-14
298	2.8891197864e-14
299	2.70636990338e-14
300	2.37393337353e-14
301	2.2768329715e-14
302	2.34277549411e-14
303	2.53968470531e-14
304	2.59011146534e-14
305	2.26399864003e-14
306	2.03316306756e-14
307	1.95974938549e-14
308	1.97094036503e-14
309	2.05527667512e-14
310	1.98035228251e-14
311	1.95159833136e-14
312	1.93069508311e-14
313	1.75388797022e-14
314	1.61643777211e-14
315	1.5777579429e-14
316	1.66603190789e-14
317	1.78482634389e-14
318	1.63715059811e-14
319	1.45401876188e-14
320	1.41446925431e-14
321	1.43695755131e-14
322	1.44882958559e-14
323	1.36637332189e-14
324	1.34507986605e-14
325	1.43721018984e-14
326	1.36998221307e-14
327	1.19334921909e-14
328	1.10600113946e-14
329	1.17517008726e-14
330	1.28815262646e-14
331	1.20483137712e-14
332	1.05987040796e-14
333	1.07688119342e-14
334	1.12014735453e-14
335	1.05686492909e-14
336	9.33660844366e-15
337	9.23784613126e-15
338	1.05786679468e-14
339	1.05096226567e-14
340	8.78950044906e-15
341	7.94841188361e-15
342	8.62137464663e-15
343	9.26279218213e-15
344	8.35109369214e-15
345	7.20195913424e-15
346	7.8245480083e-15
347	8.58107555622e-15
348	7.71799296305e-15
349	6.3409026032e-15
350	6.33852284548e-15
351	7.54925615964e-15
352	7.54397376069e-15
353	6.05766595224e-15
354	5.56077346756e-15
355	6.42088682453e-15
356	6.74511270576e-15
357	5.6764348332e-15
358	4.7878127022e-15
359	5.56325683219e-15
360	6.34346885694e-15
361	5.45115437151e-15
362	4.26887093116e-15
363	4.50729835753e-15
364	5.4850465874e-15
365	5.28335535374e-15
366	4.05243004734e-15
367	3.87408932086e-15
368	4.75240328539e-15
369	4.8186784075e-15
370	3.78189548653e-15
371	3.24222941573e-15
372	3.99024774758e-15
373	4.52893377628e-15
374	3.71726604232e-15
375	2.88456930578e-15
376	3.23445118838e-15
377	3.87195679765e-15
378	3.52843208029e-15
379	2.67208247192e-15
380	2.70682835952e-15
381	3.38379344869e-15
382	3.301379134e-15
383	2.49840280835e-15
384	2.20865081573e-15
385	2.74162551729e-15
386	3.03083021146e-15
387	2.46095293473e-15
388	1.96075856595e-15
389	2.24608027702e-15
390	2.61713752608e-15
391	2.3198842645e-15
392	1.77006792033e-15
393	1.8112893989e-15
394	2.2538478746e-15
395	2.20657137199e-15
396	1.68525483547e-15
397	1.48923321139e-15
398	1.81042954236e-15
399	1.99191506571e-15
400	1.64212819419e-15
401	1.30461989439e-15
402	1.47781822537e-15
403	1.74292587804e-15
404	1.56400078385e-15
405	1.18087607802e-15
406	1.16965959941e-15
407	1.47222622592e-15
408	1.48903925888e-15
409	1.13926029423e-15
410	9.7054208178e-16
411	1.18394768675e-15
412	1.33546054144e-15
413	1.10700136227e-15
414	8.45739225598e-16
415	9.5369234643e-16
416	1.17285285576e-15
417	1.06706356876e-15
418	7.76815494491e-16
419	7.48173528735e-16
420	9.72788618982e-16
421	1.00879429888e-15
422	7.56858125381e-16
423	6.22521132447e-16
424	7.83410817444e-16
425	9.04318041375e-16
426	7.37046136782e-16
427	5.39018164402e-16
428	6.17550360525e-16
429	7.8907747413e-16
430	7.17299897305e-16
431	5.0329114906e-16
432	4.83165090479e-16
433	6.46559631283e-16
434	6.71998852166e-16
435	4.91267530806e-16
436	3.98260842163e-16
437	5.1842419611e-16
438	6.03648528229e-16
439	4.82126276026e-16
440	3.44496734754e-16
441	4.0108776645e-16
442	5.19790820616e-16
443	4.69478541186e-16
444	3.24054368227e-16
445	3.13661885278e-16
446	4.23540756648e-16
447	4.37310804593e-16
448	3.16001459735e-16
449	2.55267111694e-16
450	3.35841501134e-16
451	3.92020553147e-16
452	3.11946775776e-16
453	2.2199707592e-16
454	2.57281216177e-16
455	3.33391420655e-16
456	3.02486114411e-16
457	2.09242919899e-16
458	2.01012960835e-16
459	2.70654084194e-16
460	2.81008174742e-16
461	2.04655187375e-16
462	1.63229071152e-16
463	2.12236365028e-16
464	2.50591542175e-16
465	2.02751917807e-16
466	1.43892981074e-16
467	1.62533927234e-16
468	2.11521642581e-16
469	1.96010529179e-16
470	1.36709620841e-16
471	1.27451715645e-16
472	1.7137479397e-16
473	1.82223730848e-16
474	1.3536645763e-16
475	1.05106385646e-16
476	1.33842943907e-16
477	1.62100733915e-16
478	1.35164758529e-16
479	9.5142980897e-17
480	1.03598198609e-16
481	1.37059052228e-16
482	1.31533117827e-16
483	9.26882353643e-17
484	8.26847684974e-17
485	1.1165740706e-16
486	1.23484318843e-16
487	9.42602913122e-17
488	7.08357352296e-17
489	8.82926417545e-17
490	1.11004561742e-16
491	9.62325401965e-17
492	6.7126787886e-17
493	7.02905133226e-17
494	9.56655199697e-17
495	9.6029391812e-17
496	6.86774690597e-17
497	5.85767889148e-17
498	7.99267188455e-17
499	9.2804470136e-17
500	7.3216024098e-17
501	5.35886452895e-17
502	6.57339339635e-17
503	8.63611619912e-17
504	7.82356027843e-17
505	5.45746638738e-17
506	5.53111073026e-17
507	7.77612026147e-17
508	8.19317636032e-17
509	6.00361293285e-17
510	4.96903864357e-17
511	6.84172845475e-17
512	8.33343366646e-17
513	6.84172845415e-17
514	4.96903864353e-17
515	6.00361293292e-17
516	8.19317636032e-17
517	7.77612026147e-17
518	5.53111073023e-17
519	5.45746638735e-17
520	7.82356027843e-17
521	8.63611619911e-17
522	6.57339339635e-17
523	5.35886452896e-17
524	7.32160240981e-17
525	9.28044701362e-17
526	7.99267188452e-17
527	5.85767889154e-17
528	6.86774690597e-17
529	9.60293918118e-17
530	9.56655199688e-17
531	7.02905133227e-17
532	6.7126787886e-17
533	9.62325401964e-17
534	1.11004561742e-16
535	8.82926417547e-17
536	7.08357352296e-17
537	9.42602913121e-17
538	1.23484318843e-16
539	1.1165740706e-16
540	8.26847684974e-17
541	9.26882353643e-17
542	1.31533117828e-16
543	1.37059052228e-16
544	1.03598198609e-16
545	9.51429808967e-17
546	1.35164758529e-16
547	1.62100733914e-16
548	1.33842943907e-16
549	1.05106385646e-16
550	1.3536645763e-16
551	1.82223730848e-16
552	1.7137479397e-16
553	1.27451715645e-16
554	1.36709620841e-16
555	1.96010529179e-16
556	2.11521642581e-16
557	1.62533927235e-16
558	1.43892981074e-16
559	2.02751917807e-16
560	2.50591542175e-16
561	2.12236365027e-16
562	1.63229071153e-16
563	2.04655187374e-16
564	2.81008174742e-16
565	2.70654084194e-16
566	2.01012960835e-16
567	2.09242919898e-16
568	3.02486114411e-16
569	3.33391420655e-16
570	2.57281216177e-16
571	2.2199707592e-16
572	3.11946775776e-16
573	3.92020553146e-16
574	3.35841501135e-16
575	2.55267111697e-16
576	3.16001459735e-16
577	4.37310804594e-16
578	4.2354075665e-16
579	3.13661885278e-16
580	3.24054368227e-16
581	4.69478541186e-16
582	5.19790820616e-16
583	4.0108776645e-16
584	3.44496734754e-16
585	4.82126276025e-16
586	6.0364852823e-16
587	5.18424196109e-16
588	3.98260842163e-16
589	4.91267530806e-16
590	6.71998852165e-16
591	6.46559631282e-16
592	4.83165090479e-16
593	5.0329114906e-16
594	7.17299897304e-16
595	7.89077474132e-16
596	6.17550360525e-16
597	5.39018164403e-16
598	7.37046136782e-16
599	9.04318041374e-16
600	7.83410817444e-16
601	6.22521132446e-16
602	7.56858125381e-16
603	1.00879429888e-15
604	9.72788618982e-16
605	7.48173528734e-16
606	7.76815494492e-16
607	1.06706356877e-15
608	1.17285285576e-15
609	9.53692346433e-16
610	8.45739225599e-16
611	1.10700136227e-15
612	1.33546054144e-15
613	1.18394768675e-15
614	9.7054208178e-16
615	1.13926029423e-15
616	1.48903925888e-15
617	1.47222622591e-15
618	1.16965959941e-15
619	1.18087607802e-15
620	1.56400078385e-15
621	1.74292587804e-15
622	1.47781822537e-15
623	1.3046198944e-15
624	1.64212819419e-15
625	1.99191506572e-15
626	1.81042954236e-15
627	1.48923321139e-15
628	1.68525483547e-15
629	2.20657137199e-15
630	2.2538478746e-15
631	1.8112893989e-15
632	1.77006792033e-15
633	2.3198842645e-15
634	2.61713752608e-15
635	2.24608027702e-15
636	1.96075856595e-15
637	2.46095293472e-15
638	3.03083021146e-15
639	2.74162551729e-15
640	2.20865081573e-15
641	2.49840280836e-15
642	3.301379134e-15
643	3.38379344869e-15
644	2.70682835952e-15
645	2.67208247192e-15
646	3.52843208028e-15
647	3.87195679766e-15
648	3.23445118838e-15
649	2.88456930578e-15
650	3.71726604232e-15
651	4.52893377628e-15
652	3.99024774759e-15
653	3.24222941573e-15
654	3.78189548653e-15
655	4.81867840751e-15
656	4.75240328539e-15
657	3.87408932085e-15
658	4.05243004734e-15
659	5.28335535374e-15
660	5.4850465874e-15
661	4.50729835753e-15
662	4.26887093116e-15
663	5.45115437151e-15
664	6.34346885694e-15
665	5.56325683219e-15
666	4.7878127022e-15
667	5.67643483319e-15
668	6.74511270576e-15
669	6.42088682453e-15
670	5.56077346757e-15
671	6.05766595223e-15
672	7.54397376069e-15
673	7.54925615964e-15
674	6.33852284548e-15
675	6.3409026032e-15
676	7.71799296305e-15
677	8.58107555622e-15
678	7.8245480083e-15
679	7.20195913424e-15
680	8.35109369214e-15
681	9.26279218213e-15
682	8.62137464663e-15
683	7.94841188361e-15
684	8.78950044906e-15
685	1.05096226567e-14
686	1.05786679468e-14
687	9.23784613125e-15
688	9.33660844366e-15
689	1.05686492909e-14
690	1.12014735453e-14
691	1.07688119342e-14
692	1.05987040796e-14
693	1.20483137712e-14
694	1.28815262646e-14
695	1.17517008726e-14
696	1.10600113946e-14
697	1.19334921909e-14
698	1.36998221307e-14
699	1.43721018984e-14
700	1.34507986605e-14
701	1.36637332189e-14
702	1.44882958559e-14
703	1.43695755132e-14
704	1.41446925431e-14
705	1.45401876189e-14
706	1.63715059811e-14
707	1.78482634389e-14
708	1.66603190789e-14
709	1.5777579429e-14
710	1.61643777211e-14
711	1.75388797022e-14
712	1.93069508311e-14
713	1.95159833136e-14
714	1.98035228251e-14
715	2.05527667512e-14
716	1.97094036503e-14
717	1.95974938549e-14
718	2.03316306756e-14
719	2.26399864003e-14
720	2.59011146534e-14
721	2.5396847053e-14
722	2.34277549411e-14
723	2.2768329715e-14
724	2.37393337353e-14
725	2.70636990338e-14
726	2.8891197864e-14
727	2.99657569767e-14
728	3.23795837296e-14
729	3.08092945899e-14
730	2.81336551723e-14
731	2.7261624406e-14
732	3.11083284731e-14
733	3.82226305753e-14
734	3.97466696071e-14
735	3.69110360666e-14
736	3.68019015109e-14
737	3.60989187924e-14
738	3.6365896403e-14
739	3.77780898024e-14
740	4.37039792133e-14
741	5.14702417291e-14
742	4.9685321552e-14
743	4.26440882467e-14
744	4.1221207561e-14
745	4.49571089418e-14
746	5.09456450058e-14
747	5.59704826303e-14
748	6.14372576598e-14
749	6.6742301025e-14
750	6.01023902994e-14
751	5.04140969914e-14
752	5.21635767824e-14
753	6.4568311544e-14
754	7.61035150378e-14
755	8.22451380724e-14
756	8.11053648555e-14
757	7.86574508815e-14
758	6.71908598157e-14
759	6.09172036238e-14
760	7.34168654459e-14
761	9.51017942039e-14
762	1.07581769141e-13
763	1.07074208431e-13
764	9.49813731329e-14
765	8.74724121559e-14
766	7.80076365788e-14
767	8.49962195885e-14
768	1.10270418476e-13
769	1.27727867359e-13
770	1.28910405613e-13
771	1.13871082319e-13
772	1.00872118937e-13
773	1.07423829102e-13
774	1.20144205565e-13
775	1.37109952356e-13
776	1.51379364521e-13
777	1.4448179299e-13
778	1.33333504936e-13
779	1.14739410538e-13
780	1.37259876446e-13
781	1.71246961132e-13
782	1.99535042558e-13
783	1.98672027725e-13
784	1.80829303792e-13
785	1.57332362438e-13
786	1.64104800544e-13
787	1.81159965319e-13
788	2.44504140826e-13
789	2.74342332327e-13
790	2.78622365662e-13
791	2.55137470984e-13
792	2.2296447978e-13
793	2.28406082768e-13
794	2.67135715044e-13
795	3.23423918664e-13
796	3.60328026659e-13
797	3.52090050055e-13
798	3.31486049531e-13
799	3.34341453298e-13
800	3.17275996023e-13
801	3.72075038059e-13
802	4.00760457457e-13
803	4.23709895974e-13
804	4.05443711042e-13
805	3.90042679527e-13
806	3.69935973226e-13
807	3.99065909044e-13
808	3.93686155967e-13
809	4.40783666857e-13
810	4.19935473123e-13
811	4.21461620955e-13
812	4.4553430352e-13
813	4.31873523419e-13
814	3.88043219044e-13
815	4.10589314858e-13
816	3.83164263135e-13
817	4.11817031665e-13
818	4.65238682057e-13
819	5.34212935497e-13
820	5.57127233773e-13
821	5.15858482352e-13
822	5.51415055605e-13
823	5.89255538447e-13
824	6.39805015986e-13
825	7.60442087461e-13
826	8.02347902004e-13
827	7.87103163643e-13
828	8.41412508126e-13
829	8.50084803995e-13
830	1.20859921632e-12
831	1.38736569746e-12
832	1.61624470748e-12
833	1.53125082997e-12
834	1.36082615917e-12
835	1.18926587832e-12
836	1.44196082697e-12
837	1.7983879197e-12
838	2.50665373688e-12
839	2.71079351821e-12
840	2.86083297675e-12
841	2.33137967763e-12
842	1.86043209286e-12
843	1.97966627964e-12
844	2.23282543769e-12
845	2.79742891502e-12
846	3.26204632155e-12
847	3.32538685905e-12
848	2.93946040843e-12
849	2.87662852787e-12
850	2.31362835475e-12
851	2.51378404791e-12
852	2.46711906964e-12
853	3.02805239497e-12
854	3.29226280656e-12
855	3.63324230569e-12
856	3.61291424257e-12
857	3.61849400556e-12
858	3.6194441719e-12
859	4.17003813627e-12
860	3.39985667382e-12
861	3.33994942207e-12
862	4.60350548174e-12
863	4.99221195137e-12
864	5.49942934625e-12
865	4.84586825392e-12
866	4.70581670873e-12
867	4.97358117896e-12
868	5.67030519141e-12
869	6.55675734039e-12
870	7.11699040081e-12
871	8.71691380097e-12
872	8.48107056033e-12
873	7.16340875579e-12
874	8.77403864942e-12
875	8.76602460185e-12
876	9.85386100214e-12
877	9.4806046924e-12
878	1.00951813877e-11
879	1.19904967285e-11
880	1.18035421338e-11
881	1.2765203905e-11
882	1.39616362828e-11
883	1.53697335073e-11
884	1.81626550892e-11
885	1.59518510012e-11
886	1.8736722787e-11
887	1.97413648936e-11
888	1.89682447958e-11
889	2.06433049147e-11
890	1.82999205696e-11
891	1.71383475311e-11
892	1.90813848506e-11
893	2.2789701294e-11
894	2.94861608048e-11
895	2.95160568735e-11
896	3.21367396296e-11
897	3.17268529475e-11
898	3.31071715318e-11
899	4.22076352304e-11
900	3.87891814836e-11
901	4.26599084061e-11
902	4.20787550468e-11
903	4.17453473558e-11
904	4.80990634456e-11
905	5.44618578586e-11
906	5.65402804653e-11
907	5.60088186216e-11
908	5.17761069438e-11
909	5.50105082043e-11
910	5.80229523255e-11
911	6.83327793013e-11
912	1.02714438591e-10
913	1.13436004734e-10
914	1.11801207116e-10
915	9.98461265638e-11
916	9.77734214222e-11
917	1.20196773386e-10
918	1.55651531582e-10
919	1.53908327516e-10
920	1.44388288991e-10
921	1.09113928206e-10
922	1.13289572329e-10
923	1.30145793547e-10
924	1.54434422749e-10
925	1.5036297532e-10
926	1.65218831325e-10
927	1.77278426625e-10
928	1.75997486692e-10
929	1.76005298709e-10
930	2.44208924203e-10
931	3.20089510301e-10
932	3.63019981051e-10
933	3.19776502688e-10
934	3.51956091347e-10
935	3.63034043971e-10
936	3.73253363886e-10
937	4.74277026769e-10
938	3.77055019407e-10
939	3.8723430045e-10
940	4.98319488538e-10
941	4.39918249647e-10
942	6.12178064888e-10
943	6.16244017697e-10
944	5.56291077813e-10
945	6.8163324857e-10
946	6.8806526113e-10
947	6.95268372827e-10
948	7.8623009883e-10
949	8.08241795074e-10
950	9.42903324574e-10
951	9.74624270447e-10
952	1.28739763963e-09
953	1.57609750959e-09
954	1.65256887207e-09
955	1.95865679176e-09
956	2.05574318175e-09
957	2.06065796815e-09
958	2.59643335178e-09
959	2.93628911926e-09
960	3.29845805921e-09
961	3.56363600895e-09
962	3.36972699611e-09
963	3.94026987543e-09
964	3.45396058113e-09
965	3.9629063576e-09
966	3.79626410689e-09
967	4.0118917696e-09
968	4.15459236217e-09
969	4.14966134219e-09
970	5.27989890136e-09
971	4.78728601631e-09
972	5.75105296258e-09
973	5.8241741804e-09
974	7.0628386515e-09
975	7.96347634056e-09
976	7.74138343648e-09
977	6.69179295653e-09
978	6.83221151671e-09
979	7.08880784385e-09
980	9.318471125e-09
981	9.90674805918e-09
982	1.02047175596e-08
983	1.04043788517e-08
984	1.37109700754e-08
985	1.83168993076e-08
986	2.14045734037e-08
987	2.07771434657e-08
988	2.69682896276e-08
989	2.49674044389e-08
990	2.27611283877e-08
991	3.15457116048e-08
992	3.27832668619e-08
993	3.99388593277e-08
994	4.62396885459e-08
995	4.92974538983e-08
996	5.38432200941e-08
997	5.35750521454e-08
998	6.34771232437e-08
999	1.0923143327e-07
1000	1.17400686414e-07
1001	1.35095270454e-07
1002	1.32574572152e-07
1003	1.236758536e-07
1004	1.88374053514e-07
1005	1.91491423396e-07
1006	2.31217889293e-07
1007	3.96458516996e-07
1008	4.28253721412e-07
1009	3.98328459349e-07
1010	5.20441618039e-07
1011	7.19853359503e-07
1012	1.06227673461e-06
1013	1.67620730992e-06
1014	1.75902892368e-06
1015	2.69302998586e-06
1016	4.76440217908e-06
1017	6.42869301312e-06
1018	1.26691687848e-05
1019	3.13421714099e-05
1020	0.000204610365912
1021	0.000924551914879
1022	0.0037411602116
1023	0.0238240730428
