0	0.884154283291
1	2.15233479848e-08
2	0.010279452526
3	6.38244269224e-09
4	0.000794327612398
5	7.88283166959e-10
6	2.34100220736e-05
7	9.68529476733e-11
8	4.96204654585e-06
9	6.34887007281e-11
10	1.79815376903e-06
11	2.70899366021e-11
12	8.42913044541e-07
13	2.15533907751e-11
14	3.31259403099e-07
15	1.10171422023e-11
16	1.09978465402e-07
17	6.41095965296e-12
18	6.52752842988e-08
19	5.51834637516e-12
20	4.20986315364e-08
21	3.26075446571e-12
22	2.72712054174e-08
23	2.30481529505e-12
24	2.10680467149e-08
25	1.40844698518e-12
26	8.94688536387e-09
27	9.22526900003e-13
28	5.30557332378e-09
29	1.22852459215e-12
30	6.74044373314e-09
31	1.2438294011e-12
32	4.1273038519e-09
33	1.06323081171e-12
34	3.07761572738e-09
35	8.11869343424e-13
36	2.74481535435e-09
37	5.36931478441e-13
38	1.63362178178e-09
39	3.54355248801e-13
40	7.96757048029e-10
41	3.33365839077e-13
42	5.74835424921e-10
43	3.3067796462e-13
44	4.89464558278e-10
45	2.97165385439e-13
46	4.36305137238e-10
47	2.32053913343e-13
48	3.0911231125e-10
49	1.62443751693e-13
50	2.04021900723e-10
51	1.11124106736e-13
52	1.23365382921e-10
53	8.94648209721e-14
54	1.0192998765e-10
55	8.70265709961e-14
56	1.75702011648e-10
57	9.04962280098e-14
58	2.05405430208e-10
59	9.29747189515e-14
60	1.74905643507e-10
61	8.16535237816e-14
62	1.2228278028e-10
63	6.95553238748e-14
64	7.90757297628e-11
65	6.08454491058e-14
66	4.37160884537e-11
67	6.24008260601e-14
68	4.82778860842e-11
69	6.97334335084e-14
70	5.81887601586e-11
71	7.1468282863e-14
72	6.64609988859e-11
73	7.33483552274e-14
74	6.43560795316e-11
75	6.4160933056e-14
76	5.60934584337e-11
77	5.12730343574e-14
78	3.850583984e-11
79	3.88882781267e-14
80	2.51661299131e-11
81	3.19301467245e-14
82	2.27362711132e-11
83	2.72155765631e-14
84	1.99549850559e-11
85	2.51969663919e-14
86	2.26042356315e-11
87	2.60437806453e-14
88	1.90919799573e-11
89	2.34568947535e-14
90	1.44223862491e-11
91	1.92274341967e-14
92	8.59618182564e-12
93	1.57312872186e-14
94	6.9162458751e-12
95	1.33689048399e-14
96	8.46458284971e-12
97	1.16618266485e-14
98	6.73891487236e-12
99	9.94058990904e-15
100	6.09142487214e-12
101	9.41124332678e-15
102	5.10432811343e-12
103	8.85897577123e-15
104	5.10305696673e-12
105	8.45017049845e-15
106	5.80119686138e-12
107	7.96139624535e-15
108	5.46441774555e-12
109	7.54724861772e-15
110	5.21705069736e-12
111	7.26102640682e-15
112	3.95987927124e-12
113	6.60062780548e-15
114	2.87083416582e-12
115	5.65164427617e-15
116	1.99412545288e-12
117	4.68003067366e-15
118	1.61142420461e-12
119	3.73493655191e-15
120	1.50344170641e-12
121	2.92018561285e-15
122	1.14157458531e-12
123	2.2316451113e-15
124	9.54178897248e-13
125	1.8938895422e-15
126	8.40045526445e-13
127	1.75981684605e-15
128	7.94199059363e-13
129	1.74449812501e-15
130	7.80370264817e-13
131	1.672839845e-15
132	6.42693148421e-13
133	1.58078477045e-15
134	6.08126525362e-13
135	1.50658180882e-15
136	5.81099807033e-13
137	1.38709564388e-15
138	5.19893926954e-13
139	1.20098212488e-15
140	4.6766053784e-13
141	1.01075709266e-15
142	4.08724231444e-13
143	7.9621479295e-16
144	3.14340893115e-13
145	5.63639693533e-16
146	2.25672920922e-13
147	3.87444969897e-16
148	1.59763514986e-13
149	2.58795326089e-16
150	1.17023915294e-13
151	1.75546298614e-16
152	1.0582784725e-13
153	1.35509775878e-16
154	9.81433562688e-14
155	1.01331985918e-16
156	8.82556572296e-14
157	8.37663824324e-17
158	7.77008596512e-14
159	7.29610462999e-17
160	6.56498974503e-14
161	6.16973230535e-17
162	5.07438342549e-14
163	5.41550770006e-17
164	3.52039933879e-14
165	4.46196179571e-17
166	2.36882235041e-14
167	3.4644585973e-17
168	1.45949933037e-14
169	2.39811237387e-17
170	1.08999691399e-14
171	1.57496308485e-17
172	9.97257337527e-15
173	1.23565831162e-17
174	9.20308629523e-15
175	8.24174509118e-18
176	9.23647667655e-15
177	7.01893579658e-18
178	8.8186679002e-15
179	5.97293097486e-18
180	9.007681872e-15
181	5.9658782992e-18
182	9.36225826867e-15
183	6.97052688658e-18
184	9.3058317921e-15
185	6.67298638884e-18
186	9.46431354427e-15
187	6.7956295987e-18
188	9.47845474909e-15
189	6.32233730251e-18
190	9.69955187087e-15
191	5.5815155592e-18
192	9.91769662268e-15
193	5.10080709413e-18
194	9.79920494958e-15
195	4.62370037012e-18
196	9.40000765837e-15
197	4.36996413772e-18
198	8.62410129465e-15
199	3.90084260785e-18
200	7.71005784309e-15
201	3.48069088874e-18
202	6.71575580195e-15
203	3.11065662784e-18
204	5.8426037043e-15
205	2.90641866733e-18
206	5.07195454134e-15
207	2.70556190443e-18
208	4.21677314683e-15
209	2.4038434633e-18
210	3.36945160375e-15
211	2.09783074852e-18
212	2.58004329793e-15
213	1.78362214454e-18
214	1.91876429461e-15
215	1.48995088797e-18
216	1.4303295962e-15
217	1.24200525475e-18
218	1.11339668956e-15
219	1.07462623006e-18
220	9.34843837739e-16
221	9.28803480304e-19
222	8.33661854087e-16
223	8.09459854947e-19
224	7.91259098018e-16
225	7.16611708787e-19
226	7.90374677645e-16
227	6.51706592779e-19
228	8.19473689125e-16
229	6.17508179892e-19
230	8.59542610874e-16
231	5.79874961291e-19
232	8.84696218234e-16
233	5.44048968424e-19
234	8.85715192022e-16
235	5.05056125657e-19
236	8.66620672609e-16
237	4.62257105701e-19
238	8.36744433193e-16
239	4.21915046128e-19
240	8.01523180165e-16
241	3.8297834578e-19
242	7.61209796432e-16
243	3.4825448174e-19
244	7.116726829e-16
245	3.13053093441e-19
246	6.49908736844e-16
247	2.77948227731e-19
248	5.80192452811e-16
249	2.44971439802e-19
250	5.11441274833e-16
251	2.14425135092e-19
252	4.51020446168e-16
253	1.88991880161e-19
254	4.01417436073e-16
255	1.67283033155e-19
256	3.60829198949e-16
257	1.48829122137e-19
258	3.25368500363e-16
259	1.31891673229e-19
260	2.9272503805e-16
261	1.15835503272e-19
262	2.63445711578e-16
263	1.01376311254e-19
264	2.39294213966e-16
265	8.86845198719e-20
266	2.21258757993e-16
267	7.84738180837e-20
268	2.08721722123e-16
269	7.05090684214e-20
270	2.00028547778e-16
271	6.39736675736e-20
272	1.93216247367e-16
273	5.83725883211e-20
274	1.87047305831e-16
275	5.31283094764e-20
276	1.81232172985e-16
277	4.84602936062e-20
278	1.75976086972e-16
279	4.43873029648e-20
280	1.71578833854e-16
281	4.11675696302e-20
282	1.67945817349e-16
283	3.87374776609e-20
284	1.64688581593e-16
285	3.67444999299e-20
286	1.61168606956e-16
287	3.49844553971e-20
288	1.56951494813e-16
289	3.31022835902e-20
290	1.51958350912e-16
291	3.1242867961e-20
292	1.46364775874e-16
293	2.94025560485e-20
294	1.40459994783e-16
295	2.77602711974e-20
296	1.34318248864e-16
297	2.63034649533e-20
298	1.27898740933e-16
299	2.48839849494e-20
300	1.20992360938e-16
301	2.3463517586e-20
302	1.13566371099e-16
303	2.18532431204e-20
304	1.05721008778e-16
305	2.02152996021e-20
306	9.76978182315e-17
307	1.85251055015e-20
308	8.97372526602e-17
309	1.69295164135e-20
310	8.19510436302e-17
311	1.54120676707e-20
312	7.44009967378e-17
313	1.39525386187e-20
314	6.70599366879e-17
315	1.25455205212e-20
316	5.99903011456e-17
317	1.11353285692e-20
318	5.32507674245e-17
319	9.80699335468e-21
320	4.69604581867e-17
321	8.53995251744e-21
322	4.11683223612e-17
323	7.41801848324e-21
324	3.59090708038e-17
325	6.39081581604e-21
326	3.11532100448e-17
327	5.49729954168e-21
328	2.68720438324e-17
329	4.67963646661e-21
330	2.30409764012e-17
331	3.96076154458e-21
332	1.96363523332e-17
333	3.32332516134e-21
334	1.66481231005e-17
335	2.76863138086e-21
336	1.40467233801e-17
337	2.30249447361e-21
338	1.18023769497e-17
339	1.90656739835e-21
340	9.87349656139e-18
341	1.57769513859e-21
342	8.22317451901e-18
343	1.30013717423e-21
344	6.81548790467e-18
345	1.06995013466e-21
346	5.62304600766e-18
347	8.74820222499e-22
348	4.6176660933e-18
349	7.17564338175e-22
350	3.77772884714e-18
351	5.8468455799e-22
352	3.07871324667e-18
353	4.8102938248e-22
354	2.50083393406e-18
355	3.93401285861e-22
356	2.02474265467e-18
357	3.24761907964e-22
358	1.63419997904e-18
359	2.67564503779e-22
360	1.31519663855e-18
361	2.20779674149e-22
362	1.0562009062e-18
363	1.82704850673e-22
364	8.46741022862e-19
365	1.51238954623e-22
366	6.78843752211e-19
367	1.26327921536e-22
368	5.44374016381e-19
369	1.05379583398e-22
370	4.37736551986e-19
371	8.9108549573e-23
372	3.52685173645e-19
373	7.48718959804e-23
374	2.85403544881e-19
375	6.35722450638e-23
376	2.31872478616e-19
377	5.37548997775e-23
378	1.89525334324e-19
379	4.57536340504e-23
380	1.55940355712e-19
381	3.91940293268e-23
382	1.29269856407e-19
383	3.3624472432e-23
384	1.08073493386e-19
385	2.89549091417e-23
386	9.09041641889e-20
387	2.48254887585e-23
388	7.70571578885e-20
389	2.15334815348e-23
390	6.56828945186e-20
391	1.85178924496e-23
392	5.6296538661e-20
393	1.60677656752e-23
394	4.85361242307e-20
395	1.391230928e-23
396	4.20462149402e-20
397	1.19541095072e-23
398	3.65862843823e-20
399	1.04488480208e-23
400	3.19791349284e-20
401	8.99668865543e-24
402	2.8022196252e-20
403	7.91907591518e-24
404	2.46806494405e-20
405	6.88493046264e-24
406	2.17794126144e-20
407	5.9417767731e-24
408	1.93130000971e-20
409	5.24666812668e-24
410	1.71823492756e-20
411	4.59249013453e-24
412	1.53462979273e-20
413	4.07096544607e-24
414	1.37605870038e-20
415	3.54444082402e-24
416	1.23999113997e-20
417	3.13795671106e-24
418	1.11772506001e-20
419	2.80896366607e-24
420	1.01384173745e-20
421	2.50844696944e-24
422	9.18733773684e-21
423	2.21720535632e-24
424	8.38468718533e-21
425	2.01667089744e-24
426	7.63530994365e-21
427	1.7943770772e-24
428	6.99051407818e-21
429	1.67075227152e-24
430	6.38707046603e-21
431	1.48102124796e-24
432	5.85379225264e-21
433	1.38981721875e-24
434	5.35300505666e-21
435	1.24131316129e-24
436	4.90645939787e-21
437	1.19111894416e-24
438	4.48807981981e-21
439	1.07118332343e-24
440	4.1090541592e-21
441	1.00643085553e-24
442	3.75008449183e-21
443	8.80413684036e-25
444	3.42877474805e-21
445	8.42416424045e-25
446	3.13153247979e-21
447	7.80942733925e-25
448	2.84875733824e-21
449	7.35678782381e-25
450	2.59594724576e-21
451	6.8630817235e-25
452	2.35307333937e-21
453	6.7525899387e-25
454	2.14320760965e-21
455	5.86502381039e-25
456	1.94083651986e-21
457	5.33429465175e-25
458	1.76541437013e-21
459	4.75774446452e-25
460	1.59860148556e-21
461	4.52416324078e-25
462	1.44538527524e-21
463	4.18102082671e-25
464	1.29701835045e-21
465	4.11250560536e-25
466	1.17471731649e-21
467	3.91453529243e-25
468	1.05389030827e-21
469	3.64367025721e-25
470	9.52162264999e-22
471	3.36653448079e-25
472	8.51933054933e-22
473	3.02511749993e-25
474	7.68372788647e-22
475	3.01895580822e-25
476	6.86505275735e-22
477	2.81179792279e-25
478	6.17502237364e-22
479	2.67959577778e-25
480	5.52893063672e-22
481	2.50627198951e-25
482	4.98760637407e-22
483	2.44195216649e-25
484	4.47145463369e-22
485	2.36955307431e-25
486	4.02062472276e-22
487	2.26016189564e-25
488	3.6215436495e-22
489	2.14642104824e-25
490	3.28280310509e-22
491	2.23782220042e-25
492	2.95969446132e-22
493	2.23281087411e-25
494	2.67732850386e-22
495	2.19766503665e-25
496	2.46362455633e-22
497	2.08013353749e-25
498	2.27537721003e-22
499	2.12448173621e-25
500	2.09841770507e-22
501	2.15071835972e-25
502	1.94880115679e-22
503	2.1436551766e-25
504	1.83661757503e-22
505	2.21769307519e-25
506	1.75538657521e-22
507	2.16727231219e-25
508	1.69517102983e-22
509	2.17628896495e-25
510	1.66242291946e-22
511	2.15139201647e-25
512	1.64895157644e-22
513	2.15139204086e-25
514	1.66242276545e-22
515	2.17628895946e-25
516	1.69517102283e-22
517	2.16727229893e-25
518	1.75538659749e-22
519	2.21769307462e-25
520	1.83661757125e-22
521	2.14365517798e-25
522	1.94880115203e-22
523	2.15071836068e-25
524	2.09841770356e-22
525	2.12448173738e-25
526	2.27537722386e-22
527	2.08013353573e-25
528	2.46362455681e-22
529	2.19766503947e-25
530	2.67732854896e-22
531	2.2328108749e-25
532	2.95969446937e-22
533	2.23782219975e-25
534	3.28280309594e-22
535	2.14642104796e-25
536	3.62154364894e-22
537	2.26016189599e-25
538	4.02062476636e-22
539	2.36955307516e-25
540	4.47145464022e-22
541	2.44195216704e-25
542	4.98760632941e-22
543	2.50627198835e-25
544	5.52893063688e-22
545	2.67959577782e-25
546	6.17502242104e-22
547	2.811797922e-25
548	6.86505274298e-22
549	3.01895580867e-25
550	7.68372789248e-22
551	3.02511750006e-25
552	8.51933054925e-22
553	3.36653448103e-25
554	9.52162266868e-22
555	3.64367025723e-25
556	1.05389030803e-21
557	3.91453529195e-25
558	1.17471731563e-21
559	4.11250560602e-25
560	1.29701835041e-21
561	4.18102082632e-25
562	1.44538527053e-21
563	4.52416324014e-25
564	1.59860148534e-21
565	4.75774446405e-25
566	1.76541437435e-21
567	5.33429465302e-25
568	1.94083651967e-21
569	5.8650238114e-25
570	2.14320760836e-21
571	6.75258993803e-25
572	2.353073336e-21
573	6.86308172736e-25
574	2.5959472318e-21
575	7.35678782098e-25
576	2.84875733824e-21
577	7.80942734233e-25
578	3.13153249288e-21
579	8.42416423505e-25
580	3.42877474965e-21
581	8.8041368388e-25
582	3.75008449614e-21
583	1.00643085542e-24
584	4.10905415945e-21
585	1.07118332346e-24
586	4.48807981938e-21
587	1.19111894403e-24
588	4.90645939815e-21
589	1.24131316124e-24
590	5.35300503834e-21
591	1.38981721891e-24
592	5.85379225267e-21
593	1.48102124805e-24
594	6.38707045831e-21
595	1.67075227128e-24
596	6.99051407973e-21
597	1.79437707704e-24
598	7.63530994435e-21
599	2.01667089732e-24
600	8.38468718569e-21
601	2.21720535618e-24
602	9.18733773835e-21
603	2.50844696947e-24
604	1.01384173722e-20
605	2.80896366618e-24
606	1.1177250589e-20
607	3.13795671082e-24
608	1.23999113998e-20
609	3.5444408245e-24
610	1.3760587015e-20
611	4.07096544597e-24
612	1.53462979311e-20
613	4.59249013447e-24
614	1.71823492782e-20
615	5.24666812682e-24
616	1.93130000974e-20
617	5.94177677273e-24
618	2.17794126075e-20
619	6.88493046284e-24
620	2.46806494385e-20
621	7.91907591526e-24
622	2.80221962597e-20
623	8.99668865609e-24
624	3.19791349288e-20
625	1.04488480206e-23
626	3.65862843803e-20
627	1.19541095064e-23
628	4.20462149275e-20
629	1.39123092803e-23
630	4.85361242265e-20
631	1.60677656753e-23
632	5.62965386633e-20
633	1.85178924488e-23
634	6.5682894523e-20
635	2.15334815352e-23
636	7.70571579544e-20
637	2.48254887606e-23
638	9.09041641101e-20
639	2.8954909146e-23
640	1.08073493386e-19
641	3.36244724348e-23
642	1.29269856423e-19
643	3.91940293268e-23
644	1.55940355734e-19
645	4.57536340532e-23
646	1.89525334321e-19
647	5.37548997777e-23
648	2.3187247862e-19
649	6.35722450629e-23
650	2.85403544861e-19
651	7.48718959808e-23
652	3.52685173647e-19
653	8.91085495716e-23
654	4.37736551939e-19
655	1.053795834e-22
656	5.44374016381e-19
657	1.26327921536e-22
658	6.7884375208e-19
659	1.51238954617e-22
660	8.46741022875e-19
661	1.82704850672e-22
662	1.05620090622e-18
663	2.20779674148e-22
664	1.31519663855e-18
665	2.6756450378e-22
666	1.63419997886e-18
667	3.24761907964e-22
668	2.02474265469e-18
669	3.93401285859e-22
670	2.50083393366e-18
671	4.81029382477e-22
672	3.07871324667e-18
673	5.84684557987e-22
674	3.77772884732e-18
675	7.17564338173e-22
676	4.61766609339e-18
677	8.74820222503e-22
678	5.62304600769e-18
679	1.06995013466e-21
680	6.81548790467e-18
681	1.30013717424e-21
682	8.22317451907e-18
683	1.5776951386e-21
684	9.87349656155e-18
685	1.90656739835e-21
686	1.18023769495e-17
687	2.30249447359e-21
688	1.40467233801e-17
689	2.76863138084e-21
690	1.66481231012e-17
691	3.32332516134e-21
692	1.96363523332e-17
693	3.96076154458e-21
694	2.30409764018e-17
695	4.67963646662e-21
696	2.68720438323e-17
697	5.49729954169e-21
698	3.1153210045e-17
699	6.39081581604e-21
700	3.59090708031e-17
701	7.41801848326e-21
702	4.11683223621e-17
703	8.53995251747e-21
704	4.69604581867e-17
705	9.80699335465e-21
706	5.32507674231e-17
707	1.11353285692e-20
708	5.99903011452e-17
709	1.25455205212e-20
710	6.70599366876e-17
711	1.39525386187e-20
712	7.44009967378e-17
713	1.54120676707e-20
714	8.19510436306e-17
715	1.69295164135e-20
716	8.97372526606e-17
717	1.85251055015e-20
718	9.76978182325e-17
719	2.02152996021e-20
720	1.05721008778e-16
721	2.18532431204e-20
722	1.135663711e-16
723	2.3463517586e-20
724	1.20992360939e-16
725	2.48839849495e-20
726	1.27898740933e-16
727	2.63034649533e-20
728	1.34318248864e-16
729	2.77602711974e-20
730	1.40459994783e-16
731	2.94025560485e-20
732	1.46364775874e-16
733	3.1242867961e-20
734	1.51958350913e-16
735	3.31022835902e-20
736	1.56951494813e-16
737	3.49844553971e-20
738	1.61168606952e-16
739	3.67444999299e-20
740	1.64688581593e-16
741	3.87374776609e-20
742	1.6794581735e-16
743	4.11675696301e-20
744	1.71578833854e-16
745	4.43873029647e-20
746	1.7597608697e-16
747	4.84602936062e-20
748	1.81232172985e-16
749	5.31283094764e-20
750	1.8704730583e-16
751	5.8372588321e-20
752	1.93216247367e-16
753	6.39736675736e-20
754	2.00028547778e-16
755	7.05090684214e-20
756	2.08721722122e-16
757	7.84738180837e-20
758	2.21258757993e-16
759	8.86845198719e-20
760	2.39294213966e-16
761	1.01376311254e-19
762	2.63445711579e-16
763	1.15835503272e-19
764	2.92725038049e-16
765	1.31891673229e-19
766	3.25368500357e-16
767	1.48829122138e-19
768	3.60829198949e-16
769	1.67283033156e-19
770	4.01417436075e-16
771	1.88991880161e-19
772	4.51020446173e-16
773	2.14425135092e-19
774	5.11441274831e-16
775	2.44971439802e-19
776	5.80192452811e-16
777	2.77948227732e-19
778	6.49908736843e-16
779	3.13053093441e-19
780	7.11672682899e-16
781	3.4825448174e-19
782	7.61209796434e-16
783	3.8297834578e-19
784	8.01523180165e-16
785	4.21915046128e-19
786	8.36744433197e-16
787	4.62257105701e-19
788	8.66620672609e-16
789	5.05056125657e-19
790	8.85715192019e-16
791	5.44048968424e-19
792	8.84696218234e-16
793	5.79874961291e-19
794	8.59542610874e-16
795	6.17508179892e-19
796	8.19473689126e-16
797	6.5170659278e-19
798	7.90374677642e-16
799	7.16611708787e-19
800	7.91259098018e-16
801	8.09459854947e-19
802	8.33661854085e-16
803	9.28803480304e-19
804	9.34843837739e-16
805	1.07462623006e-18
806	1.11339668957e-15
807	1.24200525475e-18
808	1.4303295962e-15
809	1.48995088797e-18
810	1.91876429461e-15
811	1.78362214454e-18
812	2.58004329793e-15
813	2.09783074852e-18
814	3.36945160374e-15
815	2.4038434633e-18
816	4.21677314683e-15
817	2.70556190443e-18
818	5.07195454134e-15
819	2.90641866733e-18
820	5.8426037043e-15
821	3.11065662784e-18
822	6.71575580196e-15
823	3.48069088874e-18
824	7.71005784309e-15
825	3.90084260785e-18
826	8.62410129465e-15
827	4.36996413772e-18
828	9.40000765837e-15
829	4.62370037012e-18
830	9.79920494961e-15
831	5.10080709413e-18
832	9.91769662268e-15
833	5.5815155592e-18
834	9.69955187088e-15
835	6.32233730251e-18
836	9.47845474909e-15
837	6.7956295987e-18
838	9.46431354429e-15
839	6.67298638884e-18
840	9.3058317921e-15
841	6.97052688658e-18
842	9.36225826868e-15
843	5.9658782992e-18
844	9.007681872e-15
845	5.97293097486e-18
846	8.81866790021e-15
847	7.01893579658e-18
848	9.23647667655e-15
849	8.24174509118e-18
850	9.20308629524e-15
851	1.23565831162e-17
852	9.97257337527e-15
853	1.57496308485e-17
854	1.08999691399e-14
855	2.39811237387e-17
856	1.45949933037e-14
857	3.4644585973e-17
858	2.36882235041e-14
859	4.46196179571e-17
860	3.52039933879e-14
861	5.41550770007e-17
862	5.0743834255e-14
863	6.16973230535e-17
864	6.56498974503e-14
865	7.29610462999e-17
866	7.77008596513e-14
867	8.37663824325e-17
868	8.82556572296e-14
869	1.01331985918e-16
870	9.81433562687e-14
871	1.35509775878e-16
872	1.0582784725e-13
873	1.75546298614e-16
874	1.17023915294e-13
875	2.58795326089e-16
876	1.59763514986e-13
877	3.87444969897e-16
878	2.25672920922e-13
879	5.63639693534e-16
880	3.14340893115e-13
881	7.9621479295e-16
882	4.08724231444e-13
883	1.01075709266e-15
884	4.6766053784e-13
885	1.20098212488e-15
886	5.19893926954e-13
887	1.38709564388e-15
888	5.81099807033e-13
889	1.50658180882e-15
890	6.08126525362e-13
891	1.58078477045e-15
892	6.42693148421e-13
893	1.672839845e-15
894	7.80370264817e-13
895	1.74449812501e-15
896	7.94199059363e-13
897	1.75981684605e-15
898	8.40045526444e-13
899	1.8938895422e-15
900	9.54178897248e-13
901	2.2316451113e-15
902	1.14157458531e-12
903	2.92018561285e-15
904	1.50344170641e-12
905	3.73493655191e-15
906	1.61142420461e-12
907	4.68003067366e-15
908	1.99412545288e-12
909	5.65164427617e-15
910	2.87083416583e-12
911	6.60062780548e-15
912	3.95987927124e-12
913	7.26102640682e-15
914	5.21705069736e-12
915	7.54724861772e-15
916	5.46441774555e-12
917	7.96139624535e-15
918	5.80119686138e-12
919	8.45017049845e-15
920	5.10305696673e-12
921	8.85897577123e-15
922	5.10432811343e-12
923	9.41124332678e-15
924	6.09142487214e-12
925	9.94058990904e-15
926	6.73891487236e-12
927	1.16618266485e-14
928	8.46458284971e-12
929	1.33689048399e-14
930	6.9162458751e-12
931	1.57312872186e-14
932	8.59618182564e-12
933	1.92274341967e-14
934	1.44223862491e-11
935	2.34568947535e-14
936	1.90919799573e-11
937	2.60437806453e-14
938	2.26042356315e-11
939	2.51969663919e-14
940	1.99549850559e-11
941	2.72155765631e-14
942	2.27362711133e-11
943	3.19301467245e-14
944	2.51661299131e-11
945	3.88882781267e-14
946	3.850583984e-11
947	5.12730343574e-14
948	5.60934584337e-11
949	6.4160933056e-14
950	6.43560795316e-11
951	7.33483552274e-14
952	6.64609988859e-11
953	7.1468282863e-14
954	5.81887601586e-11
955	6.97334335084e-14
956	4.82778860842e-11
957	6.24008260601e-14
958	4.37160884536e-11
959	6.08454491058e-14
960	7.90757297628e-11
961	6.95553238748e-14
962	1.2228278028e-10
963	8.16535237816e-14
964	1.74905643507e-10
965	9.29747189515e-14
966	2.05405430208e-10
967	9.04962280098e-14
968	1.75702011648e-10
969	8.70265709961e-14
970	1.0192998765e-10
971	8.94648209721e-14
972	1.23365382921e-10
973	1.11124106736e-13
974	2.04021900723e-10
975	1.62443751693e-13
976	3.0911231125e-10
977	2.32053913343e-13
978	4.36305137238e-10
979	2.97165385439e-13
980	4.89464558278e-10
981	3.3067796462e-13
982	5.74835424921e-10
983	3.33365839077e-13
984	7.96757048029e-10
985	3.54355248801e-13
986	1.63362178178e-09
987	5.36931478441e-13
988	2.74481535435e-09
989	8.11869343424e-13
990	3.07761572738e-09
991	1.06323081171e-12
992	4.1273038519e-09
993	1.2438294011e-12
994	6.74044373314e-09
995	1.22852459215e-12
996	5.30557332378e-09
997	9.22526900003e-13
998	8.94688536387e-09
999	1.40844698518e-12
1000	2.10680467149e-08
1001	2.30481529505e-12
1002	2.72712054174e-08
1003	3.26075446571e-12
1004	4.20986315364e-08
1005	5.51834637516e-12
1006	6.52752842988e-08
1007	6.41095965296e-12
1008	1.09978465402e-07
1009	1.10171422023e-11
1010	3.31259403099e-07
1011	2.15533907751e-11
1012	8.42913044541e-07
1013	2.70899366021e-11
1014	1.79815376903e-06
1015	6.34887007281e-11
1016	4.96204654585e-06
1017	9.68529476733e-11
1018	2.34100220736e-05
1019	7.88283166959e-10
1020	0.000794327612398
1021	6.38244269224e-09
1022	0.010279452526
1023	2.15233479848e-08
