0	0.78608840139
1	0.0232476561837
2	0.00363088458645
3	0.000880796273535
4	0.000236273100564
5	2.82010772925e-05
6	9.752330899e-06
7	6.43843848221e-06
8	2.41794025543e-06
9	1.08649513278e-06
10	7.59891670457e-07
11	8.40295424911e-07
12	5.82819412243e-07
13	6.4645879082e-07
14	3.33687020268e-07
15	2.18278642285e-07
16	1.70582708942e-07
17	9.34189275779e-08
18	1.04893662649e-07
19	7.10263733454e-08
20	5.12850075924e-08
21	4.36839549298e-08
22	4.890053098e-08
23	3.31062772292e-08
24	3.36607938243e-08
25	2.63195912413e-08
26	1.9259104749e-08
27	1.59240738891e-08
28	1.70019629007e-08
29	7.37848611092e-09
30	5.38304849194e-09
31	6.90694090801e-09
32	1.00060304227e-08
33	1.43583513095e-08
34	1.05661055155e-08
35	6.86423948363e-09
36	4.00668540258e-09
37	2.61547174773e-09
38	2.83186850668e-09
39	3.86585693748e-09
40	2.82479490103e-09
41	2.45142998302e-09
42	2.24209165519e-09
43	1.71594669373e-09
44	1.32415604891e-09
45	1.46993032324e-09
46	1.43245868885e-09
47	1.2552006524e-09
48	1.48766228134e-09
49	1.38185548374e-09
50	5.49242555527e-10
51	5.18319778967e-10
52	6.60729178859e-10
53	8.84592168816e-10
54	9.71580016256e-10
55	8.65649684969e-10
56	6.13343035437e-10
57	5.66970733477e-10
58	3.97678952646e-10
59	2.63001725859e-10
60	2.43966851933e-10
61	2.34129846725e-10
62	2.51304360637e-10
63	3.13646016773e-10
64	3.78732335252e-10
65	3.79620250991e-10
66	3.85722912429e-10
67	2.99961941472e-10
68	2.07198039824e-10
69	1.6481484108e-10
70	1.318369117e-10
71	1.31288751919e-10
72	1.06455210862e-10
73	1.12955574756e-10
74	1.28693762958e-10
75	1.51514245804e-10
76	1.22013162439e-10
77	8.00282531895e-11
78	6.85897067319e-11
79	8.67661394165e-11
80	1.09318426169e-10
81	6.54671421177e-11
82	5.73073605581e-11
83	3.82518105235e-11
84	3.9135838037e-11
85	3.938573145e-11
86	4.82068671539e-11
87	5.16460375747e-11
88	4.36350729271e-11
89	3.45805114799e-11
90	3.0129483703e-11
91	2.59757232723e-11
92	2.21841977035e-11
93	2.37968979168e-11
94	2.4583017355e-11
95	3.11644154039e-11
96	2.54177302397e-11
97	1.91825351502e-11
98	1.53531153349e-11
99	1.24152817978e-11
100	1.14346353474e-11
101	1.2327168827e-11
102	1.35107586403e-11
103	1.1451273818e-11
104	7.95368666378e-12
105	9.16041818045e-12
106	1.26180522718e-11
107	8.78165678813e-12
108	9.8498428135e-12
109	6.49124629867e-12
110	5.7494599577e-12
111	6.05618774397e-12
112	4.47359763423e-12
113	3.90738144966e-12
114	4.45569597452e-12
115	7.74226281387e-12
116	6.19387253586e-12
117	4.93597871745e-12
118	3.90126618899e-12
119	3.15475819249e-12
120	3.76194278742e-12
121	3.0245071209e-12
122	2.15283089439e-12
123	2.10121439045e-12
124	1.81716465367e-12
125	2.15931493573e-12
126	2.44767347729e-12
127	2.26148008437e-12
128	2.08886387378e-12
129	1.78494299037e-12
130	1.70324621573e-12
131	1.48561599716e-12
132	1.36345645656e-12
133	2.06617828191e-12
134	2.0692674068e-12
135	1.62343732848e-12
136	1.89335536098e-12
137	2.16970832841e-12
138	2.47643166626e-12
139	2.06273079748e-12
140	1.40425368407e-12
141	1.96935743896e-12
142	2.11229557961e-12
143	1.7178517155e-12
144	1.30911747873e-12
145	1.40861932027e-12
146	1.58009398789e-12
147	1.36699240682e-12
148	1.14570237485e-12
149	1.09409907744e-12
150	1.08062284893e-12
151	7.90344377145e-13
152	6.2962881402e-13
153	6.02337226241e-13
154	5.2033306322e-13
155	4.20180708851e-13
156	3.38772573345e-13
157	3.10564454058e-13
158	3.16463424634e-13
159	2.86857270011e-13
160	2.70134415767e-13
161	2.87010803057e-13
162	3.00199537902e-13
163	2.71739416711e-13
164	2.26634281393e-13
165	2.01949957835e-13
166	1.79568000694e-13
167	1.60691657724e-13
168	1.57393761028e-13
169	1.46970533461e-13
170	1.35350078536e-13
171	1.20872836786e-13
172	1.18967404864e-13
173	1.2100862521e-13
174	1.12011216617e-13
175	1.05980256798e-13
176	1.16131770581e-13
177	1.26901220773e-13
178	1.18693586377e-13
179	1.03526609522e-13
180	1.14035295388e-13
181	1.44475836725e-13
182	1.45873163337e-13
183	1.08584272655e-13
184	1.01086291928e-13
185	1.13609831602e-13
186	9.99803089409e-14
187	8.06535440871e-14
188	6.95764916916e-14
189	7.25709562957e-14
190	7.27485158389e-14
191	6.54426494177e-14
192	6.40960247483e-14
193	6.34965406691e-14
194	6.09362779798e-14
195	5.3755476285e-14
196	4.57098983879e-14
197	4.5210091592e-14
198	4.88171743565e-14
199	5.3702138533e-14
200	6.0600484762e-14
201	6.17647296256e-14
202	5.72915314178e-14
203	5.36997697413e-14
204	4.78302493679e-14
205	3.90424059293e-14
206	3.38397064769e-14
207	3.26814188333e-14
208	3.42241414031e-14
209	3.59396307529e-14
210	3.50122878428e-14
211	3.38647021725e-14
212	3.13203354268e-14
213	2.67512070698e-14
214	2.28069614725e-14
215	2.03491066164e-14
216	1.94475150103e-14
217	1.96663093487e-14
218	2.05800281913e-14
219	2.21567907607e-14
220	2.30919674337e-14
221	2.25513015667e-14
222	2.11608850668e-14
223	1.89582510329e-14
224	1.68652298097e-14
225	1.66490359127e-14
226	1.68415498288e-14
227	1.60312282891e-14
228	1.61221916582e-14
229	1.73999885858e-14
230	1.77940581078e-14
231	1.63372585233e-14
232	1.48073222115e-14
233	1.44768773828e-14
234	1.36154464165e-14
235	1.16240040589e-14
236	1.08977678985e-14
237	1.18817310299e-14
238	1.16987617212e-14
239	9.9386487688e-15
240	9.49005455733e-15
241	1.03199689189e-14
242	9.53168185651e-15
243	7.310307053e-15
244	6.39055259138e-15
245	7.06543453911e-15
246	7.10401637862e-15
247	5.69642294791e-15
248	4.86791736188e-15
249	5.68598322929e-15
250	6.16762295501e-15
251	5.09074908015e-15
252	4.04759176963e-15
253	4.45485044746e-15
254	5.08627682702e-15
255	4.34009187146e-15
256	3.32374023781e-15
257	3.73600548446e-15
258	4.68489581208e-15
259	4.35358827804e-15
260	3.23674433839e-15
261	3.26931227307e-15
262	4.11685189693e-15
263	3.81477549053e-15
264	2.67976909811e-15
265	2.4969845373e-15
266	3.13798112319e-15
267	3.09624522392e-15
268	2.27359545501e-15
269	1.99913685942e-15
270	2.41656549879e-15
271	2.37314690837e-15
272	1.75294228487e-15
273	1.44889852645e-15
274	1.61535224365e-15
275	1.59932892638e-15
276	1.23379609311e-15
277	1.03886083013e-15
278	1.14759360543e-15
279	1.1547560649e-15
280	9.45661908452e-16
281	8.00189573986e-16
282	8.2186001963e-16
283	8.08860727777e-16
284	6.74524522109e-16
285	5.82603683887e-16
286	6.06446160516e-16
287	6.15449226294e-16
288	5.46794567434e-16
289	5.0132287103e-16
290	5.19521372259e-16
291	5.08547382379e-16
292	4.4646452452e-16
293	4.16650638452e-16
294	4.29448755366e-16
295	4.16846112188e-16
296	3.77374119898e-16
297	3.7421551843e-16
298	4.00169267849e-16
299	3.84805414605e-16
300	3.42318672082e-16
301	3.42203387351e-16
302	3.61474249139e-16
303	3.37549728412e-16
304	2.97620073178e-16
305	3.0134219553e-16
306	3.24799950632e-16
307	3.10286132227e-16
308	2.75711714289e-16
309	2.73353019372e-16
310	2.88811541421e-16
311	2.75416241379e-16
312	2.43671511113e-16
313	2.36404606879e-16
314	2.49511049816e-16
315	2.45787955846e-16
316	2.24902957659e-16
317	2.1756252865e-16
318	2.26382234437e-16
319	2.24768696015e-16
320	2.07044783538e-16
321	1.95985123586e-16
322	2.00562233075e-16
323	2.02461641681e-16
324	1.91469015347e-16
325	1.82504732882e-16
326	1.86116390411e-16
327	1.89511717962e-16
328	1.80952758528e-16
329	1.70521628445e-16
330	1.70106954774e-16
331	1.7243429937e-16
332	1.6646091192e-16
333	1.57662892793e-16
334	1.56734241672e-16
335	1.59868359472e-16
336	1.56291767001e-16
337	1.47867692813e-16
338	1.44875368861e-16
339	1.46886351934e-16
340	1.4444162354e-16
341	1.36731129455e-16
342	1.32851070366e-16
343	1.35399552745e-16
344	1.35691723197e-16
345	1.29126087366e-16
346	1.23538753402e-16
347	1.25296234738e-16
348	1.27552890472e-16
349	1.22181264473e-16
350	1.14790947367e-16
351	1.15473843527e-16
352	1.20323093275e-16
353	1.17469294613e-16
354	1.08582237811e-16
355	1.06849454365e-16
356	1.13068842917e-16
357	1.13031642372e-16
358	1.03157585645e-16
359	9.82721248476e-17
360	1.05016342183e-16
361	1.08638828285e-16
362	9.93126703867e-17
363	9.0937074935e-17
364	9.64329102928e-17
365	1.03304076846e-16
366	9.57108899199e-17
367	8.41507334414e-17
368	8.70661606877e-17
369	9.662034485e-17
370	9.23035692971e-17
371	7.88448984858e-17
372	7.82172651103e-17
373	8.90445436832e-17
374	8.84621470498e-17
375	7.43447159475e-17
376	6.98020114718e-17
377	8.04963826267e-17
378	8.37583124664e-17
379	7.05667398044e-17
380	6.25759266024e-17
381	7.18878941574e-17
382	7.83348898748e-17
383	6.7036237483e-17
384	5.62203421601e-17
385	6.31483845848e-17
386	7.18776452551e-17
387	6.32457891756e-17
388	5.06933763548e-17
389	5.48205553019e-17
390	6.48543766009e-17
391	5.92024289797e-17
392	4.58772296757e-17
393	4.70069578885e-17
394	5.73452271792e-17
395	5.46581687227e-17
396	4.15319640864e-17
397	3.9926833882e-17
398	4.98120641365e-17
399	4.98641197497e-17
400	3.77174161241e-17
401	3.3757570082e-17
402	4.25345903297e-17
403	4.48606403194e-17
404	3.42371678227e-17
405	2.8455920932e-17
406	3.57157178054e-17
407	3.9808418549e-17
408	3.1094560994e-17
409	2.40649375742e-17
410	2.95282152703e-17
411	3.47954004103e-17
412	2.81603117651e-17
413	2.04527367957e-17
414	2.40079395522e-17
415	2.9871957521e-17
416	2.53502335754e-17
417	1.75404218337e-17
418	1.92418420661e-17
419	2.51499061556e-17
420	2.26005938998e-17
421	1.51895415587e-17
422	1.52252562381e-17
423	2.07063200336e-17
424	1.98684772171e-17
425	1.32638818803e-17
426	1.19504110793e-17
427	1.66565269206e-17
428	1.71661873847e-17
429	1.1647273184e-17
430	9.36409579414e-18
431	1.3072208564e-17
432	1.45257248488e-17
433	1.02274608746e-17
434	7.37541087808e-18
435	1.00164274758e-17
436	1.20064492376e-17
437	8.92835202252e-18
438	5.88574748676e-18
439	7.50252014276e-18
440	9.67155710235e-18
441	7.70434353357e-18
442	4.77543287492e-18
443	5.51132103215e-18
444	7.58255868628e-18
445	6.53653495695e-18
446	3.94334377406e-18
447	3.99383310415e-18
448	5.77800487886e-18
449	5.43158322292e-18
450	3.30042720457e-18
451	2.87766590903e-18
452	4.27874431994e-18
453	4.40755768427e-18
454	2.78118299769e-18
455	2.08624839083e-18
456	3.08066871969e-18
457	3.48517016614e-18
458	2.34314429265e-18
459	1.54196995889e-18
460	2.16125913926e-18
461	2.6822657995e-18
462	1.96028249734e-18
463	1.17678071152e-18
464	1.48545236103e-18
465	2.00798112258e-18
466	1.62023110274e-18
467	9.34570239793e-19
468	1.01047010613e-18
469	1.46246088157e-18
470	1.31752863254e-18
471	7.71503486547e-19
472	6.92997163608e-19
473	1.03871823901e-18
474	1.05153296223e-18
475	6.56139489348e-19
476	4.92708514487e-19
477	7.23589589769e-19
478	8.2330533757e-19
479	5.68136159143e-19
480	3.74238858191e-19
481	5.01271136856e-19
482	6.33872039457e-19
483	4.95311824387e-19
484	3.09504364797e-19
485	3.53713957015e-19
486	4.82849424067e-19
487	4.31676159427e-19
488	2.76931498151e-19
489	2.62935988444e-19
490	3.68164732055e-19
491	3.75225651403e-19
492	2.61438350594e-19
493	2.12938448563e-19
494	2.85469794864e-19
495	3.25956390363e-19
496	2.53786442844e-19
497	1.8978145708e-19
498	2.29831922728e-19
499	2.84492823861e-19
500	2.48948810519e-19
501	1.83095778065e-19
502	1.95129446291e-19
503	2.5145151037e-19
504	2.45229307962e-19
505	1.85857974811e-19
506	1.75691972803e-19
507	2.26333504086e-19
508	2.42730843338e-19
509	1.9441252561e-19
510	1.67104650506e-19
511	2.07754313984e-19
512	2.41864694227e-19
513	2.07754313985e-19
514	1.67104650532e-19
515	1.94412525601e-19
516	2.4273084334e-19
517	2.263335041e-19
518	1.75691972816e-19
519	1.85857974815e-19
520	2.45229307961e-19
521	2.51451510358e-19
522	1.95129446291e-19
523	1.83095778069e-19
524	2.48948810517e-19
525	2.84492823859e-19
526	2.29831922732e-19
527	1.89781457092e-19
528	2.53786442844e-19
529	3.25956390378e-19
530	2.85469794881e-19
531	2.12938448585e-19
532	2.61438350593e-19
533	3.75225651382e-19
534	3.68164732067e-19
535	2.62935988422e-19
536	2.76931498151e-19
537	4.31676159467e-19
538	4.82849424064e-19
539	3.53713956995e-19
540	3.0950436479e-19
541	4.95311824364e-19
542	6.33872039453e-19
543	5.01271136869e-19
544	3.74238858191e-19
545	5.68136159143e-19
546	8.23305337573e-19
547	7.23589589732e-19
548	4.92708514496e-19
549	6.5613948932e-19
550	1.05153296223e-18
551	1.03871823901e-18
552	6.92997163608e-19
553	7.71503486531e-19
554	1.31752863257e-18
555	1.46246088154e-18
556	1.01047010614e-18
557	9.34570239816e-19
558	1.6202311027e-18
559	2.00798112242e-18
560	1.48545236103e-18
561	1.17678071146e-18
562	1.96028249736e-18
563	2.68226579959e-18
564	2.16125913926e-18
565	1.54196995885e-18
566	2.34314429267e-18
567	3.4851701661e-18
568	3.08066871969e-18
569	2.08624839082e-18
570	2.78118299771e-18
571	4.40755768434e-18
572	4.27874431992e-18
573	2.87766590894e-18
574	3.30042720457e-18
575	5.43158322323e-18
576	5.77800487886e-18
577	3.9938331039e-18
578	3.94334377364e-18
579	6.53653495693e-18
580	7.58255868619e-18
581	5.51132103215e-18
582	4.77543287492e-18
583	7.70434353362e-18
584	9.67155710235e-18
585	7.50252014278e-18
586	5.88574748676e-18
587	8.92835202251e-18
588	1.20064492375e-17
589	1.00164274758e-17
590	7.37541087824e-18
591	1.02274608744e-17
592	1.45257248487e-17
593	1.30722085642e-17
594	9.36409579406e-18
595	1.16472731838e-17
596	1.71661873847e-17
597	1.66565269206e-17
598	1.19504110792e-17
599	1.32638818803e-17
600	1.98684772171e-17
601	2.07063200337e-17
602	1.5225256238e-17
603	1.51895415587e-17
604	2.26005938997e-17
605	2.51499061559e-17
606	1.92418420659e-17
607	1.7540421834e-17
608	2.53502335754e-17
609	2.9871957521e-17
610	2.40079395525e-17
611	2.04527367959e-17
612	2.81603117651e-17
613	3.47954004102e-17
614	2.95282152702e-17
615	2.40649375744e-17
616	3.1094560994e-17
617	3.98084185489e-17
618	3.57157178052e-17
619	2.84559209318e-17
620	3.42371678227e-17
621	4.48606403195e-17
622	4.25345903301e-17
623	3.37575700831e-17
624	3.77174161241e-17
625	4.98641197498e-17
626	4.98120641368e-17
627	3.99268338821e-17
628	4.15319640864e-17
629	5.46581687227e-17
630	5.73452271793e-17
631	4.70069578881e-17
632	4.58772296757e-17
633	5.92024289803e-17
634	6.4854376601e-17
635	5.48205553022e-17
636	5.06933763548e-17
637	6.32457891765e-17
638	7.18776452553e-17
639	6.31483845866e-17
640	5.62203421601e-17
641	6.70362374812e-17
642	7.83348898747e-17
643	7.1887894157e-17
644	6.25759266026e-17
645	7.05667398047e-17
646	8.37583124665e-17
647	8.04963826265e-17
648	6.98020114718e-17
649	7.43447159481e-17
650	8.84621470497e-17
651	8.90445436828e-17
652	7.82172651103e-17
653	7.88448984856e-17
654	9.23035692965e-17
655	9.66203448499e-17
656	8.70661606877e-17
657	8.41507334401e-17
658	9.57108899191e-17
659	1.03304076847e-16
660	9.64329102927e-17
661	9.09370749349e-17
662	9.9312670386e-17
663	1.08638828285e-16
664	1.05016342183e-16
665	9.82721248478e-17
666	1.03157585645e-16
667	1.13031642372e-16
668	1.13068842917e-16
669	1.06849454366e-16
670	1.0858223781e-16
671	1.17469294615e-16
672	1.20323093275e-16
673	1.15473843527e-16
674	1.14790947366e-16
675	1.22181264474e-16
676	1.27552890472e-16
677	1.25296234738e-16
678	1.23538753402e-16
679	1.29126087366e-16
680	1.35691723197e-16
681	1.35399552745e-16
682	1.32851070367e-16
683	1.36731129454e-16
684	1.44441623541e-16
685	1.46886351935e-16
686	1.44875368862e-16
687	1.47867692814e-16
688	1.56291767001e-16
689	1.5986835947e-16
690	1.56734241672e-16
691	1.57662892794e-16
692	1.6646091192e-16
693	1.7243429937e-16
694	1.70106954774e-16
695	1.70521628446e-16
696	1.80952758528e-16
697	1.89511717963e-16
698	1.86116390411e-16
699	1.82504732882e-16
700	1.91469015347e-16
701	2.02461641681e-16
702	2.00562233077e-16
703	1.95985123583e-16
704	2.07044783538e-16
705	2.24768696016e-16
706	2.26382234442e-16
707	2.1756252865e-16
708	2.24902957659e-16
709	2.45787955845e-16
710	2.49511049816e-16
711	2.3640460688e-16
712	2.43671511113e-16
713	2.75416241378e-16
714	2.88811541421e-16
715	2.73353019371e-16
716	2.75711714289e-16
717	3.10286132228e-16
718	3.24799950635e-16
719	3.01342195527e-16
720	2.97620073178e-16
721	3.3754972841e-16
722	3.61474249141e-16
723	3.42203387354e-16
724	3.42318672082e-16
725	3.84805414606e-16
726	4.00169267851e-16
727	3.74215518427e-16
728	3.77374119898e-16
729	4.16846112189e-16
730	4.29448755367e-16
731	4.16650638453e-16
732	4.46464524519e-16
733	5.08547382379e-16
734	5.19521372256e-16
735	5.01322871031e-16
736	5.46794567433e-16
737	6.15449226292e-16
738	6.06446160516e-16
739	5.82603683885e-16
740	6.74524522109e-16
741	8.08860727778e-16
742	8.21860019631e-16
743	8.00189573985e-16
744	9.45661908452e-16
745	1.1547560649e-15
746	1.14759360543e-15
747	1.03886083013e-15
748	1.23379609311e-15
749	1.59932892638e-15
750	1.61535224364e-15
751	1.44889852646e-15
752	1.75294228487e-15
753	2.37314690838e-15
754	2.41656549879e-15
755	1.99913685942e-15
756	2.27359545501e-15
757	3.09624522392e-15
758	3.13798112319e-15
759	2.4969845373e-15
760	2.67976909811e-15
761	3.81477549053e-15
762	4.11685189694e-15
763	3.26931227306e-15
764	3.23674433838e-15
765	4.35358827804e-15
766	4.68489581207e-15
767	3.73600548448e-15
768	3.32374023781e-15
769	4.34009187145e-15
770	5.086276827e-15
771	4.45485044745e-15
772	4.04759176962e-15
773	5.09074908016e-15
774	6.16762295501e-15
775	5.68598322931e-15
776	4.86791736188e-15
777	5.69642294791e-15
778	7.10401637862e-15
779	7.06543453911e-15
780	6.39055259138e-15
781	7.310307053e-15
782	9.53168185651e-15
783	1.03199689189e-14
784	9.49005455733e-15
785	9.9386487688e-15
786	1.16987617212e-14
787	1.18817310299e-14
788	1.08977678985e-14
789	1.16240040589e-14
790	1.36154464165e-14
791	1.44768773828e-14
792	1.48073222115e-14
793	1.63372585233e-14
794	1.77940581078e-14
795	1.73999885858e-14
796	1.61221916582e-14
797	1.60312282891e-14
798	1.68415498288e-14
799	1.66490359127e-14
800	1.68652298097e-14
801	1.89582510328e-14
802	2.11608850668e-14
803	2.25513015667e-14
804	2.30919674337e-14
805	2.21567907607e-14
806	2.05800281914e-14
807	1.96663093487e-14
808	1.94475150103e-14
809	2.03491066164e-14
810	2.28069614725e-14
811	2.67512070698e-14
812	3.13203354268e-14
813	3.38647021725e-14
814	3.50122878428e-14
815	3.59396307529e-14
816	3.42241414031e-14
817	3.26814188333e-14
818	3.38397064769e-14
819	3.90424059293e-14
820	4.78302493679e-14
821	5.36997697413e-14
822	5.72915314178e-14
823	6.17647296256e-14
824	6.0600484762e-14
825	5.3702138533e-14
826	4.88171743565e-14
827	4.5210091592e-14
828	4.57098983879e-14
829	5.3755476285e-14
830	6.09362779797e-14
831	6.34965406689e-14
832	6.40960247483e-14
833	6.54426494176e-14
834	7.27485158389e-14
835	7.25709562958e-14
836	6.95764916916e-14
837	8.06535440871e-14
838	9.99803089409e-14
839	1.13609831602e-13
840	1.01086291928e-13
841	1.08584272655e-13
842	1.45873163337e-13
843	1.44475836725e-13
844	1.14035295388e-13
845	1.03526609522e-13
846	1.18693586377e-13
847	1.26901220773e-13
848	1.16131770581e-13
849	1.05980256798e-13
850	1.12011216617e-13
851	1.2100862521e-13
852	1.18967404864e-13
853	1.20872836786e-13
854	1.35350078536e-13
855	1.46970533461e-13
856	1.57393761028e-13
857	1.60691657724e-13
858	1.79568000694e-13
859	2.01949957835e-13
860	2.26634281393e-13
861	2.71739416711e-13
862	3.00199537902e-13
863	2.87010803057e-13
864	2.70134415767e-13
865	2.86857270011e-13
866	3.16463424634e-13
867	3.10564454058e-13
868	3.38772573345e-13
869	4.20180708851e-13
870	5.2033306322e-13
871	6.02337226241e-13
872	6.2962881402e-13
873	7.90344377146e-13
874	1.08062284893e-12
875	1.09409907744e-12
876	1.14570237485e-12
877	1.36699240682e-12
878	1.58009398789e-12
879	1.40861932027e-12
880	1.30911747873e-12
881	1.7178517155e-12
882	2.11229557961e-12
883	1.96935743896e-12
884	1.40425368407e-12
885	2.06273079748e-12
886	2.47643166626e-12
887	2.16970832841e-12
888	1.89335536098e-12
889	1.62343732848e-12
890	2.0692674068e-12
891	2.06617828191e-12
892	1.36345645656e-12
893	1.48561599716e-12
894	1.70324621573e-12
895	1.78494299037e-12
896	2.08886387378e-12
897	2.26148008437e-12
898	2.44767347729e-12
899	2.15931493573e-12
900	1.81716465367e-12
901	2.10121439045e-12
902	2.15283089439e-12
903	3.0245071209e-12
904	3.76194278742e-12
905	3.15475819249e-12
906	3.90126618899e-12
907	4.93597871745e-12
908	6.19387253586e-12
909	7.74226281387e-12
910	4.45569597452e-12
911	3.90738144966e-12
912	4.47359763423e-12
913	6.05618774397e-12
914	5.7494599577e-12
915	6.49124629867e-12
916	9.8498428135e-12
917	8.78165678813e-12
918	1.26180522718e-11
919	9.16041818045e-12
920	7.95368666378e-12
921	1.1451273818e-11
922	1.35107586403e-11
923	1.2327168827e-11
924	1.14346353474e-11
925	1.24152817978e-11
926	1.53531153349e-11
927	1.91825351502e-11
928	2.54177302397e-11
929	3.11644154039e-11
930	2.4583017355e-11
931	2.37968979168e-11
932	2.21841977035e-11
933	2.59757232723e-11
934	3.0129483703e-11
935	3.45805114799e-11
936	4.36350729271e-11
937	5.16460375747e-11
938	4.82068671539e-11
939	3.938573145e-11
940	3.9135838037e-11
941	3.82518105235e-11
942	5.73073605581e-11
943	6.54671421177e-11
944	1.09318426169e-10
945	8.67661394165e-11
946	6.85897067319e-11
947	8.00282531895e-11
948	1.22013162439e-10
949	1.51514245804e-10
950	1.28693762958e-10
951	1.12955574756e-10
952	1.06455210862e-10
953	1.31288751919e-10
954	1.318369117e-10
955	1.6481484108e-10
956	2.07198039824e-10
957	2.99961941472e-10
958	3.85722912429e-10
959	3.79620250991e-10
960	3.78732335252e-10
961	3.13646016773e-10
962	2.51304360637e-10
963	2.34129846725e-10
964	2.43966851933e-10
965	2.63001725859e-10
966	3.97678952646e-10
967	5.66970733477e-10
968	6.13343035437e-10
969	8.65649684969e-10
970	9.71580016256e-10
971	8.84592168816e-10
972	6.60729178859e-10
973	5.18319778967e-10
974	5.49242555527e-10
975	1.38185548374e-09
976	1.48766228134e-09
977	1.2552006524e-09
978	1.43245868885e-09
979	1.46993032324e-09
980	1.32415604891e-09
981	1.71594669373e-09
982	2.24209165519e-09
983	2.45142998302e-09
984	2.82479490103e-09
985	3.86585693748e-09
986	2.83186850668e-09
987	2.61547174773e-09
988	4.00668540258e-09
989	6.86423948363e-09
990	1.05661055155e-08
991	1.43583513095e-08
992	1.00060304227e-08
993	6.90694090801e-09
994	5.38304849194e-09
995	7.37848611092e-09
996	1.70019629007e-08
997	1.59240738891e-08
998	1.9259104749e-08
999	2.63195912413e-08
1000	3.36607938243e-08
1001	3.31062772292e-08
1002	4.890053098e-08
1003	4.36839549298e-08
1004	5.12850075924e-08
1005	7.10263733454e-08
1006	1.04893662649e-07
1007	9.34189275779e-08
1008	1.70582708942e-07
1009	2.18278642285e-07
1010	3.33687020268e-07
1011	6.46458790819e-07
1012	5.82819412243e-07
1013	8.40295424911e-07
1014	7.59891670457e-07
1015	1.08649513278e-06
1016	2.41794025543e-06
1017	6.43843848221e-06
1018	9.752330899e-06
1019	2.82010772925e-05
1020	0.000236273100564
1021	0.000880796273535
1022	0.00363088458645
1023	0.0232476561837
