0	0.800711295794
1	0.0216762903735
2	0.00384852098441
3	0.00119619271688
4	0.000450173084
5	0.000120333342784
6	0.000113584109412
7	1.43451852931e-05
8	9.46856467486e-06
9	8.8777867922e-06
10	6.72639758963e-06
11	4.48191679555e-06
12	4.56946195155e-06
13	1.70668872546e-06
14	1.91178058766e-06
15	1.51366319344e-06
16	8.45086756057e-07
17	8.79224973166e-07
18	7.55235789474e-07
19	6.35821808992e-07
20	5.44273091636e-07
21	4.20173608777e-07
22	4.57319086786e-07
23	2.67904259655e-07
24	3.62477588354e-07
25	2.00927128009e-07
26	2.96315970878e-07
27	2.19414125302e-07
28	2.61929277891e-07
29	1.48028694719e-07
30	1.4814995051e-07
31	1.24605541124e-07
32	1.14207830689e-07
33	1.15974643151e-07
34	9.20405851109e-08
35	9.05045513938e-08
36	7.50849226086e-08
37	6.83070629229e-08
38	4.90542020866e-08
39	4.1782470494e-08
40	4.75571355769e-08
41	3.36302082833e-08
42	3.44016408803e-08
43	2.14002394243e-08
44	2.77279912791e-08
45	1.77852283318e-08
46	2.0723026777e-08
47	1.53226802515e-08
48	1.33159189615e-08
49	1.24935069756e-08
50	9.1625420499e-09
51	1.00741304513e-08
52	8.45409957766e-09
53	9.20664782107e-09
54	5.84963055e-09
55	6.52966008093e-09
56	5.35252244152e-09
57	5.5736946688e-09
58	4.21821761953e-09
59	4.5284799474e-09
60	4.42368527284e-09
61	3.60084512105e-09
62	3.94768263725e-09
63	3.04591035098e-09
64	3.89802743234e-09
65	3.17347579381e-09
66	3.27041208381e-09
67	2.65363266105e-09
68	2.50633413016e-09
69	2.62626771576e-09
70	2.29855359603e-09
71	2.75577177271e-09
72	1.80230272317e-09
73	2.21894554875e-09
74	1.70778075521e-09
75	2.26317736201e-09
76	1.62126883519e-09
77	1.73040920758e-09
78	1.65502662962e-09
79	1.45280895784e-09
80	1.51338034596e-09
81	1.10211633271e-09
82	1.43846799713e-09
83	1.08725218049e-09
84	1.17236551613e-09
85	9.03098664799e-10
86	8.66755288527e-10
87	9.09715944452e-10
88	7.21857906425e-10
89	8.29680351194e-10
90	5.53216189541e-10
91	6.64322224867e-10
92	4.15676428729e-10
93	5.61739322432e-10
94	3.84942437994e-10
95	4.12048186019e-10
96	3.25343549604e-10
97	3.07253700808e-10
98	3.05719668657e-10
99	2.30009327648e-10
100	2.54499228868e-10
101	1.83772524741e-10
102	2.03169075708e-10
103	1.49190969684e-10
104	1.5957019148e-10
105	1.31160921536e-10
106	1.31057041663e-10
107	1.06092614276e-10
108	1.09556263397e-10
109	1.01193855302e-10
110	9.98415522732e-11
111	9.43261676317e-11
112	9.09530461877e-11
113	8.84080246923e-11
114	9.03861040697e-11
115	9.11820080942e-11
116	8.98059505134e-11
117	8.44563204113e-11
118	8.73190674616e-11
119	9.06300885206e-11
120	9.67492136009e-11
121	9.24034199307e-11
122	9.08209326852e-11
123	9.80602323228e-11
124	9.06914535122e-11
125	1.0473908654e-10
126	9.27819958209e-11
127	1.10481849893e-10
128	9.2546666246e-11
129	1.06047382117e-10
130	9.41630144995e-11
131	1.10871894103e-10
132	9.74591698408e-11
133	1.0278846927e-10
134	9.8648864507e-11
135	9.30311550708e-11
136	1.04467387693e-10
137	8.32589420089e-11
138	1.08894417974e-10
139	7.63584958865e-11
140	9.93401300021e-11
141	7.28736591041e-11
142	9.11912825342e-11
143	7.47646708473e-11
144	7.81591505541e-11
145	7.31433292513e-11
146	6.53811671077e-11
147	7.11101349675e-11
148	5.32281999106e-11
149	6.95224007962e-11
150	4.52510913136e-11
151	6.10688025041e-11
152	3.90289459067e-11
153	5.10116553946e-11
154	3.88397180571e-11
155	3.98197481848e-11
156	3.68713486352e-11
157	3.00524978036e-11
158	3.40731494622e-11
159	2.32528597353e-11
160	3.05787560317e-11
161	1.91113095337e-11
162	2.57707281451e-11
163	1.5914505326e-11
164	2.0684949966e-11
165	1.5029863291e-11
166	1.62257273919e-11
167	1.42278690934e-11
168	1.22753588257e-11
169	1.30957455261e-11
170	9.6022275366e-12
171	1.19611094118e-11
172	8.31069555704e-12
173	1.06190269267e-11
174	7.18369800007e-12
175	9.02765224838e-12
176	6.70678142936e-12
177	7.98067785645e-12
178	6.56191257581e-12
179	6.82905860449e-12
180	6.27201163752e-12
181	5.74241085505e-12
182	6.13409066243e-12
183	5.07298793572e-12
184	6.02022547807e-12
185	4.44557489298e-12
186	5.51834451996e-12
187	4.01832502056e-12
188	4.98036890694e-12
189	3.93001544151e-12
190	4.29074046945e-12
191	3.88196164631e-12
192	3.49774321092e-12
193	3.70541948316e-12
194	2.86552475242e-12
195	3.52734336622e-12
196	2.5082430473e-12
197	3.05709669533e-12
198	2.20417926715e-12
199	2.48738275579e-12
200	2.09677292153e-12
201	1.94304520543e-12
202	1.97244794497e-12
203	1.4791642806e-12
204	1.7156055366e-12
205	1.15601668829e-12
206	1.40678815952e-12
207	1.00995714544e-12
208	1.07773098986e-12
209	8.79148990727e-13
210	7.95915056865e-13
211	7.50095171387e-13
212	5.99978693754e-13
213	6.34239429005e-13
214	4.8223206947e-13
215	5.13060082164e-13
216	3.88539275473e-13
217	4.16880723755e-13
218	3.37310454304e-13
219	3.46003120294e-13
220	3.06884547195e-13
221	3.10284157333e-13
222	2.86587277977e-13
223	2.80883607163e-13
224	2.72720259151e-13
225	2.76730117341e-13
226	2.718343778e-13
227	2.86960522142e-13
228	2.78750148317e-13
229	2.96291165621e-13
230	2.77550319746e-13
231	3.03985686767e-13
232	3.03846628739e-13
233	3.16372505864e-13
234	3.23807066136e-13
235	3.17489524096e-13
236	3.45037023157e-13
237	3.18392461057e-13
238	3.69565034398e-13
239	3.25626093879e-13
240	3.98376556116e-13
241	3.18121998252e-13
242	4.07716346699e-13
243	3.30552193628e-13
244	4.07070996486e-13
245	3.57534849337e-13
246	3.7989828836e-13
247	3.94512733501e-13
248	3.41295085644e-13
249	4.18853083555e-13
250	3.13534313388e-13
251	4.32638333078e-13
252	2.96585437583e-13
253	4.15034148281e-13
254	2.92761485938e-13
255	3.77396226168e-13
256	3.03565143114e-13
257	3.22764707393e-13
258	3.2245662772e-13
259	2.60602059156e-13
260	3.26720492968e-13
261	2.10505503787e-13
262	3.13746785038e-13
263	1.8386599861e-13
264	2.7687712301e-13
265	1.73906434611e-13
266	2.26333643293e-13
267	1.70481245622e-13
268	1.75321833612e-13
269	1.69420036936e-13
270	1.33288540227e-13
271	1.61585833057e-13
272	9.98263636898e-14
273	1.46065387415e-13
274	8.01109561941e-14
275	1.26573756152e-13
276	7.20106587564e-14
277	1.0394093251e-13
278	6.78699964631e-14
279	8.15075358059e-14
280	6.69050049182e-14
281	6.56563847213e-14
282	6.67915787998e-14
283	5.36363603661e-14
284	6.43678743426e-14
285	4.47113664062e-14
286	6.19213560679e-14
287	4.08966451266e-14
288	5.96907037837e-14
289	3.90201563597e-14
290	5.46854893031e-14
291	3.8525389669e-14
292	4.95104082874e-14
293	4.07654001897e-14
294	4.45610514352e-14
295	4.2406037088e-14
296	3.85903239695e-14
297	4.27643332442e-14
298	3.42858583564e-14
299	4.27650350108e-14
300	3.16839085362e-14
301	4.03582526205e-14
302	2.9571769307e-14
303	3.61106627046e-14
304	2.90231238875e-14
305	3.18184900433e-14
306	2.89480246832e-14
307	2.71571587411e-14
308	2.75961897089e-14
309	2.32356885104e-14
310	2.57557466424e-14
311	2.09495269797e-14
312	2.32226231645e-14
313	1.91135147719e-14
314	1.99937764117e-14
315	1.75207674477e-14
316	1.72448816469e-14
317	1.62903017711e-14
318	1.50903204381e-14
319	1.46820993965e-14
320	1.31046943496e-14
321	1.29399391827e-14
322	1.17263964255e-14
323	1.15392797474e-14
324	1.06301691053e-14
325	1.0151436009e-14
326	9.43182918148e-15
327	8.92901628669e-15
328	8.50610534578e-15
329	8.09733587335e-15
330	7.70157919545e-15
331	7.25769411222e-15
332	6.878661801e-15
333	6.53538788479e-15
334	6.26936722626e-15
335	5.99925526798e-15
336	5.75726556201e-15
337	5.47250068273e-15
338	5.23772540557e-15
339	5.00949619921e-15
340	4.82994177914e-15
341	4.66210216509e-15
342	4.48921017286e-15
343	4.32210364412e-15
344	4.14213566146e-15
345	3.98665211628e-15
346	3.86238224673e-15
347	3.73468076918e-15
348	3.62277066406e-15
349	3.48338813418e-15
350	3.35181325606e-15
351	3.24814957181e-15
352	3.11926509284e-15
353	3.05979974927e-15
354	2.91459004285e-15
355	2.85680515212e-15
356	2.70831575359e-15
357	2.64618145758e-15
358	2.53706994982e-15
359	2.45154566159e-15
360	2.38452681313e-15
361	2.25772685527e-15
362	2.21968071468e-15
363	2.07329374546e-15
364	2.0492800177e-15
365	1.92258685072e-15
366	1.87303007081e-15
367	1.7872334815e-15
368	1.68633782604e-15
369	1.6479475054e-15
370	1.51235585053e-15
371	1.50834046693e-15
372	1.36673123919e-15
373	1.35520550139e-15
374	1.23691792559e-15
375	1.19304329593e-15
376	1.12160605057e-15
377	1.03986812993e-15
378	1.01717939254e-15
379	9.05750167836e-16
380	9.10396345816e-16
381	7.89190656467e-16
382	8.02008329941e-16
383	6.9848888146e-16
384	7.02909509026e-16
385	6.27728611983e-16
386	6.11534787863e-16
387	5.67790335598e-16
388	5.33744596032e-16
389	5.19604459826e-16
390	4.74027035309e-16
391	4.81804400402e-16
392	4.29216098091e-16
393	4.49027234591e-16
394	3.94576591228e-16
395	4.23126367644e-16
396	3.74150810284e-16
397	4.03351282463e-16
398	3.61762899423e-16
399	3.83849145941e-16
400	3.55326282637e-16
401	3.65278362166e-16
402	3.55497075654e-16
403	3.4805233935e-16
404	3.57620677651e-16
405	3.29823059658e-16
406	3.56553596132e-16
407	3.13723869495e-16
408	3.51522163512e-16
409	3.03000010599e-16
410	3.38668276782e-16
411	2.95638466737e-16
412	3.16746936866e-16
413	2.91183582232e-16
414	2.906090133e-16
415	2.87676229192e-16
416	2.63629935201e-16
417	2.78869662429e-16
418	2.38822983697e-16
419	2.63607878841e-16
420	2.20150800033e-16
421	2.42502091562e-16
422	2.06717218026e-16
423	2.16463477851e-16
424	1.95400190384e-16
425	1.89718149227e-16
426	1.84636903851e-16
427	1.66540470284e-16
428	1.71929150749e-16
429	1.47226156069e-16
430	1.5622318092e-16
431	1.32896073884e-16
432	1.39443968501e-16
433	1.22237378626e-16
434	1.2309157198e-16
435	1.13253745054e-16
436	1.08135692353e-16
437	1.04635655312e-16
438	9.62983286977e-17
439	9.65251510527e-17
440	8.70450248471e-17
441	8.81833487118e-17
442	7.98811517005e-17
443	8.0458475121e-17
444	7.42514054839e-17
445	7.37161238632e-17
446	6.96982180527e-17
447	6.80175342859e-17
448	6.54246164024e-17
449	6.3145126211e-17
450	6.1794885543e-17
451	5.93481656386e-17
452	5.84726243663e-17
453	5.59933051797e-17
454	5.53544806482e-17
455	5.30747128682e-17
456	5.25837998299e-17
457	5.05393247409e-17
458	4.99841866132e-17
459	4.81457163595e-17
460	4.74675799513e-17
461	4.58504644385e-17
462	4.50061220633e-17
463	4.37503748526e-17
464	4.26456313326e-17
465	4.15979411357e-17
466	4.01925726166e-17
467	3.9505669105e-17
468	3.78548936168e-17
469	3.7330846114e-17
470	3.55848850096e-17
471	3.51272325095e-17
472	3.33933165449e-17
473	3.27832251303e-17
474	3.13199170506e-17
475	3.05100332299e-17
476	2.93245441719e-17
477	2.82347757155e-17
478	2.73422360265e-17
479	2.61286404359e-17
480	2.53839373481e-17
481	2.41863395339e-17
482	2.34682225276e-17
483	2.24293966987e-17
484	2.1621070219e-17
485	2.08193195353e-17
486	1.99143625984e-17
487	1.93407913932e-17
488	1.84051271712e-17
489	1.79751241789e-17
490	1.70654885902e-17
491	1.67246192349e-17
492	1.59359730618e-17
493	1.56015200101e-17
494	1.49636834673e-17
495	1.46368930903e-17
496	1.41187797119e-17
497	1.38195824149e-17
498	1.34173679805e-17
499	1.31470877714e-17
500	1.28151105093e-17
501	1.26171181977e-17
502	1.23298809276e-17
503	1.21939623757e-17
504	1.19510805975e-17
505	1.18592437137e-17
506	1.1675240993e-17
507	1.16387538893e-17
508	1.14724953346e-17
509	1.1459873069e-17
510	1.13874636108e-17
511	1.13937529061e-17
512	1.1321608761e-17
513	1.13937529076e-17
514	1.13874636111e-17
515	1.14598730691e-17
516	1.14724953352e-17
517	1.16387538892e-17
518	1.16752409928e-17
519	1.18592437132e-17
520	1.19510805976e-17
521	1.21939623759e-17
522	1.23298809276e-17
523	1.26171181977e-17
524	1.28151105093e-17
525	1.31470877713e-17
526	1.34173679798e-17
527	1.38195824148e-17
528	1.41187797119e-17
529	1.46368930906e-17
530	1.49636834674e-17
531	1.56015200103e-17
532	1.59359730618e-17
533	1.67246192353e-17
534	1.70654885902e-17
535	1.79751241786e-17
536	1.84051271712e-17
537	1.93407913933e-17
538	1.99143625987e-17
539	2.08193195348e-17
540	2.1621070219e-17
541	2.24293966984e-17
542	2.34682225274e-17
543	2.4186339535e-17
544	2.53839373481e-17
545	2.61286404367e-17
546	2.73422360263e-17
547	2.82347757169e-17
548	2.93245441716e-17
549	3.05100332301e-17
550	3.13199170504e-17
551	3.278322513e-17
552	3.33933165449e-17
553	3.51272325094e-17
554	3.55848850096e-17
555	3.73308461143e-17
556	3.78548936168e-17
557	3.95056691055e-17
558	4.01925726163e-17
559	4.1597941135e-17
560	4.26456313326e-17
561	4.37503748552e-17
562	4.50061220634e-17
563	4.58504644387e-17
564	4.74675799511e-17
565	4.8145716359e-17
566	4.99841866129e-17
567	5.05393247413e-17
568	5.25837998298e-17
569	5.30747128685e-17
570	5.53544806481e-17
571	5.59933051795e-17
572	5.84726243658e-17
573	5.93481656377e-17
574	6.17948855411e-17
575	6.3145126206e-17
576	6.54246164024e-17
577	6.80175342845e-17
578	6.96982180538e-17
579	7.37161238649e-17
580	7.42514054831e-17
581	8.04584751202e-17
582	7.98811517e-17
583	8.81833487122e-17
584	8.70450248468e-17
585	9.65251510521e-17
586	9.62983286976e-17
587	1.04635655312e-16
588	1.08135692353e-16
589	1.13253745054e-16
590	1.2309157198e-16
591	1.22237378628e-16
592	1.394439685e-16
593	1.32896073886e-16
594	1.5622318092e-16
595	1.47226156067e-16
596	1.71929150749e-16
597	1.66540470283e-16
598	1.84636903851e-16
599	1.89718149226e-16
600	1.95400190384e-16
601	2.16463477852e-16
602	2.06717218025e-16
603	2.42502091562e-16
604	2.20150800033e-16
605	2.63607878841e-16
606	2.38822983697e-16
607	2.78869662431e-16
608	2.63629935201e-16
609	2.87676229193e-16
610	2.90609013301e-16
611	2.91183582232e-16
612	3.16746936865e-16
613	2.95638466735e-16
614	3.38668276782e-16
615	3.03000010597e-16
616	3.51522163512e-16
617	3.13723869494e-16
618	3.56553596132e-16
619	3.29823059658e-16
620	3.57620677651e-16
621	3.48052339349e-16
622	3.55497075655e-16
623	3.65278362168e-16
624	3.55326282638e-16
625	3.8384914594e-16
626	3.61762899422e-16
627	4.03351282461e-16
628	3.74150810283e-16
629	4.23126367645e-16
630	3.94576591229e-16
631	4.49027234591e-16
632	4.29216098091e-16
633	4.81804400402e-16
634	4.74027035309e-16
635	5.19604459828e-16
636	5.33744596034e-16
637	5.67790335594e-16
638	6.1153478787e-16
639	6.27728611976e-16
640	7.02909509026e-16
641	6.9848888146e-16
642	8.02008329938e-16
643	7.89190656463e-16
644	9.10396345816e-16
645	9.05750167833e-16
646	1.01717939254e-15
647	1.03986812993e-15
648	1.12160605057e-15
649	1.19304329593e-15
650	1.23691792559e-15
651	1.35520550139e-15
652	1.36673123919e-15
653	1.50834046693e-15
654	1.51235585053e-15
655	1.6479475054e-15
656	1.68633782604e-15
657	1.78723348149e-15
658	1.87303007082e-15
659	1.92258685071e-15
660	2.0492800177e-15
661	2.07329374546e-15
662	2.21968071468e-15
663	2.25772685527e-15
664	2.38452681313e-15
665	2.45154566159e-15
666	2.53706994981e-15
667	2.64618145758e-15
668	2.70831575359e-15
669	2.85680515211e-15
670	2.91459004284e-15
671	3.05979974927e-15
672	3.11926509284e-15
673	3.24814957181e-15
674	3.35181325606e-15
675	3.48338813418e-15
676	3.62277066405e-15
677	3.73468076919e-15
678	3.86238224673e-15
679	3.98665211629e-15
680	4.14213566146e-15
681	4.32210364412e-15
682	4.48921017285e-15
683	4.6621021651e-15
684	4.82994177915e-15
685	5.00949619921e-15
686	5.23772540557e-15
687	5.47250068274e-15
688	5.75726556201e-15
689	5.99925526798e-15
690	6.26936722624e-15
691	6.53538788479e-15
692	6.87866180101e-15
693	7.25769411222e-15
694	7.70157919545e-15
695	8.09733587335e-15
696	8.50610534578e-15
697	8.92901628668e-15
698	9.43182918149e-15
699	1.0151436009e-14
700	1.06301691053e-14
701	1.15392797474e-14
702	1.17263964255e-14
703	1.29399391827e-14
704	1.31046943496e-14
705	1.46820993965e-14
706	1.50903204382e-14
707	1.62903017711e-14
708	1.72448816469e-14
709	1.75207674477e-14
710	1.99937764117e-14
711	1.91135147719e-14
712	2.32226231645e-14
713	2.09495269797e-14
714	2.57557466424e-14
715	2.32356885104e-14
716	2.75961897089e-14
717	2.71571587411e-14
718	2.89480246832e-14
719	3.18184900433e-14
720	2.90231238875e-14
721	3.61106627046e-14
722	2.9571769307e-14
723	4.03582526205e-14
724	3.16839085362e-14
725	4.27650350108e-14
726	3.42858583564e-14
727	4.27643332442e-14
728	3.85903239695e-14
729	4.2406037088e-14
730	4.45610514352e-14
731	4.07654001897e-14
732	4.95104082874e-14
733	3.85253896691e-14
734	5.46854893031e-14
735	3.90201563598e-14
736	5.96907037837e-14
737	4.08966451266e-14
738	6.19213560678e-14
739	4.47113664061e-14
740	6.43678743426e-14
741	5.36363603661e-14
742	6.67915787998e-14
743	6.56563847213e-14
744	6.69050049182e-14
745	8.15075358059e-14
746	6.78699964631e-14
747	1.0394093251e-13
748	7.20106587564e-14
749	1.26573756152e-13
750	8.01109561941e-14
751	1.46065387415e-13
752	9.98263636898e-14
753	1.61585833057e-13
754	1.33288540227e-13
755	1.69420036936e-13
756	1.75321833612e-13
757	1.70481245622e-13
758	2.26333643293e-13
759	1.73906434611e-13
760	2.7687712301e-13
761	1.8386599861e-13
762	3.13746785038e-13
763	2.10505503787e-13
764	3.26720492968e-13
765	2.60602059156e-13
766	3.2245662772e-13
767	3.22764707393e-13
768	3.03565143114e-13
769	3.77396226168e-13
770	2.92761485938e-13
771	4.15034148281e-13
772	2.96585437583e-13
773	4.32638333078e-13
774	3.13534313388e-13
775	4.18853083555e-13
776	3.41295085644e-13
777	3.94512733501e-13
778	3.7989828836e-13
779	3.57534849337e-13
780	4.07070996486e-13
781	3.30552193628e-13
782	4.07716346699e-13
783	3.18121998252e-13
784	3.98376556116e-13
785	3.25626093879e-13
786	3.69565034398e-13
787	3.18392461057e-13
788	3.45037023157e-13
789	3.17489524096e-13
790	3.23807066136e-13
791	3.16372505864e-13
792	3.03846628739e-13
793	3.03985686767e-13
794	2.77550319746e-13
795	2.96291165621e-13
796	2.78750148316e-13
797	2.86960522142e-13
798	2.718343778e-13
799	2.76730117341e-13
800	2.72720259151e-13
801	2.80883607164e-13
802	2.86587277977e-13
803	3.10284157333e-13
804	3.06884547195e-13
805	3.46003120294e-13
806	3.37310454304e-13
807	4.16880723755e-13
808	3.88539275473e-13
809	5.13060082164e-13
810	4.8223206947e-13
811	6.34239429005e-13
812	5.99978693754e-13
813	7.50095171387e-13
814	7.95915056865e-13
815	8.79148990727e-13
816	1.07773098986e-12
817	1.00995714544e-12
818	1.40678815952e-12
819	1.15601668829e-12
820	1.7156055366e-12
821	1.4791642806e-12
822	1.97244794497e-12
823	1.94304520543e-12
824	2.09677292153e-12
825	2.48738275579e-12
826	2.20417926715e-12
827	3.05709669533e-12
828	2.5082430473e-12
829	3.52734336622e-12
830	2.86552475242e-12
831	3.70541948316e-12
832	3.49774321092e-12
833	3.88196164631e-12
834	4.29074046945e-12
835	3.93001544151e-12
836	4.98036890694e-12
837	4.01832502056e-12
838	5.51834451996e-12
839	4.44557489298e-12
840	6.02022547807e-12
841	5.07298793572e-12
842	6.13409066243e-12
843	5.74241085505e-12
844	6.27201163752e-12
845	6.82905860449e-12
846	6.56191257581e-12
847	7.98067785645e-12
848	6.70678142936e-12
849	9.02765224838e-12
850	7.18369800007e-12
851	1.06190269267e-11
852	8.31069555704e-12
853	1.19611094118e-11
854	9.6022275366e-12
855	1.30957455261e-11
856	1.22753588257e-11
857	1.42278690934e-11
858	1.62257273919e-11
859	1.5029863291e-11
860	2.0684949966e-11
861	1.5914505326e-11
862	2.57707281451e-11
863	1.91113095337e-11
864	3.05787560317e-11
865	2.32528597353e-11
866	3.40731494622e-11
867	3.00524978036e-11
868	3.68713486352e-11
869	3.98197481848e-11
870	3.88397180571e-11
871	5.10116553946e-11
872	3.90289459067e-11
873	6.10688025041e-11
874	4.52510913136e-11
875	6.95224007962e-11
876	5.32281999106e-11
877	7.11101349675e-11
878	6.53811671077e-11
879	7.31433292513e-11
880	7.81591505541e-11
881	7.47646708473e-11
882	9.11912825342e-11
883	7.28736591041e-11
884	9.93401300021e-11
885	7.63584958865e-11
886	1.08894417974e-10
887	8.32589420089e-11
888	1.04467387693e-10
889	9.30311550708e-11
890	9.8648864507e-11
891	1.0278846927e-10
892	9.74591698408e-11
893	1.10871894103e-10
894	9.41630144995e-11
895	1.06047382117e-10
896	9.2546666246e-11
897	1.10481849893e-10
898	9.27819958209e-11
899	1.0473908654e-10
900	9.06914535122e-11
901	9.80602323228e-11
902	9.08209326852e-11
903	9.24034199307e-11
904	9.67492136009e-11
905	9.06300885206e-11
906	8.73190674616e-11
907	8.44563204113e-11
908	8.98059505134e-11
909	9.11820080942e-11
910	9.03861040697e-11
911	8.84080246923e-11
912	9.09530461877e-11
913	9.43261676317e-11
914	9.98415522732e-11
915	1.01193855302e-10
916	1.09556263397e-10
917	1.06092614276e-10
918	1.31057041663e-10
919	1.31160921536e-10
920	1.5957019148e-10
921	1.49190969684e-10
922	2.03169075708e-10
923	1.83772524741e-10
924	2.54499228868e-10
925	2.30009327648e-10
926	3.05719668657e-10
927	3.07253700808e-10
928	3.25343549604e-10
929	4.12048186019e-10
930	3.84942437994e-10
931	5.61739322432e-10
932	4.15676428729e-10
933	6.64322224867e-10
934	5.53216189541e-10
935	8.29680351194e-10
936	7.21857906425e-10
937	9.09715944452e-10
938	8.66755288527e-10
939	9.03098664799e-10
940	1.17236551613e-09
941	1.08725218049e-09
942	1.43846799713e-09
943	1.10211633271e-09
944	1.51338034596e-09
945	1.45280895784e-09
946	1.65502662962e-09
947	1.73040920758e-09
948	1.62126883519e-09
949	2.26317736201e-09
950	1.70778075521e-09
951	2.21894554875e-09
952	1.80230272317e-09
953	2.75577177271e-09
954	2.29855359603e-09
955	2.62626771576e-09
956	2.50633413016e-09
957	2.65363266105e-09
958	3.27041208381e-09
959	3.17347579381e-09
960	3.89802743234e-09
961	3.04591035098e-09
962	3.94768263725e-09
963	3.60084512105e-09
964	4.42368527284e-09
965	4.5284799474e-09
966	4.21821761953e-09
967	5.5736946688e-09
968	5.35252244152e-09
969	6.52966008093e-09
970	5.84963055e-09
971	9.20664782107e-09
972	8.45409957766e-09
973	1.00741304513e-08
974	9.1625420499e-09
975	1.24935069756e-08
976	1.33159189615e-08
977	1.53226802515e-08
978	2.0723026777e-08
979	1.77852283318e-08
980	2.77279912791e-08
981	2.14002394243e-08
982	3.44016408803e-08
983	3.36302082833e-08
984	4.75571355769e-08
985	4.1782470494e-08
986	4.90542020866e-08
987	6.83070629229e-08
988	7.50849226086e-08
989	9.05045513938e-08
990	9.20405851109e-08
991	1.15974643151e-07
992	1.14207830689e-07
993	1.24605541124e-07
994	1.4814995051e-07
995	1.48028694719e-07
996	2.61929277891e-07
997	2.19414125302e-07
998	2.96315970878e-07
999	2.00927128009e-07
1000	3.62477588354e-07
1001	2.67904259655e-07
1002	4.57319086786e-07
1003	4.20173608777e-07
1004	5.44273091636e-07
1005	6.35821808992e-07
1006	7.55235789474e-07
1007	8.79224973166e-07
1008	8.45086756057e-07
1009	1.51366319344e-06
1010	1.91178058766e-06
1011	1.70668872546e-06
1012	4.56946195155e-06
1013	4.48191679555e-06
1014	6.72639758963e-06
1015	8.8777867922e-06
1016	9.46856467486e-06
1017	1.43451852931e-05
1018	0.000113584109412
1019	0.000120333342784
1020	0.000450173084
1021	0.00119619271688
1022	0.00384852098441
1023	0.0216762903735
