0	0.775049985386
1	0.0239656171429
2	0.0036996740746
3	0.000894634293233
4	0.000196014406453
5	2.85755647441e-05
6	3.38182556539e-06
7	5.0081181118e-06
8	3.40497316951e-06
9	2.25190828443e-06
10	1.52651959732e-06
11	8.35543010832e-07
12	5.7793708681e-07
13	4.04718454179e-07
14	2.45460735383e-07
15	1.60345746319e-07
16	9.34585829474e-08
17	7.68400764593e-08
18	1.00244346767e-07
19	9.11668991676e-08
20	6.31889825895e-08
21	4.94470809674e-08
22	3.73261103614e-08
23	2.90614408639e-08
24	3.28757845596e-08
25	2.69534836863e-08
26	2.47557188279e-08
27	1.76812840513e-08
28	1.36461218121e-08
29	1.10650525762e-08
30	9.32390640504e-09
31	8.00378886051e-09
32	5.62139706666e-09
33	5.28367062544e-09
34	4.51481178226e-09
35	3.92646735107e-09
36	5.93363241733e-09
37	3.0294106153e-09
38	2.72278888452e-09
39	3.85686942968e-09
40	3.562424395e-09
41	4.0477925368e-09
42	2.21796297037e-09
43	1.98439576844e-09
44	2.36674027705e-09
45	2.05340420282e-09
46	2.34483775323e-09
47	1.3795289946e-09
48	8.95363091293e-10
49	1.15755030478e-09
50	1.36501084768e-09
51	1.58889311254e-09
52	1.31951992056e-09
53	1.07353738168e-09
54	9.17752411127e-10
55	6.88855979029e-10
56	6.41671432939e-10
57	8.70164401276e-10
58	8.69263670347e-10
59	8.44722012573e-10
60	5.88365200513e-10
61	4.15186799285e-10
62	4.80085997249e-10
63	4.76230600665e-10
64	4.25525623123e-10
65	2.75119594864e-10
66	2.97430973761e-10
67	2.24119072227e-10
68	2.29880262997e-10
69	2.54423802242e-10
70	2.1092578087e-10
71	2.60056758462e-10
72	2.58900122516e-10
73	2.33691991471e-10
74	1.43775426036e-10
75	1.65410552872e-10
76	2.49662072471e-10
77	1.88131928934e-10
78	1.80903208074e-10
79	1.83372125149e-10
80	1.70651487807e-10
81	1.91343929709e-10
82	1.78188269759e-10
83	1.73976219382e-10
84	1.37849876449e-10
85	8.1797387502e-11
86	8.39346789828e-11
87	1.02452785551e-10
88	1.18197160502e-10
89	8.15248389817e-11
90	5.66243655446e-11
91	5.41837438101e-11
92	3.75973070794e-11
93	4.25505903667e-11
94	5.17869215722e-11
95	5.58444263946e-11
96	4.19872597393e-11
97	3.3707783048e-11
98	3.56986460739e-11
99	4.08255903623e-11
100	4.15800413903e-11
101	3.79145515812e-11
102	3.99973859536e-11
103	3.03672773592e-11
104	2.1730686652e-11
105	1.70875746861e-11
106	2.01821907504e-11
107	2.50747211574e-11
108	2.47561545257e-11
109	1.66674794077e-11
110	1.19051308255e-11
111	1.34610087604e-11
112	1.54861217152e-11
113	1.97594184882e-11
114	1.74290227134e-11
115	1.3220565996e-11
116	9.84545545997e-12
117	8.6816100155e-12
118	1.16392632677e-11
119	1.55749964017e-11
120	1.44766352498e-11
121	1.12544496238e-11
122	7.8991520146e-12
123	8.94227242209e-12
124	1.04694706995e-11
125	9.28884418724e-12
126	9.99757462462e-12
127	8.13449159447e-12
128	6.00248977098e-12
129	6.18503243635e-12
130	6.0828330272e-12
131	6.40157737426e-12
132	7.20420570379e-12
133	5.86536458277e-12
134	4.27210291334e-12
135	3.92103051294e-12
136	4.3042997734e-12
137	5.57192757284e-12
138	5.85123646023e-12
139	5.10703044297e-12
140	3.47967402809e-12
141	3.17966585579e-12
142	3.82602802806e-12
143	4.18064774113e-12
144	4.50542075744e-12
145	3.93634605559e-12
146	3.20545328961e-12
147	2.62124135368e-12
148	2.89106026713e-12
149	3.43225543801e-12
150	3.56968324077e-12
151	3.20858037072e-12
152	2.44866035391e-12
153	2.88753105312e-12
154	2.70627418772e-12
155	2.24984792189e-12
156	2.04265341679e-12
157	1.77829387678e-12
158	1.92240577432e-12
159	1.35016367962e-12
160	1.26267637262e-12
161	1.26637397307e-12
162	1.23452845683e-12
163	1.14296798129e-12
164	1.04827962285e-12
165	1.28893665442e-12
166	1.0932497861e-12
167	9.18844278775e-13
168	8.44179483058e-13
169	1.05395925169e-12
170	9.3243114401e-13
171	7.53698292739e-13
172	8.4389806513e-13
173	8.04675117268e-13
174	7.79229854766e-13
175	5.75743519433e-13
176	5.24041825271e-13
177	6.2582937069e-13
178	5.89608580883e-13
179	4.56585794457e-13
180	4.5414978362e-13
181	4.76549900129e-13
182	4.0328513846e-13
183	3.80734405266e-13
184	4.23550375459e-13
185	4.69924239475e-13
186	3.91661688797e-13
187	3.01287525692e-13
188	2.79289225952e-13
189	3.1668290482e-13
190	3.21949277904e-13
191	2.40138873268e-13
192	2.15366890954e-13
193	2.1235303602e-13
194	1.86158853371e-13
195	1.81672521854e-13
196	1.76555893126e-13
197	1.55236824276e-13
198	1.38545394916e-13
199	1.26581370799e-13
200	1.26274114183e-13
201	1.28589945157e-13
202	1.11626937586e-13
203	9.77675242191e-14
204	9.5082621538e-14
205	9.76947763564e-14
206	9.71031362121e-14
207	8.89708564005e-14
208	7.65950059679e-14
209	7.16716497414e-14
210	7.62385178072e-14
211	8.30478010248e-14
212	7.89316549951e-14
213	7.05001711839e-14
214	6.72440649634e-14
215	6.09201962124e-14
216	6.98885808619e-14
217	7.92357957776e-14
218	7.46142416838e-14
219	6.08720981687e-14
220	5.40751131328e-14
221	6.80506194411e-14
222	7.7252879034e-14
223	6.78524400992e-14
224	5.62218515191e-14
225	6.17306556721e-14
226	6.37567573567e-14
227	5.74723663715e-14
228	5.96972522924e-14
229	6.69965648738e-14
230	6.40516978848e-14
231	4.74404849856e-14
232	4.80559511866e-14
233	6.43684332306e-14
234	6.5619828679e-14
235	4.79285812421e-14
236	4.01448300776e-14
237	5.36865862805e-14
238	5.77148608535e-14
239	4.41914762587e-14
240	3.78037959371e-14
241	4.66407738044e-14
242	4.76336178415e-14
243	3.47729998467e-14
244	3.06633951547e-14
245	3.92446570402e-14
246	4.06668345159e-14
247	2.82941054317e-14
248	2.32095778588e-14
249	3.16018769958e-14
250	3.42188078626e-14
251	2.50284577155e-14
252	1.97601399388e-14
253	2.58782532778e-14
254	2.81152390906e-14
255	2.07238208422e-14
256	1.6860163704e-14
257	2.14151724274e-14
258	2.36408452467e-14
259	1.78390173353e-14
260	1.35877311677e-14
261	1.66785078776e-14
262	1.92627708034e-14
263	1.52084649812e-14
264	1.14053354849e-14
265	1.31475549718e-14
266	1.48443932765e-14
267	1.23581927853e-14
268	9.35711922069e-15
269	1.03667897996e-14
270	1.22658612781e-14
271	1.06166141886e-14
272	7.87935875124e-15
273	7.98620315598e-15
274	9.66418952804e-15
275	9.20542004102e-15
276	7.14619961577e-15
277	6.55531518287e-15
278	7.55857598583e-15
279	7.50384805211e-15
280	6.04574017191e-15
281	5.43158270731e-15
282	6.08923215022e-15
283	6.29840785497e-15
284	5.11019468903e-15
285	4.15233365989e-15
286	4.62992352057e-15
287	5.15324429807e-15
288	4.45732290565e-15
289	3.43100513996e-15
290	3.4581913949e-15
291	3.99915066465e-15
292	3.739043181e-15
293	2.90853127509e-15
294	2.72395117394e-15
295	3.15963018981e-15
296	3.0671841805e-15
297	2.37099745337e-15
298	2.11419693235e-15
299	2.49420917511e-15
300	2.52563988762e-15
301	1.93491451523e-15
302	1.61160733458e-15
303	1.90027867259e-15
304	2.03960770514e-15
305	1.57715740472e-15
306	1.2077065619e-15
307	1.42529454885e-15
308	1.60729133676e-15
309	1.27320319889e-15
310	9.3327079396e-16
311	1.05655333891e-15
312	1.24142665421e-15
313	1.0364352505e-15
314	7.5902203119e-16
315	8.26061970919e-16
316	9.71536891886e-16
317	8.27320619689e-16
318	6.24457300606e-16
319	6.76183369466e-16
320	7.89440435149e-16
321	6.85017745154e-16
322	5.19147613303e-16
323	5.42419395672e-16
324	6.34637697144e-16
325	5.79732394456e-16
326	4.58354773501e-16
327	4.47602837961e-16
328	4.9569852465e-16
329	4.67653656591e-16
330	3.99883459099e-16
331	3.86187083392e-16
332	3.98386278459e-16
333	3.74343356809e-16
334	3.35487487705e-16
335	3.24226152891e-16
336	3.25054842035e-16
337	3.08566558726e-16
338	2.85007297607e-16
339	2.72014846501e-16
340	2.64257402166e-16
341	2.54967458728e-16
342	2.45124510199e-16
343	2.3521298649e-16
344	2.25696678258e-16
345	2.17883166198e-16
346	2.11983454196e-16
347	2.07096769564e-16
348	2.03399103632e-16
349	1.98747144997e-16
350	1.90464668365e-16
351	1.86295321291e-16
352	1.90943351314e-16
353	1.89489099083e-16
354	1.75987905423e-16
355	1.7168447418e-16
356	1.83973815626e-16
357	1.85133404615e-16
358	1.65124236862e-16
359	1.58167030105e-16
360	1.77045658322e-16
361	1.81401183361e-16
362	1.55579244394e-16
363	1.4496100397e-16
364	1.67676467413e-16
365	1.7431176873e-16
366	1.44418785178e-16
367	1.30618053071e-16
368	1.55406143519e-16
369	1.63591084996e-16
370	1.31021991987e-16
371	1.14125339272e-16
372	1.39018056961e-16
373	1.49090580921e-16
374	1.16314324543e-16
375	9.67050072945e-17
376	1.1967803813e-16
377	1.30952058387e-16
378	1.00342758585e-16
379	7.97279918272e-17
380	9.96433203081e-17
381	1.1125041096e-16
382	8.41210267557e-17
383	6.37529564206e-17
384	8.03207028382e-17
385	9.19190751073e-17
386	6.90124452454e-17
387	4.96996331869e-17
388	6.26509220145e-17
389	7.38154418017e-17
390	5.56113867016e-17
391	3.81060623042e-17
392	4.75094072058e-17
393	5.76830735018e-17
394	4.403074866e-17
395	2.88950234022e-17
396	3.51419307281e-17
397	4.39816908264e-17
398	3.43711951666e-17
399	2.18089634648e-17
400	2.54603066518e-17
401	3.2773294259e-17
402	2.65008816934e-17
403	1.65331492368e-17
404	1.81877605559e-17
405	2.39043053462e-17
406	2.02012150344e-17
407	1.26329477271e-17
408	1.28829087344e-17
409	1.70694871889e-17
410	1.51908072832e-17
411	9.73048559234e-18
412	9.10390727289e-18
413	1.19293145746e-17
414	1.12283834707e-17
415	7.52115093086e-18
416	6.46904906395e-18
417	8.17576858621e-18
418	8.13585910633e-18
419	5.80912932059e-18
420	4.66867913388e-18
421	5.53158854814e-18
422	5.78946202667e-18
423	4.47610518074e-18
424	3.46795220634e-18
425	3.76164519414e-18
426	4.07834539873e-18
427	3.45782093521e-18
428	2.69491529331e-18
429	2.65096229031e-18
430	2.895244477e-18
431	2.6998981024e-18
432	2.21553675077e-18
433	2.01916272941e-18
434	2.14163492663e-18
435	2.16067273903e-18
436	1.92553637408e-18
437	1.70812267283e-18
438	1.71370920457e-18
439	1.80140817555e-18
440	1.75148629285e-18
441	1.58826914087e-18
442	1.50797444072e-18
443	1.57656671243e-18
444	1.63924813054e-18
445	1.56153849296e-18
446	1.43765758982e-18
447	1.44267255436e-18
448	1.54805473987e-18
449	1.55884548326e-18
450	1.43243768064e-18
451	1.36298247386e-18
452	1.45700821994e-18
453	1.5371785194e-18
454	1.44063904054e-18
455	1.31091176327e-18
456	1.35806688517e-18
457	1.48062166883e-18
458	1.4338019087e-18
459	1.26845853557e-18
460	1.25187149097e-18
461	1.38813032915e-18
462	1.40129315241e-18
463	1.22954183769e-18
464	1.14617094646e-18
465	1.26982782212e-18
466	1.34080875647e-18
467	1.19036964116e-18
468	1.05176221347e-18
469	1.14082234737e-18
470	1.25906077662e-18
471	1.15110425738e-18
472	9.73346938325e-19
473	1.01460730781e-18
474	1.16468247494e-18
475	1.11151103494e-18
476	9.14925399229e-19
477	9.01288480062e-19
478	1.0633511517e-18
479	1.07057669194e-18
480	8.75988676148e-19
481	8.07047300718e-19
482	9.62771985366e-19
483	1.02668838815e-18
484	8.51404672578e-19
485	7.33837704406e-19
486	8.67215266166e-19
487	9.79557167091e-19
488	8.37434511362e-19
489	6.80917136821e-19
490	7.79379381195e-19
491	9.29194605756e-19
492	8.30235741391e-19
493	6.46921463289e-19
494	7.02945083042e-19
495	8.76563577439e-19
496	8.25842788098e-19
497	6.29412249106e-19
498	6.39966071238e-19
499	8.23748765427e-19
500	8.23364651796e-19
501	6.26434547697e-19
502	5.91026453361e-19
503	7.73455531786e-19
504	8.21423490632e-19
505	6.36352000861e-19
506	5.58244735897e-19
507	7.27477753629e-19
508	8.20200455737e-19
509	6.57289315447e-19
510	5.41588569539e-19
511	6.88203406065e-19
512	8.19790706086e-19
513	6.88203405857e-19
514	5.41588569548e-19
515	6.57289315479e-19
516	8.20200455773e-19
517	7.27477753654e-19
518	5.58244735894e-19
519	6.36352000868e-19
520	8.21423490633e-19
521	7.73455531813e-19
522	5.91026453363e-19
523	6.26434547692e-19
524	8.23364651793e-19
525	8.23748765427e-19
526	6.39966071216e-19
527	6.29412249065e-19
528	8.25842788099e-19
529	8.7656357733e-19
530	7.02945083034e-19
531	6.46921463286e-19
532	8.30235741393e-19
533	9.29194605778e-19
534	7.79379381203e-19
535	6.80917136826e-19
536	8.3743451136e-19
537	9.79557167034e-19
538	8.67215266192e-19
539	7.33837704442e-19
540	8.51404672586e-19
541	1.02668838812e-18
542	9.62771985309e-19
543	8.07047300562e-19
544	8.75988676147e-19
545	1.070576692e-18
546	1.06335115166e-18
547	9.01288480063e-19
548	9.14925399255e-19
549	1.11151103494e-18
550	1.1646824749e-18
551	1.01460730763e-18
552	9.73346938323e-19
553	1.15110425745e-18
554	1.25906077659e-18
555	1.14082234734e-18
556	1.05176221347e-18
557	1.19036964121e-18
558	1.34080875645e-18
559	1.26982782213e-18
560	1.14617094646e-18
561	1.22954183767e-18
562	1.40129315232e-18
563	1.38813032915e-18
564	1.25187149098e-18
565	1.26845853555e-18
566	1.4338019087e-18
567	1.48062166892e-18
568	1.35806688517e-18
569	1.31091176324e-18
570	1.4406390405e-18
571	1.53717851945e-18
572	1.45700821994e-18
573	1.3629824737e-18
574	1.43243768052e-18
575	1.55884548398e-18
576	1.54805473987e-18
577	1.44267255418e-18
578	1.43765758964e-18
579	1.56153849293e-18
580	1.63924813049e-18
581	1.5765667124e-18
582	1.5079744407e-18
583	1.58826914086e-18
584	1.75148629284e-18
585	1.80140817564e-18
586	1.71370920451e-18
587	1.70812267274e-18
588	1.92553637408e-18
589	2.16067273905e-18
590	2.14163492671e-18
591	2.01916272919e-18
592	2.21553675077e-18
593	2.69989810237e-18
594	2.89524447694e-18
595	2.65096229043e-18
596	2.69491529331e-18
597	3.45782093521e-18
598	4.07834539863e-18
599	3.76164519431e-18
600	3.46795220634e-18
601	4.4761051807e-18
602	5.78946202663e-18
603	5.53158854798e-18
604	4.66867913388e-18
605	5.80912932062e-18
606	8.13585910634e-18
607	8.17576858567e-18
608	6.46904906395e-18
609	7.52115093103e-18
610	1.12283834707e-17
611	1.1929314575e-17
612	9.1039072729e-18
613	9.7304855922e-18
614	1.51908072834e-17
615	1.70694871887e-17
616	1.28829087344e-17
617	1.2632947727e-17
618	2.02012150344e-17
619	2.39043053464e-17
620	1.8187760556e-17
621	1.65331492368e-17
622	2.65008816934e-17
623	3.27732942585e-17
624	2.54603066518e-17
625	2.1808963465e-17
626	3.43711951667e-17
627	4.39816908265e-17
628	3.5141930728e-17
629	2.88950234019e-17
630	4.40307486601e-17
631	5.76830735015e-17
632	4.75094072058e-17
633	3.81060623046e-17
634	5.56113867015e-17
635	7.38154418017e-17
636	6.26509220145e-17
637	4.96996331863e-17
638	6.90124452455e-17
639	9.19190751084e-17
640	8.03207028382e-17
641	6.3752956422e-17
642	8.41210267567e-17
643	1.11250410961e-16
644	9.96433203081e-17
645	7.97279918272e-17
646	1.00342758585e-16
647	1.30952058387e-16
648	1.1967803813e-16
649	9.67050072948e-17
650	1.16314324543e-16
651	1.49090580922e-16
652	1.39018056961e-16
653	1.14125339271e-16
654	1.31021991987e-16
655	1.63591084995e-16
656	1.5540614352e-16
657	1.30618053071e-16
658	1.44418785179e-16
659	1.7431176873e-16
660	1.67676467413e-16
661	1.4496100397e-16
662	1.55579244394e-16
663	1.81401183361e-16
664	1.77045658322e-16
665	1.58167030105e-16
666	1.65124236862e-16
667	1.85133404615e-16
668	1.83973815626e-16
669	1.71684474181e-16
670	1.75987905422e-16
671	1.89489099083e-16
672	1.90943351314e-16
673	1.8629532129e-16
674	1.90464668363e-16
675	1.98747144997e-16
676	2.03399103632e-16
677	2.07096769562e-16
678	2.11983454195e-16
679	2.17883166198e-16
680	2.25696678258e-16
681	2.35212986493e-16
682	2.45124510199e-16
683	2.54967458726e-16
684	2.64257402166e-16
685	2.720148465e-16
686	2.8500729761e-16
687	3.08566558725e-16
688	3.25054842035e-16
689	3.24226152895e-16
690	3.35487487707e-16
691	3.74343356811e-16
692	3.98386278459e-16
693	3.86187083392e-16
694	3.99883459099e-16
695	4.67653656592e-16
696	4.9569852465e-16
697	4.47602837962e-16
698	4.583547735e-16
699	5.79732394455e-16
700	6.34637697144e-16
701	5.42419395673e-16
702	5.19147613308e-16
703	6.85017745152e-16
704	7.89440435149e-16
705	6.76183369459e-16
706	6.24457300614e-16
707	8.27320619689e-16
708	9.71536891887e-16
709	8.2606197092e-16
710	7.59022031191e-16
711	1.0364352505e-15
712	1.24142665421e-15
713	1.05655333891e-15
714	9.3327079396e-16
715	1.27320319889e-15
716	1.60729133676e-15
717	1.42529454885e-15
718	1.2077065619e-15
719	1.57715740472e-15
720	2.03960770514e-15
721	1.90027867259e-15
722	1.61160733458e-15
723	1.93491451523e-15
724	2.52563988762e-15
725	2.49420917511e-15
726	2.11419693234e-15
727	2.37099745337e-15
728	3.0671841805e-15
729	3.15963018982e-15
730	2.72395117393e-15
731	2.90853127509e-15
732	3.739043181e-15
733	3.99915066465e-15
734	3.4581913949e-15
735	3.43100513996e-15
736	4.45732290565e-15
737	5.15324429805e-15
738	4.62992352056e-15
739	4.1523336599e-15
740	5.11019468903e-15
741	6.29840785497e-15
742	6.08923215022e-15
743	5.43158270732e-15
744	6.04574017191e-15
745	7.50384805211e-15
746	7.55857598583e-15
747	6.55531518287e-15
748	7.14619961577e-15
749	9.20542004102e-15
750	9.66418952803e-15
751	7.98620315598e-15
752	7.87935875124e-15
753	1.06166141886e-14
754	1.22658612781e-14
755	1.03667897996e-14
756	9.35711922069e-15
757	1.23581927853e-14
758	1.48443932765e-14
759	1.31475549718e-14
760	1.14053354849e-14
761	1.52084649812e-14
762	1.92627708034e-14
763	1.66785078776e-14
764	1.35877311677e-14
765	1.78390173354e-14
766	2.36408452467e-14
767	2.14151724273e-14
768	1.6860163704e-14
769	2.07238208421e-14
770	2.81152390905e-14
771	2.58782532779e-14
772	1.97601399389e-14
773	2.50284577155e-14
774	3.42188078625e-14
775	3.16018769958e-14
776	2.32095778588e-14
777	2.82941054318e-14
778	4.06668345159e-14
779	3.92446570402e-14
780	3.06633951547e-14
781	3.47729998467e-14
782	4.76336178415e-14
783	4.66407738044e-14
784	3.78037959371e-14
785	4.41914762587e-14
786	5.77148608535e-14
787	5.36865862805e-14
788	4.01448300776e-14
789	4.79285812421e-14
790	6.5619828679e-14
791	6.43684332306e-14
792	4.80559511866e-14
793	4.74404849856e-14
794	6.40516978848e-14
795	6.69965648738e-14
796	5.96972522924e-14
797	5.74723663715e-14
798	6.37567573567e-14
799	6.17306556722e-14
800	5.62218515191e-14
801	6.78524400992e-14
802	7.7252879034e-14
803	6.80506194412e-14
804	5.40751131328e-14
805	6.08720981687e-14
806	7.46142416838e-14
807	7.92357957776e-14
808	6.9888580862e-14
809	6.09201962123e-14
810	6.72440649634e-14
811	7.05001711839e-14
812	7.89316549951e-14
813	8.30478010248e-14
814	7.62385178072e-14
815	7.16716497414e-14
816	7.65950059679e-14
817	8.89708564006e-14
818	9.71031362121e-14
819	9.76947763565e-14
820	9.5082621538e-14
821	9.77675242191e-14
822	1.11626937586e-13
823	1.28589945157e-13
824	1.26274114183e-13
825	1.26581370799e-13
826	1.38545394916e-13
827	1.55236824276e-13
828	1.76555893126e-13
829	1.81672521854e-13
830	1.86158853371e-13
831	2.1235303602e-13
832	2.15366890954e-13
833	2.40138873268e-13
834	3.21949277904e-13
835	3.1668290482e-13
836	2.79289225952e-13
837	3.01287525692e-13
838	3.91661688797e-13
839	4.69924239475e-13
840	4.23550375459e-13
841	3.80734405266e-13
842	4.0328513846e-13
843	4.76549900129e-13
844	4.5414978362e-13
845	4.56585794457e-13
846	5.89608580883e-13
847	6.2582937069e-13
848	5.24041825271e-13
849	5.75743519433e-13
850	7.79229854765e-13
851	8.04675117268e-13
852	8.4389806513e-13
853	7.53698292739e-13
854	9.3243114401e-13
855	1.05395925169e-12
856	8.44179483058e-13
857	9.18844278775e-13
858	1.0932497861e-12
859	1.28893665442e-12
860	1.04827962285e-12
861	1.14296798129e-12
862	1.23452845683e-12
863	1.26637397307e-12
864	1.26267637262e-12
865	1.35016367962e-12
866	1.92240577432e-12
867	1.77829387678e-12
868	2.04265341679e-12
869	2.24984792189e-12
870	2.70627418772e-12
871	2.88753105312e-12
872	2.44866035391e-12
873	3.20858037072e-12
874	3.56968324077e-12
875	3.43225543801e-12
876	2.89106026713e-12
877	2.62124135368e-12
878	3.20545328961e-12
879	3.93634605559e-12
880	4.50542075744e-12
881	4.18064774113e-12
882	3.82602802806e-12
883	3.17966585579e-12
884	3.47967402809e-12
885	5.10703044297e-12
886	5.85123646023e-12
887	5.57192757284e-12
888	4.3042997734e-12
889	3.92103051294e-12
890	4.27210291334e-12
891	5.86536458277e-12
892	7.20420570379e-12
893	6.40157737426e-12
894	6.0828330272e-12
895	6.18503243635e-12
896	6.00248977098e-12
897	8.13449159447e-12
898	9.99757462462e-12
899	9.28884418724e-12
900	1.04694706995e-11
901	8.94227242209e-12
902	7.8991520146e-12
903	1.12544496238e-11
904	1.44766352498e-11
905	1.55749964017e-11
906	1.16392632677e-11
907	8.6816100155e-12
908	9.84545545997e-12
909	1.3220565996e-11
910	1.74290227134e-11
911	1.97594184882e-11
912	1.54861217152e-11
913	1.34610087604e-11
914	1.19051308255e-11
915	1.66674794077e-11
916	2.47561545257e-11
917	2.50747211574e-11
918	2.01821907504e-11
919	1.70875746861e-11
920	2.1730686652e-11
921	3.03672773592e-11
922	3.99973859536e-11
923	3.79145515812e-11
924	4.15800413903e-11
925	4.08255903623e-11
926	3.56986460739e-11
927	3.3707783048e-11
928	4.19872597393e-11
929	5.58444263946e-11
930	5.17869215722e-11
931	4.25505903667e-11
932	3.75973070794e-11
933	5.41837438101e-11
934	5.66243655446e-11
935	8.15248389817e-11
936	1.18197160502e-10
937	1.02452785551e-10
938	8.39346789828e-11
939	8.1797387502e-11
940	1.37849876449e-10
941	1.73976219382e-10
942	1.78188269759e-10
943	1.91343929709e-10
944	1.70651487807e-10
945	1.83372125149e-10
946	1.80903208074e-10
947	1.88131928934e-10
948	2.49662072471e-10
949	1.65410552872e-10
950	1.43775426036e-10
951	2.33691991471e-10
952	2.58900122516e-10
953	2.60056758462e-10
954	2.1092578087e-10
955	2.54423802242e-10
956	2.29880262997e-10
957	2.24119072227e-10
958	2.97430973761e-10
959	2.75119594864e-10
960	4.25525623123e-10
961	4.76230600665e-10
962	4.80085997249e-10
963	4.15186799285e-10
964	5.88365200513e-10
965	8.44722012573e-10
966	8.69263670347e-10
967	8.70164401276e-10
968	6.41671432939e-10
969	6.88855979029e-10
970	9.17752411127e-10
971	1.07353738168e-09
972	1.31951992056e-09
973	1.58889311254e-09
974	1.36501084768e-09
975	1.15755030478e-09
976	8.95363091293e-10
977	1.3795289946e-09
978	2.34483775323e-09
979	2.05340420282e-09
980	2.36674027705e-09
981	1.98439576844e-09
982	2.21796297037e-09
983	4.0477925368e-09
984	3.562424395e-09
985	3.85686942968e-09
986	2.72278888452e-09
987	3.0294106153e-09
988	5.93363241733e-09
989	3.92646735107e-09
990	4.51481178226e-09
991	5.28367062544e-09
992	5.62139706666e-09
993	8.00378886051e-09
994	9.32390640504e-09
995	1.10650525762e-08
996	1.36461218121e-08
997	1.76812840513e-08
998	2.47557188279e-08
999	2.69534836863e-08
1000	3.28757845596e-08
1001	2.90614408639e-08
1002	3.73261103614e-08
1003	4.94470809674e-08
1004	6.31889825895e-08
1005	9.11668991676e-08
1006	1.00244346767e-07
1007	7.68400764593e-08
1008	9.34585829474e-08
1009	1.60345746319e-07
1010	2.45460735383e-07
1011	4.04718454179e-07
1012	5.7793708681e-07
1013	8.35543010832e-07
1014	1.52651959732e-06
1015	2.25190828443e-06
1016	3.40497316951e-06
1017	5.0081181118e-06
1018	3.38182556539e-06
1019	2.85755647441e-05
1020	0.000196014406453
1021	0.000894634293233
1022	0.0036996740746
1023	0.0239656171429
