0	0.776837069833
1	0.0237802079255
2	0.00361180004385
3	0.000880240936756
4	0.000273660259902
5	4.23938270504e-05
6	9.38887689721e-06
7	5.78775673637e-06
8	4.20348592965e-06
9	3.57197794774e-06
10	2.44240505698e-06
11	9.83905417568e-07
12	6.60257270489e-07
13	2.58863621768e-07
14	3.38742477444e-07
15	3.99166238833e-07
16	3.02122225058e-07
17	1.4469253337e-07
18	1.50459970717e-07
19	1.77066536895e-07
20	2.32046991731e-07
21	2.85846095286e-07
22	2.50713093841e-07
23	1.84227632955e-07
24	1.08001728953e-07
25	7.98315336765e-08
26	7.70784224227e-08
27	9.82765566315e-08
28	9.49153435635e-08
29	7.06374931372e-08
30	4.67703611589e-08
31	4.08657065937e-08
32	4.97401962606e-08
33	4.94107861911e-08
34	4.21738726604e-08
35	2.6670264241e-08
36	2.29473673899e-08
37	2.56004217215e-08
38	2.41327680995e-08
39	2.26449727745e-08
40	2.32395777109e-08
41	2.57424657669e-08
42	1.65299250696e-08
43	9.24720952563e-09
44	6.65962330966e-09
45	6.84522966327e-09
46	8.69389759528e-09
47	1.01829957522e-08
48	1.08216129185e-08
49	9.39071946447e-09
50	8.46646274318e-09
51	7.60330793748e-09
52	6.5720490251e-09
53	5.63607630597e-09
54	4.1746303367e-09
55	4.40444078761e-09
56	3.95907688943e-09
57	3.80377689871e-09
58	3.20217927047e-09
59	2.24623068811e-09
60	2.13424530822e-09
61	2.26327129087e-09
62	2.11546827449e-09
63	2.16355086481e-09
64	2.26862196359e-09
65	1.92094636648e-09
66	1.43801652926e-09
67	1.2506859933e-09
68	1.43247734781e-09
69	1.53688872578e-09
70	1.4562323713e-09
71	1.3415313151e-09
72	1.11440438426e-09
73	9.15818435853e-10
74	1.20291545098e-09
75	1.50822945922e-09
76	1.09928586341e-09
77	9.39341188192e-10
78	8.11611928351e-10
79	9.43675997804e-10
80	7.24680384321e-10
81	5.72008324419e-10
82	5.91343304173e-10
83	6.75158046305e-10
84	8.29694508593e-10
85	8.13177874839e-10
86	1.01243397556e-09
87	8.37635516295e-10
88	5.87450449778e-10
89	4.26292199715e-10
90	4.907343694e-10
91	4.95243206923e-10
92	4.81335430512e-10
93	5.0657673274e-10
94	5.30419170545e-10
95	4.4385008794e-10
96	3.80502972967e-10
97	3.16019716029e-10
98	2.90450991723e-10
99	3.18887023257e-10
100	3.47357661264e-10
101	3.45263978482e-10
102	3.6694363955e-10
103	3.30065567424e-10
104	2.41031578283e-10
105	1.99440435134e-10
106	1.80371545962e-10
107	1.64395987639e-10
108	1.81585500829e-10
109	1.70146148559e-10
110	1.35136045736e-10
111	1.22746264141e-10
112	1.02922518172e-10
113	8.5227298192e-11
114	9.58880199794e-11
115	1.09120534989e-10
116	1.11365388508e-10
117	1.04975886722e-10
118	1.12661381512e-10
119	9.36841990343e-11
120	8.43475309101e-11
121	9.67615374893e-11
122	8.97503962293e-11
123	8.52892304133e-11
124	8.80123142646e-11
125	8.59666801353e-11
126	7.40836660898e-11
127	6.65834215018e-11
128	6.48718026303e-11
129	6.53047630257e-11
130	6.18861029646e-11
131	6.22488261532e-11
132	5.25906826293e-11
133	4.62290822607e-11
134	4.6992344569e-11
135	3.85844119405e-11
136	3.66855482175e-11
137	4.29437559344e-11
138	4.00734541304e-11
139	3.52422701109e-11
140	3.50912619467e-11
141	3.5272765816e-11
142	3.45235786669e-11
143	3.16799420424e-11
144	3.25636595337e-11
145	3.10186929327e-11
146	2.69881304425e-11
147	2.72391511754e-11
148	2.75552566178e-11
149	2.58577677913e-11
150	2.5929826353e-11
151	2.64408937978e-11
152	2.67212967662e-11
153	2.48903766817e-11
154	2.14966706256e-11
155	2.02887453145e-11
156	1.79050915053e-11
157	1.49606557493e-11
158	1.39861168108e-11
159	1.26047480257e-11
160	1.23051931411e-11
161	1.17754559973e-11
162	1.11002870739e-11
163	1.12083355475e-11
164	1.00758652299e-11
165	9.70194011251e-12
166	9.71064105323e-12
167	9.49008039061e-12
168	9.02862581962e-12
169	8.35522184161e-12
170	8.08410594857e-12
171	7.30636019929e-12
172	6.19666923219e-12
173	5.79973870627e-12
174	5.59903108842e-12
175	5.02686583344e-12
176	4.88156776975e-12
177	4.78110879111e-12
178	4.54437421121e-12
179	4.43528860157e-12
180	4.05554671267e-12
181	3.82204205699e-12
182	3.63112191329e-12
183	3.24944258215e-12
184	3.01000408898e-12
185	2.85148301007e-12
186	2.70543974467e-12
187	2.42967863566e-12
188	2.17579623663e-12
189	2.14309262927e-12
190	2.01873347964e-12
191	2.01641213278e-12
192	2.11064954251e-12
193	1.92845343556e-12
194	1.87473842062e-12
195	2.09036548759e-12
196	2.08360579348e-12
197	1.97558751205e-12
198	2.00310769807e-12
199	1.8841930841e-12
200	1.74501577173e-12
201	1.6495130878e-12
202	1.45006670634e-12
203	1.34422620891e-12
204	1.24557351502e-12
205	1.15161756584e-12
206	1.05655339429e-12
207	9.07999797343e-13
208	8.90539673908e-13
209	8.56818122824e-13
210	8.26763798006e-13
211	8.22625088527e-13
212	7.89928535532e-13
213	8.02295412271e-13
214	7.64210861115e-13
215	7.50725468286e-13
216	6.90908341799e-13
217	6.40588377036e-13
218	6.67531097768e-13
219	5.68152529658e-13
220	5.3747147874e-13
221	4.87088164728e-13
222	4.486793952e-13
223	4.92964722305e-13
224	3.69214228363e-13
225	3.81602825973e-13
226	3.81858496262e-13
227	3.48931704917e-13
228	3.99838099665e-13
229	3.15333935212e-13
230	3.61663081498e-13
231	3.40034956614e-13
232	3.01699691909e-13
233	3.42916939159e-13
234	2.77609460984e-13
235	3.31912637385e-13
236	2.98043337349e-13
237	2.70274497021e-13
238	2.96128770175e-13
239	2.49667656989e-13
240	2.86656576991e-13
241	2.57630611577e-13
242	2.59467429561e-13
243	2.59812613303e-13
244	2.31040208407e-13
245	2.59563298202e-13
246	2.25538140364e-13
247	2.25605675588e-13
248	2.21363602448e-13
249	2.03497964864e-13
250	2.08762072358e-13
251	1.89933187181e-13
252	1.93597853918e-13
253	1.89384198127e-13
254	1.81365544113e-13
255	1.73082669046e-13
256	1.68105067667e-13
257	1.71823900508e-13
258	1.64085626918e-13
259	1.6054060815e-13
260	1.55006303193e-13
261	1.52776537305e-13
262	1.42934411903e-13
263	1.37885420108e-13
264	1.37337157312e-13
265	1.24422463366e-13
266	1.226055388e-13
267	1.14831137659e-13
268	1.12088265775e-13
269	1.10181470566e-13
270	1.01508466789e-13
271	1.08592194909e-13
272	1.00506374009e-13
273	9.71272986871e-14
274	9.92137603564e-14
275	9.19212222072e-14
276	9.74249791571e-14
277	8.93015014814e-14
278	8.98378577286e-14
279	9.12974233002e-14
280	7.98765452031e-14
281	8.37877992579e-14
282	7.47711628994e-14
283	7.39407860537e-14
284	7.20293244556e-14
285	6.32563274209e-14
286	6.79084603929e-14
287	5.86627039629e-14
288	6.04446020678e-14
289	5.74249840589e-14
290	5.21195284723e-14
291	5.62100503743e-14
292	4.82939858268e-14
293	5.20454702987e-14
294	4.82078512556e-14
295	4.64944293967e-14
296	4.84638011899e-14
297	4.18520896027e-14
298	4.50678670714e-14
299	4.02540531816e-14
300	4.01105358295e-14
301	3.99917835899e-14
302	3.58981432842e-14
303	3.76475413856e-14
304	3.35183038116e-14
305	3.42334769994e-14
306	3.29771007524e-14
307	3.12235921083e-14
308	3.1767379073e-14
309	2.95128570456e-14
310	3.00598544245e-14
311	2.84167274839e-14
312	2.82836187705e-14
313	2.80705327628e-14
314	2.69698151978e-14
315	2.69784688696e-14
316	2.58161663878e-14
317	2.5829650541e-14
318	2.49468006332e-14
319	2.45820255729e-14
320	2.42369602477e-14
321	2.33070465945e-14
322	2.29211043839e-14
323	2.19999178695e-14
324	2.1629093823e-14
325	2.07969617436e-14
326	2.0177268281e-14
327	1.97509367622e-14
328	1.88689367375e-14
329	1.84248740933e-14
330	1.76170784268e-14
331	1.71249342161e-14
332	1.66527066916e-14
333	1.59170258164e-14
334	1.56696350444e-14
335	1.49759387278e-14
336	1.45057071557e-14
337	1.40483703517e-14
338	1.33600849895e-14
339	1.31612739667e-14
340	1.24615014298e-14
341	1.20722092114e-14
342	1.15897627155e-14
343	1.09437112639e-14
344	1.07587890247e-14
345	1.01038317828e-14
346	9.86005765507e-15
347	9.37658045181e-15
348	8.91559869295e-15
349	8.72629728346e-15
350	8.21413533109e-15
351	8.13087586071e-15
352	7.68484374997e-15
353	7.42866079522e-15
354	7.21197936805e-15
355	6.83801590752e-15
356	6.75096505757e-15
357	6.3659722235e-15
358	6.23532384272e-15
359	5.96544909297e-15
360	5.7196314269e-15
361	5.57830381459e-15
362	5.26380242659e-15
363	5.15548141454e-15
364	4.90010744887e-15
365	4.76011891831e-15
366	4.58217494266e-15
367	4.37574992746e-15
368	4.26431543204e-15
369	4.0539210492e-15
370	3.94857869887e-15
371	3.77296624242e-15
372	3.65172064811e-15
373	3.52874899092e-15
374	3.37440121494e-15
375	3.27229632066e-15
376	3.12026528363e-15
377	3.02006042703e-15
378	2.89634198749e-15
379	2.79381096293e-15
380	2.68995530463e-15
381	2.57123073154e-15
382	2.48038247117e-15
383	2.37245074965e-15
384	2.28611985101e-15
385	2.18882639654e-15
386	2.10213896429e-15
387	2.01761707885e-15
388	1.93211291686e-15
389	1.85662511369e-15
390	1.77476317021e-15
391	1.70082067285e-15
392	1.62504521741e-15
393	1.55921044864e-15
394	1.49413570454e-15
395	1.42943752056e-15
396	1.365168744e-15
397	1.30390681781e-15
398	1.24728731143e-15
399	1.1903788149e-15
400	1.13766926775e-15
401	1.08435329568e-15
402	1.03655713984e-15
403	9.88186691902e-16
404	9.42475588753e-16
405	8.95126661944e-16
406	8.50557076774e-16
407	8.11841316285e-16
408	7.73378373545e-16
409	7.39001457849e-16
410	6.99590600749e-16
411	6.64571388136e-16
412	6.29510296881e-16
413	5.9860279744e-16
414	5.71361484211e-16
415	5.41305297142e-16
416	5.14831941697e-16
417	4.84495377907e-16
418	4.60459887048e-16
419	4.36791736796e-16
420	4.13943950047e-16
421	3.92420911802e-16
422	3.69060211732e-16
423	3.51693880581e-16
424	3.31860757341e-16
425	3.14550240624e-16
426	2.95697980623e-16
427	2.78280292411e-16
428	2.6499224053e-16
429	2.50232100155e-16
430	2.37775024929e-16
431	2.21964757227e-16
432	2.08924065487e-16
433	1.9720720334e-16
434	1.86365304936e-16
435	1.76926549564e-16
436	1.6504190865e-16
437	1.55615768781e-16
438	1.45712877952e-16
439	1.37705392507e-16
440	1.29761343461e-16
441	1.21315530748e-16
442	1.14466568597e-16
443	1.07068833194e-16
444	1.01303737314e-16
445	9.45683058043e-17
446	8.83206627992e-17
447	8.28294714019e-17
448	7.77999145241e-17
449	7.37406241488e-17
450	6.8653558573e-17
451	6.4095861387e-17
452	5.96361779695e-17
453	5.60300735692e-17
454	5.27876734253e-17
455	4.9229824796e-17
456	4.60557526764e-17
457	4.27799831895e-17
458	4.01507917806e-17
459	3.75121123846e-17
460	3.50034529574e-17
461	3.26630196596e-17
462	3.04477908725e-17
463	2.86100606909e-17
464	2.66328229144e-17
465	2.4796158849e-17
466	2.30136795461e-17
467	2.14822951346e-17
468	2.01153607394e-17
469	1.87475134976e-17
470	1.74752771827e-17
471	1.62151706941e-17
472	1.51027241765e-17
473	1.40718845021e-17
474	1.31481695254e-17
475	1.22729740403e-17
476	1.14279820807e-17
477	1.06084850397e-17
478	9.84190972138e-18
479	9.15136141091e-18
480	8.54257458097e-18
481	8.01747762007e-18
482	7.49282352429e-18
483	6.98786164104e-18
484	6.44964103594e-18
485	5.96996111505e-18
486	5.57169416225e-18
487	5.25398931177e-18
488	4.97770008563e-18
489	4.62098352169e-18
490	4.27234802125e-18
491	3.95519644431e-18
492	3.74070216333e-18
493	3.55610168866e-18
494	3.32895736158e-18
495	3.1134234864e-18
496	2.90567132189e-18
497	2.76987984975e-18
498	2.63670189622e-18
499	2.49785801524e-18
500	2.36308014732e-18
501	2.22703729165e-18
502	2.13962221524e-18
503	2.05578625544e-18
504	1.99106567823e-18
505	1.9264260968e-18
506	1.8656902122e-18
507	1.81915893317e-18
508	1.75834024612e-18
509	1.7155068778e-18
510	1.7010293631e-18
511	1.71772275139e-18
512	1.73421177257e-18
513	1.71772274934e-18
514	1.70102936328e-18
515	1.71550687722e-18
516	1.75834024599e-18
517	1.81915893314e-18
518	1.865690212e-18
519	1.92642609681e-18
520	1.99106567819e-18
521	2.05578625528e-18
522	2.13962221517e-18
523	2.22703729154e-18
524	2.36308014732e-18
525	2.49785801529e-18
526	2.63670189595e-18
527	2.76987984955e-18
528	2.90567132188e-18
529	3.11342348657e-18
530	3.32895736183e-18
531	3.55610168835e-18
532	3.74070216338e-18
533	3.95519644444e-18
534	4.27234802115e-18
535	4.62098352159e-18
536	4.97770008564e-18
537	5.25398931157e-18
538	5.57169416227e-18
539	5.96996111535e-18
540	6.44964103594e-18
541	6.98786164107e-18
542	7.49282352426e-18
543	8.01747761984e-18
544	8.54257458097e-18
545	9.15136141128e-18
546	9.8419097224e-18
547	1.06084850399e-17
548	1.14279820806e-17
549	1.22729740401e-17
550	1.31481695256e-17
551	1.40718845025e-17
552	1.51027241765e-17
553	1.62151706943e-17
554	1.7475277183e-17
555	1.87475134978e-17
556	2.01153607395e-17
557	2.14822951346e-17
558	2.30136795463e-17
559	2.47961588487e-17
560	2.66328229144e-17
561	2.86100606896e-17
562	3.04477908731e-17
563	3.26630196616e-17
564	3.50034529575e-17
565	3.75121123838e-17
566	4.01507917805e-17
567	4.27799831894e-17
568	4.60557526764e-17
569	4.9229824795e-17
570	5.27876734254e-17
571	5.60300735697e-17
572	5.96361779686e-17
573	6.40958613866e-17
574	6.86535585756e-17
575	7.37406241504e-17
576	7.77999145241e-17
577	8.28294714002e-17
578	8.83206628004e-17
579	9.45683058045e-17
580	1.01303737313e-16
581	1.07068833193e-16
582	1.14466568598e-16
583	1.21315530749e-16
584	1.29761343461e-16
585	1.37705392509e-16
586	1.45712877953e-16
587	1.55615768781e-16
588	1.6504190865e-16
589	1.76926549564e-16
590	1.86365304935e-16
591	1.97207203339e-16
592	2.08924065487e-16
593	2.21964757226e-16
594	2.3777502493e-16
595	2.50232100155e-16
596	2.6499224053e-16
597	2.7828029241e-16
598	2.95697980622e-16
599	3.14550240627e-16
600	3.31860757341e-16
601	3.51693880579e-16
602	3.69060211733e-16
603	3.92420911803e-16
604	4.13943950045e-16
605	4.36791736797e-16
606	4.60459887045e-16
607	4.84495377904e-16
608	5.14831941697e-16
609	5.41305297137e-16
610	5.71361484216e-16
611	5.98602797444e-16
612	6.2951029688e-16
613	6.64571388136e-16
614	6.99590600751e-16
615	7.3900145785e-16
616	7.73378373545e-16
617	8.11841316281e-16
618	8.50557076776e-16
619	8.95126661945e-16
620	9.42475588752e-16
621	9.881866919e-16
622	1.03655713983e-15
623	1.08435329567e-15
624	1.13766926775e-15
625	1.1903788149e-15
626	1.24728731142e-15
627	1.30390681781e-15
628	1.365168744e-15
629	1.42943752056e-15
630	1.49413570454e-15
631	1.55921044864e-15
632	1.62504521741e-15
633	1.70082067284e-15
634	1.77476317021e-15
635	1.85662511369e-15
636	1.93211291686e-15
637	2.01761707886e-15
638	2.10213896431e-15
639	2.18882639658e-15
640	2.28611985101e-15
641	2.37245074963e-15
642	2.48038247113e-15
643	2.57123073154e-15
644	2.68995530463e-15
645	2.79381096293e-15
646	2.89634198749e-15
647	3.02006042703e-15
648	3.12026528363e-15
649	3.27229632067e-15
650	3.37440121494e-15
651	3.52874899091e-15
652	3.65172064811e-15
653	3.77296624243e-15
654	3.94857869887e-15
655	4.0539210492e-15
656	4.26431543204e-15
657	4.37574992745e-15
658	4.58217494265e-15
659	4.76011891831e-15
660	4.90010744887e-15
661	5.15548141454e-15
662	5.26380242659e-15
663	5.57830381459e-15
664	5.7196314269e-15
665	5.96544909295e-15
666	6.23532384272e-15
667	6.3659722235e-15
668	6.75096505757e-15
669	6.83801590753e-15
670	7.21197936805e-15
671	7.42866079521e-15
672	7.68484374997e-15
673	8.13087586074e-15
674	8.2141353311e-15
675	8.72629728345e-15
676	8.91559869296e-15
677	9.3765804518e-15
678	9.86005765508e-15
679	1.01038317828e-14
680	1.07587890247e-14
681	1.09437112639e-14
682	1.15897627155e-14
683	1.20722092114e-14
684	1.24615014298e-14
685	1.31612739667e-14
686	1.33600849895e-14
687	1.40483703517e-14
688	1.45057071558e-14
689	1.49759387278e-14
690	1.56696350444e-14
691	1.59170258165e-14
692	1.66527066916e-14
693	1.71249342161e-14
694	1.76170784268e-14
695	1.84248740933e-14
696	1.88689367375e-14
697	1.97509367622e-14
698	2.0177268281e-14
699	2.07969617436e-14
700	2.1629093823e-14
701	2.19999178695e-14
702	2.29211043839e-14
703	2.33070465945e-14
704	2.42369602477e-14
705	2.45820255729e-14
706	2.49468006332e-14
707	2.5829650541e-14
708	2.58161663878e-14
709	2.69784688696e-14
710	2.69698151978e-14
711	2.80705327627e-14
712	2.82836187705e-14
713	2.84167274839e-14
714	3.00598544245e-14
715	2.95128570456e-14
716	3.1767379073e-14
717	3.12235921084e-14
718	3.29771007524e-14
719	3.42334769994e-14
720	3.35183038116e-14
721	3.76475413856e-14
722	3.58981432842e-14
723	3.99917835899e-14
724	4.01105358295e-14
725	4.02540531817e-14
726	4.50678670714e-14
727	4.18520896027e-14
728	4.84638011899e-14
729	4.64944293966e-14
730	4.82078512556e-14
731	5.20454702987e-14
732	4.82939858268e-14
733	5.62100503743e-14
734	5.21195284723e-14
735	5.74249840589e-14
736	6.04446020678e-14
737	5.86627039628e-14
738	6.79084603929e-14
739	6.32563274209e-14
740	7.20293244556e-14
741	7.39407860537e-14
742	7.47711628994e-14
743	8.37877992579e-14
744	7.98765452031e-14
745	9.12974233002e-14
746	8.98378577286e-14
747	8.93015014814e-14
748	9.74249791571e-14
749	9.19212222072e-14
750	9.92137603564e-14
751	9.7127298687e-14
752	1.00506374009e-13
753	1.08592194909e-13
754	1.01508466789e-13
755	1.10181470566e-13
756	1.12088265775e-13
757	1.14831137659e-13
758	1.226055388e-13
759	1.24422463366e-13
760	1.37337157312e-13
761	1.37885420108e-13
762	1.42934411903e-13
763	1.52776537305e-13
764	1.55006303193e-13
765	1.6054060815e-13
766	1.64085626918e-13
767	1.71823900508e-13
768	1.68105067667e-13
769	1.73082669046e-13
770	1.81365544113e-13
771	1.89384198127e-13
772	1.93597853918e-13
773	1.89933187181e-13
774	2.08762072358e-13
775	2.03497964864e-13
776	2.21363602448e-13
777	2.25605675588e-13
778	2.25538140364e-13
779	2.59563298202e-13
780	2.31040208407e-13
781	2.59812613303e-13
782	2.59467429561e-13
783	2.57630611577e-13
784	2.86656576991e-13
785	2.49667656989e-13
786	2.96128770175e-13
787	2.70274497021e-13
788	2.98043337349e-13
789	3.31912637385e-13
790	2.77609460984e-13
791	3.42916939159e-13
792	3.01699691909e-13
793	3.40034956614e-13
794	3.61663081498e-13
795	3.15333935212e-13
796	3.99838099665e-13
797	3.48931704917e-13
798	3.81858496261e-13
799	3.81602825974e-13
800	3.69214228363e-13
801	4.92964722305e-13
802	4.486793952e-13
803	4.87088164728e-13
804	5.3747147874e-13
805	5.68152529658e-13
806	6.67531097768e-13
807	6.40588377036e-13
808	6.90908341799e-13
809	7.50725468286e-13
810	7.64210861115e-13
811	8.02295412271e-13
812	7.89928535532e-13
813	8.22625088527e-13
814	8.26763798006e-13
815	8.56818122824e-13
816	8.90539673908e-13
817	9.07999797343e-13
818	1.05655339429e-12
819	1.15161756584e-12
820	1.24557351502e-12
821	1.34422620891e-12
822	1.45006670634e-12
823	1.6495130878e-12
824	1.74501577173e-12
825	1.8841930841e-12
826	2.00310769807e-12
827	1.97558751205e-12
828	2.08360579348e-12
829	2.09036548759e-12
830	1.87473842062e-12
831	1.92845343556e-12
832	2.11064954251e-12
833	2.01641213278e-12
834	2.01873347964e-12
835	2.14309262927e-12
836	2.17579623663e-12
837	2.42967863566e-12
838	2.70543974467e-12
839	2.85148301007e-12
840	3.01000408898e-12
841	3.24944258215e-12
842	3.63112191329e-12
843	3.82204205699e-12
844	4.05554671267e-12
845	4.43528860157e-12
846	4.54437421121e-12
847	4.78110879111e-12
848	4.88156776975e-12
849	5.02686583344e-12
850	5.59903108842e-12
851	5.79973870627e-12
852	6.19666923219e-12
853	7.30636019929e-12
854	8.08410594857e-12
855	8.35522184161e-12
856	9.02862581962e-12
857	9.49008039061e-12
858	9.71064105323e-12
859	9.70194011251e-12
860	1.00758652299e-11
861	1.12083355475e-11
862	1.11002870739e-11
863	1.17754559973e-11
864	1.23051931411e-11
865	1.26047480257e-11
866	1.39861168108e-11
867	1.49606557493e-11
868	1.79050915053e-11
869	2.02887453145e-11
870	2.14966706256e-11
871	2.48903766817e-11
872	2.67212967662e-11
873	2.64408937978e-11
874	2.5929826353e-11
875	2.58577677913e-11
876	2.75552566178e-11
877	2.72391511754e-11
878	2.69881304425e-11
879	3.10186929327e-11
880	3.25636595337e-11
881	3.16799420424e-11
882	3.45235786669e-11
883	3.5272765816e-11
884	3.50912619467e-11
885	3.52422701109e-11
886	4.00734541304e-11
887	4.29437559344e-11
888	3.66855482175e-11
889	3.85844119405e-11
890	4.6992344569e-11
891	4.62290822607e-11
892	5.25906826293e-11
893	6.22488261532e-11
894	6.18861029646e-11
895	6.53047630257e-11
896	6.48718026303e-11
897	6.65834215018e-11
898	7.40836660898e-11
899	8.59666801353e-11
900	8.80123142646e-11
901	8.52892304133e-11
902	8.97503962293e-11
903	9.67615374893e-11
904	8.43475309101e-11
905	9.36841990343e-11
906	1.12661381512e-10
907	1.04975886722e-10
908	1.11365388508e-10
909	1.09120534989e-10
910	9.58880199794e-11
911	8.5227298192e-11
912	1.02922518172e-10
913	1.22746264141e-10
914	1.35136045736e-10
915	1.70146148559e-10
916	1.81585500829e-10
917	1.64395987639e-10
918	1.80371545962e-10
919	1.99440435134e-10
920	2.41031578283e-10
921	3.30065567424e-10
922	3.6694363955e-10
923	3.45263978482e-10
924	3.47357661264e-10
925	3.18887023257e-10
926	2.90450991723e-10
927	3.16019716029e-10
928	3.80502972967e-10
929	4.4385008794e-10
930	5.30419170545e-10
931	5.0657673274e-10
932	4.81335430512e-10
933	4.95243206923e-10
934	4.907343694e-10
935	4.26292199715e-10
936	5.87450449778e-10
937	8.37635516295e-10
938	1.01243397556e-09
939	8.13177874839e-10
940	8.29694508593e-10
941	6.75158046305e-10
942	5.91343304173e-10
943	5.72008324419e-10
944	7.24680384321e-10
945	9.43675997804e-10
946	8.11611928351e-10
947	9.39341188192e-10
948	1.09928586341e-09
949	1.50822945922e-09
950	1.20291545098e-09
951	9.15818435853e-10
952	1.11440438426e-09
953	1.3415313151e-09
954	1.4562323713e-09
955	1.53688872578e-09
956	1.43247734781e-09
957	1.2506859933e-09
958	1.43801652926e-09
959	1.92094636648e-09
960	2.26862196359e-09
961	2.16355086481e-09
962	2.11546827449e-09
963	2.26327129087e-09
964	2.13424530822e-09
965	2.24623068811e-09
966	3.20217927047e-09
967	3.80377689871e-09
968	3.95907688943e-09
969	4.40444078761e-09
970	4.1746303367e-09
971	5.63607630597e-09
972	6.5720490251e-09
973	7.60330793748e-09
974	8.46646274318e-09
975	9.39071946447e-09
976	1.08216129185e-08
977	1.01829957522e-08
978	8.69389759528e-09
979	6.84522966327e-09
980	6.65962330966e-09
981	9.24720952563e-09
982	1.65299250696e-08
983	2.57424657669e-08
984	2.32395777109e-08
985	2.26449727745e-08
986	2.41327680995e-08
987	2.56004217215e-08
988	2.29473673899e-08
989	2.6670264241e-08
990	4.21738726604e-08
991	4.94107861911e-08
992	4.97401962606e-08
993	4.08657065937e-08
994	4.67703611589e-08
995	7.06374931372e-08
996	9.49153435635e-08
997	9.82765566315e-08
998	7.70784224227e-08
999	7.98315336765e-08
1000	1.08001728953e-07
1001	1.84227632955e-07
1002	2.50713093841e-07
1003	2.85846095286e-07
1004	2.32046991731e-07
1005	1.77066536895e-07
1006	1.50459970717e-07
1007	1.4469253337e-07
1008	3.02122225058e-07
1009	3.99166238833e-07
1010	3.38742477444e-07
1011	2.58863621768e-07
1012	6.60257270489e-07
1013	9.83905417568e-07
1014	2.44240505698e-06
1015	3.57197794774e-06
1016	4.20348592965e-06
1017	5.78775673637e-06
1018	9.38887689721e-06
1019	4.23938270504e-05
1020	0.000273660259902
1021	0.000880240936756
1022	0.00361180004385
1023	0.0237802079255
