0	0.884299470253
1	9.82468653422e-05
2	0.010143856548
3	2.49618365005e-05
4	0.000773979546056
5	3.094923942e-06
6	2.68133017028e-05
7	3.40697511025e-07
8	4.38118857075e-06
9	2.17570912454e-07
10	1.25772281827e-06
11	9.40900575611e-08
12	5.32861074556e-07
13	6.72819874074e-08
14	2.50896430019e-07
15	2.65461327774e-08
16	6.80214764554e-08
17	1.33963094511e-08
18	5.14668271766e-08
19	1.00913499501e-08
20	2.64006824715e-08
21	6.33145578219e-09
22	1.44987311925e-08
23	5.24104399382e-09
24	1.37433158531e-08
25	3.33842110487e-09
26	4.42190120142e-09
27	1.71230615431e-09
28	1.88092875872e-09
29	1.17261685447e-09
30	9.85442882326e-10
31	8.20643414097e-10
32	6.69517777826e-10
33	3.90202387221e-10
34	6.05967448539e-10
35	2.27195859536e-10
36	4.34060850029e-10
37	1.94949085954e-10
38	2.22365761084e-10
39	1.45104160961e-10
40	1.37888649427e-10
41	1.26958507956e-10
42	1.72456501729e-10
43	1.0628613322e-10
44	1.49178386644e-10
45	8.99283940483e-11
46	1.53151577549e-10
47	7.15996435855e-11
48	1.53079822647e-10
49	5.49500414307e-11
50	1.49012578154e-10
51	3.47795576321e-11
52	1.28133431226e-10
53	3.68660479614e-11
54	8.99979184252e-11
55	2.46409374119e-11
56	7.24987854325e-11
57	2.21111656203e-11
58	4.34478447369e-11
59	1.78253056319e-11
60	2.26997817078e-11
61	1.34132198212e-11
62	1.67145278508e-11
63	1.21582435002e-11
64	1.63375068569e-11
65	1.16408807041e-11
66	1.50032205281e-11
67	1.11293283515e-11
68	1.43305522869e-11
69	8.78964282819e-12
70	1.30387272351e-11
71	6.95669755231e-12
72	1.0400076655e-11
73	4.84818594116e-12
74	6.40419150457e-12
75	3.70754674749e-12
76	3.90508387441e-12
77	3.51217868493e-12
78	3.38257354846e-12
79	4.22335728581e-12
80	3.40137393164e-12
81	3.73738269904e-12
82	3.15557326283e-12
83	3.22379656095e-12
84	2.54400998475e-12
85	2.50291316538e-12
86	2.05184202223e-12
87	2.47613961524e-12
88	2.73482616018e-12
89	2.58291463058e-12
90	3.11983674256e-12
91	2.82602221785e-12
92	3.02107255479e-12
93	2.16373196373e-12
94	2.37142170844e-12
95	1.77358852243e-12
96	1.57018877079e-12
97	1.51408803168e-12
98	1.41042647991e-12
99	1.48162096264e-12
100	1.72712287044e-12
101	1.39710522964e-12
102	1.50050952021e-12
103	1.19232671546e-12
104	1.00159417247e-12
105	9.15678549172e-13
106	7.15051165895e-13
107	5.96803511024e-13
108	5.02207366194e-13
109	4.29287193016e-13
110	3.95994834168e-13
111	3.93860484749e-13
112	4.18658214201e-13
113	4.01965463227e-13
114	3.50865816691e-13
115	3.75944154097e-13
116	2.44910017673e-13
117	3.120750795e-13
118	2.01658307156e-13
119	2.27911146722e-13
120	1.69880217751e-13
121	1.90486155642e-13
122	1.50147942627e-13
123	1.65052561589e-13
124	1.3800568916e-13
125	1.55305443241e-13
126	1.07152908031e-13
127	1.4918128037e-13
128	7.61500669364e-14
129	1.35933255473e-13
130	5.78539204159e-14
131	1.21146571255e-13
132	5.04508593749e-14
133	1.00136156188e-13
134	4.13817528328e-14
135	8.38555483784e-14
136	4.13845473073e-14
137	7.13841376104e-14
138	4.04755913324e-14
139	6.21804072956e-14
140	3.65106086899e-14
141	5.59400284399e-14
142	3.46501180479e-14
143	5.17625085464e-14
144	3.41923545068e-14
145	4.75527244536e-14
146	3.19308297724e-14
147	4.22474879587e-14
148	2.86374777581e-14
149	3.61905702359e-14
150	2.4746667209e-14
151	2.99358532733e-14
152	2.14390123207e-14
153	2.42995103346e-14
154	1.88233122405e-14
155	2.04974778339e-14
156	1.68177231381e-14
157	1.88869377176e-14
158	1.55744354711e-14
159	1.8586669435e-14
160	1.45016042585e-14
161	1.90363319895e-14
162	1.40983561539e-14
163	1.96898864288e-14
164	1.32345824287e-14
165	2.0182304418e-14
166	1.19839117407e-14
167	2.04417093376e-14
168	1.08090476863e-14
169	2.03234449661e-14
170	9.19391929748e-15
171	1.95304979428e-14
172	7.61965403507e-15
173	1.78282998846e-14
174	5.99904794404e-15
175	1.52331838231e-14
176	4.74293628818e-15
177	1.22130706161e-14
178	3.91592165795e-15
179	9.47984701855e-15
180	3.63979037935e-15
181	7.41688965617e-15
182	3.6934918014e-15
183	5.91400474074e-15
184	3.83464533458e-15
185	4.75488768842e-15
186	4.02731536599e-15
187	3.87514720443e-15
188	4.15083169917e-15
189	3.32174618279e-15
190	4.14635317773e-15
191	3.06766018465e-15
192	3.93499576661e-15
193	2.94834618812e-15
194	3.53207412441e-15
195	2.76878955637e-15
196	3.0103998842e-15
197	2.46640096796e-15
198	2.47167601026e-15
199	2.10902411416e-15
200	1.98439195423e-15
201	1.78387185432e-15
202	1.54069354945e-15
203	1.50345212423e-15
204	1.15353580571e-15
205	1.23425454387e-15
206	8.21832627678e-16
207	9.62662845949e-16
208	5.72111854257e-16
209	7.30084892132e-16
210	3.94545355959e-16
211	5.80533721595e-16
212	2.7652377063e-16
213	5.13762353986e-16
214	1.98082185954e-16
215	4.90567792018e-16
216	1.52323864545e-16
217	4.70150981032e-16
218	1.40542429653e-16
219	4.4763472551e-16
220	1.5255100781e-16
221	4.27979614186e-16
222	1.79105982435e-16
223	4.17339204593e-16
224	2.08332991684e-16
225	4.03220211138e-16
226	2.37123657201e-16
227	3.76593227862e-16
228	2.6339910711e-16
229	3.36996681149e-16
230	2.85911416078e-16
231	2.9267991164e-16
232	3.0149607601e-16
233	2.51391432e-16
234	3.07351371241e-16
235	2.13831235017e-16
236	3.02824403591e-16
237	1.78951141563e-16
238	2.88491228785e-16
239	1.45532540891e-16
240	2.66220632419e-16
241	1.15397624395e-16
242	2.37942114481e-16
243	8.97411008379e-17
244	2.05845397905e-16
245	6.87553001293e-17
246	1.72094921633e-16
247	5.14266648938e-17
248	1.38862245793e-16
249	3.72507852325e-17
250	1.07937390918e-16
251	2.62899020774e-17
252	8.05852043011e-17
253	1.86971328084e-17
254	5.75712726089e-17
255	1.41696914204e-17
256	3.92736246471e-17
257	1.20867955473e-17
258	2.5757782997e-17
259	1.19341144886e-17
260	1.67864494479e-17
261	1.34463469125e-17
262	1.18572191094e-17
263	1.6395377792e-17
264	1.02904363497e-17
265	2.0361840903e-17
266	1.13645663787e-17
267	2.47721401597e-17
268	1.43781615477e-17
269	2.91190390909e-17
270	1.86692628856e-17
271	3.310735034e-17
272	2.36071881665e-17
273	3.65969704895e-17
274	2.86313106606e-17
275	3.9462029522e-17
276	3.33022954412e-17
277	4.15414431889e-17
278	3.73240431693e-17
279	4.26929429105e-17
280	4.05155217801e-17
281	4.28859112658e-17
282	4.27729481274e-17
283	4.21931361885e-17
284	4.40486469113e-17
285	4.07471280775e-17
286	4.43573636556e-17
287	3.86714764709e-17
288	4.37765685973e-17
289	3.60782292329e-17
290	4.24275706326e-17
291	3.3084004245e-17
292	4.04473733712e-17
293	2.98310269832e-17
294	3.7970648244e-17
295	2.6472324022e-17
296	3.51255587388e-17
297	2.31456644816e-17
298	3.20346522639e-17
299	1.99549514436e-17
300	2.88162109875e-17
301	1.69704197319e-17
302	2.5575276519e-17
303	1.42415705964e-17
304	2.23995202286e-17
305	1.18013511167e-17
306	1.93574851752e-17
307	9.66783035864e-18
308	1.65028058988e-17
309	7.8401687053e-18
310	1.38754197021e-17
311	6.3010416953e-18
312	1.15026018765e-17
313	5.02290014478e-18
314	9.39817273173e-18
315	3.975484825e-18
316	7.56366224156e-18
317	3.1284484107e-18
318	5.99140714505e-18
319	2.45194025417e-18
320	4.66696533026e-18
321	1.91763306498e-18
322	3.57117193298e-18
323	1.49900406843e-18
324	2.68114388384e-18
325	1.17317322288e-18
326	1.97195503558e-18
327	9.21177355496e-19
328	1.41802225075e-18
329	7.27548730205e-19
330	9.94583796248e-19
331	5.7926787657e-19
332	6.78586215538e-19
333	4.65749307607e-19
334	4.49194302608e-19
335	3.78498828645e-19
336	2.8784875598e-19
337	3.10986744108e-19
338	1.78609847593e-19
339	2.5824212652e-19
340	1.08045177521e-19
341	2.16475464528e-19
342	6.5268524201e-20
343	1.82781370289e-19
344	4.16211575534e-20
345	1.55141377425e-19
346	3.05050161521e-20
347	1.32113174938e-19
348	2.69019256317e-20
349	1.12705159422e-19
350	2.72930431624e-20
351	9.61740773458e-20
352	2.92397629318e-20
353	8.20219515702e-20
354	3.13169956613e-20
355	6.98697723407e-20
356	3.26773105302e-20
357	5.94930048772e-20
358	3.29941637967e-20
359	5.06599654603e-20
360	3.22033733733e-20
361	4.31863259154e-20
362	3.04752058189e-20
363	3.68861061285e-20
364	2.80510323098e-20
365	3.1614708054e-20
366	2.52204566437e-20
367	2.72176351203e-20
368	2.22212658891e-20
369	2.35790759945e-20
370	1.92560100643e-20
371	2.05618355637e-20
372	1.64736437268e-20
373	1.80596282241e-20
374	1.39688616118e-20
375	1.59669925688e-20
376	1.17981688112e-20
377	1.42067093846e-20
378	9.96267417968e-21
379	1.26947865597e-20
380	8.45029862601e-21
381	1.13794791565e-20
382	7.21561250582e-21
383	1.0200557013e-20
384	6.21642598606e-21
385	9.1397314097e-21
386	5.40218430534e-21
387	8.15448374138e-21
388	4.73238232399e-21
389	7.23944104393e-21
390	4.16757945265e-21
391	6.37463234514e-21
392	3.6810459102e-21
393	5.56562613998e-21
394	3.24582473166e-21
395	4.80643151808e-21
396	2.85140954762e-21
397	4.10901232566e-21
398	2.48595429683e-21
399	3.46962597094e-21
400	2.15010160183e-21
401	2.89449725848e-21
402	1.83850914535e-21
403	2.38366388359e-21
404	1.55685606387e-21
405	1.94385781692e-21
406	1.30572933624e-21
407	1.57103685159e-21
408	1.08670413363e-21
409	1.26426167994e-21
410	9.02482738996e-22
411	1.01870438581e-21
412	7.55654754673e-22
413	8.29699241611e-22
414	6.41399777624e-22
415	6.89544329996e-22
416	5.60751572659e-22
417	5.92356001636e-22
418	5.07972945355e-22
419	5.29740875253e-22
420	4.78491944249e-22
421	4.94217218521e-22
422	4.69126700472e-22
423	4.78026595506e-22
424	4.74677356951e-22
425	4.74706192621e-22
426	4.88273070096e-22
427	4.7883233772e-22
428	5.07812657952e-22
429	4.85262833528e-22
430	5.29471758979e-22
431	4.91966465705e-22
432	5.49449018272e-22
433	4.96515179637e-22
434	5.65553103142e-22
435	4.95692187894e-22
436	5.76627017152e-22
437	4.89292741525e-22
438	5.79419558212e-22
439	4.79136728027e-22
440	5.74045452268e-22
441	4.61966589931e-22
442	5.61236981186e-22
443	4.39503405322e-22
444	5.4145852075e-22
445	4.13273098873e-22
446	5.15849537399e-22
447	3.83229534325e-22
448	4.85442631172e-22
449	3.51717946014e-22
450	4.5108600449e-22
451	3.19783182416e-22
452	4.14026738762e-22
453	2.87594510024e-22
454	3.75643894874e-22
455	2.5498912078e-22
456	3.36742491072e-22
457	2.24131638359e-22
458	2.98958155757e-22
459	1.94066715686e-22
460	2.62824574596e-22
461	1.66928692083e-22
462	2.28505077734e-22
463	1.42532913273e-22
464	1.96284850944e-22
465	1.20932184912e-22
466	1.67094551869e-22
467	1.0114470179e-22
468	1.40899496857e-22
469	8.43034215851e-23
470	1.1768009203e-22
471	7.01423392076e-23
472	9.72550306752e-23
473	5.8169327829e-23
474	7.97740080947e-23
475	4.78525986538e-23
476	6.48694297614e-23
477	3.94921682823e-23
478	5.26171753472e-23
479	3.28278739105e-23
480	4.25601454504e-23
481	2.71808188185e-23
482	3.44072414147e-23
483	2.25718790604e-23
484	2.77385864376e-23
485	1.86298393862e-23
486	2.25669880854e-23
487	1.54376479373e-23
488	1.85306264936e-23
489	1.28091557406e-23
490	1.54043740368e-23
491	1.07155944256e-23
492	1.30379291893e-23
493	9.10183977619e-24
494	1.13719079194e-23
495	7.77557730889e-24
496	1.00760291816e-23
497	6.69837447078e-24
498	9.02513235767e-24
499	5.91290120736e-24
500	8.32998232761e-24
501	5.33534216392e-24
502	7.83624830632e-24
503	4.85788577109e-24
504	7.42586557832e-24
505	4.53075357517e-24
506	7.15462193877e-24
507	4.26347592195e-24
508	6.95106232539e-24
509	4.15267409778e-24
510	6.8587722279e-24
511	4.08624406384e-24
512	6.86905676433e-24
513	4.08624440615e-24
514	6.85877266829e-24
515	4.15267406183e-24
516	6.95106214482e-24
517	4.26347580129e-24
518	7.15462195333e-24
519	4.53075355502e-24
520	7.42586555284e-24
521	4.85788578652e-24
522	7.83624821291e-24
523	5.33534216291e-24
524	8.32998241176e-24
525	5.91290120867e-24
526	9.02513300921e-24
527	6.69837440315e-24
528	1.00760291818e-23
529	7.77557731812e-24
530	1.13719076376e-23
531	9.10183975675e-24
532	1.30379291446e-23
533	1.07155944208e-23
534	1.54043743422e-23
535	1.28091556876e-23
536	1.85306264744e-23
537	1.543764789e-23
538	2.25669884489e-23
539	1.86298393883e-23
540	2.77385865443e-23
541	2.2571879071e-23
542	3.44072413219e-23
543	2.71808188523e-23
544	4.25601454539e-23
545	3.28278739265e-23
546	5.26171748747e-23
547	3.9492168238e-23
548	6.48694297075e-23
549	4.78525985875e-23
550	7.97740085964e-23
551	5.81693277961e-23
552	9.72550306862e-23
553	7.01423391414e-23
554	1.1768009179e-22
555	8.43034216522e-23
556	1.40899497015e-22
557	1.01144701813e-22
558	1.67094552166e-22
559	1.20932184706e-22
560	1.96284850943e-22
561	1.42532913163e-22
562	2.28505077424e-22
563	1.66928692155e-22
564	2.62824574637e-22
565	1.94066715953e-22
566	2.98958154523e-22
567	2.24131638078e-22
568	3.36742491115e-22
569	2.5498912055e-22
570	3.7564389566e-22
571	2.87594510079e-22
572	4.14026738786e-22
573	3.19783182918e-22
574	4.51086003136e-22
575	3.51717945292e-22
576	4.85442631171e-22
577	3.83229534127e-22
578	5.15849537604e-22
579	4.13273098465e-22
580	5.41458521104e-22
581	4.39503405025e-22
582	5.61236982284e-22
583	4.61966589782e-22
584	5.74045452095e-22
585	4.79136727697e-22
586	5.79419556712e-22
587	4.89292741525e-22
588	5.76627017671e-22
589	4.95692187877e-22
590	5.65553104624e-22
591	4.96515179841e-22
592	5.49449018264e-22
593	4.9196646588e-22
594	5.29471760698e-22
595	4.85262833869e-22
596	5.07812659377e-22
597	4.78832337735e-22
598	4.88273071753e-22
599	4.74706192537e-22
600	4.74677356971e-22
601	4.78026595526e-22
602	4.69126700129e-22
603	4.94217218672e-22
604	4.78491944099e-22
605	5.29740875226e-22
606	5.07972948568e-22
607	5.92356001679e-22
608	5.60751572658e-22
609	6.89544330048e-22
610	6.41399772775e-22
611	8.29699242441e-22
612	7.55654754358e-22
613	1.0187043862e-21
614	9.02482740376e-22
615	1.26426167961e-21
616	1.0867041336e-21
617	1.57103685147e-21
618	1.30572933594e-21
619	1.94385781702e-21
620	1.55685606575e-21
621	2.38366388363e-21
622	1.83850913799e-21
623	2.89449725803e-21
624	2.15010160192e-21
625	3.46962597092e-21
626	2.48595430294e-21
627	4.10901232568e-21
628	2.8514095493e-21
629	4.80643151786e-21
630	3.24582473212e-21
631	5.56562613944e-21
632	3.68104591063e-21
633	6.37463234391e-21
634	4.16757945194e-21
635	7.23944104388e-21
636	4.73238231963e-21
637	8.15448374517e-21
638	5.40218429575e-21
639	9.13973140892e-21
640	6.21642598606e-21
641	1.02005570204e-20
642	7.21561251668e-21
643	1.13794791607e-20
644	8.45029863079e-21
645	1.26947865585e-20
646	9.96267417305e-21
647	1.42067093852e-20
648	1.17981688134e-20
649	1.59669925676e-20
650	1.39688616111e-20
651	1.80596282239e-20
652	1.64736437268e-20
653	2.0561835564e-20
654	1.9256010055e-20
655	2.35790759946e-20
656	2.22212658891e-20
657	2.72176351198e-20
658	2.52204566475e-20
659	3.16147080547e-20
660	2.80510323112e-20
661	3.68861061291e-20
662	3.04752058144e-20
663	4.31863259166e-20
664	3.22033733734e-20
665	5.06599654576e-20
666	3.29941638141e-20
667	5.9493004878e-20
668	3.26773105389e-20
669	6.98697723373e-20
670	3.13169956824e-20
671	8.2021951564e-20
672	2.92397629318e-20
673	9.61740773343e-20
674	2.72930431541e-20
675	1.12705159422e-19
676	2.6901925632e-20
677	1.32113174934e-19
678	3.05050161693e-20
679	1.55141377415e-19
680	4.1621157553e-20
681	1.82781370289e-19
682	6.52685242089e-20
683	2.16475464523e-19
684	1.08045177514e-19
685	2.58242126521e-19
686	1.78609847509e-19
687	3.10986744125e-19
688	2.8784875598e-19
689	3.78498828664e-19
690	4.49194302656e-19
691	4.65749307606e-19
692	6.78586215536e-19
693	5.79267876577e-19
694	9.94583796247e-19
695	7.2754873021e-19
696	1.41802225075e-18
697	9.21177355513e-19
698	1.97195503557e-18
699	1.17317322287e-18
700	2.68114388376e-18
701	1.49900406839e-18
702	3.5711719329e-18
703	1.91763306498e-18
704	4.66696533026e-18
705	2.45194025418e-18
706	5.99140714517e-18
707	3.12844841071e-18
708	7.56366224154e-18
709	3.975484825e-18
710	9.39817273166e-18
711	5.02290014475e-18
712	1.15026018765e-17
713	6.3010416953e-18
714	1.38754197023e-17
715	7.84016870528e-18
716	1.65028058988e-17
717	9.66783035865e-18
718	1.93574851752e-17
719	1.18013511167e-17
720	2.23995202286e-17
721	1.42415705964e-17
722	2.55752765189e-17
723	1.69704197318e-17
724	2.88162109877e-17
725	1.99549514436e-17
726	3.20346522641e-17
727	2.31456644816e-17
728	3.51255587388e-17
729	2.6472324022e-17
730	3.79706482437e-17
731	2.98310269831e-17
732	4.04473733713e-17
733	3.30840042451e-17
734	4.24275706341e-17
735	3.60782292329e-17
736	4.37765685973e-17
737	3.86714764709e-17
738	4.43573636544e-17
739	4.07471280776e-17
740	4.40486469116e-17
741	4.21931361886e-17
742	4.27729481275e-17
743	4.28859112658e-17
744	4.05155217801e-17
745	4.26929429105e-17
746	3.73240431688e-17
747	4.15414431888e-17
748	3.33022954413e-17
749	3.9462029522e-17
750	2.86313106606e-17
751	3.65969704894e-17
752	2.36071881665e-17
753	3.310735034e-17
754	1.86692628867e-17
755	2.91190390909e-17
756	1.43781615477e-17
757	2.47721401597e-17
758	1.1364566379e-17
759	2.0361840903e-17
760	1.02904363497e-17
761	1.6395377792e-17
762	1.1857219109e-17
763	1.34463469126e-17
764	1.67864494485e-17
765	1.19341144887e-17
766	2.57577829916e-17
767	1.20867955474e-17
768	3.92736246471e-17
769	1.41696914202e-17
770	5.75712726048e-17
771	1.86971328085e-17
772	8.05852043017e-17
773	2.62899020773e-17
774	1.07937390918e-16
775	3.72507852325e-17
776	1.38862245794e-16
777	5.14266648937e-17
778	1.72094921633e-16
779	6.87553001293e-17
780	2.05845397905e-16
781	8.97411008378e-17
782	2.37942114481e-16
783	1.15397624395e-16
784	2.66220632419e-16
785	1.45532540891e-16
786	2.88491228787e-16
787	1.78951141563e-16
788	3.02824403591e-16
789	2.13831235017e-16
790	3.07351371241e-16
791	2.51391432e-16
792	3.0149607601e-16
793	2.92679911641e-16
794	2.85911416077e-16
795	3.36996681149e-16
796	2.63399107111e-16
797	3.76593227862e-16
798	2.37123657202e-16
799	4.03220211138e-16
800	2.08332991684e-16
801	4.17339204593e-16
802	1.79105982435e-16
803	4.27979614185e-16
804	1.52551007811e-16
805	4.47634725509e-16
806	1.40542429653e-16
807	4.70150981032e-16
808	1.52323864545e-16
809	4.90567792018e-16
810	1.98082185954e-16
811	5.13762353986e-16
812	2.76523770631e-16
813	5.80533721595e-16
814	3.94545355958e-16
815	7.30084892133e-16
816	5.72111854257e-16
817	9.62662845949e-16
818	8.21832627677e-16
819	1.23425454387e-15
820	1.15353580571e-15
821	1.50345212423e-15
822	1.54069354945e-15
823	1.78387185432e-15
824	1.98439195423e-15
825	2.10902411416e-15
826	2.47167601025e-15
827	2.46640096796e-15
828	3.0103998842e-15
829	2.76878955637e-15
830	3.53207412443e-15
831	2.94834618812e-15
832	3.93499576661e-15
833	3.06766018464e-15
834	4.14635317771e-15
835	3.32174618279e-15
836	4.15083169917e-15
837	3.87514720443e-15
838	4.02731536599e-15
839	4.75488768842e-15
840	3.83464533458e-15
841	5.91400474074e-15
842	3.6934918014e-15
843	7.41688965617e-15
844	3.63979037935e-15
845	9.47984701855e-15
846	3.91592165795e-15
847	1.22130706161e-14
848	4.74293628818e-15
849	1.52331838231e-14
850	5.99904794404e-15
851	1.78282998846e-14
852	7.61965403508e-15
853	1.95304979428e-14
854	9.19391929748e-15
855	2.03234449661e-14
856	1.08090476863e-14
857	2.04417093376e-14
858	1.19839117407e-14
859	2.0182304418e-14
860	1.32345824287e-14
861	1.96898864288e-14
862	1.40983561539e-14
863	1.90363319895e-14
864	1.45016042585e-14
865	1.8586669435e-14
866	1.55744354711e-14
867	1.88869377176e-14
868	1.68177231381e-14
869	2.04974778339e-14
870	1.88233122405e-14
871	2.42995103346e-14
872	2.14390123207e-14
873	2.99358532733e-14
874	2.4746667209e-14
875	3.61905702359e-14
876	2.86374777582e-14
877	4.22474879587e-14
878	3.19308297725e-14
879	4.75527244536e-14
880	3.41923545068e-14
881	5.17625085464e-14
882	3.46501180479e-14
883	5.59400284399e-14
884	3.65106086899e-14
885	6.21804072956e-14
886	4.04755913324e-14
887	7.13841376104e-14
888	4.13845473073e-14
889	8.38555483784e-14
890	4.13817528328e-14
891	1.00136156188e-13
892	5.0450859375e-14
893	1.21146571255e-13
894	5.78539204159e-14
895	1.35933255473e-13
896	7.61500669364e-14
897	1.4918128037e-13
898	1.07152908031e-13
899	1.55305443241e-13
900	1.3800568916e-13
901	1.65052561589e-13
902	1.50147942627e-13
903	1.90486155642e-13
904	1.69880217751e-13
905	2.27911146722e-13
906	2.01658307156e-13
907	3.120750795e-13
908	2.44910017673e-13
909	3.75944154097e-13
910	3.50865816691e-13
911	4.01965463227e-13
912	4.18658214201e-13
913	3.93860484749e-13
914	3.95994834168e-13
915	4.29287193016e-13
916	5.02207366194e-13
917	5.96803511024e-13
918	7.15051165895e-13
919	9.15678549172e-13
920	1.00159417247e-12
921	1.19232671546e-12
922	1.50050952021e-12
923	1.39710522964e-12
924	1.72712287044e-12
925	1.48162096264e-12
926	1.41042647991e-12
927	1.51408803168e-12
928	1.57018877079e-12
929	1.77358852243e-12
930	2.37142170844e-12
931	2.16373196373e-12
932	3.02107255479e-12
933	2.82602221785e-12
934	3.11983674256e-12
935	2.58291463058e-12
936	2.73482616018e-12
937	2.47613961524e-12
938	2.05184202223e-12
939	2.50291316538e-12
940	2.54400998475e-12
941	3.22379656095e-12
942	3.15557326283e-12
943	3.73738269904e-12
944	3.40137393164e-12
945	4.22335728581e-12
946	3.38257354846e-12
947	3.51217868493e-12
948	3.90508387441e-12
949	3.70754674749e-12
950	6.40419150457e-12
951	4.84818594116e-12
952	1.0400076655e-11
953	6.95669755231e-12
954	1.30387272351e-11
955	8.78964282819e-12
956	1.43305522869e-11
957	1.11293283515e-11
958	1.50032205281e-11
959	1.16408807041e-11
960	1.63375068569e-11
961	1.21582435002e-11
962	1.67145278508e-11
963	1.34132198212e-11
964	2.26997817078e-11
965	1.78253056319e-11
966	4.34478447369e-11
967	2.21111656203e-11
968	7.24987854325e-11
969	2.46409374119e-11
970	8.99979184252e-11
971	3.68660479614e-11
972	1.28133431226e-10
973	3.47795576321e-11
974	1.49012578154e-10
975	5.49500414307e-11
976	1.53079822647e-10
977	7.15996435855e-11
978	1.53151577549e-10
979	8.99283940483e-11
980	1.49178386644e-10
981	1.0628613322e-10
982	1.72456501729e-10
983	1.26958507956e-10
984	1.37888649427e-10
985	1.45104160961e-10
986	2.22365761084e-10
987	1.94949085954e-10
988	4.34060850029e-10
989	2.27195859536e-10
990	6.05967448539e-10
991	3.90202387221e-10
992	6.69517777826e-10
993	8.20643414097e-10
994	9.85442882326e-10
995	1.17261685447e-09
996	1.88092875872e-09
997	1.71230615431e-09
998	4.42190120142e-09
999	3.33842110487e-09
1000	1.37433158531e-08
1001	5.24104399382e-09
1002	1.44987311925e-08
1003	6.33145578219e-09
1004	2.64006824715e-08
1005	1.00913499501e-08
1006	5.14668271766e-08
1007	1.33963094511e-08
1008	6.80214764554e-08
1009	2.65461327774e-08
1010	2.50896430019e-07
1011	6.72819874074e-08
1012	5.32861074556e-07
1013	9.40900575611e-08
1014	1.25772281827e-06
1015	2.17570912454e-07
1016	4.38118857075e-06
1017	3.40697511025e-07
1018	2.68133017028e-05
1019	3.094923942e-06
1020	0.000773979546056
1021	2.49618365005e-05
1022	0.010143856548
1023	9.82468653422e-05
