0	0.882311917253
1	4.8373160905e-16
2	0.0103765593399
3	1.81641308619e-16
4	0.000883579320365
5	2.69735100684e-17
6	5.27274911486e-05
7	4.10045524706e-18
8	3.9021167125e-06
9	2.59769508389e-18
10	3.04746486812e-06
11	3.12745070153e-18
12	4.37840334052e-06
13	3.0446960698e-18
14	1.83177987637e-06
15	2.0894707959e-18
16	8.38066058319e-07
17	1.31755479229e-18
18	4.37473493976e-07
19	8.62947528209e-19
20	2.65429971207e-07
21	7.80777189423e-19
22	2.24275089476e-07
23	7.02184046146e-19
24	1.30572273363e-07
25	5.42925426572e-19
26	7.69022539206e-08
27	3.96968324704e-19
28	4.674584827e-08
29	4.05911135295e-19
30	7.66406853587e-08
31	4.96476958934e-19
32	1.05066387548e-07
33	6.24975072706e-19
34	7.56728939659e-08
35	4.65397570944e-19
36	3.89221236932e-08
37	3.12221873798e-19
38	4.86957052232e-08
39	3.59887110801e-19
40	3.59776062239e-08
41	3.6381229604e-19
42	3.37384713124e-08
43	3.06989363509e-19
44	2.47969021091e-08
45	3.24980757157e-19
46	3.01923222991e-08
47	3.03202374387e-19
48	2.92755391844e-08
49	2.38552707534e-19
50	2.00085922987e-08
51	1.78779154735e-19
52	2.6456535046e-08
53	1.49470266717e-19
54	1.24025762436e-08
55	1.23134302778e-19
56	1.48261363836e-08
57	1.0343690748e-19
58	7.01668544271e-09
59	1.08452267212e-19
60	1.21216568676e-08
61	9.35591133896e-20
62	1.39630413177e-08
63	1.0343497407e-19
64	1.13499781278e-08
65	9.19915292185e-20
66	5.54130537708e-09
67	8.19590568748e-20
68	5.44424391264e-09
69	7.20643075056e-20
70	8.90820226619e-09
71	7.12991758132e-20
72	4.92077833299e-09
73	6.5500707103e-20
74	3.75932725172e-09
75	7.30429314439e-20
76	3.6062814655e-09
77	8.29733645791e-20
78	4.56032563585e-09
79	8.38369628527e-20
80	3.65125160525e-09
81	7.66752456478e-20
82	3.31969960063e-09
83	6.86184366619e-20
84	2.65954506392e-09
85	6.45549647309e-20
86	2.65073576029e-09
87	6.43906334789e-20
88	2.17519157591e-09
89	6.19095641832e-20
90	2.46903286849e-09
91	5.15116757355e-20
92	2.02187064337e-09
93	4.57256392399e-20
94	1.83424526497e-09
95	3.81631956385e-20
96	1.30681296108e-09
97	2.82699328699e-20
98	1.06001508991e-09
99	2.39705580023e-20
100	8.7205020228e-10
101	2.24074745473e-20
102	7.01740941914e-10
103	2.12055697897e-20
104	6.51274793423e-10
105	2.34173881309e-20
106	6.32849273052e-10
107	2.81120784292e-20
108	7.00332933644e-10
109	2.91538390838e-20
110	6.39386994829e-10
111	2.92817158769e-20
112	6.04335380878e-10
113	2.88203012725e-20
114	5.54288902518e-10
115	2.90473250207e-20
116	5.4575876323e-10
117	2.76599523962e-20
118	5.01686032356e-10
119	2.71514361576e-20
120	4.39442404745e-10
121	2.48838838151e-20
122	4.34859458836e-10
123	2.37990495576e-20
124	4.11270029989e-10
125	2.10381982362e-20
126	3.71451465462e-10
127	1.79469124416e-20
128	2.39004168225e-10
129	1.54764989304e-20
130	2.27047354114e-10
131	1.4433756751e-20
132	2.3714433504e-10
133	1.28980754397e-20
134	2.00703761646e-10
135	1.14942094054e-20
136	1.76827056627e-10
137	9.95560193381e-21
138	1.40582312092e-10
139	8.76395953854e-21
140	1.28289102456e-10
141	7.69056839089e-21
142	1.10518040907e-10
143	7.04918409057e-21
144	9.87292810818e-11
145	6.50223128496e-21
146	9.06317030861e-11
147	5.87766009281e-21
148	6.43220849854e-11
149	5.38706069522e-21
150	7.64185619663e-11
151	4.99050297626e-21
152	5.71127232827e-11
153	4.94565955533e-21
154	7.0050718665e-11
155	4.90673644864e-21
156	6.60603068339e-11
157	4.92241734815e-21
158	6.43018282027e-11
159	4.83922951793e-21
160	5.66305042214e-11
161	4.54679876291e-21
162	4.6871793718e-11
163	4.29965843612e-21
164	4.13826976513e-11
165	4.22759721437e-21
166	4.22739662869e-11
167	4.0596447476e-21
168	4.09189308098e-11
169	3.92162264462e-21
170	3.79309732085e-11
171	3.74797264336e-21
172	3.11247877187e-11
173	3.4195146184e-21
174	3.35410756925e-11
175	3.07564203042e-21
176	2.45151618329e-11
177	2.88350440902e-21
178	2.47751897e-11
179	2.67003270526e-21
180	2.83913514208e-11
181	2.43821661205e-21
182	2.45883930091e-11
183	2.30515054248e-21
184	2.09222969569e-11
185	2.06650930828e-21
186	2.00850100336e-11
187	1.75915484407e-21
188	1.73599861114e-11
189	1.54144932455e-21
190	1.02119701583e-11
191	1.3797770368e-21
192	1.13224281039e-11
193	1.1337090532e-21
194	1.52418888484e-11
195	9.78132717398e-22
196	1.24212364559e-11
197	8.4869402122e-22
198	1.17880132676e-11
199	6.83369862352e-22
200	1.36401083411e-11
201	5.26405319078e-22
202	1.27899326001e-11
203	4.24384143852e-22
204	8.00137204122e-12
205	3.50694798476e-22
206	7.25735995804e-12
207	2.67212548679e-22
208	8.80074386298e-12
209	2.27995349421e-22
210	7.46510970514e-12
211	2.01724991541e-22
212	6.31855671944e-12
213	1.89941969106e-22
214	6.42443760813e-12
215	1.66318279151e-22
216	6.43655033419e-12
217	1.68466132828e-22
218	3.79340064964e-12
219	1.8137078594e-22
220	2.53063649058e-12
221	1.89682671348e-22
222	3.32848007214e-12
223	1.86252932887e-22
224	3.03454549596e-12
225	2.1389405874e-22
226	2.2950790456e-12
227	2.22296706829e-22
228	2.56112386064e-12
229	2.18891719947e-22
230	3.05826377928e-12
231	2.35824627232e-22
232	2.69235105675e-12
233	2.25339827028e-22
234	2.34679507404e-12
235	2.08615929105e-22
236	2.01764569708e-12
237	2.0773094639e-22
238	1.93499221772e-12
239	1.81492163311e-22
240	1.96081140306e-12
241	1.57488150912e-22
242	1.56381452167e-12
243	1.51925752416e-22
244	1.61742137506e-12
245	1.2681475073e-22
246	2.00390748392e-12
247	9.84671255389e-23
248	1.46463964966e-12
249	9.33275401892e-23
250	1.03131108091e-12
251	7.52188923359e-23
252	1.29139622088e-12
253	5.18851610554e-23
254	1.00111129253e-12
255	5.1368026969e-23
256	5.95567363782e-13
257	4.3434113083e-23
258	7.98007904645e-13
259	2.88762379797e-23
260	8.2088404e-13
261	2.85103513818e-23
262	4.95535161689e-13
263	2.8190207843e-23
264	5.44050615268e-13
265	2.03445394279e-23
266	6.42068342245e-13
267	1.84868868011e-23
268	3.99418164201e-13
269	2.09475630838e-23
270	2.85165176326e-13
271	1.91115348209e-23
272	4.33143623712e-13
273	1.6311311099e-23
274	3.92329276122e-13
275	1.71732008045e-23
276	2.27133835958e-13
277	1.8316471076e-23
278	2.72276087007e-13
279	1.55370329169e-23
280	3.43427320204e-13
281	1.46192727819e-23
282	2.46029468385e-13
283	1.53659962865e-23
284	1.93719056302e-13
285	1.41568331357e-23
286	2.61115511206e-13
287	1.27120035888e-23
288	2.68909689736e-13
289	1.21622110341e-23
290	2.08757587277e-13
291	1.15013228837e-23
292	1.98360379329e-13
293	1.03249728519e-23
294	2.0740378921e-13
295	9.30499705399e-24
296	1.65591463298e-13
297	8.87943933073e-24
298	1.17283223704e-13
299	7.91189830189e-24
300	9.91473722883e-14
301	7.55091711131e-24
302	9.78700967216e-14
303	7.31570526847e-24
304	1.00256249608e-13
305	6.10922594699e-24
306	8.81424262325e-14
307	5.95270967714e-24
308	7.1539805726e-14
309	6.18570173663e-24
310	8.29306035543e-14
311	4.53958088084e-24
312	8.13842790109e-14
313	4.56000579514e-24
314	5.22402681663e-14
315	4.98047601559e-24
316	6.20261180337e-14
317	3.48579440625e-24
318	8.00586985742e-14
319	3.59706941242e-24
320	6.00961475863e-14
321	4.00345792645e-24
322	5.72287501289e-14
323	2.64582303884e-24
324	5.87140705554e-14
325	2.77603138136e-24
326	3.89325981179e-14
327	3.19703953379e-24
328	3.92245842658e-14
329	1.85645628335e-24
330	3.93816020726e-14
331	2.17920764917e-24
332	2.23879387111e-14
333	2.68921289657e-24
334	2.91703176119e-14
335	1.45105669493e-24
336	3.4222014504e-14
337	1.69802790724e-24
338	1.48827079279e-14
339	2.43303888015e-24
340	1.7484160548e-14
341	1.45518973131e-24
342	2.89520761946e-14
343	1.44707478743e-24
344	1.45237703065e-14
345	2.22702595505e-24
346	1.03791216034e-14
347	1.62232712316e-24
348	2.27567953786e-14
349	1.26268340186e-24
350	1.63574131792e-14
351	1.98999675601e-24
352	8.49232107086e-15
353	1.71894052192e-24
354	1.6898930098e-14
355	1.1987293558e-24
356	1.62520347607e-14
357	1.62851894295e-24
358	8.27966497411e-15
359	1.63827796977e-24
360	1.22776583857e-14
361	1.0893880451e-24
362	1.46842482952e-14
363	1.20575627012e-24
364	8.9013728267e-15
365	1.33165644074e-24
366	9.22869226497e-15
367	9.61229765645e-25
368	1.23556132036e-14
369	8.4197970419e-25
370	9.35942253206e-15
371	9.32400585741e-25
372	6.97311921041e-15
373	7.8056802479e-25
374	8.69562649391e-15
375	5.99735765188e-25
376	8.83621053781e-15
377	5.62295230182e-25
378	5.99157258067e-15
379	6.3481145743e-25
380	5.71132392293e-15
381	5.03309839155e-25
382	8.08387353164e-15
383	3.43263306781e-25
384	6.52507177031e-15
385	4.88173850476e-25
386	3.74511038042e-15
387	4.99020736812e-25
388	5.82801799229e-15
389	2.47141681861e-25
390	6.09236394983e-15
391	3.71094373678e-25
392	2.6199961593e-15
393	4.9901745167e-25
394	3.70163411999e-15
395	2.54547191728e-25
396	5.59463923927e-15
397	2.90391065997e-25
398	2.97587496806e-15
399	4.54009130924e-25
400	2.59703275309e-15
401	2.75232656597e-25
402	4.58143035483e-15
403	2.24286972517e-25
404	3.1634016385e-15
405	3.84193261692e-25
406	2.07356614988e-15
407	2.72572706675e-25
408	3.45535179245e-15
409	1.82832814359e-25
410	3.05831723008e-15
411	2.88033072049e-25
412	1.97507520325e-15
413	2.4898833305e-25
414	2.65688462715e-15
415	1.47503482482e-25
416	2.66564052884e-15
417	2.05755358314e-25
418	1.82485259209e-15
419	2.10006667578e-25
420	2.11946273637e-15
421	1.18170903567e-25
422	2.22739547042e-15
423	1.43972809824e-25
424	1.58120188198e-15
425	1.64273588434e-25
426	1.61702609713e-15
427	1.01928899114e-25
428	1.76682781665e-15
429	9.73053953239e-26
430	1.26721692601e-15
431	1.28571957349e-25
432	1.16834271148e-15
433	9.08640486334e-26
434	1.39050559712e-15
435	7.27803881372e-26
436	1.12061743062e-15
437	9.36416287677e-26
438	8.66044122355e-16
439	8.41471632337e-26
440	1.00357541516e-15
441	5.73869277702e-26
442	9.35217670692e-16
443	6.5289607195e-26
444	6.29260830096e-16
445	7.02282117129e-26
446	6.24684363465e-16
447	5.32392223157e-26
448	7.48760135076e-16
449	4.04788546855e-26
450	5.59669474829e-16
451	5.51997801535e-26
452	3.98465702672e-16
453	4.90331221862e-26
454	5.4984558159e-16
455	2.84939660306e-26
456	5.11685517151e-16
457	3.72798875729e-26
458	2.74719868792e-16
459	4.53625283417e-26
460	3.41897395029e-16
461	2.36704311635e-26
462	4.43349274865e-16
463	2.36289355281e-26
464	2.53894578532e-16
465	3.73208561538e-26
466	2.0403781468e-16
467	2.48856846886e-26
468	3.45995198185e-16
469	1.48328915376e-26
470	2.62484218935e-16
471	2.75286664562e-26
472	1.37301693214e-16
473	2.6157180737e-26
474	2.34252709891e-16
475	1.32066463168e-26
476	2.55700313832e-16
477	1.86381433774e-26
478	1.33222926501e-16
479	2.41160620894e-26
480	1.5025730033e-16
481	1.46454003794e-26
482	2.12762759764e-16
483	1.2074704089e-26
484	1.38826985378e-16
485	2.0839707376e-26
486	9.79476530502e-17
487	1.5600782037e-26
488	1.53855751526e-16
489	1.06320679913e-26
490	1.4119771399e-16
491	1.46339073507e-26
492	9.14232125808e-17
493	1.44410558049e-26
494	1.09893874389e-16
495	1.02286646641e-26
496	1.22055421657e-16
497	1.15965140373e-26
498	8.52812635804e-17
499	1.37788217593e-26
500	7.96672010327e-17
501	1.1373030244e-26
502	9.72160017125e-17
503	9.91193086221e-27
504	8.65854176793e-17
505	1.31054629907e-26
506	7.58514961539e-17
507	1.28084790424e-26
508	8.43164846848e-17
509	1.20028889251e-26
510	8.04412750729e-17
511	1.81189418205e-26
512	7.16705520313e-17
513	1.81189418205e-26
514	8.04412750727e-17
515	1.20028889251e-26
516	8.43164846833e-17
517	1.28084790424e-26
518	7.58514961532e-17
519	1.31054629907e-26
520	8.65854176794e-17
521	9.91193086221e-27
522	9.72160017124e-17
523	1.1373030244e-26
524	7.96672010322e-17
525	1.37788217593e-26
526	8.52812635809e-17
527	1.15965140373e-26
528	1.22055421657e-16
529	1.02286646641e-26
530	1.09893874389e-16
531	1.44410558049e-26
532	9.14232125808e-17
533	1.46339073507e-26
534	1.4119771399e-16
535	1.06320679913e-26
536	1.53855751526e-16
537	1.5600782037e-26
538	9.79476530505e-17
539	2.0839707376e-26
540	1.38826985378e-16
541	1.2074704089e-26
542	2.12762759764e-16
543	1.46454003794e-26
544	1.5025730033e-16
545	2.41160620894e-26
546	1.33222926498e-16
547	1.86381433774e-26
548	2.55700313832e-16
549	1.32066463168e-26
550	2.34252709891e-16
551	2.6157180737e-26
552	1.37301693214e-16
553	2.75286664562e-26
554	2.62484218935e-16
555	1.48328915376e-26
556	3.45995198184e-16
557	2.48856846886e-26
558	2.0403781468e-16
559	3.73208561538e-26
560	2.53894578532e-16
561	2.36289355281e-26
562	4.43349274866e-16
563	2.36704311635e-26
564	3.41897395029e-16
565	4.53625283417e-26
566	2.74719868792e-16
567	3.72798875729e-26
568	5.1168551715e-16
569	2.84939660306e-26
570	5.4984558159e-16
571	4.90331221862e-26
572	3.98465702673e-16
573	5.51997801535e-26
574	5.59669474829e-16
575	4.04788546855e-26
576	7.48760135076e-16
577	5.32392223157e-26
578	6.24684363474e-16
579	7.02282117129e-26
580	6.29260830096e-16
581	6.5289607195e-26
582	9.35217670691e-16
583	5.73869277702e-26
584	1.00357541516e-15
585	8.41471632336e-26
586	8.66044122354e-16
587	9.36416287677e-26
588	1.12061743062e-15
589	7.27803881372e-26
590	1.39050559712e-15
591	9.08640486334e-26
592	1.16834271148e-15
593	1.28571957349e-25
594	1.26721692601e-15
595	9.73053953239e-26
596	1.76682781665e-15
597	1.01928899114e-25
598	1.61702609713e-15
599	1.64273588434e-25
600	1.58120188198e-15
601	1.43972809824e-25
602	2.22739547042e-15
603	1.18170903567e-25
604	2.11946273637e-15
605	2.10006667578e-25
606	1.82485259208e-15
607	2.05755358314e-25
608	2.66564052884e-15
609	1.47503482482e-25
610	2.65688462715e-15
611	2.4898833305e-25
612	1.97507520325e-15
613	2.88033072049e-25
614	3.05831723007e-15
615	1.82832814359e-25
616	3.45535179245e-15
617	2.72572706675e-25
618	2.07356614988e-15
619	3.84193261692e-25
620	3.1634016385e-15
621	2.24286972517e-25
622	4.58143035484e-15
623	2.75232656597e-25
624	2.59703275309e-15
625	4.54009130924e-25
626	2.97587496806e-15
627	2.90391065997e-25
628	5.59463923927e-15
629	2.54547191728e-25
630	3.70163411999e-15
631	4.9901745167e-25
632	2.6199961593e-15
633	3.71094373678e-25
634	6.09236394982e-15
635	2.47141681861e-25
636	5.82801799229e-15
637	4.99020736812e-25
638	3.74511038042e-15
639	4.88173850476e-25
640	6.52507177031e-15
641	3.43263306781e-25
642	8.08387353165e-15
643	5.03309839155e-25
644	5.71132392294e-15
645	6.3481145743e-25
646	5.99157258067e-15
647	5.62295230182e-25
648	8.83621053781e-15
649	5.99735765188e-25
650	8.69562649391e-15
651	7.8056802479e-25
652	6.97311921041e-15
653	9.32400585741e-25
654	9.35942253207e-15
655	8.4197970419e-25
656	1.23556132036e-14
657	9.61229765645e-25
658	9.22869226499e-15
659	1.33165644074e-24
660	8.9013728267e-15
661	1.20575627012e-24
662	1.46842482952e-14
663	1.0893880451e-24
664	1.22776583857e-14
665	1.63827796977e-24
666	8.27966497411e-15
667	1.62851894295e-24
668	1.62520347607e-14
669	1.1987293558e-24
670	1.6898930098e-14
671	1.71894052192e-24
672	8.49232107086e-15
673	1.98999675601e-24
674	1.63574131792e-14
675	1.26268340186e-24
676	2.27567953786e-14
677	1.62232712316e-24
678	1.03791216034e-14
679	2.22702595505e-24
680	1.45237703065e-14
681	1.44707478743e-24
682	2.89520761946e-14
683	1.45518973131e-24
684	1.74841605479e-14
685	2.43303888015e-24
686	1.48827079279e-14
687	1.69802790724e-24
688	3.4222014504e-14
689	1.45105669493e-24
690	2.91703176119e-14
691	2.68921289657e-24
692	2.23879387111e-14
693	2.17920764917e-24
694	3.93816020726e-14
695	1.85645628335e-24
696	3.92245842658e-14
697	3.19703953379e-24
698	3.89325981178e-14
699	2.77603138136e-24
700	5.87140705555e-14
701	2.64582303884e-24
702	5.72287501289e-14
703	4.00345792645e-24
704	6.00961475863e-14
705	3.59706941242e-24
706	8.00586985743e-14
707	3.48579440625e-24
708	6.20261180337e-14
709	4.98047601559e-24
710	5.22402681663e-14
711	4.56000579514e-24
712	8.13842790109e-14
713	4.53958088084e-24
714	8.29306035543e-14
715	6.18570173663e-24
716	7.1539805726e-14
717	5.95270967714e-24
718	8.81424262325e-14
719	6.10922594699e-24
720	1.00256249608e-13
721	7.31570526847e-24
722	9.78700967216e-14
723	7.55091711131e-24
724	9.91473722883e-14
725	7.91189830189e-24
726	1.17283223704e-13
727	8.87943933073e-24
728	1.65591463298e-13
729	9.30499705399e-24
730	2.0740378921e-13
731	1.03249728519e-23
732	1.98360379329e-13
733	1.15013228837e-23
734	2.08757587277e-13
735	1.21622110341e-23
736	2.68909689736e-13
737	1.27120035888e-23
738	2.61115511206e-13
739	1.41568331357e-23
740	1.93719056302e-13
741	1.53659962865e-23
742	2.46029468385e-13
743	1.46192727819e-23
744	3.43427320204e-13
745	1.55370329169e-23
746	2.72276087007e-13
747	1.8316471076e-23
748	2.27133835958e-13
749	1.71732008045e-23
750	3.92329276122e-13
751	1.6311311099e-23
752	4.33143623712e-13
753	1.91115348209e-23
754	2.85165176326e-13
755	2.09475630838e-23
756	3.99418164201e-13
757	1.84868868011e-23
758	6.42068342245e-13
759	2.03445394279e-23
760	5.44050615268e-13
761	2.8190207843e-23
762	4.95535161689e-13
763	2.85103513818e-23
764	8.2088404e-13
765	2.88762379797e-23
766	7.98007904645e-13
767	4.3434113083e-23
768	5.95567363782e-13
769	5.1368026969e-23
770	1.00111129253e-12
771	5.18851610554e-23
772	1.29139622088e-12
773	7.52188923359e-23
774	1.03131108091e-12
775	9.33275401892e-23
776	1.46463964966e-12
777	9.84671255389e-23
778	2.00390748392e-12
779	1.2681475073e-22
780	1.61742137506e-12
781	1.51925752416e-22
782	1.56381452167e-12
783	1.57488150912e-22
784	1.96081140306e-12
785	1.81492163311e-22
786	1.93499221772e-12
787	2.0773094639e-22
788	2.01764569708e-12
789	2.08615929105e-22
790	2.34679507404e-12
791	2.25339827028e-22
792	2.69235105675e-12
793	2.35824627232e-22
794	3.05826377928e-12
795	2.18891719947e-22
796	2.56112386064e-12
797	2.22296706829e-22
798	2.2950790456e-12
799	2.1389405874e-22
800	3.03454549596e-12
801	1.86252932887e-22
802	3.32848007214e-12
803	1.89682671348e-22
804	2.53063649058e-12
805	1.8137078594e-22
806	3.79340064964e-12
807	1.68466132828e-22
808	6.43655033419e-12
809	1.66318279151e-22
810	6.42443760813e-12
811	1.89941969106e-22
812	6.31855671944e-12
813	2.01724991541e-22
814	7.46510970514e-12
815	2.27995349421e-22
816	8.80074386298e-12
817	2.67212548679e-22
818	7.25735995804e-12
819	3.50694798476e-22
820	8.00137204122e-12
821	4.24384143852e-22
822	1.27899326001e-11
823	5.26405319078e-22
824	1.36401083411e-11
825	6.83369862352e-22
826	1.17880132676e-11
827	8.4869402122e-22
828	1.24212364559e-11
829	9.78132717398e-22
830	1.52418888484e-11
831	1.1337090532e-21
832	1.13224281039e-11
833	1.3797770368e-21
834	1.02119701583e-11
835	1.54144932455e-21
836	1.73599861114e-11
837	1.75915484407e-21
838	2.00850100336e-11
839	2.06650930828e-21
840	2.09222969569e-11
841	2.30515054248e-21
842	2.45883930091e-11
843	2.43821661205e-21
844	2.83913514208e-11
845	2.67003270526e-21
846	2.47751897e-11
847	2.88350440902e-21
848	2.45151618329e-11
849	3.07564203042e-21
850	3.35410756925e-11
851	3.4195146184e-21
852	3.11247877187e-11
853	3.74797264336e-21
854	3.79309732085e-11
855	3.92162264462e-21
856	4.09189308098e-11
857	4.0596447476e-21
858	4.22739662869e-11
859	4.22759721437e-21
860	4.13826976513e-11
861	4.29965843612e-21
862	4.6871793718e-11
863	4.54679876291e-21
864	5.66305042214e-11
865	4.83922951793e-21
866	6.43018282027e-11
867	4.92241734815e-21
868	6.60603068339e-11
869	4.90673644864e-21
870	7.0050718665e-11
871	4.94565955533e-21
872	5.71127232827e-11
873	4.99050297626e-21
874	7.64185619663e-11
875	5.38706069522e-21
876	6.43220849854e-11
877	5.87766009281e-21
878	9.06317030861e-11
879	6.50223128496e-21
880	9.87292810818e-11
881	7.04918409057e-21
882	1.10518040907e-10
883	7.69056839089e-21
884	1.28289102456e-10
885	8.76395953854e-21
886	1.40582312092e-10
887	9.95560193381e-21
888	1.76827056627e-10
889	1.14942094054e-20
890	2.00703761646e-10
891	1.28980754397e-20
892	2.3714433504e-10
893	1.4433756751e-20
894	2.27047354114e-10
895	1.54764989304e-20
896	2.39004168225e-10
897	1.79469124416e-20
898	3.71451465462e-10
899	2.10381982362e-20
900	4.11270029989e-10
901	2.37990495576e-20
902	4.34859458836e-10
903	2.48838838151e-20
904	4.39442404745e-10
905	2.71514361576e-20
906	5.01686032356e-10
907	2.76599523962e-20
908	5.4575876323e-10
909	2.90473250207e-20
910	5.54288902518e-10
911	2.88203012725e-20
912	6.04335380878e-10
913	2.92817158769e-20
914	6.39386994829e-10
915	2.91538390838e-20
916	7.00332933644e-10
917	2.81120784292e-20
918	6.32849273052e-10
919	2.34173881309e-20
920	6.51274793423e-10
921	2.12055697897e-20
922	7.01740941914e-10
923	2.24074745473e-20
924	8.7205020228e-10
925	2.39705580023e-20
926	1.06001508991e-09
927	2.82699328699e-20
928	1.30681296108e-09
929	3.81631956385e-20
930	1.83424526497e-09
931	4.57256392399e-20
932	2.02187064337e-09
933	5.15116757355e-20
934	2.46903286849e-09
935	6.19095641832e-20
936	2.17519157591e-09
937	6.43906334789e-20
938	2.65073576029e-09
939	6.45549647309e-20
940	2.65954506392e-09
941	6.86184366619e-20
942	3.31969960063e-09
943	7.66752456478e-20
944	3.65125160525e-09
945	8.38369628527e-20
946	4.56032563585e-09
947	8.29733645791e-20
948	3.6062814655e-09
949	7.30429314439e-20
950	3.75932725172e-09
951	6.5500707103e-20
952	4.92077833299e-09
953	7.12991758132e-20
954	8.90820226619e-09
955	7.20643075056e-20
956	5.44424391264e-09
957	8.19590568748e-20
958	5.54130537708e-09
959	9.19915292185e-20
960	1.13499781278e-08
961	1.0343497407e-19
962	1.39630413177e-08
963	9.35591133896e-20
964	1.21216568676e-08
965	1.08452267212e-19
966	7.01668544271e-09
967	1.0343690748e-19
968	1.48261363836e-08
969	1.23134302778e-19
970	1.24025762436e-08
971	1.49470266717e-19
972	2.6456535046e-08
973	1.78779154735e-19
974	2.00085922987e-08
975	2.38552707534e-19
976	2.92755391844e-08
977	3.03202374387e-19
978	3.01923222991e-08
979	3.24980757157e-19
980	2.47969021091e-08
981	3.06989363509e-19
982	3.37384713124e-08
983	3.6381229604e-19
984	3.59776062239e-08
985	3.59887110801e-19
986	4.86957052232e-08
987	3.12221873798e-19
988	3.89221236932e-08
989	4.65397570944e-19
990	7.56728939659e-08
991	6.24975072706e-19
992	1.05066387548e-07
993	4.96476958934e-19
994	7.66406853587e-08
995	4.05911135295e-19
996	4.674584827e-08
997	3.96968324704e-19
998	7.69022539206e-08
999	5.42925426572e-19
1000	1.30572273363e-07
1001	7.02184046146e-19
1002	2.24275089476e-07
1003	7.80777189423e-19
1004	2.65429971207e-07
1005	8.62947528209e-19
1006	4.37473493976e-07
1007	1.31755479229e-18
1008	8.38066058319e-07
1009	2.0894707959e-18
1010	1.83177987637e-06
1011	3.0446960698e-18
1012	4.37840334052e-06
1013	3.12745070153e-18
1014	3.04746486812e-06
1015	2.59769508389e-18
1016	3.9021167125e-06
1017	4.10045524706e-18
1018	5.27274911486e-05
1019	2.69735100684e-17
1020	0.000883579320365
1021	1.81641308619e-16
1022	0.0103765593399
1023	4.8373160905e-16
