0	0.870919393102
1	0.00651005325951
2	0.0071702665299
3	0.00121744240535
4	0.000387163226035
5	0.000104871959435
6	9.53441494727e-06
7	1.82294117186e-06
8	2.90394293505e-06
9	1.21443166136e-06
10	7.08780933831e-07
11	3.70111660541e-07
12	2.65656661503e-07
13	3.09745532252e-07
14	9.62190666395e-08
15	7.46646257676e-08
16	3.63726042828e-08
17	2.73237619801e-08
18	2.27381214074e-08
19	2.12441984621e-08
20	1.52776033165e-08
21	1.18323159597e-08
22	5.13840110274e-09
23	8.7060795691e-09
24	8.86290879818e-09
25	4.01243001924e-09
26	3.38838187585e-09
27	1.64578553747e-09
28	1.50120228249e-09
29	8.50146482884e-10
30	5.61460285043e-10
31	5.37299719434e-10
32	2.24013936783e-10
33	2.13577631592e-10
34	1.60958522465e-10
35	1.72704368096e-10
36	2.01695161605e-10
37	1.7079228246e-10
38	1.98027233456e-10
39	1.31024763523e-10
40	1.13890360426e-10
41	1.27376560473e-10
42	8.9730431158e-11
43	1.02306490481e-10
44	7.52245502951e-11
45	7.27033705113e-11
46	6.0000538048e-11
47	5.1056967646e-11
48	4.89834702293e-11
49	4.32678768707e-11
50	3.62529070468e-11
51	3.55707175324e-11
52	2.67822453247e-11
53	2.76107151161e-11
54	2.6866929087e-11
55	2.58789430584e-11
56	2.65054142167e-11
57	2.58399384261e-11
58	2.49480038432e-11
59	2.77266775708e-11
60	2.14563506383e-11
61	2.51110446524e-11
62	1.81411330481e-11
63	1.8011925128e-11
64	1.58633495959e-11
65	1.52525111453e-11
66	1.75624980706e-11
67	1.42447709892e-11
68	1.69189882321e-11
69	1.37473446603e-11
70	1.21330115746e-11
71	1.16730409381e-11
72	8.17357216363e-12
73	8.13462224996e-12
74	5.96651590598e-12
75	5.11232535908e-12
76	4.31578800631e-12
77	4.20109197732e-12
78	4.31546033768e-12
79	4.04785863917e-12
80	3.42302378192e-12
81	3.42257685611e-12
82	2.4176669622e-12
83	2.78502796708e-12
84	3.06655156899e-12
85	2.75636657626e-12
86	3.45550797236e-12
87	2.76122062637e-12
88	3.17374490713e-12
89	3.00127862701e-12
90	2.93262457572e-12
91	2.53512672355e-12
92	1.87468338104e-12
93	1.98394306478e-12
94	1.6943904655e-12
95	1.41624867222e-12
96	1.33563850617e-12
97	8.94319081797e-13
98	1.09345654636e-12
99	8.95281851941e-13
100	9.27862843657e-13
101	8.72107320997e-13
102	6.71622973525e-13
103	6.96978153124e-13
104	5.47849080158e-13
105	5.74111575798e-13
106	5.63350521625e-13
107	4.50150348178e-13
108	4.63466707044e-13
109	4.3790552513e-13
110	4.20241650589e-13
111	3.99950576844e-13
112	3.13864927443e-13
113	2.91167360185e-13
114	2.42002638365e-13
115	2.04877211358e-13
116	2.24572531468e-13
117	1.68547510518e-13
118	1.93860470989e-13
119	1.49800857274e-13
120	1.71090582432e-13
121	1.55185063609e-13
122	1.36441584237e-13
123	1.30990379176e-13
124	1.0243934616e-13
125	1.06433494233e-13
126	8.38625963426e-14
127	8.09323729616e-14
128	6.88323433135e-14
129	6.65424887252e-14
130	6.22451251607e-14
131	6.21227871139e-14
132	5.83264813265e-14
133	6.01110185884e-14
134	5.01213065144e-14
135	5.03034680442e-14
136	4.7923157259e-14
137	4.19311901667e-14
138	4.54895548451e-14
139	3.7328722212e-14
140	4.05122245628e-14
141	3.67866023291e-14
142	3.40348001947e-14
143	3.38117187645e-14
144	2.74785328615e-14
145	2.67282443096e-14
146	2.15175893567e-14
147	1.93607288615e-14
148	1.75956950175e-14
149	1.55716987171e-14
150	1.40872534891e-14
151	1.32613062937e-14
152	1.16271846364e-14
153	1.2121050787e-14
154	1.04619722654e-14
155	1.05502228551e-14
156	9.55667800127e-15
157	9.23057463194e-15
158	8.84398197155e-15
159	8.27770328098e-15
160	8.02663903187e-15
161	7.5405677945e-15
162	7.07108106861e-15
163	6.82211413052e-15
164	6.05533873449e-15
165	5.82195539055e-15
166	5.22139686847e-15
167	4.7263198423e-15
168	4.4966551474e-15
169	3.94426892392e-15
170	3.89620677489e-15
171	3.519434362e-15
172	3.40686470218e-15
173	3.24681661174e-15
174	3.0666886252e-15
175	3.01284228286e-15
176	2.85024846423e-15
177	2.78502246138e-15
178	2.67822870917e-15
179	2.57520370643e-15
180	2.5067533838e-15
181	2.41521279135e-15
182	2.33377187322e-15
183	2.25592779457e-15
184	2.1452172229e-15
185	2.0828166144e-15
186	1.97158304708e-15
187	1.88689661799e-15
188	1.7927879474e-15
189	1.68075594994e-15
190	1.61771603813e-15
191	1.49262672008e-15
192	1.44241723025e-15
193	1.32985962617e-15
194	1.26720362555e-15
195	1.17575470465e-15
196	1.10050837848e-15
197	1.02031295709e-15
198	9.44563747675e-16
199	8.68601398957e-16
200	7.99531939046e-16
201	7.30042696009e-16
202	6.69168093659e-16
203	6.11225531169e-16
204	5.54984628574e-16
205	5.06701214119e-16
206	4.56518931729e-16
207	4.14794456752e-16
208	3.7439980342e-16
209	3.36855203684e-16
210	3.05540678423e-16
211	2.73498922794e-16
212	2.49966034417e-16
213	2.24446159173e-16
214	2.06248260842e-16
215	1.85930738889e-16
216	1.71981631615e-16
217	1.56010319595e-16
218	1.45706476243e-16
219	1.34253507775e-16
220	1.26155688468e-16
221	1.19359008913e-16
222	1.13077260986e-16
223	1.09960830978e-16
224	1.05495985512e-16
225	1.04111128247e-16
226	1.01538975586e-16
227	1.00856317995e-16
228	9.95911755412e-17
229	9.9556273602e-17
230	9.84781991968e-17
231	9.90168081851e-17
232	9.76955346427e-17
233	9.80075598043e-17
234	9.66810873577e-17
235	9.59578439397e-17
236	9.47131288917e-17
237	9.29943919258e-17
238	9.14712883755e-17
239	8.93448207476e-17
240	8.71027324765e-17
241	8.48894363378e-17
242	8.20321973144e-17
243	7.95249238039e-17
244	7.65335916525e-17
245	7.34929524261e-17
246	7.06781593682e-17
247	6.72954750449e-17
248	6.45757170165e-17
249	6.12868294573e-17
250	5.84633592598e-17
251	5.5514707846e-17
252	5.2598752581e-17
253	4.99131605707e-17
254	4.71059783355e-17
255	4.45272539585e-17
256	4.19791785318e-17
257	3.95103729444e-17
258	3.7204879386e-17
259	3.49679511066e-17
260	3.28221670672e-17
261	3.08813980921e-17
262	2.88814223163e-17
263	2.71785522549e-17
264	2.5388784028e-17
265	2.38318052886e-17
266	2.23002024659e-17
267	2.08590347217e-17
268	1.95653711965e-17
269	1.82686578444e-17
270	1.71538838537e-17
271	1.60220889354e-17
272	1.50424861423e-17
273	1.40593736081e-17
274	1.31987746337e-17
275	1.23326994218e-17
276	1.15783402701e-17
277	1.08144514538e-17
278	1.01446402527e-17
279	9.48065084384e-18
280	8.87064408105e-18
281	8.30072413638e-18
282	7.73931955076e-18
283	7.24523079102e-18
284	6.7322460332e-18
285	6.29359497779e-18
286	5.83235491123e-18
287	5.43728869042e-18
288	5.02698664659e-18
289	4.67107661829e-18
290	4.30810440305e-18
291	3.98855148205e-18
292	3.67102307631e-18
293	3.38258452976e-18
294	3.10913018722e-18
295	2.84800673782e-18
296	2.6152363278e-18
297	2.38160395616e-18
298	2.18378431315e-18
299	1.97895827414e-18
300	1.81054062072e-18
301	1.63500664413e-18
302	1.4910879499e-18
303	1.34379746849e-18
304	1.22020015717e-18
305	1.09900021508e-18
306	9.93296243942e-19
307	8.94815675412e-19
308	8.05142702481e-19
309	7.26325222548e-19
310	6.50870626052e-19
311	5.88910230307e-19
312	5.26124583988e-19
313	4.77546874565e-19
314	4.26544718614e-19
315	3.88333662107e-19
316	3.47765870222e-19
317	3.17552500529e-19
318	2.86213598091e-19
319	2.61971234522e-19
320	2.3860049932e-19
321	2.18908605497e-19
322	2.01895727502e-19
323	1.86046367778e-19
324	1.73771614015e-19
325	1.61109418656e-19
326	1.52253939934e-19
327	1.42298836889e-19
328	1.35665756286e-19
329	1.2812670251e-19
330	1.22840080741e-19
331	1.17195761265e-19
332	1.12804896488e-19
333	1.08671711031e-19
334	1.04682578087e-19
335	1.01710942064e-19
336	9.80298236111e-20
337	9.57162860683e-20
338	9.23148053762e-20
339	9.0374443907e-20
340	8.72499461578e-20
341	8.53560786436e-20
342	8.26219882018e-20
343	8.05607526093e-20
344	7.8181912725e-20
345	7.59273762124e-20
346	7.38695767499e-20
347	7.13831087444e-20
348	6.95501440479e-20
349	6.70090356348e-20
350	6.51997883853e-20
351	6.27192096143e-20
352	6.08825653114e-20
353	5.85395754938e-20
354	5.65995415893e-20
355	5.44095792853e-20
356	5.24598903988e-20
357	5.03518168843e-20
358	4.84201287051e-20
359	4.64302897156e-20
360	4.45232972711e-20
361	4.26471706084e-20
362	4.07819625803e-20
363	3.90583671014e-20
364	3.71950483818e-20
365	3.56249185632e-20
366	3.38476255132e-20
367	3.23693680574e-20
368	3.06940655214e-20
369	2.93199665958e-20
370	2.77712010663e-20
371	2.6462006132e-20
372	2.50506709523e-20
373	2.38313231793e-20
374	2.25445325392e-20
375	2.13940319384e-20
376	2.02513010016e-20
377	1.9149790132e-20
378	1.81637537373e-20
379	1.70945958234e-20
380	1.62518712444e-20
381	1.52375936987e-20
382	1.45082202382e-20
383	1.35769107117e-20
384	1.29052499664e-20
385	1.2088842593e-20
386	1.14524656913e-20
387	1.07509489864e-20
388	1.01452560523e-20
389	9.54200857749e-21
390	8.98698930237e-21
391	8.44813447889e-21
392	7.94961785315e-21
393	7.46661419668e-21
394	7.02671718065e-21
395	6.58901318049e-21
396	6.19991397969e-21
397	5.81133486649e-21
398	5.46184066829e-21
399	5.11436188105e-21
400	4.80794623337e-21
401	4.49228083842e-21
402	4.2257949289e-21
403	3.94037597335e-21
404	3.71199544026e-21
405	3.44858618301e-21
406	3.2520956718e-21
407	3.01854771537e-21
408	2.84352697587e-21
409	2.63619980369e-21
410	2.48256036778e-21
411	2.30050062893e-21
412	2.16079821957e-21
413	2.00332807647e-21
414	1.88102424351e-21
415	1.74104055189e-21
416	1.63222206769e-21
417	1.51134826932e-21
418	1.41412124255e-21
419	1.30853632228e-21
420	1.22399623057e-21
421	1.13258059787e-21
422	1.05627264342e-21
423	9.78755276304e-22
424	9.10001991269e-22
425	8.45264064428e-22
426	7.82066071386e-22
427	7.30226315e-22
428	6.70755674906e-22
429	6.29539911807e-22
430	5.75168711495e-22
431	5.41099219774e-22
432	4.92559893921e-22
433	4.64711337507e-22
434	4.2234152161e-22
435	3.98075264807e-22
436	3.6159332388e-22
437	3.41063708757e-22
438	3.09565278303e-22
439	2.91625675539e-22
440	2.64707062259e-22
441	2.48851878782e-22
442	2.25804897143e-22
443	2.12055295431e-22
444	1.92525279782e-22
445	1.81122375831e-22
446	1.64085257897e-22
447	1.54306813907e-22
448	1.39727435166e-22
449	1.31464463997e-22
450	1.19357855365e-22
451	1.121269369e-22
452	1.02169565238e-22
453	9.57875547664e-23
454	8.69727564215e-23
455	8.14312960866e-23
456	7.41727154877e-23
457	6.90898030806e-23
458	6.31680210693e-23
459	5.843595991e-23
460	5.43486524163e-23
461	4.95640780189e-23
462	4.66301377207e-23
463	4.21504849857e-23
464	3.98229761589e-23
465	3.59404465898e-23
466	3.36317738459e-23
467	3.06615544709e-23
468	2.87787051551e-23
469	2.6189275775e-23
470	2.45832760672e-23
471	2.25640239422e-23
472	2.11075416767e-23
473	1.95233375193e-23
474	1.83194912854e-23
475	1.7002957038e-23
476	1.61006544679e-23
477	1.485225778e-23
478	1.41756843717e-23
479	1.30239039658e-23
480	1.24920889657e-23
481	1.15244828934e-23
482	1.11270751602e-23
483	1.03753602138e-23
484	1.02072488602e-23
485	9.54465082215e-24
486	9.45282501182e-24
487	8.99864229944e-24
488	8.72964712261e-24
489	8.55395580037e-24
490	8.26532895016e-24
491	8.08019649038e-24
492	7.9389592752e-24
493	7.65499137331e-24
494	7.65188941945e-24
495	7.44103244725e-24
496	7.42393970677e-24
497	7.27245543869e-24
498	7.24635436532e-24
499	7.02361174218e-24
500	7.22822193569e-24
501	6.99372472103e-24
502	7.15395312453e-24
503	6.98435253921e-24
504	6.94658154501e-24
505	7.08583800943e-24
506	6.82474203234e-24
507	7.15344134185e-24
508	6.71794349738e-24
509	7.27253621752e-24
510	6.65052271666e-24
511	7.2292482513e-24
512	6.54661142168e-24
513	7.22924780939e-24
514	6.65052108904e-24
515	7.27253548803e-24
516	6.71794449207e-24
517	7.15344186888e-24
518	6.8247422795e-24
519	7.08583789499e-24
520	6.94658166796e-24
521	6.98435234653e-24
522	7.15395310352e-24
523	6.9937247472e-24
524	7.2282220552e-24
525	7.02361233397e-24
526	7.24635449337e-24
527	7.27245607311e-24
528	7.42393970192e-24
529	7.44103197143e-24
530	7.65188922148e-24
531	7.65499149995e-24
532	7.93895921019e-24
533	8.08019636146e-24
534	8.26532901717e-24
535	8.55395563196e-24
536	8.72964713121e-24
537	8.9986421919e-24
538	9.45282510635e-24
539	9.5446507877e-24
540	1.02072489582e-23
541	1.0375359878e-23
542	1.11270742693e-23
543	1.15244832744e-23
544	1.24920889647e-23
545	1.30239030038e-23
546	1.41756850723e-23
547	1.4852257866e-23
548	1.61006544695e-23
549	1.70029570592e-23
550	1.83194914204e-23
551	1.95233374606e-23
552	2.11075416894e-23
553	2.25640237977e-23
554	2.45832754368e-23
555	2.61892753518e-23
556	2.87787050241e-23
557	3.06615542184e-23
558	3.3631773258e-23
559	3.59404474682e-23
560	3.98229761534e-23
561	4.21504846383e-23
562	4.66301372737e-23
563	4.95640778661e-23
564	5.43486524125e-23
565	5.8435959271e-23
566	6.31680212196e-23
567	6.90898019489e-23
568	7.41727154572e-23
569	8.14312943811e-23
570	8.69727565477e-23
571	9.57875536262e-23
572	1.02169565357e-22
573	1.12126938053e-22
574	1.19357851677e-22
575	1.31464463484e-22
576	1.39727435167e-22
577	1.54306809617e-22
578	1.64085261414e-22
579	1.81122377657e-22
580	1.9252527915e-22
581	2.12055295324e-22
582	2.25804896793e-22
583	2.48851879124e-22
584	2.64707062088e-22
585	2.91625673832e-22
586	3.09565277304e-22
587	3.41063708403e-22
588	3.61593324026e-22
589	3.98075263224e-22
590	4.22341520948e-22
591	4.64711335753e-22
592	4.9255989391e-22
593	5.41099217011e-22
594	5.75168709501e-22
595	6.29539909014e-22
596	6.70755675413e-22
597	7.30226316279e-22
598	7.82066071439e-22
599	8.45264062734e-22
600	9.10001991193e-22
601	9.78755279123e-22
602	1.0562726439e-21
603	1.13258059692e-21
604	1.22399623057e-21
605	1.30853632544e-21
606	1.41412124297e-21
607	1.5113482703e-21
608	1.63222206769e-21
609	1.74104055138e-21
610	1.88102424985e-21
611	2.0033280773e-21
612	2.160798219e-21
613	2.30050063253e-21
614	2.4825603725e-21
615	2.63619980053e-21
616	2.84352697584e-21
617	3.01854771864e-21
618	3.25209566985e-21
619	3.44858618804e-21
620	3.71199544002e-21
621	3.94037597666e-21
622	4.22579492567e-21
623	4.49228085083e-21
624	4.80794623325e-21
625	5.11436189515e-21
626	5.46184066012e-21
627	5.81133487091e-21
628	6.19991398294e-21
629	6.58901318913e-21
630	7.02671718038e-21
631	7.46661420526e-21
632	7.94961785468e-21
633	8.44813447626e-21
634	8.98698930488e-21
635	9.54200858052e-21
636	1.01452560481e-20
637	1.07509489813e-20
638	1.14524657427e-20
639	1.20888425865e-20
640	1.29052499664e-20
641	1.35769107398e-20
642	1.45082202304e-20
643	1.52375936939e-20
644	1.62518712409e-20
645	1.70945958175e-20
646	1.81637537404e-20
647	1.91497901443e-20
648	2.02513010037e-20
649	2.1394031942e-20
650	2.25445325425e-20
651	2.38313231906e-20
652	2.50506709571e-20
653	2.64620061127e-20
654	2.77712010506e-20
655	2.93199665811e-20
656	3.06940655211e-20
657	3.23693680248e-20
658	3.38476254982e-20
659	3.56249185422e-20
660	3.71950483865e-20
661	3.90583670953e-20
662	4.07819625812e-20
663	4.26471705949e-20
664	4.45232972694e-20
665	4.6430289708e-20
666	4.84201287141e-20
667	5.03518168925e-20
668	5.24598904008e-20
669	5.4409579303e-20
670	5.65995416181e-20
671	5.85395754923e-20
672	6.08825653114e-20
673	6.27192095852e-20
674	6.51997883566e-20
675	6.70090356137e-20
676	6.95501440444e-20
677	7.13831087497e-20
678	7.3869576749e-20
679	7.59273762563e-20
680	7.8181912725e-20
681	8.05607526065e-20
682	8.26219881827e-20
683	8.53560786405e-20
684	8.724994617e-20
685	9.03744439077e-20
686	9.23148053967e-20
687	9.57162860669e-20
688	9.80298236113e-20
689	1.0171094213e-19
690	1.04682578063e-19
691	1.08671711016e-19
692	1.12804896497e-19
693	1.17195761251e-19
694	1.22840080744e-19
695	1.28126702501e-19
696	1.35665756286e-19
697	1.42298836874e-19
698	1.52253939898e-19
699	1.61109418681e-19
700	1.73771614039e-19
701	1.86046367828e-19
702	2.01895727316e-19
703	2.18908605413e-19
704	2.3860049932e-19
705	2.61971234449e-19
706	2.86213598178e-19
707	3.17552500652e-19
708	3.47765870222e-19
709	3.88333662074e-19
710	4.26544718581e-19
711	4.77546874587e-19
712	5.26124583979e-19
713	5.88910230312e-19
714	6.50870625942e-19
715	7.26325222549e-19
716	8.0514270249e-19
717	8.9481567539e-19
718	9.93296243841e-19
719	1.09900021505e-18
720	1.22020015717e-18
721	1.3437974685e-18
722	1.49108794992e-18
723	1.63500664405e-18
724	1.81054062073e-18
725	1.97895827413e-18
726	2.18378431316e-18
727	2.38160395611e-18
728	2.6152363278e-18
729	2.84800673794e-18
730	3.1091301874e-18
731	3.38258452975e-18
732	3.67102307619e-18
733	3.98855148202e-18
734	4.3081044029e-18
735	4.67107661804e-18
736	5.02698664659e-18
737	5.43728869037e-18
738	5.83235491164e-18
739	6.29359497778e-18
740	6.73224603305e-18
741	7.24523079116e-18
742	7.7393195507e-18
743	8.30072413639e-18
744	8.87064408105e-18
745	9.4806508439e-18
746	1.01446402528e-17
747	1.0814451454e-17
748	1.15783402703e-17
749	1.23326994217e-17
750	1.31987746334e-17
751	1.40593736088e-17
752	1.50424861423e-17
753	1.60220889359e-17
754	1.71538838543e-17
755	1.82686578441e-17
756	1.95653711965e-17
757	2.08590347216e-17
758	2.23002024654e-17
759	2.38318052884e-17
760	2.5388784028e-17
761	2.71785522546e-17
762	2.88814223164e-17
763	3.0881398093e-17
764	3.28221670673e-17
765	3.4967951106e-17
766	3.72048793874e-17
767	3.95103729456e-17
768	4.19791785318e-17
769	4.45272539591e-17
770	4.71059783336e-17
771	4.99131605687e-17
772	5.25987525812e-17
773	5.55147078457e-17
774	5.84633592598e-17
775	6.12868294572e-17
776	6.45757170166e-17
777	6.72954750456e-17
778	7.06781593678e-17
779	7.34929524272e-17
780	7.65335916527e-17
781	7.95249238045e-17
782	8.20321973142e-17
783	8.48894363382e-17
784	8.71027324765e-17
785	8.93448207488e-17
786	9.14712883765e-17
787	9.29943919265e-17
788	9.47131288918e-17
789	9.59578439399e-17
790	9.66810873577e-17
791	9.80075598037e-17
792	9.76955346428e-17
793	9.9016808186e-17
794	9.84781991973e-17
795	9.95562736016e-17
796	9.95911755419e-17
797	1.00856317994e-16
798	1.01538975587e-16
799	1.04111128247e-16
800	1.05495985512e-16
801	1.09960830979e-16
802	1.13077260986e-16
803	1.19359008911e-16
804	1.26155688469e-16
805	1.34253507775e-16
806	1.45706476244e-16
807	1.56010319594e-16
808	1.71981631615e-16
809	1.85930738889e-16
810	2.06248260843e-16
811	2.24446159174e-16
812	2.49966034417e-16
813	2.73498922796e-16
814	3.05540678423e-16
815	3.36855203683e-16
816	3.7439980342e-16
817	4.14794456751e-16
818	4.56518931726e-16
819	5.06701214122e-16
820	5.54984628574e-16
821	6.11225531169e-16
822	6.69168093657e-16
823	7.30042696008e-16
824	7.99531939046e-16
825	8.68601398957e-16
826	9.44563747675e-16
827	1.02031295709e-15
828	1.10050837849e-15
829	1.17575470465e-15
830	1.26720362555e-15
831	1.32985962617e-15
832	1.44241723025e-15
833	1.49262672009e-15
834	1.61771603811e-15
835	1.68075594994e-15
836	1.7927879474e-15
837	1.88689661799e-15
838	1.97158304708e-15
839	2.0828166144e-15
840	2.1452172229e-15
841	2.25592779457e-15
842	2.33377187322e-15
843	2.41521279135e-15
844	2.50675338381e-15
845	2.57520370643e-15
846	2.67822870917e-15
847	2.78502246138e-15
848	2.85024846423e-15
849	3.01284228286e-15
850	3.06668862519e-15
851	3.24681661173e-15
852	3.40686470218e-15
853	3.51943436201e-15
854	3.89620677489e-15
855	3.94426892392e-15
856	4.4966551474e-15
857	4.7263198423e-15
858	5.22139686847e-15
859	5.82195539055e-15
860	6.05533873449e-15
861	6.82211413053e-15
862	7.07108106861e-15
863	7.5405677945e-15
864	8.02663903187e-15
865	8.277703281e-15
866	8.84398197155e-15
867	9.23057463193e-15
868	9.55667800127e-15
869	1.05502228551e-14
870	1.04619722654e-14
871	1.2121050787e-14
872	1.16271846364e-14
873	1.32613062937e-14
874	1.40872534891e-14
875	1.55716987171e-14
876	1.75956950175e-14
877	1.93607288615e-14
878	2.15175893567e-14
879	2.67282443096e-14
880	2.74785328615e-14
881	3.38117187645e-14
882	3.40348001947e-14
883	3.67866023291e-14
884	4.05122245628e-14
885	3.7328722212e-14
886	4.54895548451e-14
887	4.19311901667e-14
888	4.7923157259e-14
889	5.03034680442e-14
890	5.01213065144e-14
891	6.01110185884e-14
892	5.83264813265e-14
893	6.21227871138e-14
894	6.22451251608e-14
895	6.65424887253e-14
896	6.88323433135e-14
897	8.09323729617e-14
898	8.38625963428e-14
899	1.06433494233e-13
900	1.0243934616e-13
901	1.30990379176e-13
902	1.36441584237e-13
903	1.55185063609e-13
904	1.71090582432e-13
905	1.49800857274e-13
906	1.93860470989e-13
907	1.68547510518e-13
908	2.24572531468e-13
909	2.04877211358e-13
910	2.42002638365e-13
911	2.91167360185e-13
912	3.13864927443e-13
913	3.99950576844e-13
914	4.20241650589e-13
915	4.3790552513e-13
916	4.63466707044e-13
917	4.50150348179e-13
918	5.63350521625e-13
919	5.74111575798e-13
920	5.47849080158e-13
921	6.96978153124e-13
922	6.71622973525e-13
923	8.72107320997e-13
924	9.27862843657e-13
925	8.95281851941e-13
926	1.09345654636e-12
927	8.94319081797e-13
928	1.33563850617e-12
929	1.41624867222e-12
930	1.6943904655e-12
931	1.98394306478e-12
932	1.87468338104e-12
933	2.53512672355e-12
934	2.93262457572e-12
935	3.00127862701e-12
936	3.17374490713e-12
937	2.76122062637e-12
938	3.45550797236e-12
939	2.75636657626e-12
940	3.06655156899e-12
941	2.78502796708e-12
942	2.4176669622e-12
943	3.42257685611e-12
944	3.42302378192e-12
945	4.04785863917e-12
946	4.31546033768e-12
947	4.20109197732e-12
948	4.31578800631e-12
949	5.11232535908e-12
950	5.96651590598e-12
951	8.13462224996e-12
952	8.17357216363e-12
953	1.16730409381e-11
954	1.21330115746e-11
955	1.37473446603e-11
956	1.69189882321e-11
957	1.42447709892e-11
958	1.75624980706e-11
959	1.52525111453e-11
960	1.58633495959e-11
961	1.8011925128e-11
962	1.81411330481e-11
963	2.51110446523e-11
964	2.14563506383e-11
965	2.77266775708e-11
966	2.49480038432e-11
967	2.58399384261e-11
968	2.65054142167e-11
969	2.58789430584e-11
970	2.6866929087e-11
971	2.76107151161e-11
972	2.67822453247e-11
973	3.55707175324e-11
974	3.62529070468e-11
975	4.32678768707e-11
976	4.89834702293e-11
977	5.1056967646e-11
978	6.0000538048e-11
979	7.27033705113e-11
980	7.52245502951e-11
981	1.02306490481e-10
982	8.9730431158e-11
983	1.27376560473e-10
984	1.13890360426e-10
985	1.31024763523e-10
986	1.98027233456e-10
987	1.7079228246e-10
988	2.01695161605e-10
989	1.72704368096e-10
990	1.60958522465e-10
991	2.13577631592e-10
992	2.24013936783e-10
993	5.37299719434e-10
994	5.61460285044e-10
995	8.50146482884e-10
996	1.50120228249e-09
997	1.64578553747e-09
998	3.38838187585e-09
999	4.01243001924e-09
1000	8.86290879818e-09
1001	8.7060795691e-09
1002	5.13840110274e-09
1003	1.18323159597e-08
1004	1.52776033165e-08
1005	2.12441984621e-08
1006	2.27381214074e-08
1007	2.73237619801e-08
1008	3.63726042828e-08
1009	7.46646257676e-08
1010	9.62190666395e-08
1011	3.09745532252e-07
1012	2.65656661503e-07
1013	3.70111660541e-07
1014	7.0878093383e-07
1015	1.21443166136e-06
1016	2.90394293505e-06
1017	1.82294117186e-06
1018	9.53441494727e-06
1019	0.000104871959435
1020	0.000387163226035
1021	0.00121744240535
1022	0.0071702665299
1023	0.00651005325951
