0	0.780145773326
1	0.0241613083609
2	0.00355720452158
3	0.000814380060196
4	0.000234181667992
5	4.40988593954e-05
6	1.61229792663e-05
7	6.00777450695e-06
8	4.22334162458e-06
9	3.32073143619e-06
10	2.54737996015e-06
11	2.03085985171e-06
12	1.16507381281e-06
13	5.59847368642e-07
14	6.16198688807e-07
15	6.33741142069e-07
16	4.05535197158e-07
17	2.95547140486e-07
18	2.99161091041e-07
19	2.96933476634e-07
20	2.21240506831e-07
21	1.3376166494e-07
22	1.32163835214e-07
23	1.34494523009e-07
24	1.43867727309e-07
25	1.0757029907e-07
26	7.59637084342e-08
27	8.68930480868e-08
28	1.14562690568e-07
29	1.11991309714e-07
30	1.04934541323e-07
31	7.9866515849e-08
32	4.64746865116e-08
33	3.10958405906e-08
34	3.41625921902e-08
35	4.54927030167e-08
36	4.50096140779e-08
37	3.6893030172e-08
38	3.28332846108e-08
39	3.03963211024e-08
40	2.32347380195e-08
41	2.10902771677e-08
42	1.85488064991e-08
43	1.41218782745e-08
44	1.18380791518e-08
45	1.48149838095e-08
46	1.37182086505e-08
47	1.49610458248e-08
48	1.46979747701e-08
49	1.30820234847e-08
50	1.1464443435e-08
51	8.3749407494e-09
52	6.27224701311e-09
53	6.75911769134e-09
54	4.41354006207e-09
55	4.34371308082e-09
56	4.77241833774e-09
57	4.66386795859e-09
58	4.76891344296e-09
59	5.2604776325e-09
60	4.93003708599e-09
61	4.98585271006e-09
62	3.87808150145e-09
63	2.9254230134e-09
64	1.88256549929e-09
65	1.77586345758e-09
66	2.19439090049e-09
67	1.88245645311e-09
68	1.6490461985e-09
69	1.71518417946e-09
70	1.8383671885e-09
71	1.84026313655e-09
72	1.58870798562e-09
73	1.22210819332e-09
74	1.1736709604e-09
75	7.78058241686e-10
76	8.05137916919e-10
77	7.36111980368e-10
78	7.83854220876e-10
79	8.81014788594e-10
80	8.8142636671e-10
81	7.78366291665e-10
82	1.10173945389e-09
83	1.17018716711e-09
84	1.11347342401e-09
85	9.43821481082e-10
86	8.93216909022e-10
87	7.80115681226e-10
88	7.55587736976e-10
89	8.85587571849e-10
90	1.00615175262e-09
91	9.95469341504e-10
92	9.44478990088e-10
93	7.0114189722e-10
94	5.08842370215e-10
95	4.19354563886e-10
96	4.10177571862e-10
97	3.41897974261e-10
98	3.68956576699e-10
99	2.62065155444e-10
100	2.20421560936e-10
101	2.03792712477e-10
102	1.93480054221e-10
103	1.86793455107e-10
104	1.92312202744e-10
105	1.63582743151e-10
106	2.09887389654e-10
107	2.35448165125e-10
108	1.86343148829e-10
109	1.51383706963e-10
110	1.61335406665e-10
111	1.3771013077e-10
112	1.40595318133e-10
113	1.57230158334e-10
114	1.40969275676e-10
115	1.17460460783e-10
116	1.054654978e-10
117	7.22579904835e-11
118	7.65307780738e-11
119	7.25646413288e-11
120	5.58851711972e-11
121	5.05128522493e-11
122	4.24171630701e-11
123	3.91592788294e-11
124	3.98037988721e-11
125	4.42249493427e-11
126	4.00292680178e-11
127	4.48158110442e-11
128	5.24330763707e-11
129	4.68277196777e-11
130	4.53163549422e-11
131	4.39973676957e-11
132	4.10031415051e-11
133	3.95727458412e-11
134	4.20495298624e-11
135	4.41856053336e-11
136	5.00415056456e-11
137	4.47012107979e-11
138	4.32490239107e-11
139	4.21980513386e-11
140	4.05227550783e-11
141	3.46014974515e-11
142	3.20158185673e-11
143	3.31023307689e-11
144	2.76425751313e-11
145	2.27447843737e-11
146	2.13751163613e-11
147	1.86634412573e-11
148	1.81613807594e-11
149	1.67427577532e-11
150	1.70234731679e-11
151	1.79377510134e-11
152	1.86216879038e-11
153	2.02548520395e-11
154	1.94676605745e-11
155	1.81381629917e-11
156	1.76903326491e-11
157	1.84397359037e-11
158	1.72130564446e-11
159	1.50341278331e-11
160	1.59802017566e-11
161	1.48527378906e-11
162	1.16962342291e-11
163	1.13555970384e-11
164	1.02286486749e-11
165	9.49535313758e-12
166	9.25887048746e-12
167	8.08597911177e-12
168	7.5931788875e-12
169	7.11464491551e-12
170	6.15701772126e-12
171	5.54876607612e-12
172	5.12858027402e-12
173	4.54475784431e-12
174	4.1812970093e-12
175	4.19179874642e-12
176	3.75497962923e-12
177	3.33865029012e-12
178	3.62435381966e-12
179	3.57595910733e-12
180	3.15991269516e-12
181	3.5093452381e-12
182	3.59444913013e-12
183	3.20050293822e-12
184	3.15146810618e-12
185	3.13990353617e-12
186	2.92503006301e-12
187	2.86034125826e-12
188	2.78674552622e-12
189	2.80683185753e-12
190	2.60632818351e-12
191	2.39145500455e-12
192	2.21790072636e-12
193	1.96083648045e-12
194	1.8943192872e-12
195	1.77254517854e-12
196	1.51789907379e-12
197	1.47333920316e-12
198	1.45871699908e-12
199	1.42231965045e-12
200	1.36445740871e-12
201	1.39008114969e-12
202	1.53686111296e-12
203	1.57119234969e-12
204	1.55082696908e-12
205	1.57006630826e-12
206	1.50882261529e-12
207	1.47755848421e-12
208	1.43269172922e-12
209	1.28308060657e-12
210	1.22183548849e-12
211	1.20849674453e-12
212	1.06234182935e-12
213	9.11126578665e-13
214	8.45085907204e-13
215	7.43071262769e-13
216	6.32811605035e-13
217	5.92569635031e-13
218	5.11319272989e-13
219	4.82543488622e-13
220	5.14576149787e-13
221	4.64442041563e-13
222	4.66586266893e-13
223	4.96104777281e-13
224	4.88947467963e-13
225	5.24368971012e-13
226	4.91042398277e-13
227	4.98478529282e-13
228	5.11041093191e-13
229	4.39490415345e-13
230	4.69297907709e-13
231	4.28775346091e-13
232	3.58288209579e-13
233	4.29907614828e-13
234	3.39052795803e-13
235	2.95495270068e-13
236	3.5183800935e-13
237	2.42601687333e-13
238	2.44859132215e-13
239	2.57969012248e-13
240	1.79994511949e-13
241	2.2260204446e-13
242	1.90660939313e-13
243	1.78681880069e-13
244	2.02036019883e-13
245	1.55620030837e-13
246	2.04391967732e-13
247	1.83732047474e-13
248	1.62765661025e-13
249	2.25010361935e-13
250	1.68692960313e-13
251	1.90173275237e-13
252	2.11931724898e-13
253	1.57363457924e-13
254	1.97262645127e-13
255	1.75490725655e-13
256	1.53809434984e-13
257	1.77755673758e-13
258	1.36680820616e-13
259	1.47638240903e-13
260	1.3876643331e-13
261	1.08054324774e-13
262	1.32174266699e-13
263	1.08361258264e-13
264	1.0064155176e-13
265	1.22699874675e-13
266	1.0145267256e-13
267	1.07636894572e-13
268	1.20630678904e-13
269	1.08669921329e-13
270	1.13161057664e-13
271	1.1750120923e-13
272	1.11549414302e-13
273	1.09032509207e-13
274	1.05566898214e-13
275	9.97565622781e-14
276	9.14779993739e-14
277	8.42414978212e-14
278	7.9445449544e-14
279	6.99942691999e-14
280	6.22964494909e-14
281	6.35634486677e-14
282	5.6160865031e-14
283	4.97662769143e-14
284	5.86450045739e-14
285	5.27007811371e-14
286	4.9001906111e-14
287	6.27263781935e-14
288	5.4352841422e-14
289	5.34144397281e-14
290	6.59762034331e-14
291	5.39321703843e-14
292	5.5474303951e-14
293	6.05830705607e-14
294	4.84473955484e-14
295	5.1577812978e-14
296	4.7447921311e-14
297	4.07666873167e-14
298	4.23074357727e-14
299	3.35194433154e-14
300	3.57675360174e-14
301	3.23584102152e-14
302	2.61137160544e-14
303	3.4417253304e-14
304	2.6053691774e-14
305	2.68469421753e-14
306	3.40028279219e-14
307	2.43908668975e-14
308	3.10917799847e-14
309	3.21263795888e-14
310	2.57877662852e-14
311	3.29006561215e-14
312	2.85966095292e-14
313	2.72534158064e-14
314	3.00240097949e-14
315	2.45292076423e-14
316	2.61633037573e-14
317	2.40631078634e-14
318	2.07644960654e-14
319	2.20917651652e-14
320	1.79109530222e-14
321	1.73290400167e-14
322	1.69666293001e-14
323	1.36804839398e-14
324	1.43907141405e-14
325	1.30840278157e-14
326	1.1832038355e-14
327	1.24578973399e-14
328	1.14019192698e-14
329	1.15902326534e-14
330	1.16917182937e-14
331	1.1225153593e-14
332	1.17364496084e-14
333	1.13393831449e-14
334	1.10470873223e-14
335	1.1209405689e-14
336	1.03858400307e-14
337	9.84051325033e-15
338	9.58238144378e-15
339	8.42886274913e-15
340	7.62350308769e-15
341	7.20333333067e-15
342	5.99730406038e-15
343	5.30082189176e-15
344	4.99924970217e-15
345	4.03009655594e-15
346	3.75780110649e-15
347	3.666110297e-15
348	3.08910693323e-15
349	3.21375219317e-15
350	3.16360282786e-15
351	2.94613375065e-15
352	3.151816949e-15
353	2.95433435715e-15
354	2.96140412839e-15
355	2.91361640167e-15
356	2.58941604288e-15
357	2.64452429801e-15
358	2.24548798852e-15
359	2.00293522126e-15
360	1.96898215322e-15
361	1.4313476989e-15
362	1.40521608566e-15
363	1.21830979249e-15
364	8.51916457284e-16
365	9.73638527461e-16
366	7.08417868919e-16
367	6.46542564562e-16
368	7.23839036408e-16
369	5.21231397085e-16
370	6.46046415525e-16
371	5.83911068865e-16
372	5.31939130343e-16
373	6.32081191662e-16
374	4.94035717337e-16
375	5.52723046566e-16
376	5.25899214549e-16
377	4.32456964037e-16
378	4.97388972915e-16
379	3.90313549707e-16
380	3.80661097588e-16
381	3.86827524456e-16
382	2.9704683931e-16
383	3.26040001258e-16
384	2.85408641653e-16
385	2.49752199646e-16
386	2.6232936595e-16
387	2.21401794857e-16
388	2.15936932891e-16
389	2.05165492142e-16
390	1.88635869676e-16
391	1.80561533517e-16
392	1.68174965858e-16
393	1.67863685953e-16
394	1.50345406377e-16
395	1.49573523793e-16
396	1.49667077226e-16
397	1.31234602956e-16
398	1.35906585294e-16
399	1.30831191158e-16
400	1.15588656507e-16
401	1.17142036851e-16
402	1.10374613779e-16
403	9.60083678015e-17
404	9.43557332332e-17
405	8.9318987217e-17
406	7.53772564878e-17
407	7.54382000001e-17
408	7.30875399448e-17
409	6.18618797289e-17
410	6.48984731939e-17
411	6.49144370709e-17
412	5.69111276367e-17
413	6.04654250346e-17
414	6.1579571339e-17
415	5.38454393627e-17
416	5.57534918073e-17
417	5.6146375149e-17
418	4.67496879905e-17
419	4.72223205371e-17
420	4.6034782373e-17
421	3.63690127771e-17
422	3.65293189933e-17
423	3.51652158646e-17
424	2.77925798186e-17
425	2.8388893056e-17
426	2.8812003793e-17
427	2.40697676987e-17
428	2.52624846992e-17
429	2.75159677573e-17
430	2.38500742803e-17
431	2.52627142378e-17
432	2.72930294456e-17
433	2.35552651383e-17
434	2.43552061368e-17
435	2.47077084024e-17
436	2.11686886653e-17
437	2.05821201947e-17
438	1.99743460294e-17
439	1.71851535592e-17
440	1.54688689793e-17
441	1.5583082343e-17
442	1.3362902349e-17
443	1.18150134253e-17
444	1.31204884651e-17
445	1.09651455784e-17
446	1.06256778655e-17
447	1.1987456509e-17
448	9.97318564197e-18
449	1.06069707609e-17
450	1.08246936071e-17
451	9.4854597606e-18
452	9.98014493767e-18
453	9.13917657651e-18
454	8.64534782414e-18
455	8.23395602132e-18
456	7.38861237362e-18
457	7.30311150281e-18
458	6.2429744266e-18
459	6.09768127697e-18
460	5.82002662049e-18
461	4.94261284903e-18
462	5.34083584948e-18
463	4.69351871405e-18
464	4.43454748624e-18
465	4.74769367657e-18
466	4.01496327951e-18
467	4.22898229435e-18
468	4.13263512154e-18
469	3.59952324577e-18
470	3.84001530441e-18
471	3.46613753658e-18
472	3.19689420471e-18
473	3.24355525122e-18
474	2.87791123542e-18
475	2.72457299412e-18
476	2.61950812191e-18
477	2.40386215522e-18
478	2.25026297429e-18
479	2.14456729779e-18
480	2.05542879764e-18
481	1.87775389762e-18
482	1.82069210697e-18
483	1.76908794258e-18
484	1.6091067565e-18
485	1.60151448972e-18
486	1.5592928888e-18
487	1.42152031878e-18
488	1.40613224642e-18
489	1.37268399851e-18
490	1.26493624868e-18
491	1.23818246963e-18
492	1.20990496186e-18
493	1.09804195461e-18
494	1.05714852504e-18
495	1.03266429823e-18
496	9.22539781158e-19
497	8.88994399731e-19
498	8.61343406202e-19
499	7.61098588644e-19
500	7.40649298829e-19
501	7.12257587965e-19
502	6.53550960678e-19
503	6.51870779552e-19
504	6.31059678167e-19
505	6.17466232468e-19
506	6.18171181132e-19
507	6.17114349806e-19
508	6.33561920896e-19
509	6.23886454451e-19
510	6.39901357249e-19
511	6.48279692309e-19
512	6.25904565442e-19
513	6.48279692126e-19
514	6.39901357232e-19
515	6.23886454507e-19
516	6.33561920945e-19
517	6.17114349803e-19
518	6.18171181158e-19
519	6.17466232541e-19
520	6.31059678161e-19
521	6.51870779684e-19
522	6.53550960685e-19
523	7.12257587958e-19
524	7.40649298822e-19
525	7.61098588631e-19
526	8.61343406171e-19
527	8.8899439971e-19
528	9.22539781154e-19
529	1.03266429827e-18
530	1.05714852512e-18
531	1.09804195465e-18
532	1.20990496186e-18
533	1.23818246964e-18
534	1.26493624868e-18
535	1.37268399847e-18
536	1.40613224642e-18
537	1.42152031882e-18
538	1.55929288882e-18
539	1.60151448977e-18
540	1.6091067565e-18
541	1.76908794257e-18
542	1.82069210693e-18
543	1.87775389765e-18
544	2.05542879764e-18
545	2.14456729782e-18
546	2.25026297436e-18
547	2.4038621553e-18
548	2.61950812191e-18
549	2.72457299433e-18
550	2.87791123546e-18
551	3.24355525133e-18
552	3.19689420471e-18
553	3.46613753643e-18
554	3.84001530441e-18
555	3.59952324574e-18
556	4.13263512152e-18
557	4.22898229434e-18
558	4.01496327956e-18
559	4.7476936768e-18
560	4.43454748624e-18
561	4.6935187146e-18
562	5.34083584944e-18
563	4.94261284892e-18
564	5.82002662051e-18
565	6.09768127715e-18
566	6.24297442663e-18
567	7.30311150267e-18
568	7.38861237364e-18
569	8.23395602125e-18
570	8.64534782402e-18
571	9.13917657618e-18
572	9.98014493768e-18
573	9.48545976075e-18
574	1.08246936079e-17
575	1.06069707613e-17
576	9.97318564197e-18
577	1.19874565082e-17
578	1.06256778654e-17
579	1.09651455782e-17
580	1.31204884651e-17
581	1.18150134254e-17
582	1.33629023489e-17
583	1.55830823431e-17
584	1.54688689793e-17
585	1.71851535589e-17
586	1.99743460298e-17
587	2.05821201948e-17
588	2.11686886653e-17
589	2.47077084019e-17
590	2.43552061366e-17
591	2.35552651394e-17
592	2.72930294456e-17
593	2.52627142382e-17
594	2.38500742799e-17
595	2.75159677576e-17
596	2.52624846992e-17
597	2.40697676986e-17
598	2.88120037934e-17
599	2.83888930563e-17
600	2.77925798186e-17
601	3.5165215864e-17
602	3.65293189933e-17
603	3.63690127772e-17
604	4.60347823727e-17
605	4.72223205376e-17
606	4.67496879909e-17
607	5.6146375149e-17
608	5.57534918073e-17
609	5.38454393629e-17
610	6.15795713399e-17
611	6.04654250342e-17
612	5.69111276368e-17
613	6.49144370707e-17
614	6.4898473194e-17
615	6.18618797296e-17
616	7.30875399448e-17
617	7.54381999998e-17
618	7.5377256488e-17
619	8.93189872161e-17
620	9.43557332331e-17
621	9.60083678021e-17
622	1.10374613781e-16
623	1.17142036852e-16
624	1.15588656507e-16
625	1.30831191155e-16
626	1.35906585296e-16
627	1.31234602957e-16
628	1.49667077226e-16
629	1.49573523793e-16
630	1.50345406377e-16
631	1.67863685952e-16
632	1.68174965858e-16
633	1.80561533517e-16
634	1.88635869677e-16
635	2.05165492142e-16
636	2.15936932891e-16
637	2.21401794858e-16
638	2.62329365948e-16
639	2.4975219964e-16
640	2.85408641653e-16
641	3.26040001262e-16
642	2.97046839306e-16
643	3.86827524457e-16
644	3.80661097588e-16
645	3.90313549706e-16
646	4.97388972915e-16
647	4.32456964038e-16
648	5.25899214549e-16
649	5.52723046567e-16
650	4.94035717336e-16
651	6.32081191661e-16
652	5.31939130343e-16
653	5.83911068864e-16
654	6.46046415527e-16
655	5.21231397085e-16
656	7.23839036408e-16
657	6.46542564563e-16
658	7.0841786892e-16
659	9.73638527462e-16
660	8.51916457284e-16
661	1.2183097925e-15
662	1.40521608566e-15
663	1.4313476989e-15
664	1.96898215322e-15
665	2.00293522126e-15
666	2.24548798852e-15
667	2.64452429801e-15
668	2.58941604288e-15
669	2.91361640167e-15
670	2.96140412839e-15
671	2.95433435715e-15
672	3.151816949e-15
673	2.94613375064e-15
674	3.16360282786e-15
675	3.21375219317e-15
676	3.08910693323e-15
677	3.66611029701e-15
678	3.75780110649e-15
679	4.03009655595e-15
680	4.99924970217e-15
681	5.30082189175e-15
682	5.99730406038e-15
683	7.20333333066e-15
684	7.62350308769e-15
685	8.42886274913e-15
686	9.58238144379e-15
687	9.84051325032e-15
688	1.03858400307e-14
689	1.1209405689e-14
690	1.10470873223e-14
691	1.13393831449e-14
692	1.17364496084e-14
693	1.1225153593e-14
694	1.16917182937e-14
695	1.15902326534e-14
696	1.14019192698e-14
697	1.24578973399e-14
698	1.1832038355e-14
699	1.30840278158e-14
700	1.43907141406e-14
701	1.36804839397e-14
702	1.69666293001e-14
703	1.73290400167e-14
704	1.79109530222e-14
705	2.20917651652e-14
706	2.07644960653e-14
707	2.40631078634e-14
708	2.61633037573e-14
709	2.45292076423e-14
710	3.00240097949e-14
711	2.72534158065e-14
712	2.85966095292e-14
713	3.29006561215e-14
714	2.57877662852e-14
715	3.21263795888e-14
716	3.10917799847e-14
717	2.43908668975e-14
718	3.40028279219e-14
719	2.68469421753e-14
720	2.6053691774e-14
721	3.44172533041e-14
722	2.61137160544e-14
723	3.23584102152e-14
724	3.57675360174e-14
725	3.35194433155e-14
726	4.23074357727e-14
727	4.07666873167e-14
728	4.7447921311e-14
729	5.1577812978e-14
730	4.84473955484e-14
731	6.05830705607e-14
732	5.5474303951e-14
733	5.39321703843e-14
734	6.59762034331e-14
735	5.34144397282e-14
736	5.4352841422e-14
737	6.27263781935e-14
738	4.9001906111e-14
739	5.27007811371e-14
740	5.86450045739e-14
741	4.97662769143e-14
742	5.6160865031e-14
743	6.35634486678e-14
744	6.22964494909e-14
745	6.99942691999e-14
746	7.9445449544e-14
747	8.42414978212e-14
748	9.14779993739e-14
749	9.97565622781e-14
750	1.05566898214e-13
751	1.09032509207e-13
752	1.11549414302e-13
753	1.1750120923e-13
754	1.13161057664e-13
755	1.08669921329e-13
756	1.20630678904e-13
757	1.07636894572e-13
758	1.0145267256e-13
759	1.22699874675e-13
760	1.0064155176e-13
761	1.08361258264e-13
762	1.32174266699e-13
763	1.08054324774e-13
764	1.3876643331e-13
765	1.47638240903e-13
766	1.36680820616e-13
767	1.77755673758e-13
768	1.53809434984e-13
769	1.75490725655e-13
770	1.97262645127e-13
771	1.57363457924e-13
772	2.11931724898e-13
773	1.90173275237e-13
774	1.68692960313e-13
775	2.25010361935e-13
776	1.62765661025e-13
777	1.83732047474e-13
778	2.04391967732e-13
779	1.55620030837e-13
780	2.02036019883e-13
781	1.78681880069e-13
782	1.90660939313e-13
783	2.2260204446e-13
784	1.79994511949e-13
785	2.57969012248e-13
786	2.44859132215e-13
787	2.42601687333e-13
788	3.5183800935e-13
789	2.95495270068e-13
790	3.39052795803e-13
791	4.29907614829e-13
792	3.58288209579e-13
793	4.28775346091e-13
794	4.69297907709e-13
795	4.39490415345e-13
796	5.11041093191e-13
797	4.98478529282e-13
798	4.91042398277e-13
799	5.24368971012e-13
800	4.88947467963e-13
801	4.96104777281e-13
802	4.66586266893e-13
803	4.64442041563e-13
804	5.14576149787e-13
805	4.82543488622e-13
806	5.11319272989e-13
807	5.92569635031e-13
808	6.32811605035e-13
809	7.43071262769e-13
810	8.45085907204e-13
811	9.11126578665e-13
812	1.06234182935e-12
813	1.20849674453e-12
814	1.22183548849e-12
815	1.28308060657e-12
816	1.43269172922e-12
817	1.47755848421e-12
818	1.50882261529e-12
819	1.57006630826e-12
820	1.55082696908e-12
821	1.57119234969e-12
822	1.53686111296e-12
823	1.39008114969e-12
824	1.36445740871e-12
825	1.42231965045e-12
826	1.45871699908e-12
827	1.47333920316e-12
828	1.51789907379e-12
829	1.77254517854e-12
830	1.8943192872e-12
831	1.96083648045e-12
832	2.21790072636e-12
833	2.39145500455e-12
834	2.60632818351e-12
835	2.80683185753e-12
836	2.78674552622e-12
837	2.86034125826e-12
838	2.92503006301e-12
839	3.13990353617e-12
840	3.15146810618e-12
841	3.20050293822e-12
842	3.59444913013e-12
843	3.5093452381e-12
844	3.15991269516e-12
845	3.57595910733e-12
846	3.62435381966e-12
847	3.33865029012e-12
848	3.75497962923e-12
849	4.19179874642e-12
850	4.1812970093e-12
851	4.54475784431e-12
852	5.12858027402e-12
853	5.54876607612e-12
854	6.15701772126e-12
855	7.11464491551e-12
856	7.5931788875e-12
857	8.08597911177e-12
858	9.25887048746e-12
859	9.49535313758e-12
860	1.02286486749e-11
861	1.13555970384e-11
862	1.16962342291e-11
863	1.48527378906e-11
864	1.59802017566e-11
865	1.50341278331e-11
866	1.72130564446e-11
867	1.84397359037e-11
868	1.76903326491e-11
869	1.81381629917e-11
870	1.94676605745e-11
871	2.02548520395e-11
872	1.86216879038e-11
873	1.79377510134e-11
874	1.70234731679e-11
875	1.67427577532e-11
876	1.81613807594e-11
877	1.86634412573e-11
878	2.13751163613e-11
879	2.27447843737e-11
880	2.76425751313e-11
881	3.31023307689e-11
882	3.20158185673e-11
883	3.46014974515e-11
884	4.05227550783e-11
885	4.21980513386e-11
886	4.32490239107e-11
887	4.47012107979e-11
888	5.00415056456e-11
889	4.41856053336e-11
890	4.20495298624e-11
891	3.95727458412e-11
892	4.10031415051e-11
893	4.39973676957e-11
894	4.53163549422e-11
895	4.68277196777e-11
896	5.24330763707e-11
897	4.48158110442e-11
898	4.00292680178e-11
899	4.42249493427e-11
900	3.98037988721e-11
901	3.91592788294e-11
902	4.24171630701e-11
903	5.05128522493e-11
904	5.58851711972e-11
905	7.25646413288e-11
906	7.65307780738e-11
907	7.22579904835e-11
908	1.054654978e-10
909	1.17460460783e-10
910	1.40969275676e-10
911	1.57230158334e-10
912	1.40595318133e-10
913	1.3771013077e-10
914	1.61335406665e-10
915	1.51383706963e-10
916	1.86343148829e-10
917	2.35448165125e-10
918	2.09887389654e-10
919	1.63582743151e-10
920	1.92312202744e-10
921	1.86793455107e-10
922	1.93480054221e-10
923	2.03792712477e-10
924	2.20421560936e-10
925	2.62065155444e-10
926	3.68956576699e-10
927	3.41897974261e-10
928	4.10177571862e-10
929	4.19354563886e-10
930	5.08842370215e-10
931	7.0114189722e-10
932	9.44478990088e-10
933	9.95469341504e-10
934	1.00615175262e-09
935	8.85587571849e-10
936	7.55587736976e-10
937	7.80115681226e-10
938	8.93216909022e-10
939	9.43821481082e-10
940	1.11347342401e-09
941	1.17018716711e-09
942	1.10173945389e-09
943	7.78366291665e-10
944	8.8142636671e-10
945	8.81014788594e-10
946	7.83854220876e-10
947	7.36111980368e-10
948	8.05137916919e-10
949	7.78058241686e-10
950	1.1736709604e-09
951	1.22210819332e-09
952	1.58870798562e-09
953	1.84026313655e-09
954	1.8383671885e-09
955	1.71518417946e-09
956	1.6490461985e-09
957	1.88245645311e-09
958	2.19439090049e-09
959	1.77586345758e-09
960	1.88256549929e-09
961	2.9254230134e-09
962	3.87808150145e-09
963	4.98585271006e-09
964	4.93003708599e-09
965	5.2604776325e-09
966	4.76891344296e-09
967	4.66386795859e-09
968	4.77241833774e-09
969	4.34371308082e-09
970	4.41354006207e-09
971	6.75911769134e-09
972	6.27224701311e-09
973	8.3749407494e-09
974	1.1464443435e-08
975	1.30820234847e-08
976	1.46979747701e-08
977	1.49610458248e-08
978	1.37182086505e-08
979	1.48149838095e-08
980	1.18380791518e-08
981	1.41218782745e-08
982	1.85488064991e-08
983	2.10902771677e-08
984	2.32347380195e-08
985	3.03963211024e-08
986	3.28332846108e-08
987	3.6893030172e-08
988	4.50096140779e-08
989	4.54927030167e-08
990	3.41625921902e-08
991	3.10958405906e-08
992	4.64746865116e-08
993	7.9866515849e-08
994	1.04934541323e-07
995	1.11991309714e-07
996	1.14562690568e-07
997	8.68930480868e-08
998	7.59637084342e-08
999	1.0757029907e-07
1000	1.43867727309e-07
1001	1.34494523009e-07
1002	1.32163835214e-07
1003	1.3376166494e-07
1004	2.21240506831e-07
1005	2.96933476634e-07
1006	2.99161091041e-07
1007	2.95547140486e-07
1008	4.05535197158e-07
1009	6.33741142069e-07
1010	6.16198688807e-07
1011	5.59847368642e-07
1012	1.16507381281e-06
1013	2.03085985171e-06
1014	2.54737996015e-06
1015	3.32073143619e-06
1016	4.22334162458e-06
1017	6.00777450695e-06
1018	1.61229792663e-05
1019	4.40988593954e-05
1020	0.000234181667992
1021	0.000814380060196
1022	0.00355720452158
1023	0.0241613083609
