0	0.884957523094
1	1.41142821412e-15
2	0.0105228534759
3	3.23987600011e-16
4	0.000821801321007
5	3.80476428393e-17
6	1.88763166876e-05
7	1.00399198864e-17
8	6.94042971416e-06
9	6.72397142506e-18
10	3.04833758732e-06
11	8.88046305295e-18
12	1.58514934243e-06
13	7.03731383816e-18
14	1.12886106886e-06
15	5.58202274781e-18
16	7.48890099945e-07
17	3.33820840377e-18
18	4.73371304669e-07
19	3.11151414247e-18
20	3.50062644903e-07
21	2.48655559015e-18
22	2.06267749845e-07
23	2.35855505768e-18
24	1.6158673722e-07
25	1.63550869554e-18
26	1.14946776302e-07
27	1.22643618518e-18
28	8.4062478822e-08
29	9.34402609145e-19
30	4.61680852552e-08
31	8.43649927562e-19
32	4.39122304363e-08
33	8.48714115488e-19
34	5.25822033134e-08
35	7.41763349657e-19
36	2.98685890527e-08
37	6.92946672808e-19
38	2.96679896478e-08
39	6.33813751236e-19
40	2.48956883397e-08
41	5.15620352833e-19
42	2.35005298356e-08
43	4.09622636696e-19
44	1.35541959577e-08
45	3.57233159822e-19
46	1.77463360359e-08
47	3.5314448134e-19
48	1.8656323429e-08
49	2.81133849588e-19
50	1.05725105223e-08
51	2.68570132357e-19
52	1.33116690759e-08
53	2.44989219837e-19
54	1.37348200758e-08
55	2.60643682088e-19
56	7.6773980321e-09
57	3.01938311357e-19
58	1.05842769015e-08
59	3.23525709313e-19
60	8.68043652815e-09
61	3.02434113466e-19
62	4.99374445433e-09
63	2.40640836395e-19
64	4.93854245089e-09
65	2.07401800169e-19
66	5.18446752584e-09
67	1.95654189612e-19
68	3.45797052586e-09
69	1.81576852253e-19
70	2.56276145763e-09
71	1.55534838093e-19
72	2.14457430519e-09
73	1.45265571688e-19
74	2.2601159791e-09
75	1.28499859115e-19
76	1.47683804912e-09
77	1.11786090255e-19
78	2.48498856605e-09
79	1.09424888681e-19
80	2.08367726423e-09
81	1.0113926771e-19
82	1.54928090567e-09
83	8.90328433263e-20
84	1.55848161825e-09
85	7.80996910752e-20
86	1.32939711417e-09
87	6.53333856107e-20
88	1.27198165613e-09
89	5.75928264666e-20
90	1.0252291451e-09
91	5.06260523441e-20
92	8.05519568331e-10
93	4.51017666219e-20
94	7.50852976485e-10
95	4.2330839849e-20
96	6.5001794337e-10
97	4.06772212115e-20
98	7.49432194216e-10
99	3.67307648725e-20
100	6.16707364811e-10
101	4.02929251657e-20
102	3.51456876681e-10
103	4.01203776065e-20
104	4.42144465577e-10
105	4.10258527834e-20
106	5.88068148735e-10
107	4.34109149112e-20
108	5.56403460351e-10
109	4.75342842147e-20
110	6.74481440714e-10
111	5.08200791509e-20
112	6.69802760543e-10
113	5.23965571907e-20
114	6.68361255302e-10
115	5.45051384144e-20
116	6.84758064203e-10
117	5.13892454008e-20
118	5.65164111896e-10
119	4.43238811781e-20
120	4.37575064919e-10
121	4.04300181354e-20
122	3.35836131104e-10
123	3.47589174629e-20
124	2.47292445272e-10
125	2.70709199523e-20
126	1.94758948125e-10
127	2.20160502354e-20
128	2.27277127646e-10
129	1.78076634371e-20
130	2.11914926089e-10
131	1.44522666402e-20
132	1.44696289291e-10
133	1.2942804058e-20
134	1.16661407232e-10
135	1.11787162483e-20
136	8.80968755249e-11
137	9.11599290027e-21
138	1.00837883674e-10
139	9.4257905235e-21
140	1.04384774808e-10
141	7.12894288726e-21
142	1.04674896762e-10
143	6.57428821242e-21
144	1.12493433117e-10
145	6.26993311296e-21
146	8.4198896537e-11
147	5.5723535209e-21
148	6.52038938711e-11
149	5.36215443753e-21
150	4.70178293715e-11
151	4.97691704978e-21
152	3.7768637424e-11
153	4.42731465832e-21
154	3.6498857317e-11
155	3.82281245011e-21
156	4.41557372941e-11
157	3.14307218774e-21
158	4.87888582704e-11
159	2.48801549037e-21
160	4.33112696548e-11
161	2.46166490268e-21
162	3.37244544806e-11
163	2.06189625368e-21
164	2.61107861249e-11
165	1.70273164681e-21
166	2.92224140492e-11
167	1.73370023434e-21
168	2.92452884692e-11
169	1.4781147256e-21
170	2.27214953373e-11
171	1.21759485994e-21
172	1.52178969342e-11
173	1.05546265441e-21
174	1.1000875076e-11
175	9.61554824615e-22
176	1.36177119135e-11
177	8.54393123817e-22
178	1.77484472982e-11
179	9.26539695464e-22
180	1.73770997672e-11
181	6.48142049038e-22
182	1.55656730713e-11
183	6.91889725185e-22
184	1.37689953978e-11
185	5.77713430182e-22
186	7.03636306928e-12
187	4.14448012064e-22
188	7.33129765022e-12
189	4.23659909077e-22
190	8.92575716703e-12
191	3.72620321462e-22
192	7.75685008874e-12
193	4.09084918337e-22
194	5.91819251289e-12
195	4.73670156373e-22
196	6.16962993511e-12
197	4.42206219962e-22
198	4.49718334015e-12
199	4.68862769821e-22
200	4.08280696098e-12
201	4.70801618108e-22
202	3.64038593015e-12
203	2.98578417475e-22
204	5.0152398669e-12
205	3.45102875295e-22
206	3.83406370759e-12
207	1.99170577446e-22
208	3.40592694307e-12
209	2.56890155248e-22
210	3.85660757654e-12
211	1.95557586863e-22
212	3.71841470649e-12
213	2.9285967166e-22
214	3.38030309685e-12
215	2.27364553683e-22
216	3.98238126761e-12
217	3.26325282933e-22
218	3.86476238026e-12
219	1.99052326403e-22
220	2.8976882151e-12
221	2.68551287966e-22
222	3.49170092373e-12
223	1.96909900516e-22
224	2.22089406034e-12
225	1.71138058205e-22
226	1.94352672782e-12
227	1.79692373806e-22
228	1.46130391934e-12
229	1.4303263908e-22
230	1.81345900416e-12
231	1.70831637703e-22
232	1.43481330492e-12
233	1.4052811387e-22
234	1.85010079738e-12
235	1.87218872815e-22
236	1.42590134154e-12
237	1.16970480671e-22
238	1.20604419323e-12
239	1.7572213554e-22
240	9.38501366887e-13
241	8.66620661016e-23
242	6.19331272609e-13
243	1.16828588806e-22
244	6.54789553445e-13
245	6.87492753033e-23
246	4.59950866795e-13
247	7.01724340973e-23
248	6.04155315542e-13
249	5.56719439333e-23
250	4.79591803759e-13
251	5.15221383077e-23
252	4.984301188e-13
253	5.02780528628e-23
254	3.02598528813e-13
255	4.07392763402e-23
256	3.36739483135e-13
257	4.52033433426e-23
258	2.55871954996e-13
259	3.02392007115e-23
260	2.23830997026e-13
261	3.50048352542e-23
262	2.11818113776e-13
263	2.25126216508e-23
264	1.83003457738e-13
265	2.45030699795e-23
266	1.67605003918e-13
267	1.88383007262e-23
268	1.76795417988e-13
269	1.88019072254e-23
270	1.61215029598e-13
271	1.70505859843e-23
272	9.08054789338e-14
273	1.64396580337e-23
274	8.8341815464e-14
275	1.59785231624e-23
276	1.02911569733e-13
277	1.47003481712e-23
278	1.05106912701e-13
279	1.4304283552e-23
280	1.02059476732e-13
281	1.2747410922e-23
282	9.25720947146e-14
283	1.25900563936e-23
284	7.03653546939e-14
285	1.1784170465e-23
286	6.0611675495e-14
287	1.12261232902e-23
288	6.79394692281e-14
289	1.04363135195e-23
290	6.54561828934e-14
291	9.54382583147e-24
292	5.09050127218e-14
293	8.68277700835e-24
294	3.9724226871e-14
295	8.40102743423e-24
296	3.44053685865e-14
297	7.89542025401e-24
298	2.84848240734e-14
299	7.50314447488e-24
300	3.01621119e-14
301	7.05196901371e-24
302	3.88685930615e-14
303	6.78607767869e-24
304	4.0086303431e-14
305	6.31942153929e-24
306	2.92859804502e-14
307	6.38932533995e-24
308	2.3968853619e-14
309	6.41399258622e-24
310	2.25010418774e-14
311	6.32509351842e-24
312	2.16012282511e-14
313	6.09317993666e-24
314	2.11952883477e-14
315	5.44157166503e-24
316	2.49224691618e-14
317	5.10755965307e-24
318	2.0447724898e-14
319	4.32033861899e-24
320	1.71687695916e-14
321	4.50531997006e-24
322	1.59001241162e-14
323	3.92846959961e-24
324	1.4131222195e-14
325	4.47834856969e-24
326	1.23684268611e-14
327	3.90509105634e-24
328	1.26849477256e-14
329	4.40677203478e-24
330	1.2985017632e-14
331	3.83210134567e-24
332	1.02247451163e-14
333	3.97320430096e-24
334	1.31948467636e-14
335	3.71488496558e-24
336	1.05739801579e-14
337	3.33772091342e-24
338	9.64309351201e-15
339	3.39183062816e-24
340	7.20314966651e-15
341	2.67638407387e-24
342	7.91154508537e-15
343	3.02358098623e-24
344	6.79686481314e-15
345	2.28226412876e-24
346	7.381929895e-15
347	2.82373409192e-24
348	7.80749927243e-15
349	2.20920625573e-24
350	5.70817894876e-15
351	2.60468456801e-24
352	5.67079701342e-15
353	2.14808636293e-24
354	4.0320261263e-15
355	2.14899732339e-24
356	5.26560594706e-15
357	2.0108622902e-24
358	3.93152618834e-15
359	1.63418220147e-24
360	5.01088453301e-15
361	1.84109767774e-24
362	3.75408516986e-15
363	1.31554225039e-24
364	3.47211594855e-15
365	1.68827167451e-24
366	2.87169239504e-15
367	1.17664629568e-24
368	2.38798357723e-15
369	1.48752892484e-24
370	2.78847757746e-15
371	1.10340209894e-24
372	2.16750416108e-15
373	1.20220661445e-24
374	2.89061652102e-15
375	1.04794292153e-24
376	1.87782809144e-15
377	9.00635759858e-25
378	2.17851761463e-15
379	9.63033026754e-25
380	1.36730580627e-15
381	6.65961136698e-25
382	1.38415708106e-15
383	8.29608792623e-25
384	1.1517499129e-15
385	5.43320354012e-25
386	1.03679105999e-15
387	6.82955501405e-25
388	1.19047467341e-15
389	4.93799206774e-25
390	8.49698039902e-16
391	5.41139596035e-25
392	1.04049700512e-15
393	4.73230780989e-25
394	6.19631178242e-16
395	4.13106351873e-25
396	7.57791098042e-16
397	4.45692104487e-25
398	5.14760620344e-16
399	3.24360188007e-25
400	5.37050602498e-16
401	3.84396531015e-25
402	5.13541347891e-16
403	2.67977346202e-25
404	4.18572937139e-16
405	2.99739403194e-25
406	4.93601881071e-16
407	2.46708127455e-25
408	3.39189673672e-16
409	2.32327235268e-25
410	4.03017526214e-16
411	2.39203631484e-25
412	2.75396719817e-16
413	1.91052689518e-25
414	3.0457858818e-16
415	2.25086498957e-25
416	2.774173596e-16
417	1.70450404097e-25
418	2.44291828418e-16
419	1.948043762e-25
420	2.79309222802e-16
421	1.58549495989e-25
422	1.95977889879e-16
423	1.52824097754e-25
424	2.39549926868e-16
425	1.47212323111e-25
426	1.62719945007e-16
427	1.21311220973e-25
428	1.91014879507e-16
429	1.37785424432e-25
430	1.55280734318e-16
431	9.99891223176e-26
432	1.49500889626e-16
433	1.26095206762e-25
434	1.54666109233e-16
435	9.39393994053e-26
436	1.1633290438e-16
437	1.06425839925e-25
438	1.48428544069e-16
439	9.00386413133e-26
440	9.78170783115e-17
441	8.44469248556e-26
442	1.27592307878e-16
443	8.5607031444e-26
444	8.44567827476e-17
445	6.44182541017e-26
446	9.68718255639e-17
447	7.84311092416e-26
448	7.68308503549e-17
449	5.21293253793e-26
450	7.13905104306e-17
451	6.67909979297e-26
452	7.420398238e-17
453	4.67502903074e-26
454	5.3824424631e-17
455	5.41195086749e-26
456	6.80780699958e-17
457	4.42566898312e-26
458	4.21722185958e-17
459	4.18919845593e-26
460	5.61784104267e-17
461	4.1886597703e-26
462	3.49393386202e-17
463	3.20054480963e-26
464	4.24328532256e-17
465	3.7299009126e-26
466	3.13424232535e-17
467	2.5005446044e-26
468	3.02776937004e-17
469	3.07702100031e-26
470	2.89053466023e-17
471	2.11375401922e-26
472	2.17558991947e-17
473	2.56964580386e-26
474	2.6050509233e-17
475	2.01525294378e-26
476	1.65291425653e-17
477	1.99103816633e-26
478	2.15816754509e-17
479	1.94594770283e-26
480	1.35498908277e-17
481	1.61295028545e-26
482	1.65549942894e-17
483	1.69112576527e-26
484	1.21010913181e-17
485	1.38097851569e-26
486	1.19241902225e-17
487	1.52994041639e-26
488	1.10513678945e-17
489	1.1545059682e-26
490	8.42689238361e-18
491	1.23943402236e-26
492	9.58202599755e-18
493	1.06406395808e-26
494	6.34908740067e-18
495	1.09768521775e-26
496	8.35801697811e-18
497	1.09767420121e-26
498	5.72030529887e-18
499	9.63627293037e-27
500	6.74256757189e-18
501	1.06129234627e-26
502	5.38373116921e-18
503	8.94858935949e-27
504	5.34730353123e-18
505	1.23251552267e-26
506	5.36423598148e-18
507	1.0478518576e-26
508	4.30981087124e-18
509	1.19393274828e-26
510	5.32869109539e-18
511	1.54230770501e-26
512	4.00331316091e-18
513	1.54230770501e-26
514	5.32869109719e-18
515	1.19393274828e-26
516	4.30981087138e-18
517	1.0478518576e-26
518	5.36423598157e-18
519	1.23251552267e-26
520	5.34730353117e-18
521	8.9485893595e-27
522	5.38373116904e-18
523	1.06129234627e-26
524	6.74256757203e-18
525	9.63627293037e-27
526	5.72030529877e-18
527	1.09767420121e-26
528	8.35801697808e-18
529	1.09768521775e-26
530	6.34908740049e-18
531	1.06406395809e-26
532	9.58202599751e-18
533	1.23943402236e-26
534	8.42689238377e-18
535	1.1545059682e-26
536	1.10513678945e-17
537	1.52994041639e-26
538	1.19241902224e-17
539	1.38097851569e-26
540	1.2101091318e-17
541	1.69112576527e-26
542	1.65549942889e-17
543	1.61295028545e-26
544	1.35498908277e-17
545	1.94594770283e-26
546	2.15816754513e-17
547	1.99103816633e-26
548	1.65291425652e-17
549	2.01525294378e-26
550	2.6050509233e-17
551	2.56964580386e-26
552	2.17558991947e-17
553	2.11375401922e-26
554	2.89053466026e-17
555	3.07702100031e-26
556	3.02776937006e-17
557	2.5005446044e-26
558	3.13424232535e-17
559	3.7299009126e-26
560	4.24328532256e-17
561	3.20054480962e-26
562	3.49393386205e-17
563	4.1886597703e-26
564	5.61784104268e-17
565	4.18919845593e-26
566	4.21722185955e-17
567	4.42566898312e-26
568	6.80780699959e-17
569	5.41195086749e-26
570	5.38244246306e-17
571	4.67502903074e-26
572	7.42039823802e-17
573	6.67909979297e-26
574	7.1390510432e-17
575	5.21293253792e-26
576	7.68308503549e-17
577	7.84311092416e-26
578	9.68718255619e-17
579	6.44182541016e-26
580	8.44567827477e-17
581	8.5607031444e-26
582	1.27592307878e-16
583	8.44469248556e-26
584	9.78170783116e-17
585	9.00386413133e-26
586	1.48428544069e-16
587	1.06425839925e-25
588	1.1633290438e-16
589	9.39393994053e-26
590	1.54666109234e-16
591	1.26095206762e-25
592	1.49500889626e-16
593	9.99891223176e-26
594	1.55280734317e-16
595	1.37785424432e-25
596	1.91014879507e-16
597	1.21311220973e-25
598	1.62719945007e-16
599	1.47212323111e-25
600	2.39549926868e-16
601	1.52824097754e-25
602	1.9597788988e-16
603	1.58549495989e-25
604	2.79309222802e-16
605	1.948043762e-25
606	2.44291828414e-16
607	1.70450404097e-25
608	2.774173596e-16
609	2.25086498957e-25
610	3.04578588181e-16
611	1.91052689518e-25
612	2.75396719817e-16
613	2.39203631484e-25
614	4.03017526214e-16
615	2.32327235268e-25
616	3.39189673672e-16
617	2.46708127456e-25
618	4.93601881067e-16
619	2.99739403194e-25
620	4.1857293714e-16
621	2.67977346202e-25
622	5.13541347887e-16
623	3.84396531015e-25
624	5.37050602498e-16
625	3.24360188007e-25
626	5.14760620342e-16
627	4.45692104487e-25
628	7.57791098042e-16
629	4.13106351873e-25
630	6.19631178242e-16
631	4.73230780989e-25
632	1.04049700512e-15
633	5.41139596035e-25
634	8.49698039902e-16
635	4.93799206774e-25
636	1.19047467341e-15
637	6.82955501405e-25
638	1.03679105999e-15
639	5.43320354012e-25
640	1.1517499129e-15
641	8.29608792623e-25
642	1.38415708106e-15
643	6.65961136698e-25
644	1.36730580627e-15
645	9.63033026754e-25
646	2.17851761462e-15
647	9.00635759858e-25
648	1.87782809144e-15
649	1.04794292153e-24
650	2.89061652102e-15
651	1.20220661445e-24
652	2.16750416108e-15
653	1.10340209894e-24
654	2.78847757745e-15
655	1.48752892484e-24
656	2.38798357723e-15
657	1.17664629568e-24
658	2.87169239503e-15
659	1.68827167451e-24
660	3.47211594855e-15
661	1.31554225039e-24
662	3.75408516986e-15
663	1.84109767774e-24
664	5.01088453301e-15
665	1.63418220147e-24
666	3.93152618835e-15
667	2.0108622902e-24
668	5.26560594706e-15
669	2.14899732339e-24
670	4.0320261263e-15
671	2.14808636293e-24
672	5.67079701342e-15
673	2.60468456801e-24
674	5.70817894878e-15
675	2.20920625573e-24
676	7.80749927242e-15
677	2.82373409192e-24
678	7.381929895e-15
679	2.28226412876e-24
680	6.79686481313e-15
681	3.02358098623e-24
682	7.91154508537e-15
683	2.67638407387e-24
684	7.20314966651e-15
685	3.39183062816e-24
686	9.64309351199e-15
687	3.33772091342e-24
688	1.05739801579e-14
689	3.71488496558e-24
690	1.31948467636e-14
691	3.97320430096e-24
692	1.02247451163e-14
693	3.83210134567e-24
694	1.2985017632e-14
695	4.40677203478e-24
696	1.26849477256e-14
697	3.90509105634e-24
698	1.23684268611e-14
699	4.47834856969e-24
700	1.4131222195e-14
701	3.92846959961e-24
702	1.59001241163e-14
703	4.50531997006e-24
704	1.71687695916e-14
705	4.32033861899e-24
706	2.0447724898e-14
707	5.10755965307e-24
708	2.49224691618e-14
709	5.44157166503e-24
710	2.11952883477e-14
711	6.09317993666e-24
712	2.16012282512e-14
713	6.32509351842e-24
714	2.25010418774e-14
715	6.41399258622e-24
716	2.3968853619e-14
717	6.38932533995e-24
718	2.92859804502e-14
719	6.31942153929e-24
720	4.0086303431e-14
721	6.78607767869e-24
722	3.88685930615e-14
723	7.05196901371e-24
724	3.01621119e-14
725	7.50314447488e-24
726	2.84848240734e-14
727	7.89542025401e-24
728	3.44053685865e-14
729	8.40102743423e-24
730	3.9724226871e-14
731	8.68277700835e-24
732	5.09050127219e-14
733	9.54382583147e-24
734	6.54561828934e-14
735	1.04363135195e-23
736	6.79394692281e-14
737	1.12261232902e-23
738	6.0611675495e-14
739	1.1784170465e-23
740	7.03653546938e-14
741	1.25900563936e-23
742	9.25720947146e-14
743	1.2747410922e-23
744	1.02059476732e-13
745	1.4304283552e-23
746	1.05106912701e-13
747	1.47003481712e-23
748	1.02911569733e-13
749	1.59785231624e-23
750	8.8341815464e-14
751	1.64396580337e-23
752	9.08054789338e-14
753	1.70505859843e-23
754	1.61215029598e-13
755	1.88019072254e-23
756	1.76795417988e-13
757	1.88383007262e-23
758	1.67605003918e-13
759	2.45030699795e-23
760	1.83003457738e-13
761	2.25126216508e-23
762	2.11818113776e-13
763	3.50048352542e-23
764	2.23830997026e-13
765	3.02392007115e-23
766	2.55871954997e-13
767	4.52033433426e-23
768	3.36739483135e-13
769	4.07392763402e-23
770	3.02598528813e-13
771	5.02780528628e-23
772	4.984301188e-13
773	5.15221383077e-23
774	4.79591803759e-13
775	5.56719439333e-23
776	6.04155315542e-13
777	7.01724340973e-23
778	4.59950866795e-13
779	6.87492753033e-23
780	6.54789553445e-13
781	1.16828588806e-22
782	6.19331272609e-13
783	8.66620661016e-23
784	9.38501366887e-13
785	1.7572213554e-22
786	1.20604419323e-12
787	1.16970480671e-22
788	1.42590134154e-12
789	1.87218872815e-22
790	1.85010079738e-12
791	1.4052811387e-22
792	1.43481330492e-12
793	1.70831637703e-22
794	1.81345900416e-12
795	1.4303263908e-22
796	1.46130391934e-12
797	1.79692373806e-22
798	1.94352672782e-12
799	1.71138058205e-22
800	2.22089406034e-12
801	1.96909900516e-22
802	3.49170092373e-12
803	2.68551287966e-22
804	2.8976882151e-12
805	1.99052326403e-22
806	3.86476238026e-12
807	3.26325282933e-22
808	3.98238126761e-12
809	2.27364553683e-22
810	3.38030309685e-12
811	2.9285967166e-22
812	3.71841470649e-12
813	1.95557586863e-22
814	3.85660757654e-12
815	2.56890155248e-22
816	3.40592694307e-12
817	1.99170577446e-22
818	3.83406370759e-12
819	3.45102875295e-22
820	5.0152398669e-12
821	2.98578417475e-22
822	3.64038593015e-12
823	4.70801618108e-22
824	4.08280696098e-12
825	4.68862769821e-22
826	4.49718334015e-12
827	4.42206219962e-22
828	6.16962993511e-12
829	4.73670156373e-22
830	5.91819251289e-12
831	4.09084918337e-22
832	7.75685008874e-12
833	3.72620321462e-22
834	8.92575716703e-12
835	4.23659909077e-22
836	7.33129765022e-12
837	4.14448012064e-22
838	7.03636306928e-12
839	5.77713430182e-22
840	1.37689953978e-11
841	6.91889725185e-22
842	1.55656730713e-11
843	6.48142049038e-22
844	1.73770997672e-11
845	9.26539695464e-22
846	1.77484472982e-11
847	8.54393123817e-22
848	1.36177119135e-11
849	9.61554824615e-22
850	1.1000875076e-11
851	1.05546265441e-21
852	1.52178969342e-11
853	1.21759485994e-21
854	2.27214953373e-11
855	1.4781147256e-21
856	2.92452884692e-11
857	1.73370023434e-21
858	2.92224140492e-11
859	1.70273164681e-21
860	2.61107861249e-11
861	2.06189625368e-21
862	3.37244544806e-11
863	2.46166490268e-21
864	4.33112696548e-11
865	2.48801549037e-21
866	4.87888582704e-11
867	3.14307218774e-21
868	4.41557372941e-11
869	3.82281245011e-21
870	3.6498857317e-11
871	4.42731465832e-21
872	3.7768637424e-11
873	4.97691704978e-21
874	4.70178293715e-11
875	5.36215443753e-21
876	6.52038938711e-11
877	5.5723535209e-21
878	8.4198896537e-11
879	6.26993311296e-21
880	1.12493433117e-10
881	6.57428821242e-21
882	1.04674896762e-10
883	7.12894288726e-21
884	1.04384774808e-10
885	9.4257905235e-21
886	1.00837883674e-10
887	9.11599290027e-21
888	8.80968755249e-11
889	1.11787162483e-20
890	1.16661407232e-10
891	1.2942804058e-20
892	1.44696289291e-10
893	1.44522666402e-20
894	2.11914926089e-10
895	1.78076634371e-20
896	2.27277127646e-10
897	2.20160502354e-20
898	1.94758948125e-10
899	2.70709199523e-20
900	2.47292445272e-10
901	3.47589174629e-20
902	3.35836131104e-10
903	4.04300181354e-20
904	4.37575064919e-10
905	4.43238811781e-20
906	5.65164111896e-10
907	5.13892454008e-20
908	6.84758064203e-10
909	5.45051384144e-20
910	6.68361255302e-10
911	5.23965571907e-20
912	6.69802760543e-10
913	5.08200791509e-20
914	6.74481440714e-10
915	4.75342842147e-20
916	5.56403460351e-10
917	4.34109149112e-20
918	5.88068148735e-10
919	4.10258527834e-20
920	4.42144465577e-10
921	4.01203776065e-20
922	3.51456876681e-10
923	4.02929251657e-20
924	6.16707364811e-10
925	3.67307648725e-20
926	7.49432194216e-10
927	4.06772212115e-20
928	6.5001794337e-10
929	4.2330839849e-20
930	7.50852976485e-10
931	4.51017666219e-20
932	8.05519568331e-10
933	5.06260523441e-20
934	1.0252291451e-09
935	5.75928264666e-20
936	1.27198165613e-09
937	6.53333856107e-20
938	1.32939711417e-09
939	7.80996910752e-20
940	1.55848161825e-09
941	8.90328433263e-20
942	1.54928090567e-09
943	1.0113926771e-19
944	2.08367726423e-09
945	1.09424888681e-19
946	2.48498856605e-09
947	1.11786090255e-19
948	1.47683804912e-09
949	1.28499859115e-19
950	2.2601159791e-09
951	1.45265571688e-19
952	2.14457430519e-09
953	1.55534838093e-19
954	2.56276145763e-09
955	1.81576852253e-19
956	3.45797052586e-09
957	1.95654189612e-19
958	5.18446752584e-09
959	2.07401800169e-19
960	4.93854245089e-09
961	2.40640836395e-19
962	4.99374445433e-09
963	3.02434113466e-19
964	8.68043652815e-09
965	3.23525709313e-19
966	1.05842769015e-08
967	3.01938311357e-19
968	7.6773980321e-09
969	2.60643682088e-19
970	1.37348200758e-08
971	2.44989219837e-19
972	1.33116690759e-08
973	2.68570132357e-19
974	1.05725105223e-08
975	2.81133849588e-19
976	1.8656323429e-08
977	3.5314448134e-19
978	1.77463360359e-08
979	3.57233159822e-19
980	1.35541959577e-08
981	4.09622636696e-19
982	2.35005298356e-08
983	5.15620352833e-19
984	2.48956883397e-08
985	6.33813751236e-19
986	2.96679896478e-08
987	6.92946672808e-19
988	2.98685890527e-08
989	7.41763349657e-19
990	5.25822033134e-08
991	8.48714115488e-19
992	4.39122304363e-08
993	8.43649927562e-19
994	4.61680852552e-08
995	9.34402609145e-19
996	8.4062478822e-08
997	1.22643618518e-18
998	1.14946776302e-07
999	1.63550869554e-18
1000	1.6158673722e-07
1001	2.35855505768e-18
1002	2.06267749845e-07
1003	2.48655559015e-18
1004	3.50062644903e-07
1005	3.11151414247e-18
1006	4.73371304669e-07
1007	3.33820840377e-18
1008	7.48890099945e-07
1009	5.58202274781e-18
1010	1.12886106886e-06
1011	7.03731383816e-18
1012	1.58514934243e-06
1013	8.88046305295e-18
1014	3.04833758732e-06
1015	6.72397142506e-18
1016	6.94042971416e-06
1017	1.00399198864e-17
1018	1.88763166876e-05
1019	3.80476428393e-17
1020	0.000821801321007
1021	3.23987600011e-16
1022	0.0105228534759
1023	1.41142821412e-15
