0	0.778952079195
1	0.024658913724
2	0.00378504352507
3	0.000949136646814
4	0.000176298978834
5	2.28497728671e-05
6	9.9155849707e-06
7	1.21646327243e-05
8	8.53064537635e-06
9	4.32444271574e-06
10	4.55155661258e-06
11	1.86113059123e-06
12	1.73302352169e-06
13	1.51384327505e-06
14	1.13742927737e-06
15	1.06649100199e-06
16	1.01391745601e-06
17	9.20710720953e-07
18	6.23613826854e-07
19	4.93714273598e-07
20	2.95418144735e-07
21	2.77097671378e-07
22	2.88188274915e-07
23	2.70877575929e-07
24	2.16060391511e-07
25	1.68899260165e-07
26	1.32390067608e-07
27	1.79973124106e-07
28	1.80074062268e-07
29	1.56944710341e-07
30	1.03758903999e-07
31	8.70200221334e-08
32	5.78284671182e-08
33	5.91136441362e-08
34	6.22707616226e-08
35	5.82853792046e-08
36	5.20062351614e-08
37	6.17928884793e-08
38	6.57009613826e-08
39	6.94122811212e-08
40	5.33703902177e-08
41	3.64731078845e-08
42	1.87753244038e-08
43	2.33608965338e-08
44	3.1222626462e-08
45	3.00834641522e-08
46	2.99131540796e-08
47	2.7931555183e-08
48	2.97487105061e-08
49	2.11967817729e-08
50	1.73976420271e-08
51	1.00724312654e-08
52	7.85041227575e-09
53	8.24130212488e-09
54	1.26324579952e-08
55	1.42374032771e-08
56	1.39183020141e-08
57	1.2530036913e-08
58	1.73683187772e-08
59	1.25269403511e-08
60	1.03267413375e-08
61	9.26383441402e-09
62	8.35172904966e-09
63	6.31307520845e-09
64	4.71750682956e-09
65	4.74156032848e-09
66	4.97327199822e-09
67	3.86293229089e-09
68	4.61881245497e-09
69	4.95131132991e-09
70	3.60272454208e-09
71	3.11245705801e-09
72	3.32844277776e-09
73	3.25539874225e-09
74	2.92338843501e-09
75	2.82186483827e-09
76	3.01749505267e-09
77	3.20661808547e-09
78	2.75646015313e-09
79	2.14047049564e-09
80	1.63415145838e-09
81	1.09320307518e-09
82	1.29063320303e-09
83	1.67208267119e-09
84	1.42048749941e-09
85	1.21243753773e-09
86	1.35264325242e-09
87	1.26925653768e-09
88	8.71254093e-10
89	9.07163015584e-10
90	7.78544954302e-10
91	4.73850625358e-10
92	4.52031700184e-10
93	5.31670517806e-10
94	6.3569454648e-10
95	7.24366890444e-10
96	5.80243121552e-10
97	6.05263499726e-10
98	5.63524884848e-10
99	5.18688853052e-10
100	5.59491135321e-10
101	5.23655675677e-10
102	5.09259928825e-10
103	5.21105082228e-10
104	3.62581314314e-10
105	3.54045382104e-10
106	3.4828529724e-10
107	2.55500936249e-10
108	2.84094978909e-10
109	2.84073937602e-10
110	2.1011050971e-10
111	2.19376442846e-10
112	2.37268303263e-10
113	1.93725208902e-10
114	1.91088222511e-10
115	1.90356341086e-10
116	1.80817278606e-10
117	2.06370152866e-10
118	1.93484168537e-10
119	1.71456770867e-10
120	1.910065796e-10
121	1.79479326243e-10
122	1.49906781712e-10
123	1.78010586403e-10
124	1.73872473716e-10
125	1.24024240591e-10
126	1.16204332922e-10
127	1.1789014456e-10
128	8.21583647306e-11
129	7.05585540143e-11
130	7.58424373738e-11
131	6.51881680636e-11
132	5.72092107189e-11
133	6.78412200783e-11
134	7.35277762674e-11
135	6.1852604799e-11
136	6.45098037034e-11
137	5.42001297472e-11
138	5.261610517e-11
139	7.33125671426e-11
140	6.3998442204e-11
141	6.08993531269e-11
142	8.04308802869e-11
143	5.85452643553e-11
144	4.55181232598e-11
145	5.43659292531e-11
146	4.01490774115e-11
147	2.91515151819e-11
148	3.17682680388e-11
149	2.77401494789e-11
150	2.52393999504e-11
151	2.32590880652e-11
152	2.23002789699e-11
153	2.36743249734e-11
154	2.05404621705e-11
155	1.85139545417e-11
156	1.97696648205e-11
157	2.07840437818e-11
158	1.90898697659e-11
159	1.61692905962e-11
160	1.7133750061e-11
161	1.91443334598e-11
162	1.6354185513e-11
163	1.68002762946e-11
164	2.04003415963e-11
165	1.78109714478e-11
166	1.4621493334e-11
167	1.69406928484e-11
168	1.59723472219e-11
169	1.30357636002e-11
170	1.34226113428e-11
171	1.36291215139e-11
172	1.25595227089e-11
173	1.16501181906e-11
174	1.12378383175e-11
175	1.08726566026e-11
176	9.95194715078e-12
177	1.02564356722e-11
178	1.12523292459e-11
179	1.11431398518e-11
180	1.15289869137e-11
181	1.08185548662e-11
182	1.06560220545e-11
183	1.13010192074e-11
184	8.93335448722e-12
185	8.44720199104e-12
186	9.95462670105e-12
187	7.08239655322e-12
188	6.04249976683e-12
189	7.8536261283e-12
190	6.02530447955e-12
191	4.91615663755e-12
192	5.8158387162e-12
193	4.9661823818e-12
194	4.44176175009e-12
195	4.44080945386e-12
196	3.79554296461e-12
197	3.95937267521e-12
198	3.8213184536e-12
199	3.05189863222e-12
200	3.32906097064e-12
201	3.59623791139e-12
202	2.90783009321e-12
203	2.80986771736e-12
204	3.14180894176e-12
205	2.8005911586e-12
206	2.44140219772e-12
207	2.54410091169e-12
208	2.42435172883e-12
209	2.16080635395e-12
210	2.06686488863e-12
211	1.98771022325e-12
212	1.93476653795e-12
213	1.83242731733e-12
214	1.67174083537e-12
215	1.73170529392e-12
216	1.72201649172e-12
217	1.55122868877e-12
218	1.62718818559e-12
219	1.62485456449e-12
220	1.49615326731e-12
221	1.53577173925e-12
222	1.44678913449e-12
223	1.37111893709e-12
224	1.40479062093e-12
225	1.18737424533e-12
226	1.1568690353e-12
227	1.23549376753e-12
228	9.82888000294e-13
229	9.60252030041e-13
230	1.041752114e-12
231	8.24460012843e-13
232	8.08869752732e-13
233	8.49231309118e-13
234	7.01772174329e-13
235	7.0402628505e-13
236	6.77410134004e-13
237	5.77866475074e-13
238	6.07444880915e-13
239	5.58502834015e-13
240	4.77335112981e-13
241	5.08949585156e-13
242	4.72013323865e-13
243	4.07154941966e-13
244	4.19200383094e-13
245	4.05660239901e-13
246	3.61573452026e-13
247	3.48255629614e-13
248	3.38869525838e-13
249	3.15785605724e-13
250	2.94836061236e-13
251	2.80859174117e-13
252	2.67511866465e-13
253	2.53181119338e-13
254	2.37280752039e-13
255	2.24111033472e-13
256	2.20044240604e-13
257	2.09439790276e-13
258	1.92338675844e-13
259	1.92230189888e-13
260	1.86940381659e-13
261	1.67706771551e-13
262	1.67297937932e-13
263	1.60626928742e-13
264	1.41370889841e-13
265	1.40922925341e-13
266	1.30769893192e-13
267	1.16447002758e-13
268	1.18433433863e-13
269	1.04378108574e-13
270	9.61516304881e-14
271	9.90574666924e-14
272	8.30959767391e-14
273	8.03366232101e-14
274	8.08141355204e-14
275	6.53017639547e-14
276	6.61667337794e-14
277	6.32195907028e-14
278	5.15091863999e-14
279	5.40182067385e-14
280	4.79765698502e-14
281	4.08835730301e-14
282	4.30023586224e-14
283	3.61177060287e-14
284	3.27164796464e-14
285	3.3006882366e-14
286	2.72181252142e-14
287	2.58435693316e-14
288	2.44335363212e-14
289	2.09141185917e-14
290	2.03374473386e-14
291	1.81505355311e-14
292	1.64299701655e-14
293	1.60272727068e-14
294	1.43039928982e-14
295	1.33959339144e-14
296	1.29364002157e-14
297	1.2096489579e-14
298	1.13049376008e-14
299	1.0898168851e-14
300	1.05968733784e-14
301	9.84608586805e-15
302	9.6740528011e-15
303	9.14156647519e-15
304	8.61247968423e-15
305	8.74862325411e-15
306	7.67771747233e-15
307	7.57274822895e-15
308	7.80985672578e-15
309	6.38127738463e-15
310	6.71548973157e-15
311	6.69269703374e-15
312	5.33309802327e-15
313	5.96285231035e-15
314	5.44519132369e-15
315	4.46330828599e-15
316	5.17188635773e-15
317	4.25451112436e-15
318	3.75158292819e-15
319	4.32295772963e-15
320	3.25207114397e-15
321	3.13519673759e-15
322	3.4640925395e-15
323	2.4963192813e-15
324	2.59825335827e-15
325	2.6875042524e-15
326	1.94669299239e-15
327	2.12874759141e-15
328	2.06456982968e-15
329	1.55789253928e-15
330	1.75260991866e-15
331	1.63298141636e-15
332	1.28698690207e-15
333	1.47639908735e-15
334	1.38676949633e-15
335	1.12991473212e-15
336	1.3008453372e-15
337	1.27232753512e-15
338	1.06747518234e-15
339	1.22253551421e-15
340	1.24104078803e-15
341	1.06558954561e-15
342	1.22499938753e-15
343	1.25749826886e-15
344	1.08183414172e-15
345	1.2768805816e-15
346	1.30160527773e-15
347	1.09924330647e-15
348	1.34415712875e-15
349	1.34251806046e-15
350	1.11694033112e-15
351	1.40908980956e-15
352	1.35274234912e-15
353	1.13616651422e-15
354	1.45985087087e-15
355	1.31716542539e-15
356	1.15287156782e-15
357	1.48688807215e-15
358	1.24510066534e-15
359	1.16370926909e-15
360	1.47592382141e-15
361	1.1536298682e-15
362	1.16934929071e-15
363	1.42288205287e-15
364	1.05997304319e-15
365	1.16824981773e-15
366	1.33207545147e-15
367	9.74627214666e-16
368	1.15782121741e-15
369	1.21741188985e-15
370	9.02043533782e-16
371	1.13380870612e-15
372	1.09540687766e-15
373	8.44053967172e-16
374	1.09417476987e-15
375	9.79302471099e-16
376	8.00961682823e-16
377	1.04017374383e-15
378	8.74893470828e-16
379	7.70549641797e-16
380	9.77688968403e-16
381	7.84408666167e-16
382	7.47813195947e-16
383	9.12132562095e-16
384	7.08440560819e-16
385	7.28150831296e-16
386	8.47186275526e-16
387	6.47125886347e-16
388	7.08415834848e-16
389	7.83201731844e-16
390	5.98978405373e-16
391	6.88390209627e-16
392	7.20618149037e-16
393	5.60565923409e-16
394	6.67114348631e-16
395	6.60357180067e-16
396	5.2938204791e-16
397	6.43547317429e-16
398	6.03180350344e-16
399	5.03405746565e-16
400	6.16412338553e-16
401	5.49729225219e-16
402	4.81756582332e-16
403	5.85217734306e-16
404	4.99944241084e-16
405	4.63137114719e-16
406	5.50511613393e-16
407	4.54414318878e-16
408	4.46136426248e-16
409	5.12941536836e-16
410	4.13624240464e-16
411	4.29408508057e-16
412	4.73456634141e-16
413	3.78005013483e-16
414	4.11991415502e-16
415	4.3313274923e-16
416	3.47534924644e-16
417	3.93296250509e-16
418	3.93226132603e-16
419	3.21836484764e-16
420	3.73075987706e-16
421	3.54916888548e-16
422	3.00153130426e-16
423	3.51349555868e-16
424	3.19262586877e-16
425	2.81584364826e-16
426	3.28223054607e-16
427	2.86906916463e-16
428	2.6535134014e-16
429	3.0423199381e-16
430	2.58251054318e-16
431	2.5065043302e-16
432	2.79771952509e-16
433	2.3320128037e-16
434	2.36936572428e-16
435	2.55593616987e-16
436	2.11530557065e-16
437	2.23518453272e-16
438	2.32069878435e-16
439	1.92901633925e-16
440	2.10147801112e-16
441	2.09664177681e-16
442	1.76894587952e-16
443	1.96622481e-16
444	1.88643627979e-16
445	1.63055469043e-16
446	1.82907895249e-16
447	1.69185371452e-16
448	1.50908661299e-16
449	1.69068325721e-16
450	1.5143931995e-16
451	1.40032091253e-16
452	1.55194568037e-16
453	1.35477408529e-16
454	1.30090270881e-16
455	1.41413351588e-16
456	1.21265341178e-16
457	1.20809106429e-16
458	1.27938427671e-16
459	1.08784461536e-16
460	1.12001872155e-16
461	1.14921409356e-16
462	9.78287022796e-17
463	1.03498390514e-16
464	1.02634557792e-16
465	8.83240651378e-17
466	9.5221084555e-17
467	9.11965706172e-17
468	8.00216410016e-17
469	8.71075481176e-17
470	8.07762074932e-17
471	7.281285406e-17
472	7.92205728638e-17
473	7.14268343672e-17
474	6.64809388607e-17
475	7.16298357812e-17
476	6.31872994455e-17
477	6.08249851309e-17
478	6.43832836796e-17
479	5.60553880963e-17
480	5.57555714387e-17
481	5.76038152697e-17
482	4.99764796135e-17
483	5.11598387099e-17
484	5.13678171907e-17
485	4.48370496769e-17
486	4.69408345281e-17
487	4.57794839411e-17
488	4.05942130589e-17
489	4.3056171699e-17
490	4.08441166627e-17
491	3.71321321607e-17
492	3.95208969736e-17
493	3.6604503083e-17
494	3.43377067108e-17
495	3.63498682531e-17
496	3.30951028873e-17
497	3.21083990837e-17
498	3.35413302636e-17
499	3.03287084189e-17
500	3.03841218226e-17
501	3.10996455221e-17
502	2.82670519308e-17
503	2.91280977771e-17
504	2.90979043063e-17
505	2.68774167206e-17
506	2.82564412623e-17
507	2.75710171507e-17
508	2.61544976827e-17
509	2.77410696687e-17
510	2.65409079445e-17
511	2.60560812432e-17
512	2.75730793773e-17
513	2.60560812364e-17
514	2.65409079448e-17
515	2.77410696683e-17
516	2.61544976826e-17
517	2.75710171511e-17
518	2.82564412623e-17
519	2.68774167211e-17
520	2.90979043063e-17
521	2.91280977769e-17
522	2.82670519307e-17
523	3.10996455221e-17
524	3.03841218228e-17
525	3.03287084194e-17
526	3.35413302634e-17
527	3.21083990846e-17
528	3.30951028873e-17
529	3.63498682527e-17
530	3.43377067106e-17
531	3.66045030828e-17
532	3.95208969735e-17
533	3.71321321606e-17
534	4.0844116662e-17
535	4.30561716983e-17
536	4.05942130589e-17
537	4.57794839409e-17
538	4.69408345278e-17
539	4.48370496767e-17
540	5.13678171908e-17
541	5.11598387107e-17
542	4.99764796139e-17
543	5.76038152689e-17
544	5.57555714386e-17
545	5.60553880964e-17
546	6.43832836795e-17
547	6.08249851314e-17
548	6.31872994455e-17
549	7.16298357815e-17
550	6.64809388604e-17
551	7.14268343667e-17
552	7.92205728638e-17
553	7.28128540593e-17
554	8.07762074933e-17
555	8.71075481171e-17
556	8.00216410016e-17
557	9.1196570617e-17
558	9.5221084555e-17
559	8.83240651378e-17
560	1.02634557792e-16
561	1.03498390514e-16
562	9.78287022801e-17
563	1.14921409355e-16
564	1.12001872155e-16
565	1.08784461536e-16
566	1.27938427671e-16
567	1.20809106428e-16
568	1.21265341178e-16
569	1.41413351588e-16
570	1.30090270881e-16
571	1.35477408529e-16
572	1.55194568037e-16
573	1.40032091253e-16
574	1.5143931995e-16
575	1.69068325724e-16
576	1.50908661299e-16
577	1.69185371448e-16
578	1.82907895247e-16
579	1.63055469042e-16
580	1.88643627979e-16
581	1.96622481e-16
582	1.76894587952e-16
583	2.09664177681e-16
584	2.10147801112e-16
585	1.92901633926e-16
586	2.32069878435e-16
587	2.23518453272e-16
588	2.11530557065e-16
589	2.55593616987e-16
590	2.36936572429e-16
591	2.33201280371e-16
592	2.79771952509e-16
593	2.50650433019e-16
594	2.58251054319e-16
595	3.04231993811e-16
596	2.65351340139e-16
597	2.86906916464e-16
598	3.28223054607e-16
599	2.81584364827e-16
600	3.19262586877e-16
601	3.51349555868e-16
602	3.00153130427e-16
603	3.54916888549e-16
604	3.73075987706e-16
605	3.21836484764e-16
606	3.93226132601e-16
607	3.93296250509e-16
608	3.47534924644e-16
609	4.3313274923e-16
610	4.11991415501e-16
611	3.78005013483e-16
612	4.73456634141e-16
613	4.29408508057e-16
614	4.13624240464e-16
615	5.12941536838e-16
616	4.46136426248e-16
617	4.54414318875e-16
618	5.50511613393e-16
619	4.63137114719e-16
620	4.99944241084e-16
621	5.85217734306e-16
622	4.81756582331e-16
623	5.49729225219e-16
624	6.16412338553e-16
625	5.0340574657e-16
626	6.03180350344e-16
627	6.4354731743e-16
628	5.2938204791e-16
629	6.60357180069e-16
630	6.67114348631e-16
631	5.6056592341e-16
632	7.20618149036e-16
633	6.88390209629e-16
634	5.98978405373e-16
635	7.83201731844e-16
636	7.08415834849e-16
637	6.47125886344e-16
638	8.47186275518e-16
639	7.28150831298e-16
640	7.08440560819e-16
641	9.12132562079e-16
642	7.47813195956e-16
643	7.8440866617e-16
644	9.77688968402e-16
645	7.70549641799e-16
646	8.74893470828e-16
647	1.04017374383e-15
648	8.00961682823e-16
649	9.79302471099e-16
650	1.09417476987e-15
651	8.44053967173e-16
652	1.09540687766e-15
653	1.13380870612e-15
654	9.02043533783e-16
655	1.21741188984e-15
656	1.15782121741e-15
657	9.74627214664e-16
658	1.33207545147e-15
659	1.16824981773e-15
660	1.05997304319e-15
661	1.42288205287e-15
662	1.16934929071e-15
663	1.1536298682e-15
664	1.47592382141e-15
665	1.16370926909e-15
666	1.24510066534e-15
667	1.48688807215e-15
668	1.15287156782e-15
669	1.31716542539e-15
670	1.45985087087e-15
671	1.13616651423e-15
672	1.35274234912e-15
673	1.40908980955e-15
674	1.11694033112e-15
675	1.34251806046e-15
676	1.34415712875e-15
677	1.09924330647e-15
678	1.30160527773e-15
679	1.2768805816e-15
680	1.08183414172e-15
681	1.25749826887e-15
682	1.22499938753e-15
683	1.06558954561e-15
684	1.24104078803e-15
685	1.22253551421e-15
686	1.06747518234e-15
687	1.27232753512e-15
688	1.3008453372e-15
689	1.12991473212e-15
690	1.38676949634e-15
691	1.47639908735e-15
692	1.28698690207e-15
693	1.63298141636e-15
694	1.75260991866e-15
695	1.55789253928e-15
696	2.06456982968e-15
697	2.12874759142e-15
698	1.94669299239e-15
699	2.6875042524e-15
700	2.59825335826e-15
701	2.49631928131e-15
702	3.46409253951e-15
703	3.13519673759e-15
704	3.25207114397e-15
705	4.32295772964e-15
706	3.75158292819e-15
707	4.25451112435e-15
708	5.17188635773e-15
709	4.46330828599e-15
710	5.44519132369e-15
711	5.96285231035e-15
712	5.33309802327e-15
713	6.69269703373e-15
714	6.71548973157e-15
715	6.38127738463e-15
716	7.80985672578e-15
717	7.57274822895e-15
718	7.67771747234e-15
719	8.74862325412e-15
720	8.61247968423e-15
721	9.14156647517e-15
722	9.67405280109e-15
723	9.84608586804e-15
724	1.05968733784e-14
725	1.0898168851e-14
726	1.13049376008e-14
727	1.2096489579e-14
728	1.29364002157e-14
729	1.33959339144e-14
730	1.43039928982e-14
731	1.60272727068e-14
732	1.64299701655e-14
733	1.81505355311e-14
734	2.03374473385e-14
735	2.09141185917e-14
736	2.44335363212e-14
737	2.58435693316e-14
738	2.72181252142e-14
739	3.3006882366e-14
740	3.27164796464e-14
741	3.61177060287e-14
742	4.30023586224e-14
743	4.08835730301e-14
744	4.79765698502e-14
745	5.40182067385e-14
746	5.15091863999e-14
747	6.32195907028e-14
748	6.61667337794e-14
749	6.53017639547e-14
750	8.08141355205e-14
751	8.03366232101e-14
752	8.30959767391e-14
753	9.90574666925e-14
754	9.61516304881e-14
755	1.04378108574e-13
756	1.18433433863e-13
757	1.16447002758e-13
758	1.30769893192e-13
759	1.40922925341e-13
760	1.41370889841e-13
761	1.60626928742e-13
762	1.67297937932e-13
763	1.67706771551e-13
764	1.86940381659e-13
765	1.92230189888e-13
766	1.92338675844e-13
767	2.09439790276e-13
768	2.20044240604e-13
769	2.24111033471e-13
770	2.37280752039e-13
771	2.53181119338e-13
772	2.67511866465e-13
773	2.80859174117e-13
774	2.94836061236e-13
775	3.15785605724e-13
776	3.38869525838e-13
777	3.48255629614e-13
778	3.61573452026e-13
779	4.05660239901e-13
780	4.19200383094e-13
781	4.07154941966e-13
782	4.72013323865e-13
783	5.08949585156e-13
784	4.77335112981e-13
785	5.58502834015e-13
786	6.07444880915e-13
787	5.77866475074e-13
788	6.77410134004e-13
789	7.0402628505e-13
790	7.01772174329e-13
791	8.49231309118e-13
792	8.08869752732e-13
793	8.24460012843e-13
794	1.041752114e-12
795	9.60252030041e-13
796	9.82888000294e-13
797	1.23549376753e-12
798	1.1568690353e-12
799	1.18737424533e-12
800	1.40479062093e-12
801	1.37111893709e-12
802	1.44678913449e-12
803	1.53577173925e-12
804	1.49615326731e-12
805	1.62485456449e-12
806	1.62718818559e-12
807	1.55122868877e-12
808	1.72201649172e-12
809	1.73170529392e-12
810	1.67174083537e-12
811	1.83242731733e-12
812	1.93476653795e-12
813	1.98771022325e-12
814	2.06686488863e-12
815	2.16080635395e-12
816	2.42435172883e-12
817	2.54410091169e-12
818	2.44140219772e-12
819	2.8005911586e-12
820	3.14180894176e-12
821	2.80986771736e-12
822	2.90783009321e-12
823	3.59623791139e-12
824	3.32906097064e-12
825	3.05189863222e-12
826	3.8213184536e-12
827	3.95937267521e-12
828	3.79554296461e-12
829	4.44080945386e-12
830	4.44176175009e-12
831	4.9661823818e-12
832	5.8158387162e-12
833	4.91615663755e-12
834	6.02530447955e-12
835	7.8536261283e-12
836	6.04249976683e-12
837	7.08239655322e-12
838	9.95462670105e-12
839	8.44720199104e-12
840	8.93335448722e-12
841	1.13010192074e-11
842	1.06560220545e-11
843	1.08185548662e-11
844	1.15289869137e-11
845	1.11431398518e-11
846	1.12523292459e-11
847	1.02564356722e-11
848	9.95194715078e-12
849	1.08726566026e-11
850	1.12378383175e-11
851	1.16501181906e-11
852	1.25595227089e-11
853	1.36291215139e-11
854	1.34226113428e-11
855	1.30357636002e-11
856	1.59723472219e-11
857	1.69406928484e-11
858	1.4621493334e-11
859	1.78109714478e-11
860	2.04003415963e-11
861	1.68002762946e-11
862	1.6354185513e-11
863	1.91443334598e-11
864	1.7133750061e-11
865	1.61692905962e-11
866	1.90898697659e-11
867	2.07840437817e-11
868	1.97696648205e-11
869	1.85139545417e-11
870	2.05404621705e-11
871	2.36743249734e-11
872	2.23002789699e-11
873	2.32590880652e-11
874	2.52393999504e-11
875	2.77401494789e-11
876	3.17682680388e-11
877	2.91515151819e-11
878	4.01490774115e-11
879	5.43659292531e-11
880	4.55181232598e-11
881	5.85452643553e-11
882	8.04308802869e-11
883	6.08993531269e-11
884	6.3998442204e-11
885	7.33125671426e-11
886	5.261610517e-11
887	5.42001297472e-11
888	6.45098037034e-11
889	6.1852604799e-11
890	7.35277762674e-11
891	6.78412200783e-11
892	5.72092107189e-11
893	6.51881680636e-11
894	7.58424373738e-11
895	7.05585540143e-11
896	8.21583647306e-11
897	1.1789014456e-10
898	1.16204332922e-10
899	1.24024240591e-10
900	1.73872473716e-10
901	1.78010586403e-10
902	1.49906781712e-10
903	1.79479326243e-10
904	1.910065796e-10
905	1.71456770867e-10
906	1.93484168537e-10
907	2.06370152866e-10
908	1.80817278606e-10
909	1.90356341086e-10
910	1.91088222511e-10
911	1.93725208902e-10
912	2.37268303263e-10
913	2.19376442846e-10
914	2.1011050971e-10
915	2.84073937602e-10
916	2.84094978909e-10
917	2.55500936249e-10
918	3.4828529724e-10
919	3.54045382104e-10
920	3.62581314314e-10
921	5.21105082228e-10
922	5.09259928825e-10
923	5.23655675677e-10
924	5.59491135321e-10
925	5.18688853052e-10
926	5.63524884848e-10
927	6.05263499726e-10
928	5.80243121552e-10
929	7.24366890444e-10
930	6.3569454648e-10
931	5.31670517806e-10
932	4.52031700184e-10
933	4.73850625358e-10
934	7.78544954302e-10
935	9.07163015584e-10
936	8.71254093e-10
937	1.26925653768e-09
938	1.35264325242e-09
939	1.21243753773e-09
940	1.42048749941e-09
941	1.67208267119e-09
942	1.29063320303e-09
943	1.09320307518e-09
944	1.63415145838e-09
945	2.14047049564e-09
946	2.75646015313e-09
947	3.20661808547e-09
948	3.01749505267e-09
949	2.82186483827e-09
950	2.92338843501e-09
951	3.25539874225e-09
952	3.32844277776e-09
953	3.11245705801e-09
954	3.60272454208e-09
955	4.95131132991e-09
956	4.61881245497e-09
957	3.86293229089e-09
958	4.97327199822e-09
959	4.74156032848e-09
960	4.71750682956e-09
961	6.31307520845e-09
962	8.35172904966e-09
963	9.26383441402e-09
964	1.03267413375e-08
965	1.25269403511e-08
966	1.73683187772e-08
967	1.2530036913e-08
968	1.39183020141e-08
969	1.42374032771e-08
970	1.26324579952e-08
971	8.24130212488e-09
972	7.85041227575e-09
973	1.00724312654e-08
974	1.73976420271e-08
975	2.11967817729e-08
976	2.97487105061e-08
977	2.7931555183e-08
978	2.99131540796e-08
979	3.00834641522e-08
980	3.1222626462e-08
981	2.33608965338e-08
982	1.87753244038e-08
983	3.64731078845e-08
984	5.33703902177e-08
985	6.94122811212e-08
986	6.57009613826e-08
987	6.17928884793e-08
988	5.20062351614e-08
989	5.82853792046e-08
990	6.22707616226e-08
991	5.91136441362e-08
992	5.78284671182e-08
993	8.70200221334e-08
994	1.03758903999e-07
995	1.56944710341e-07
996	1.80074062268e-07
997	1.79973124106e-07
998	1.32390067608e-07
999	1.68899260165e-07
1000	2.16060391511e-07
1001	2.70877575929e-07
1002	2.88188274915e-07
1003	2.77097671378e-07
1004	2.95418144735e-07
1005	4.93714273598e-07
1006	6.23613826854e-07
1007	9.20710720953e-07
1008	1.01391745601e-06
1009	1.06649100199e-06
1010	1.13742927737e-06
1011	1.51384327505e-06
1012	1.73302352169e-06
1013	1.86113059123e-06
1014	4.55155661258e-06
1015	4.32444271574e-06
1016	8.53064537635e-06
1017	1.21646327243e-05
1018	9.9155849707e-06
1019	2.28497728671e-05
1020	0.000176298978834
1021	0.000949136646814
1022	0.00378504352507
1023	0.024658913724
