0	0.953836463278
1	4.89324050337e-20
2	4.18474555932e-06
3	2.29196932869e-21
4	0.00170252552018
5	2.3557245013e-21
6	3.09496466798e-06
7	5.84834572268e-22
8	9.45493065997e-05
9	2.94777352279e-22
10	5.87683759637e-07
11	2.03691545249e-22
12	8.48407789377e-06
13	1.51045758036e-22
14	1.97581559361e-07
15	8.04942776354e-23
16	2.66620893262e-06
17	7.29502639143e-23
18	9.00475536687e-08
19	3.65311953906e-23
20	8.63586804554e-07
21	3.29597079497e-23
22	5.40013340533e-08
23	2.31462376703e-23
24	2.90005416605e-07
25	1.76688841679e-23
26	5.34624365802e-08
27	1.1929629405e-23
28	1.15939748965e-07
29	1.08676344557e-23
30	4.17926959048e-08
31	5.35589438604e-24
32	4.6759636857e-08
33	6.46536592252e-24
34	2.31799306487e-08
35	3.26436344138e-24
36	1.88143662634e-08
37	3.13070900644e-24
38	9.8753744565e-09
39	2.16613785525e-24
40	7.32048110313e-09
41	1.72605094228e-24
42	6.32413521804e-09
43	1.62955053141e-24
44	3.60365285207e-09
45	1.52882370983e-24
46	4.18522333606e-09
47	1.53346783143e-24
48	2.3534627146e-09
49	1.42403787816e-24
50	2.25655645231e-09
51	1.28061756456e-24
52	1.4493679807e-09
53	1.06823401726e-24
54	1.50494205837e-09
55	1.09828755322e-24
56	1.06241130563e-09
57	8.00473581463e-25
58	1.17818963068e-09
59	9.10877848615e-25
60	8.8877784906e-10
61	5.89638759116e-25
62	8.71902150796e-10
63	7.40847982121e-25
64	6.58399971244e-10
65	4.03188472674e-25
66	6.82233669784e-10
67	4.92969957352e-25
68	4.67444394449e-10
69	3.2990935964e-25
70	5.62472149797e-10
71	3.11538914259e-25
72	3.6103357002e-10
73	2.71683404199e-25
74	4.39789040227e-10
75	2.36993999039e-25
76	2.8617715858e-10
77	2.17937376021e-25
78	3.27856938288e-10
79	1.98224944379e-25
80	2.24226778509e-10
81	1.42083794942e-25
82	2.4012271005e-10
83	1.67640074255e-25
84	1.76276217973e-10
85	1.21061577043e-25
86	1.70869136171e-10
87	1.1691062488e-25
88	1.3664015909e-10
89	9.53661050652e-26
90	1.16584599847e-10
91	1.03805848776e-25
92	1.01839658358e-10
93	6.27115302154e-26
94	7.70993787033e-11
95	8.07602392431e-26
96	7.26644094296e-11
97	4.98754788274e-26
98	5.01044828776e-11
99	6.52220379332e-26
100	4.97633687699e-11
101	4.34626309108e-26
102	3.21338704358e-11
103	5.02915235051e-26
104	3.27125175988e-11
105	3.64357502819e-26
106	2.04675492373e-11
107	4.06729697073e-26
108	2.08122958596e-11
109	3.04329089073e-26
110	1.32239859538e-11
111	3.77904416598e-26
112	1.31463943868e-11
113	3.45848496903e-26
114	8.95377221452e-12
115	3.51793055465e-26
116	8.60725661565e-12
117	2.62743516504e-26
118	6.56997747683e-12
119	3.48273331217e-26
120	6.14953692721e-12
121	2.19464347412e-26
122	5.32685272858e-12
123	3.16906714147e-26
124	4.94047463858e-12
125	2.10474755976e-26
126	4.7170560156e-12
127	2.23914100139e-26
128	4.38048824512e-12
129	2.05532432056e-26
130	4.39515150012e-12
131	2.06243262907e-26
132	4.08513102344e-12
133	1.89443409324e-26
134	4.14928186e-12
135	2.08115947694e-26
136	3.84578796045e-12
137	1.62229216775e-26
138	3.8791151235e-12
139	1.59490032132e-26
140	3.57511187183e-12
141	1.51436065728e-26
142	3.55189892746e-12
143	1.39143723669e-26
144	3.25143620126e-12
145	1.5899137479e-26
146	3.17165973956e-12
147	1.43651285812e-26
148	2.88317303695e-12
149	1.43753921444e-26
150	2.76257462349e-12
151	1.27588598769e-26
152	2.49539327662e-12
153	1.34052553001e-26
154	2.35302775601e-12
155	1.01843568382e-26
156	2.11581775177e-12
157	1.26514520294e-26
158	1.96623362912e-12
159	9.69127890059e-27
160	1.76251651658e-12
161	1.03972946217e-26
162	1.61714499199e-12
163	1.12890616066e-26
164	1.44571236831e-12
165	8.83014828301e-27
166	1.31233838472e-12
167	1.00676221449e-26
168	1.17044202235e-12
169	8.54773411921e-27
170	1.05391287502e-12
171	9.58112239693e-27
172	9.38187264519e-13
173	7.68655201379e-27
174	8.39461587537e-13
175	8.2975766767e-27
176	7.46421499819e-13
177	6.37699806636e-27
178	6.64254332985e-13
179	7.8036683106e-27
180	5.89497669782e-13
181	6.72080633932e-27
182	5.22810091815e-13
183	5.86288337601e-27
184	4.62613424635e-13
185	5.49681634484e-27
186	4.09234271037e-13
187	5.83956171564e-27
188	3.62143892173e-13
189	5.1847271964e-27
190	3.193251145e-13
191	5.06459322444e-27
192	2.82267772482e-13
193	4.59482290842e-27
194	2.48432012408e-13
195	4.4253420661e-27
196	2.18851688053e-13
197	4.56960355105e-27
198	1.92236564868e-13
199	3.91118388554e-27
200	1.69722265559e-13
201	4.58873472893e-27
202	1.48551925949e-13
203	3.76345839884e-27
204	1.31057455887e-13
205	4.24076933033e-27
206	1.14624679429e-13
207	3.89275683931e-27
208	1.00737914129e-13
209	4.94760724239e-27
210	8.79278180884e-14
211	4.38453558095e-27
212	7.74874224534e-14
213	4.1939285587e-27
214	6.74029151801e-14
215	4.23543864009e-27
216	5.92488970026e-14
217	3.99581651904e-27
218	5.16810864746e-14
219	4.88311354832e-27
220	4.52141735251e-14
221	4.32941798148e-27
222	3.92176018716e-14
223	5.29647114019e-27
224	3.44177046839e-14
225	6.45756243123e-27
226	2.98987721617e-14
227	5.89073615308e-27
228	2.61407516552e-14
229	6.25102908704e-27
230	2.26600832224e-14
231	5.88586343254e-27
232	1.97483919565e-14
233	7.30489580892e-27
234	1.70263384429e-14
235	5.78597549239e-27
236	1.49404311423e-14
237	8.64967315485e-27
238	1.28969795384e-14
239	6.63621917517e-27
240	1.12151016757e-14
241	9.1517087492e-27
242	9.63994513665e-15
243	6.68213299547e-27
244	8.41782591697e-15
245	1.04739750085e-26
246	7.20974928942e-15
247	1.17064535335e-26
248	6.28684311956e-15
249	1.28526987788e-26
250	5.42585294988e-15
251	1.75871156181e-26
252	4.68365206979e-15
253	1.89150513283e-26
254	3.99509121057e-15
255	2.08023174875e-26
256	3.48146453449e-15
257	2.26409555463e-26
258	3.011138574e-15
259	1.46186075061e-26
260	2.58323628735e-15
261	1.42117607758e-26
262	2.20765339291e-15
263	1.21760973094e-26
264	1.91876191993e-15
265	9.09730211394e-27
266	1.64646551879e-15
267	9.0802964067e-27
268	1.41769153592e-15
269	7.82056462508e-27
270	1.21800810232e-15
271	7.38986504969e-27
272	1.05511484633e-15
273	4.7667162898e-27
274	8.96083300672e-16
275	4.73333736308e-27
276	7.76290758365e-16
277	3.68862517785e-27
278	6.71158773424e-16
279	3.1275630173e-27
280	5.77546448444e-16
281	2.53494861022e-27
282	4.89320264259e-16
283	2.61747495811e-27
284	4.25316172861e-16
285	2.35203066143e-27
286	3.67952253726e-16
287	2.31036219974e-27
288	3.15025402135e-16
289	2.7756975246e-27
290	2.6732844166e-16
291	1.80844014044e-27
292	2.33332610974e-16
293	1.74679632128e-27
294	1.99780622841e-16
295	1.4366349303e-27
296	1.71304066424e-16
297	1.61037694301e-27
298	1.45257811547e-16
299	9.27644182585e-28
300	1.27508271012e-16
301	1.56264269275e-27
302	1.07347232642e-16
303	1.10278566008e-27
304	9.25121908139e-17
305	1.44591830114e-27
306	7.82554700959e-17
307	8.47218327062e-28
308	6.88481126938e-17
309	1.17346679141e-27
310	5.71561948147e-17
311	7.97210940831e-28
312	4.93348922348e-17
313	8.75435405252e-28
314	4.17425202451e-17
315	8.39707916719e-28
316	3.64681526671e-17
317	8.0867029236e-28
318	3.01693261843e-17
319	7.78248926584e-28
320	2.58259148831e-17
321	6.81331063691e-28
322	2.1972624344e-17
323	6.5301067843e-28
324	1.89267161525e-17
325	7.26237090728e-28
326	1.57105492813e-17
327	6.07065760629e-28
328	1.32447995833e-17
329	8.23289587976e-28
330	1.1349606603e-17
331	5.43250476742e-28
332	9.63783014518e-18
333	6.33006140225e-28
334	8.02608282206e-18
335	5.20970064568e-28
336	6.67132290644e-18
337	5.8192984401e-28
338	5.70439225155e-18
339	5.96465192299e-28
340	4.83385828342e-18
341	5.30938083274e-28
342	3.97888342762e-18
343	5.06797863105e-28
344	3.32318429916e-18
345	5.03530134695e-28
346	2.76333886101e-18
347	4.05427129252e-28
348	2.39133558192e-18
349	5.3084582434e-28
350	1.90575669096e-18
351	4.51477902156e-28
352	1.6376873057e-18
353	5.00847036024e-28
354	1.2971040296e-18
355	4.27716560905e-28
356	1.16836551714e-18
357	4.65504465074e-28
358	8.85472016616e-19
359	4.5047669521e-28
360	8.06820103744e-19
361	4.86354028218e-28
362	5.96644259012e-19
363	4.59073128642e-28
364	5.73785641987e-19
365	4.02475631043e-28
366	4.10763616884e-19
367	4.50952940044e-28
368	3.99066126074e-19
369	3.87247305105e-28
370	2.86126108755e-19
371	3.93613615944e-28
372	2.80695100133e-19
373	3.78978589445e-28
374	2.11107805435e-19
375	4.06278100783e-28
376	1.95923508904e-19
377	3.98909907226e-28
378	1.63338194973e-19
379	3.78223493147e-28
380	1.38905862115e-19
381	4.44284810694e-28
382	1.2539142344e-19
383	5.55987849743e-28
384	1.0357729491e-19
385	5.524793475e-28
386	9.49193159106e-20
387	4.01558602011e-28
388	8.30718499619e-20
389	4.06226218716e-28
390	7.46084032034e-20
391	3.52780322676e-28
392	6.86081591438e-20
393	3.14794915624e-28
394	6.06834718106e-20
395	3.65673829773e-28
396	5.2912278024e-20
397	2.93116951957e-28
398	5.58032164544e-20
399	3.81961648736e-28
400	4.07326523861e-20
401	4.13800805327e-28
402	5.38553474283e-20
403	3.39287471905e-28
404	3.30361302444e-20
405	3.54088783068e-28
406	5.18386831812e-20
407	3.90020546161e-28
408	3.25154105344e-20
409	4.17913298539e-28
410	4.55602189467e-20
411	3.10613740375e-28
412	3.47592023438e-20
413	3.6239664729e-28
414	4.14007328982e-20
415	3.65858737675e-28
416	3.74300240406e-20
417	2.89403233044e-28
418	3.89030043147e-20
419	2.93856110539e-28
420	4.03824557874e-20
421	3.35842590885e-28
422	3.63238098192e-20
423	3.28474344161e-28
424	4.18648501071e-20
425	2.85442518801e-28
426	3.46187471674e-20
427	2.9117158375e-28
428	3.97850001017e-20
429	3.19274495067e-28
430	3.30213735069e-20
431	3.04045193756e-28
432	3.66931730866e-20
433	3.41923153418e-28
434	3.18574763312e-20
435	3.33667990751e-28
436	3.36426966939e-20
437	3.98669804855e-28
438	3.20893729592e-20
439	3.91740252235e-28
440	3.05480784654e-20
441	2.91297670498e-28
442	3.21273830244e-20
443	4.05598548953e-28
444	2.7873101467e-20
445	3.57115053745e-28
446	3.31002857491e-20
447	3.29351592535e-28
448	2.63779787319e-20
449	3.12195801433e-28
450	3.31335395257e-20
451	3.08592151168e-28
452	2.66401363394e-20
453	2.6743057768e-28
454	2.99938278299e-20
455	3.0321460978e-28
456	2.72339742536e-20
457	3.42443842737e-28
458	2.65994087316e-20
459	3.38758493531e-28
460	2.65175907142e-20
461	2.87052893776e-28
462	2.3987151052e-20
463	3.57894305127e-28
464	2.57319682108e-20
465	3.26737761844e-28
466	2.21093227092e-20
467	3.39081143114e-28
468	2.49248259851e-20
469	4.64104124636e-28
470	2.1079431841e-20
471	4.22956806482e-28
472	2.33684370642e-20
473	3.72255963707e-28
474	2.04943749515e-20
475	5.54379679806e-28
476	2.12610646958e-20
477	5.89610548614e-28
478	2.00063629949e-20
479	6.45054840085e-28
480	1.91460340452e-20
481	5.14991056179e-28
482	1.92921266768e-20
483	5.94432976402e-28
484	1.72062674713e-20
485	6.53457753486e-28
486	1.85971021441e-20
487	6.82190848203e-28
488	1.5806876875e-20
489	7.30854050701e-28
490	1.7590492888e-20
491	8.64235014074e-28
492	1.4502910112e-20
493	1.73548507736e-27
494	1.65787041165e-20
495	8.91102263379e-28
496	1.32884531943e-20
497	8.81704727873e-28
498	1.56535547105e-20
499	1.27611466307e-27
500	1.23296733198e-20
501	1.62922408824e-27
502	1.48914240153e-20
503	1.68131323581e-27
504	1.1714803443e-20
505	2.16305765177e-27
506	1.40805493251e-20
507	2.70129371503e-27
508	1.14394632183e-20
509	3.77580023602e-27
510	1.37495011851e-20
511	7.60878849587e-27
512	1.13209411933e-20
513	7.60878849587e-27
514	1.37495011834e-20
515	3.77580023602e-27
516	1.14394628546e-20
517	2.70129371503e-27
518	1.4080549347e-20
519	2.16305765177e-27
520	1.17148032977e-20
521	1.68131323581e-27
522	1.48914240147e-20
523	1.62922408824e-27
524	1.23296732417e-20
525	1.27611466307e-27
526	1.56535547113e-20
527	8.81704727873e-28
528	1.32884531785e-20
529	8.91102263379e-28
530	1.6578704116e-20
531	1.73548507736e-27
532	1.45029101167e-20
533	8.64235014074e-28
534	1.75904928838e-20
535	7.30854050701e-28
536	1.58068768828e-20
537	6.82190848203e-28
538	1.85971021428e-20
539	6.53457753486e-28
540	1.72062674858e-20
541	5.94432976402e-28
542	1.92921266766e-20
543	5.14991056179e-28
544	1.91460340435e-20
545	6.45054840085e-28
546	2.00063629966e-20
547	5.89610548614e-28
548	2.1261064697e-20
549	5.54379679806e-28
550	2.0494374952e-20
551	3.72255963707e-28
552	2.33684370526e-20
553	4.22956806482e-28
554	2.10794318403e-20
555	4.64104124636e-28
556	2.49248259444e-20
557	3.39081143114e-28
558	2.21093227087e-20
559	3.26737761844e-28
560	2.57319682023e-20
561	3.57894305127e-28
562	2.39871510498e-20
563	2.87052893776e-28
564	2.65175906772e-20
565	3.38758493531e-28
566	2.65994087293e-20
567	3.42443842737e-28
568	2.72339742181e-20
569	3.0321460978e-28
570	2.99938278284e-20
571	2.6743057768e-28
572	2.66401363024e-20
573	3.08592151168e-28
574	3.31335395258e-20
575	3.12195801433e-28
576	2.6377978732e-20
577	3.29351592535e-28
578	3.31002857502e-20
579	3.57115053745e-28
580	2.787310135e-20
581	4.05598548953e-28
582	3.21273830213e-20
583	2.91297670498e-28
584	3.05480784882e-20
585	3.91740252235e-28
586	3.20893729571e-20
587	3.98669804855e-28
588	3.36426966882e-20
589	3.33667990751e-28
590	3.18574763301e-20
591	3.41923153418e-28
592	3.66931730892e-20
593	3.04045193756e-28
594	3.30213735064e-20
595	3.19274495067e-28
596	3.97850001135e-20
597	2.9117158375e-28
598	3.46187471682e-20
599	2.85442518801e-28
600	4.1864850108e-20
601	3.28474344161e-28
602	3.63238098183e-20
603	3.35842590885e-28
604	4.03824557667e-20
605	2.93856110539e-28
606	3.89030043127e-20
607	2.89403233044e-28
608	3.74300240401e-20
609	3.65858737675e-28
610	4.14007328976e-20
611	3.6239664729e-28
612	3.47592023434e-20
613	3.10613740375e-28
614	4.55602189426e-20
615	4.17913298539e-28
616	3.25154105358e-20
617	3.90020546161e-28
618	5.18386831815e-20
619	3.54088783068e-28
620	3.30361302316e-20
621	3.39287471905e-28
622	5.38553474299e-20
623	4.13800805327e-28
624	4.07326523866e-20
625	3.81961648736e-28
626	5.58032164569e-20
627	2.93116951957e-28
628	5.29122781408e-20
629	3.65673829773e-28
630	6.06834718111e-20
631	3.14794915624e-28
632	6.86081592453e-20
633	3.52780322676e-28
634	7.46084032035e-20
635	4.06226218716e-28
636	8.30718497735e-20
637	4.01558602011e-28
638	9.49193159041e-20
639	5.524793475e-28
640	1.0357729491e-19
641	5.55987849743e-28
642	1.25391423433e-19
643	4.44284810694e-28
644	1.38905862284e-19
645	3.78223493147e-28
646	1.63338194967e-19
647	3.98909907226e-28
648	1.95923509031e-19
649	4.06278100783e-28
650	2.11107805433e-19
651	3.78978589445e-28
652	2.80695100285e-19
653	3.93613615944e-28
654	2.86126108759e-19
655	3.87247305105e-28
656	3.99066126111e-19
657	4.50952940044e-28
658	4.10763616891e-19
659	4.02475631043e-28
660	5.73785641996e-19
661	4.59073128642e-28
662	5.96644259014e-19
663	4.86354028218e-28
664	8.06820103762e-19
665	4.5047669521e-28
666	8.85472016622e-19
667	4.65504465074e-28
668	1.16836551709e-18
669	4.27716560905e-28
670	1.29710402959e-18
671	5.00847036025e-28
672	1.6376873057e-18
673	4.51477902156e-28
674	1.90575669096e-18
675	5.3084582434e-28
676	2.39133558185e-18
677	4.05427129252e-28
678	2.76333886099e-18
679	5.03530134695e-28
680	3.32318429915e-18
681	5.06797863105e-28
682	3.97888342762e-18
683	5.30938083274e-28
684	4.83385828354e-18
685	5.96465192299e-28
686	5.70439225155e-18
687	5.8192984401e-28
688	6.67132290643e-18
689	5.20970064568e-28
690	8.02608282205e-18
691	6.33006140225e-28
692	9.63783014475e-18
693	5.43250476742e-28
694	1.1349606603e-17
695	8.23289587976e-28
696	1.32447995831e-17
697	6.07065760629e-28
698	1.57105492813e-17
699	7.26237090728e-28
700	1.89267161512e-17
701	6.5301067843e-28
702	2.19726243439e-17
703	6.81331063691e-28
704	2.58259148831e-17
705	7.78248926584e-28
706	3.01693261843e-17
707	8.0867029236e-28
708	3.64681526659e-17
709	8.39707916719e-28
710	4.17425202451e-17
711	8.75435405252e-28
712	4.93348922352e-17
713	7.97210940831e-28
714	5.71561948147e-17
715	1.17346679141e-27
716	6.88481126933e-17
717	8.47218327062e-28
718	7.8255470096e-17
719	1.44591830114e-27
720	9.25121908139e-17
721	1.10278566008e-27
722	1.07347232642e-16
723	1.56264269275e-27
724	1.27508271012e-16
725	9.27644182585e-28
726	1.45257811547e-16
727	1.61037694301e-27
728	1.71304066424e-16
729	1.4366349303e-27
730	1.99780622841e-16
731	1.74679632128e-27
732	2.33332610973e-16
733	1.80844014044e-27
734	2.6732844166e-16
735	2.7756975246e-27
736	3.15025402135e-16
737	2.31036219974e-27
738	3.67952253726e-16
739	2.35203066143e-27
740	4.25316172862e-16
741	2.61747495811e-27
742	4.89320264259e-16
743	2.53494861022e-27
744	5.77546448444e-16
745	3.1275630173e-27
746	6.71158773424e-16
747	3.68862517785e-27
748	7.76290758365e-16
749	4.73333736308e-27
750	8.96083300672e-16
751	4.7667162898e-27
752	1.05511484633e-15
753	7.38986504969e-27
754	1.21800810232e-15
755	7.82056462508e-27
756	1.41769153592e-15
757	9.0802964067e-27
758	1.64646551879e-15
759	9.09730211394e-27
760	1.91876191994e-15
761	1.21760973094e-26
762	2.2076533929e-15
763	1.42117607758e-26
764	2.58323628737e-15
765	1.46186075061e-26
766	3.011138574e-15
767	2.26409555463e-26
768	3.48146453449e-15
769	2.08023174875e-26
770	3.99509121057e-15
771	1.89150513283e-26
772	4.68365206977e-15
773	1.75871156181e-26
774	5.42585294988e-15
775	1.28526987788e-26
776	6.28684311955e-15
777	1.17064535335e-26
778	7.20974928941e-15
779	1.04739750085e-26
780	8.41782591696e-15
781	6.68213299547e-27
782	9.63994513665e-15
783	9.1517087492e-27
784	1.12151016757e-14
785	6.63621917517e-27
786	1.28969795384e-14
787	8.64967315485e-27
788	1.49404311423e-14
789	5.78597549239e-27
790	1.70263384429e-14
791	7.30489580892e-27
792	1.97483919565e-14
793	5.88586343254e-27
794	2.26600832224e-14
795	6.25102908704e-27
796	2.61407516552e-14
797	5.89073615308e-27
798	2.98987721617e-14
799	6.45756243123e-27
800	3.44177046839e-14
801	5.29647114019e-27
802	3.92176018716e-14
803	4.32941798148e-27
804	4.52141735251e-14
805	4.88311354832e-27
806	5.16810864746e-14
807	3.99581651904e-27
808	5.92488970026e-14
809	4.23543864009e-27
810	6.74029151801e-14
811	4.1939285587e-27
812	7.74874224534e-14
813	4.38453558095e-27
814	8.79278180884e-14
815	4.94760724239e-27
816	1.00737914129e-13
817	3.89275683931e-27
818	1.14624679429e-13
819	4.24076933033e-27
820	1.31057455887e-13
821	3.76345839884e-27
822	1.48551925949e-13
823	4.58873472893e-27
824	1.69722265559e-13
825	3.91118388554e-27
826	1.92236564868e-13
827	4.56960355105e-27
828	2.18851688053e-13
829	4.4253420661e-27
830	2.48432012408e-13
831	4.59482290842e-27
832	2.82267772482e-13
833	5.06459322444e-27
834	3.193251145e-13
835	5.1847271964e-27
836	3.62143892173e-13
837	5.83956171564e-27
838	4.09234271037e-13
839	5.49681634484e-27
840	4.62613424635e-13
841	5.86288337601e-27
842	5.22810091815e-13
843	6.72080633932e-27
844	5.89497669782e-13
845	7.8036683106e-27
846	6.64254332985e-13
847	6.37699806636e-27
848	7.46421499819e-13
849	8.2975766767e-27
850	8.39461587537e-13
851	7.68655201379e-27
852	9.38187264519e-13
853	9.58112239693e-27
854	1.05391287502e-12
855	8.54773411921e-27
856	1.17044202235e-12
857	1.00676221449e-26
858	1.31233838472e-12
859	8.83014828301e-27
860	1.44571236831e-12
861	1.12890616066e-26
862	1.61714499199e-12
863	1.03972946217e-26
864	1.76251651658e-12
865	9.69127890059e-27
866	1.96623362912e-12
867	1.26514520294e-26
868	2.11581775177e-12
869	1.01843568382e-26
870	2.35302775601e-12
871	1.34052553001e-26
872	2.49539327662e-12
873	1.27588598769e-26
874	2.76257462349e-12
875	1.43753921444e-26
876	2.88317303695e-12
877	1.43651285812e-26
878	3.17165973956e-12
879	1.5899137479e-26
880	3.25143620126e-12
881	1.39143723669e-26
882	3.55189892746e-12
883	1.51436065728e-26
884	3.57511187183e-12
885	1.59490032132e-26
886	3.8791151235e-12
887	1.62229216775e-26
888	3.84578796045e-12
889	2.08115947694e-26
890	4.14928186e-12
891	1.89443409324e-26
892	4.08513102344e-12
893	2.06243262907e-26
894	4.39515150012e-12
895	2.05532432056e-26
896	4.38048824512e-12
897	2.23914100139e-26
898	4.7170560156e-12
899	2.10474755976e-26
900	4.94047463858e-12
901	3.16906714147e-26
902	5.32685272858e-12
903	2.19464347412e-26
904	6.14953692721e-12
905	3.48273331217e-26
906	6.56997747683e-12
907	2.62743516504e-26
908	8.60725661565e-12
909	3.51793055465e-26
910	8.95377221452e-12
911	3.45848496903e-26
912	1.31463943868e-11
913	3.77904416598e-26
914	1.32239859538e-11
915	3.04329089073e-26
916	2.08122958596e-11
917	4.06729697073e-26
918	2.04675492373e-11
919	3.64357502819e-26
920	3.27125175988e-11
921	5.02915235051e-26
922	3.21338704358e-11
923	4.34626309108e-26
924	4.97633687699e-11
925	6.52220379332e-26
926	5.01044828776e-11
927	4.98754788274e-26
928	7.26644094296e-11
929	8.07602392431e-26
930	7.70993787033e-11
931	6.27115302154e-26
932	1.01839658358e-10
933	1.03805848776e-25
934	1.16584599847e-10
935	9.53661050652e-26
936	1.3664015909e-10
937	1.1691062488e-25
938	1.70869136171e-10
939	1.21061577043e-25
940	1.76276217973e-10
941	1.67640074255e-25
942	2.4012271005e-10
943	1.42083794942e-25
944	2.24226778509e-10
945	1.98224944379e-25
946	3.27856938288e-10
947	2.17937376021e-25
948	2.8617715858e-10
949	2.36993999039e-25
950	4.39789040227e-10
951	2.71683404199e-25
952	3.6103357002e-10
953	3.11538914259e-25
954	5.62472149797e-10
955	3.2990935964e-25
956	4.67444394449e-10
957	4.92969957352e-25
958	6.82233669784e-10
959	4.03188472674e-25
960	6.58399971244e-10
961	7.40847982121e-25
962	8.71902150796e-10
963	5.89638759116e-25
964	8.8877784906e-10
965	9.10877848615e-25
966	1.17818963068e-09
967	8.00473581463e-25
968	1.06241130563e-09
969	1.09828755322e-24
970	1.50494205837e-09
971	1.06823401726e-24
972	1.4493679807e-09
973	1.28061756456e-24
974	2.25655645231e-09
975	1.42403787816e-24
976	2.3534627146e-09
977	1.53346783143e-24
978	4.18522333606e-09
979	1.52882370983e-24
980	3.60365285207e-09
981	1.62955053141e-24
982	6.32413521804e-09
983	1.72605094228e-24
984	7.32048110313e-09
985	2.16613785525e-24
986	9.8753744565e-09
987	3.13070900644e-24
988	1.88143662634e-08
989	3.26436344138e-24
990	2.31799306487e-08
991	6.46536592252e-24
992	4.6759636857e-08
993	5.35589438604e-24
994	4.17926959048e-08
995	1.08676344557e-23
996	1.15939748965e-07
997	1.1929629405e-23
998	5.34624365802e-08
999	1.76688841679e-23
1000	2.90005416605e-07
1001	2.31462376703e-23
1002	5.40013340533e-08
1003	3.29597079497e-23
1004	8.63586804554e-07
1005	3.65311953906e-23
1006	9.00475536687e-08
1007	7.29502639143e-23
1008	2.66620893262e-06
1009	8.04942776354e-23
1010	1.97581559361e-07
1011	1.51045758036e-22
1012	8.48407789377e-06
1013	2.03691545249e-22
1014	5.87683759637e-07
1015	2.94777352279e-22
1016	9.45493065997e-05
1017	5.84834572268e-22
1018	3.09496466798e-06
1019	2.3557245013e-21
1020	0.00170252552018
1021	2.29196932869e-21
1022	4.18474555932e-06
1023	4.89324050337e-20
