0	0.883685966702
1	1.70742457164e-10
2	0.0102843283347
3	4.72866076244e-11
4	0.000811677224651
5	5.65595479982e-12
6	3.12382301347e-05
7	9.64836596563e-13
8	6.27628166301e-06
9	5.47091378374e-13
10	1.7806822872e-06
11	2.11313566814e-13
12	7.37885220489e-07
13	1.21810465708e-13
14	4.36888407964e-07
15	6.82481746886e-14
16	1.79669528901e-07
17	6.70851549127e-14
18	1.19747055954e-07
19	1.09853616455e-13
20	1.10771080803e-07
21	8.98939594816e-14
22	5.57088577564e-08
23	4.35667700361e-14
24	3.06731914757e-08
25	2.04898131207e-14
26	1.48940219526e-08
27	1.57330185297e-14
28	7.42040024758e-09
29	1.04614691291e-14
30	4.57900312897e-09
31	9.64892702071e-15
32	5.79055630597e-09
33	8.20942451462e-15
34	3.82011321674e-09
35	6.47503941885e-15
36	3.22072394186e-09
37	6.31609020976e-15
38	3.1075111626e-09
39	7.97014953842e-15
40	2.31140160493e-09
41	8.79815227508e-15
42	1.58500133242e-09
43	7.89549704654e-15
44	1.03124619892e-09
45	6.0597414114e-15
46	1.21044957846e-09
47	5.02874216784e-15
48	1.11116753644e-09
49	4.75455985278e-15
50	9.6611897019e-10
51	5.64868950266e-15
52	1.00802422664e-09
53	5.52965659611e-15
54	9.89436465649e-10
55	4.50858975656e-15
56	7.16022910243e-10
57	3.70969812774e-15
58	5.68225757542e-10
59	3.80064684013e-15
60	5.47448054344e-10
61	3.85780021546e-15
62	4.06612561258e-10
63	3.08573755327e-15
64	2.77604398492e-10
65	2.19504537596e-15
66	2.12462101245e-10
67	1.87284457688e-15
68	1.93883470514e-10
69	2.02734777146e-15
70	1.94956715278e-10
71	1.9888865756e-15
72	1.9498787599e-10
73	1.5213956433e-15
74	1.554369607e-10
75	9.11577127853e-16
76	1.04011472009e-10
77	5.93706069659e-16
78	6.67504137484e-11
79	6.04382306981e-16
80	7.32631931327e-11
81	6.17789972798e-16
82	7.10998492368e-11
83	5.30701173216e-16
84	5.59384448724e-11
85	3.95128937607e-16
86	4.05718679252e-11
87	3.28517969883e-16
88	4.98527863451e-11
89	3.05993222589e-16
90	3.60781206304e-11
91	2.65097392066e-16
92	2.03271969107e-11
93	2.11410044899e-16
94	2.09529542774e-11
95	1.68892817939e-16
96	2.76348192667e-11
97	1.91022617555e-16
98	3.36707616055e-11
99	2.13468548309e-16
100	3.2017873574e-11
101	2.21833527914e-16
102	2.61196350126e-11
103	2.09391665378e-16
104	2.09417321087e-11
105	2.00283743478e-16
106	1.63696092041e-11
107	1.67920966414e-16
108	1.50583346409e-11
109	1.52113091471e-16
110	1.45554708218e-11
111	1.25322745572e-16
112	1.29547497048e-11
113	1.0172398957e-16
114	1.16887106463e-11
115	8.16461624459e-17
116	8.70243326532e-12
117	6.25641566029e-17
118	5.8447933875e-12
119	5.14757899778e-17
120	5.50442235803e-12
121	4.98024933958e-17
122	4.66206165673e-12
123	4.2030122535e-17
124	3.88758729313e-12
125	3.90857280431e-17
126	3.47582165625e-12
127	3.69934986135e-17
128	2.78450610037e-12
129	3.44104322844e-17
130	2.32862604426e-12
131	3.12045739255e-17
132	2.18345033905e-12
133	2.689273616e-17
134	1.91750159582e-12
135	2.50021189898e-17
136	1.77773113064e-12
137	2.33832263381e-17
138	1.33103604652e-12
139	1.92120585841e-17
140	1.04011630605e-12
141	1.76803513879e-17
142	9.34295807451e-13
143	1.66361536632e-17
144	9.34334423545e-13
145	1.4593285497e-17
146	7.76995062344e-13
147	1.21789719276e-17
148	5.60226170397e-13
149	9.01239885164e-18
150	4.29715287133e-13
151	6.97694620791e-18
152	3.82530714289e-13
153	5.82738138315e-18
154	3.56097443153e-13
155	5.70864383238e-18
156	3.60791014405e-13
157	5.66957177187e-18
158	3.08001519543e-13
159	5.56252775901e-18
160	2.30506636343e-13
161	5.23307373629e-18
162	1.88339993233e-13
163	4.93520498508e-18
164	1.82117630929e-13
165	4.53419455435e-18
166	1.7515292201e-13
167	3.80778572361e-18
168	1.61278825634e-13
169	3.00508117544e-18
170	1.29092338073e-13
171	2.27623242712e-18
172	1.01730051695e-13
173	1.74996299576e-18
174	9.40218327795e-14
175	1.42626084873e-18
176	8.1336153818e-14
177	1.21867210609e-18
178	6.0112789215e-14
179	1.01350007978e-18
180	4.3100597824e-14
181	8.5304798459e-19
182	3.64527669599e-14
183	7.25530777634e-19
184	3.70812337542e-14
185	6.63079744372e-19
186	3.95544480953e-14
187	5.74922229677e-19
188	3.44626345416e-14
189	4.57532589159e-19
190	2.59177589988e-14
191	3.65494495686e-19
192	1.75771949259e-14
193	3.11111793661e-19
194	1.12412009585e-14
195	2.88174622814e-19
196	8.42472578133e-15
197	2.87841412136e-19
198	8.56128283996e-15
199	2.92598662904e-19
200	9.91957360526e-15
201	2.90347096502e-19
202	1.17872188074e-14
203	2.75876042218e-19
204	1.32367585508e-14
205	2.50737369366e-19
206	1.32731483825e-14
207	2.17098596683e-19
208	1.17286970573e-14
209	1.7493721148e-19
210	9.5285365297e-15
211	1.35101510461e-19
212	7.94099563335e-15
213	1.04113095412e-19
214	7.3240435459e-15
215	8.65860113709e-20
216	7.31780683912e-15
217	7.68921005682e-20
218	7.56814059953e-15
219	6.90004648712e-20
220	7.87742361669e-15
221	6.21555600505e-20
222	7.83909901545e-15
223	5.47154298065e-20
224	7.49498058833e-15
225	4.62045336386e-20
226	7.06235729924e-15
227	3.81277645279e-20
228	6.60084859808e-15
229	3.10107929278e-20
230	6.19048910734e-15
231	2.53820663345e-20
232	5.83038216687e-15
233	2.15676431371e-20
234	5.48937930268e-15
235	1.90984639549e-20
236	5.18175165685e-15
237	1.74011298709e-20
238	4.84659648813e-15
239	1.57741306764e-20
240	4.42001733099e-15
241	1.39042167051e-20
242	3.97389492818e-15
243	1.1877558026e-20
244	3.56365437131e-15
245	1.01476169928e-20
246	3.16914201161e-15
247	8.58662197537e-21
248	2.79067746441e-15
249	7.19940408678e-21
250	2.43766284386e-15
251	6.12990767164e-21
252	2.11189284676e-15
253	5.25693734619e-21
254	1.81465882473e-15
255	4.5538697207e-21
256	1.53925807301e-15
257	3.95109268881e-21
258	1.28448636619e-15
259	3.40742593491e-21
260	1.06069858509e-15
261	2.90925656147e-21
262	8.67992414613e-16
263	2.44063038136e-21
264	6.99033403337e-16
265	2.00449000571e-21
266	5.53998598129e-16
267	1.62786607875e-21
268	4.32163443204e-16
269	1.3086061218e-21
270	3.30573635244e-16
271	1.05005611137e-21
272	2.47252167579e-16
273	8.52660876815e-22
274	1.80879993333e-16
275	7.08796554396e-22
276	1.29251780785e-16
277	6.12875218631e-22
278	9.0875759059e-17
279	5.36557697248e-22
280	6.33464507286e-17
281	4.88768285043e-22
282	4.44496892389e-17
283	4.45297616183e-22
284	3.22981718189e-17
285	4.1074407887e-22
286	2.51839702148e-17
287	3.71498469682e-22
288	2.18463805871e-17
289	3.39348195806e-22
290	2.1374999664e-17
291	3.10252375977e-22
292	2.29144244065e-17
293	2.86283757948e-22
294	2.56559655399e-17
295	2.63885247193e-22
296	2.8954921527e-17
297	2.47458150833e-22
298	3.24337329389e-17
299	2.29072408759e-22
300	3.56729910287e-17
301	2.14418138613e-22
302	3.83994415118e-17
303	1.96078438389e-22
304	4.0398066828e-17
305	1.81188019451e-22
306	4.16939678601e-17
307	1.63114608067e-22
308	4.22478320763e-17
309	1.48536338521e-22
310	4.20863867675e-17
311	1.32264262123e-22
312	4.12782226944e-17
313	1.19601315317e-22
314	3.98900122754e-17
315	1.06568177726e-22
316	3.80488322116e-17
317	9.49260460816e-23
318	3.58184293511e-17
319	8.42484008716e-23
320	3.33282131885e-17
321	7.42891803763e-23
322	3.06399490868e-17
323	6.55633045487e-23
324	2.78704194149e-17
325	5.67335114668e-23
326	2.50839621609e-17
327	4.97002552751e-23
328	2.23463411811e-17
329	4.2279420327e-23
330	1.97121733106e-17
331	3.66666917584e-23
332	1.7214483216e-17
333	3.09065128593e-23
334	1.48968274948e-17
335	2.6507626997e-23
336	1.27676033241e-17
337	2.23759095333e-23
338	1.08458098187e-17
339	1.88337459545e-23
340	9.12349525365e-18
341	1.57839512939e-23
342	7.60750873197e-18
343	1.31168237321e-23
344	6.28521419236e-18
345	1.10286593832e-23
346	5.14756483419e-18
347	8.94447564158e-24
348	4.17725548529e-18
349	7.51748816034e-24
350	3.36046086331e-18
351	6.09575838288e-24
352	2.68066453774e-18
353	5.08362241425e-24
354	2.12085455599e-18
355	4.10197869188e-24
356	1.66737426452e-18
357	3.48969980504e-24
358	1.30038719229e-18
359	2.81557983543e-24
360	1.01044332396e-18
361	2.38177145375e-24
362	7.81654680547e-19
363	1.96492520369e-24
364	6.05672373586e-19
365	1.66809154122e-24
366	4.69179250554e-19
367	1.41582803033e-24
368	3.66707361261e-19
369	1.19671914729e-24
370	2.89131868622e-19
371	1.04278856098e-24
372	2.32256821908e-19
373	8.91312087175e-25
374	1.89404207925e-19
375	7.92940283698e-25
376	1.57997920317e-19
377	6.78972711539e-25
378	1.34136275064e-19
379	6.05937012167e-25
380	1.1631158182e-19
381	5.37772161581e-25
382	1.02151238954e-19
383	4.80085556223e-25
384	9.07493288184e-20
385	4.16911428948e-25
386	8.09837070601e-20
387	3.80300781372e-25
388	7.24623398734e-20
389	3.40098862989e-25
390	6.46617691606e-20
391	2.97150653409e-25
392	5.74478418519e-20
393	2.5738953881e-25
394	5.06114174375e-20
395	2.28799811401e-25
396	4.42232566543e-20
397	1.98982893263e-25
398	3.82934879122e-20
399	1.74329776684e-25
400	3.28751959262e-20
401	1.458735126e-25
402	2.77792612266e-20
403	1.30628457074e-25
404	2.3276594144e-20
405	1.10954006634e-25
406	1.92423458262e-20
407	9.09071249361e-26
408	1.57851507896e-20
409	7.80042075604e-26
410	1.27283160486e-20
411	6.68104702113e-26
412	1.02069982506e-20
413	5.90394568814e-26
414	8.05243971585e-21
415	4.31956170122e-26
416	6.34561491672e-21
417	3.93871701635e-26
418	4.95094663925e-21
419	3.10424131618e-26
420	3.8918098e-21
421	2.70169576441e-26
422	3.04039317438e-21
423	2.52060099218e-26
424	2.47054435263e-21
425	2.19141704053e-26
426	2.08113923423e-21
427	1.73689460893e-26
428	1.84508143548e-21
429	1.44787832054e-26
430	1.70001189561e-21
431	1.42876358605e-26
432	1.64872163943e-21
433	1.38860863195e-26
434	1.62920010296e-21
435	1.34617669197e-26
436	1.6533115769e-21
437	1.10720248919e-26
438	1.70840553975e-21
439	1.06491161794e-26
440	1.7789437268e-21
441	1.19106985215e-26
442	1.80682012334e-21
443	1.06371659449e-26
444	1.83686784245e-21
445	1.1385650687e-26
446	1.84213357582e-21
447	1.06468758738e-26
448	1.85751435401e-21
449	1.09750953855e-26
450	1.85972132422e-21
451	9.24655020003e-27
452	1.841840696e-21
453	9.02307592024e-27
454	1.81452306991e-21
455	8.73587945407e-27
456	1.76559196884e-21
457	8.75454429496e-27
458	1.70984657705e-21
459	8.71175584762e-27
460	1.6367909155e-21
461	9.01288972487e-27
462	1.54226286055e-21
463	8.72768749539e-27
464	1.42927180691e-21
465	8.39948079546e-27
466	1.33472849314e-21
467	8.27518439905e-27
468	1.24067677348e-21
469	7.26826775485e-27
470	1.15257621344e-21
471	6.51248815934e-27
472	1.05664850683e-21
473	6.38731539454e-27
474	9.70620937345e-22
475	6.04968468039e-27
476	8.78859584994e-22
477	6.44998375771e-27
478	7.9317026532e-22
479	7.32973332686e-27
480	7.13757856338e-22
481	6.12292368936e-27
482	6.43989952107e-22
483	5.53671083011e-27
484	5.78593142682e-22
485	7.02233123671e-27
486	5.16115802005e-22
487	5.77550996335e-27
488	4.64463526067e-22
489	5.37624802058e-27
490	4.16722079284e-22
491	4.96487304552e-27
492	3.75345803659e-22
493	4.06392375113e-27
494	3.34427118363e-22
495	4.28768004539e-27
496	3.0631687315e-22
497	4.74205988416e-27
498	2.76304737572e-22
499	5.00669257541e-27
500	2.52455003181e-22
501	4.96685848145e-27
502	2.28927410586e-22
503	5.13189870327e-27
504	2.11859084054e-22
505	7.49807187142e-27
506	1.93910551016e-22
507	6.1106293727e-27
508	1.85504272062e-22
509	7.7346305684e-27
510	1.77112578794e-22
511	1.10325537211e-26
512	1.75191138867e-22
513	1.10325537186e-26
514	1.77112553693e-22
515	7.7346305628e-27
516	1.85504270979e-22
517	6.11062937465e-27
518	1.93910552891e-22
519	7.49807187123e-27
520	2.11859083972e-22
521	5.13189870277e-27
522	2.28927409495e-22
523	4.96685848149e-27
524	2.52455002477e-22
525	5.00669257748e-27
526	2.76304738425e-22
527	4.74205988339e-27
528	3.06316873223e-22
529	4.28768004676e-27
530	3.34427118699e-22
531	4.06392375094e-27
532	3.75345803515e-22
533	4.96487304505e-27
534	4.16722082779e-22
535	5.37624802023e-27
536	4.64463526117e-22
537	5.77550996306e-27
538	5.16115800836e-22
539	7.02233123715e-27
540	5.78593142378e-22
541	5.53671082932e-27
542	6.43989950879e-22
543	6.1229236887e-27
544	7.13757856373e-22
545	7.329733324e-27
546	7.93170267523e-22
547	6.449983756e-27
548	8.78859586321e-22
549	6.04968467896e-27
550	9.70620938277e-22
551	6.38731539521e-27
552	1.05664850692e-21
553	6.51248815853e-27
554	1.1525762135e-21
555	7.26826775442e-27
556	1.24067677329e-21
557	8.27518439997e-27
558	1.33472849069e-21
559	8.39948079574e-27
560	1.42927180697e-21
561	8.72768749339e-27
562	1.54226286301e-21
563	9.01288972321e-27
564	1.63679091492e-21
565	8.71175584907e-27
566	1.70984657417e-21
567	8.75454429719e-27
568	1.76559196896e-21
569	8.73587945332e-27
570	1.81452307243e-21
571	9.02307592239e-27
572	1.84184069927e-21
573	9.246550205e-27
574	1.85972131977e-21
575	1.09750953854e-26
576	1.85751435399e-21
577	1.0646875871e-26
578	1.84213358204e-21
579	1.13856506877e-26
580	1.83686784068e-21
581	1.06371659483e-26
582	1.80682012122e-21
583	1.1910698525e-26
584	1.77894372629e-21
585	1.06491161826e-26
586	1.7084055394e-21
587	1.10720248933e-26
588	1.65331157815e-21
589	1.34617669169e-26
590	1.62920009843e-21
591	1.38860863156e-26
592	1.64872163933e-21
593	1.42876358597e-26
594	1.70001189008e-21
595	1.4478783204e-26
596	1.84508143464e-21
597	1.73689460891e-26
598	2.08113923434e-21
599	2.19141704049e-26
600	2.47054435273e-21
601	2.52060099225e-26
602	3.04039316365e-21
603	2.70169576442e-26
604	3.89180980132e-21
605	3.10424131564e-26
606	4.95094663905e-21
607	3.93871701639e-26
608	6.34561491671e-21
609	4.31956170113e-26
610	8.05243970625e-21
611	5.90394568827e-26
612	1.02069982589e-20
613	6.68104702115e-26
614	1.27283160471e-20
615	7.80042075613e-26
616	1.57851507884e-20
617	9.09071249391e-26
618	1.92423458231e-20
619	1.10954006631e-25
620	2.32765941451e-20
621	1.30628457073e-25
622	2.77792611859e-20
623	1.45873512595e-25
624	3.28751959265e-20
625	1.74329776683e-25
626	3.82934879228e-20
627	1.9898289326e-25
628	4.42232566532e-20
629	2.28799811399e-25
630	5.06114174254e-20
631	2.57389538815e-25
632	5.74478418463e-20
633	2.97150653412e-25
634	6.46617691631e-20
635	3.40098862992e-25
636	7.24623399168e-20
637	3.80300781396e-25
638	8.09837071201e-20
639	4.16911428941e-25
640	9.07493288184e-20
641	4.80085556233e-25
642	1.02151239203e-19
643	5.37772161547e-25
644	1.16311581832e-19
645	6.05937012174e-25
646	1.34136275081e-19
647	6.7897271155e-25
648	1.57997920315e-19
649	7.929402837e-25
650	1.89404207905e-19
651	8.91312087186e-25
652	2.32256821923e-19
653	1.04278856097e-24
654	2.89131868672e-19
655	1.19671914726e-24
656	3.66707361259e-19
657	1.41582803032e-24
658	4.6917925062e-19
659	1.6680915412e-24
660	6.05672373613e-19
661	1.9649252037e-24
662	7.81654680586e-19
663	2.38177145372e-24
664	1.01044332397e-18
665	2.81557983539e-24
666	1.3003871922e-18
667	3.48969980504e-24
668	1.66737426454e-18
669	4.10197869186e-24
670	2.12085455596e-18
671	5.08362241431e-24
672	2.68066453774e-18
673	6.09575838295e-24
674	3.36046086364e-18
675	7.51748816031e-24
676	4.17725548535e-18
677	8.94447564153e-24
678	5.1475648341e-18
679	1.10286593832e-23
680	6.28521419238e-18
681	1.31168237322e-23
682	7.6075087318e-18
683	1.5783951294e-23
684	9.1234952536e-18
685	1.88337459546e-23
686	1.08458098181e-17
687	2.23759095333e-23
688	1.27676033241e-17
689	2.65076269969e-23
690	1.48968274943e-17
691	3.09065128593e-23
692	1.72144832162e-17
693	3.66666917585e-23
694	1.97121733106e-17
695	4.22794203269e-23
696	2.23463411811e-17
697	4.97002552751e-23
698	2.50839621611e-17
699	5.67335114667e-23
700	2.78704194153e-17
701	6.5563304549e-23
702	3.06399490841e-17
703	7.42891803764e-23
704	3.33282131885e-17
705	8.42484008717e-23
706	3.58184293514e-17
707	9.49260460819e-23
708	3.80488322108e-17
709	1.06568177727e-22
710	3.98900122746e-17
711	1.19601315316e-22
712	4.12782226944e-17
713	1.32264262123e-22
714	4.20863867677e-17
715	1.48536338521e-22
716	4.22478320768e-17
717	1.63114608067e-22
718	4.16939678593e-17
719	1.81188019451e-22
720	4.0398066828e-17
721	1.96078438389e-22
722	3.83994415119e-17
723	2.14418138613e-22
724	3.56729910291e-17
725	2.29072408759e-22
726	3.24337329392e-17
727	2.47458150833e-22
728	2.8954921527e-17
729	2.63885247193e-22
730	2.565596554e-17
731	2.86283757948e-22
732	2.29144244067e-17
733	3.10252375977e-22
734	2.13749996648e-17
735	3.39348195806e-22
736	2.18463805871e-17
737	3.71498469682e-22
738	2.51839702162e-17
739	4.1074407887e-22
740	3.22981718192e-17
741	4.45297616183e-22
742	4.44496892382e-17
743	4.88768285043e-22
744	6.33464507286e-17
745	5.36557697248e-22
746	9.08757590589e-17
747	6.12875218631e-22
748	1.29251780785e-16
749	7.08796554397e-22
750	1.80879993331e-16
751	8.52660876815e-22
752	2.47252167579e-16
753	1.05005611137e-21
754	3.30573635245e-16
755	1.3086061218e-21
756	4.32163443204e-16
757	1.62786607875e-21
758	5.53998598127e-16
759	2.00449000571e-21
760	6.99033403338e-16
761	2.44063038136e-21
762	8.67992414616e-16
763	2.90925656147e-21
764	1.0606985851e-15
765	3.40742593491e-21
766	1.28448636616e-15
767	3.95109268881e-21
768	1.53925807301e-15
769	4.5538697207e-21
770	1.81465882473e-15
771	5.25693734619e-21
772	2.11189284677e-15
773	6.12990767164e-21
774	2.43766284386e-15
775	7.19940408679e-21
776	2.79067746441e-15
777	8.58662197537e-21
778	3.1691420116e-15
779	1.01476169928e-20
780	3.5636543713e-15
781	1.1877558026e-20
782	3.97389492818e-15
783	1.39042167052e-20
784	4.42001733099e-15
785	1.57741306764e-20
786	4.84659648814e-15
787	1.74011298709e-20
788	5.18175165684e-15
789	1.90984639549e-20
790	5.48937930268e-15
791	2.15676431371e-20
792	5.83038216687e-15
793	2.53820663345e-20
794	6.19048910735e-15
795	3.10107929278e-20
796	6.60084859807e-15
797	3.81277645279e-20
798	7.06235729925e-15
799	4.62045336386e-20
800	7.49498058833e-15
801	5.47154298065e-20
802	7.83909901543e-15
803	6.21555600505e-20
804	7.8774236167e-15
805	6.90004648712e-20
806	7.56814059954e-15
807	7.68921005683e-20
808	7.31780683912e-15
809	8.65860113709e-20
810	7.3240435459e-15
811	1.04113095412e-19
812	7.94099563335e-15
813	1.35101510461e-19
814	9.52853652971e-15
815	1.7493721148e-19
816	1.17286970573e-14
817	2.17098596683e-19
818	1.32731483825e-14
819	2.50737369366e-19
820	1.32367585508e-14
821	2.75876042218e-19
822	1.17872188074e-14
823	2.90347096502e-19
824	9.91957360527e-15
825	2.92598662904e-19
826	8.56128283995e-15
827	2.87841412136e-19
828	8.42472578133e-15
829	2.88174622814e-19
830	1.12412009585e-14
831	3.11111793661e-19
832	1.75771949259e-14
833	3.65494495686e-19
834	2.59177589988e-14
835	4.57532589159e-19
836	3.44626345416e-14
837	5.74922229677e-19
838	3.95544480953e-14
839	6.63079744372e-19
840	3.70812337542e-14
841	7.25530777634e-19
842	3.64527669599e-14
843	8.5304798459e-19
844	4.3100597824e-14
845	1.01350007978e-18
846	6.01127892149e-14
847	1.21867210609e-18
848	8.1336153818e-14
849	1.42626084873e-18
850	9.40218327795e-14
851	1.74996299576e-18
852	1.01730051695e-13
853	2.27623242712e-18
854	1.29092338073e-13
855	3.00508117544e-18
856	1.61278825634e-13
857	3.80778572361e-18
858	1.7515292201e-13
859	4.53419455435e-18
860	1.82117630929e-13
861	4.93520498508e-18
862	1.88339993233e-13
863	5.23307373629e-18
864	2.30506636343e-13
865	5.56252775901e-18
866	3.08001519543e-13
867	5.66957177187e-18
868	3.60791014405e-13
869	5.70864383238e-18
870	3.56097443153e-13
871	5.82738138315e-18
872	3.82530714289e-13
873	6.97694620791e-18
874	4.29715287133e-13
875	9.01239885164e-18
876	5.60226170397e-13
877	1.21789719276e-17
878	7.76995062344e-13
879	1.4593285497e-17
880	9.34334423545e-13
881	1.66361536632e-17
882	9.34295807451e-13
883	1.76803513879e-17
884	1.04011630605e-12
885	1.92120585841e-17
886	1.33103604652e-12
887	2.33832263381e-17
888	1.77773113064e-12
889	2.50021189898e-17
890	1.91750159582e-12
891	2.689273616e-17
892	2.18345033905e-12
893	3.12045739255e-17
894	2.32862604426e-12
895	3.44104322844e-17
896	2.78450610037e-12
897	3.69934986135e-17
898	3.47582165625e-12
899	3.90857280431e-17
900	3.88758729313e-12
901	4.2030122535e-17
902	4.66206165673e-12
903	4.98024933958e-17
904	5.50442235803e-12
905	5.14757899778e-17
906	5.8447933875e-12
907	6.25641566029e-17
908	8.70243326532e-12
909	8.16461624459e-17
910	1.16887106463e-11
911	1.0172398957e-16
912	1.29547497048e-11
913	1.25322745572e-16
914	1.45554708218e-11
915	1.52113091471e-16
916	1.50583346409e-11
917	1.67920966414e-16
918	1.63696092041e-11
919	2.00283743478e-16
920	2.09417321087e-11
921	2.09391665378e-16
922	2.61196350126e-11
923	2.21833527914e-16
924	3.2017873574e-11
925	2.13468548309e-16
926	3.36707616055e-11
927	1.91022617555e-16
928	2.76348192667e-11
929	1.68892817939e-16
930	2.09529542774e-11
931	2.11410044899e-16
932	2.03271969107e-11
933	2.65097392066e-16
934	3.60781206304e-11
935	3.05993222589e-16
936	4.98527863451e-11
937	3.28517969883e-16
938	4.05718679252e-11
939	3.95128937607e-16
940	5.59384448724e-11
941	5.30701173216e-16
942	7.10998492369e-11
943	6.17789972798e-16
944	7.32631931327e-11
945	6.04382306981e-16
946	6.67504137484e-11
947	5.93706069659e-16
948	1.04011472009e-10
949	9.11577127853e-16
950	1.554369607e-10
951	1.5213956433e-15
952	1.9498787599e-10
953	1.9888865756e-15
954	1.94956715278e-10
955	2.02734777146e-15
956	1.93883470514e-10
957	1.87284457688e-15
958	2.12462101245e-10
959	2.19504537596e-15
960	2.77604398492e-10
961	3.08573755327e-15
962	4.06612561258e-10
963	3.85780021546e-15
964	5.47448054344e-10
965	3.80064684013e-15
966	5.68225757542e-10
967	3.70969812774e-15
968	7.16022910243e-10
969	4.50858975656e-15
970	9.89436465649e-10
971	5.52965659611e-15
972	1.00802422664e-09
973	5.64868950266e-15
974	9.6611897019e-10
975	4.75455985278e-15
976	1.11116753644e-09
977	5.02874216784e-15
978	1.21044957846e-09
979	6.0597414114e-15
980	1.03124619892e-09
981	7.89549704654e-15
982	1.58500133242e-09
983	8.79815227508e-15
984	2.31140160493e-09
985	7.97014953842e-15
986	3.1075111626e-09
987	6.31609020976e-15
988	3.22072394186e-09
989	6.47503941885e-15
990	3.82011321674e-09
991	8.20942451462e-15
992	5.79055630597e-09
993	9.64892702071e-15
994	4.57900312897e-09
995	1.04614691291e-14
996	7.42040024758e-09
997	1.57330185297e-14
998	1.48940219526e-08
999	2.04898131207e-14
1000	3.06731914757e-08
1001	4.35667700361e-14
1002	5.57088577564e-08
1003	8.98939594816e-14
1004	1.10771080803e-07
1005	1.09853616455e-13
1006	1.19747055954e-07
1007	6.70851549127e-14
1008	1.79669528901e-07
1009	6.82481746886e-14
1010	4.36888407964e-07
1011	1.21810465708e-13
1012	7.37885220489e-07
1013	2.11313566814e-13
1014	1.7806822872e-06
1015	5.47091378374e-13
1016	6.27628166301e-06
1017	9.64836596563e-13
1018	3.12382301347e-05
1019	5.65595479982e-12
1020	0.000811677224651
1021	4.72866076244e-11
1022	0.0102843283347
1023	1.70742457164e-10
