0	0.884873754578
1	8.47499628291e-09
2	0.0101810512785
3	2.02255371843e-09
4	0.000803565703364
5	2.2568485631e-10
6	3.1202814146e-05
7	3.10890580523e-11
8	5.40788719381e-06
9	2.13885056363e-11
10	1.67688328839e-06
11	1.24968858915e-11
12	7.52781071926e-07
13	7.03768229925e-12
14	4.42505362628e-07
15	3.49007181456e-12
16	1.3973883866e-07
17	2.32386557112e-12
18	8.80020904743e-08
19	1.73001563068e-12
20	4.61941692492e-08
21	1.3747279348e-12
22	2.66545538545e-08
23	9.41727836221e-13
24	2.95897565025e-08
25	6.72262778508e-13
26	1.20187457179e-08
27	4.9194068137e-13
28	6.62393559026e-09
29	4.7388022982e-13
30	4.74119301015e-09
31	4.08170894854e-13
32	3.51480561317e-09
33	2.73348378992e-13
34	2.06445384523e-09
35	1.76123768469e-13
36	1.2680409324e-09
37	1.32396790557e-13
38	1.26320045046e-09
39	1.2798244202e-13
40	1.35560993928e-09
41	1.32519284339e-13
42	1.22339077642e-09
43	1.22721421168e-13
44	1.12266526104e-09
45	9.78816471483e-14
46	8.22144388708e-10
47	7.31583638547e-14
48	5.53313896572e-10
49	6.15823330389e-14
50	3.91037605779e-10
51	6.74809711604e-14
52	3.53754550474e-10
53	7.57570070911e-14
54	3.51927591667e-10
55	7.37126483294e-14
56	1.82078297541e-10
57	6.26559256161e-14
58	1.93235776943e-10
59	5.85779605281e-14
60	2.51628934863e-10
61	5.79329013737e-14
62	2.27783652754e-10
63	5.585456864e-14
64	2.22954737702e-10
65	4.96126872552e-14
66	2.38431601845e-10
67	4.28108749517e-14
68	2.0117504258e-10
69	3.76171900962e-14
70	1.26134818544e-10
71	3.29377014763e-14
72	9.29342545542e-11
73	3.14583445049e-14
74	1.16647021183e-10
75	2.86590548831e-14
76	8.41945720158e-11
77	2.19586786903e-14
78	5.39985526392e-11
79	1.89754079844e-14
80	4.21506530042e-11
81	1.66470824707e-14
82	3.40301366019e-11
83	1.46583495325e-14
84	2.77473407023e-11
85	1.2780381006e-14
86	2.83484822203e-11
87	1.14748622234e-14
88	2.1831835893e-11
89	9.90653394968e-15
90	1.64074021471e-11
91	8.70920380129e-15
92	1.1973410194e-11
93	7.61368045122e-15
94	1.06712212941e-11
95	7.45857384136e-15
96	1.0816884596e-11
97	6.78306250631e-15
98	9.06259876658e-12
99	5.96930361538e-15
100	7.1969329724e-12
101	5.34965455942e-15
102	6.8710086825e-12
103	4.99370629571e-15
104	7.01989570952e-12
105	4.72237569963e-15
106	6.9903150209e-12
107	4.33577125987e-15
108	5.51871555271e-12
109	3.75642500569e-15
110	4.66043874013e-12
111	3.35859194661e-15
112	3.88130903595e-12
113	2.71507423127e-15
114	2.67037753564e-12
115	2.08690924422e-15
116	1.84479187133e-12
117	1.72325739927e-15
118	1.64721811264e-12
119	1.50852965336e-15
120	1.73060910836e-12
121	1.31772072495e-15
122	1.65606331999e-12
123	1.12486982614e-15
124	1.53661332794e-12
125	9.42984117667e-16
126	1.34491104734e-12
127	7.93579186803e-16
128	1.23614814579e-12
129	6.69546265729e-16
130	9.72392975086e-13
131	5.24163807755e-16
132	7.13316904579e-13
133	4.23002348317e-16
134	6.37206962055e-13
135	3.72503548468e-16
136	5.49895466795e-13
137	2.96377606395e-16
138	4.17260653353e-13
139	2.26731202508e-16
140	3.89715586736e-13
141	2.02492242447e-16
142	3.7231279193e-13
143	1.74535663101e-16
144	3.25519219073e-13
145	1.45817655172e-16
146	3.36899274341e-13
147	1.24080255017e-16
148	3.31116044119e-13
149	1.03830193043e-16
150	2.73859348463e-13
151	8.5755510548e-17
152	2.27576046824e-13
153	7.18351872654e-17
154	2.07763588372e-13
155	6.13145661796e-17
156	1.82686900732e-13
157	5.38939775708e-17
158	1.54277481395e-13
159	4.7539101035e-17
160	1.24755104258e-13
161	4.23931835841e-17
162	1.00732396697e-13
163	3.85001117858e-17
164	8.40206129765e-14
165	3.54095552288e-17
166	7.39428140083e-14
167	3.35944576639e-17
168	6.16478111309e-14
169	2.74753881983e-17
170	5.0225585172e-14
171	2.44468081286e-17
172	4.47047417145e-14
173	2.22313685454e-17
174	4.03062024569e-14
175	1.97907149027e-17
176	3.87679757821e-14
177	1.83328473887e-17
178	3.69355754051e-14
179	1.68949162059e-17
180	3.50292380462e-14
181	1.56250422805e-17
182	3.35187874452e-14
183	1.43056435119e-17
184	3.20316002595e-14
185	1.31846518769e-17
186	2.87268908578e-14
187	1.14203330534e-17
188	2.565467407e-14
189	1.07133415034e-17
190	2.40623560953e-14
191	9.84794934298e-18
192	2.21818688789e-14
193	8.61627626918e-18
194	2.03281290715e-14
195	7.81674439372e-18
196	1.86680612127e-14
197	7.16150080078e-18
198	1.69074088021e-14
199	6.49105852993e-18
200	1.49975679037e-14
201	5.72566297938e-18
202	1.31576616164e-14
203	4.82734055096e-18
204	1.17819696158e-14
205	4.1580497765e-18
206	1.08584219457e-14
207	3.65141389554e-18
208	9.98915699364e-15
209	3.01143246284e-18
210	9.21129028224e-15
211	2.44590984539e-18
212	8.6693440822e-15
213	2.17131864412e-18
214	8.19119729714e-15
215	1.9551724891e-18
216	7.5987536406e-15
217	1.57390991782e-18
218	6.96825245095e-15
219	1.29422372301e-18
220	6.40100077196e-15
221	1.15898742559e-18
222	5.83054755263e-15
223	9.71463944564e-19
224	5.31499246949e-15
225	8.27768389088e-19
226	4.87101218674e-15
227	7.35813204861e-19
228	4.40795195762e-15
229	6.46675379532e-19
230	3.94559203478e-15
231	5.65685357546e-19
232	3.51832258011e-15
233	4.91069296942e-19
234	3.11658398223e-15
235	4.08779998539e-19
236	2.737544104e-15
237	3.37590674014e-19
238	2.41297412016e-15
239	2.8610140437e-19
240	2.13676398187e-15
241	2.31446659466e-19
242	1.89780174482e-15
243	1.87272673937e-19
244	1.69871470463e-15
245	1.57115399739e-19
246	1.53029219953e-15
247	1.32032880194e-19
248	1.38444475022e-15
249	1.1127399572e-19
250	1.25995746229e-15
251	9.51037698649e-20
252	1.15428705887e-15
253	8.23892430093e-20
254	1.06179541695e-15
255	7.33721440202e-20
256	9.79325607913e-16
257	6.62731328433e-20
258	9.0459894682e-16
259	5.91703770946e-20
260	8.35358797312e-16
261	5.36857523489e-20
262	7.7021118687e-16
263	4.96388898743e-20
264	7.08184595548e-16
265	4.51664113364e-20
266	6.49138069018e-16
267	4.11346706279e-20
268	5.93290984194e-16
269	3.78580073391e-20
270	5.40397911946e-16
271	3.47394578798e-20
272	4.90404263811e-16
273	3.19486745347e-20
274	4.42935594101e-16
275	2.91998885802e-20
276	3.98056981732e-16
277	2.66738521079e-20
278	3.5578220348e-16
279	2.39912415307e-20
280	3.1614137087e-16
281	2.14444917037e-20
282	2.79402088144e-16
283	1.92490513919e-20
284	2.45604868123e-16
285	1.69817409247e-20
286	2.14624461307e-16
287	1.49726418923e-20
288	1.86396232209e-16
289	1.31474588492e-20
290	1.60779607303e-16
291	1.14306894719e-20
292	1.37710864271e-16
293	9.83502005308e-21
294	1.17113169476e-16
295	8.36910135648e-21
296	9.88695977006e-17
297	7.0431442697e-21
298	8.29090564177e-17
299	5.87550934531e-21
300	6.90364184122e-17
301	4.87729806618e-21
302	5.70716170485e-17
303	4.00032774633e-21
304	4.68178437209e-17
305	3.25736472493e-21
306	3.810225635e-17
307	2.63105844484e-21
308	3.07444278348e-17
309	2.12019138244e-21
310	2.45736094915e-17
311	1.6928508335e-21
312	1.94455597483e-17
313	1.32962501226e-21
314	1.52093572873e-17
315	1.04772842834e-21
316	1.17496681485e-17
317	8.24430222183e-22
318	8.9410899623e-18
319	6.37645216022e-22
320	6.6884907723e-18
321	4.89668923254e-22
322	4.90499245648e-18
323	3.7935430409e-22
324	3.5142981132e-18
325	2.9196396481e-22
326	2.45061350768e-18
327	2.27834647057e-22
328	1.6537644728e-18
329	1.79429594866e-22
330	1.07453020225e-18
331	1.45704790812e-22
332	6.66515848724e-19
333	1.22104645276e-22
334	3.94356951371e-19
335	1.07325281484e-22
336	2.24241983967e-19
337	9.72482702655e-23
338	1.30183150645e-19
339	9.15917204258e-23
340	9.07806238554e-20
341	8.93890773728e-23
342	8.78797630427e-20
343	8.86857552453e-23
344	1.08174453585e-19
345	8.7726410439e-23
346	1.40732925913e-19
347	8.7201972604e-23
348	1.78219636417e-19
349	8.56979117978e-23
350	2.15350689169e-19
351	8.43811778106e-23
352	2.48839401844e-19
353	8.17972663165e-23
354	2.76569970221e-19
355	7.88325139357e-23
356	2.97605267479e-19
357	7.50732698417e-23
358	3.11802596527e-19
359	7.11463389224e-23
360	3.19137690701e-19
361	6.65755267451e-23
362	3.20661341732e-19
363	6.20895712742e-23
364	3.16614166034e-19
365	5.72306506011e-23
366	3.0831774298e-19
367	5.24810630725e-23
368	2.96238932757e-19
369	4.79224263527e-23
370	2.81762453609e-19
371	4.33248386431e-23
372	2.65073149206e-19
373	3.90209202806e-23
374	2.47326513096e-19
375	3.48308466596e-23
376	2.28742156973e-19
377	3.11406739078e-23
378	2.10136107971e-19
379	2.75083358842e-23
380	1.91593873413e-19
381	2.42916305281e-23
382	1.73727777121e-19
383	2.13118116048e-23
384	1.56440663005e-19
385	1.87940276606e-23
386	1.4026278926e-19
387	1.62621756875e-23
388	1.24967153701e-19
389	1.42642804123e-23
390	1.10903214098e-19
391	1.24043235019e-23
392	9.78130471225e-20
393	1.08111260499e-23
394	8.6021701284e-20
395	9.29783639192e-24
396	7.5181150398e-20
397	8.09029064774e-24
398	6.55333900507e-20
399	6.93564987914e-24
400	5.67945589745e-20
401	6.01797696058e-24
402	4.90926951861e-20
403	5.13965734453e-24
404	4.22048606648e-20
405	4.41682104332e-24
406	3.62053440608e-20
407	3.80816468277e-24
408	3.08765715791e-20
409	3.22703532264e-24
410	2.63019948361e-20
411	2.73987914317e-24
412	2.22775390965e-20
413	2.30392645651e-24
414	1.88303999509e-20
415	2.01350810232e-24
416	1.58308756658e-20
417	1.67018830153e-24
418	1.3299182233e-20
419	1.41931040498e-24
420	1.10883391936e-20
421	1.20547304383e-24
422	9.24264663308e-21
423	1.07066555485e-24
424	7.66092612693e-21
425	9.07765285715e-25
426	6.33915155682e-21
427	7.9847116921e-25
428	5.2243782195e-21
429	6.85059764134e-25
430	4.29544642291e-21
431	6.06377585202e-25
432	3.51519629415e-21
433	5.23227018209e-25
434	2.87474772444e-21
435	4.63002110312e-25
436	2.34617503011e-21
437	3.92774324331e-25
438	1.92019567308e-21
439	3.20902609861e-25
440	1.57010374065e-21
441	2.61593633172e-25
442	1.28044522088e-21
443	2.37090850173e-25
444	1.04105890069e-21
445	2.21980829504e-25
446	8.40531023778e-22
447	2.20602421736e-25
448	6.82515304909e-22
449	2.09625146235e-25
450	5.59997644001e-22
451	1.84042286093e-25
452	4.62576229569e-22
453	1.45674297824e-25
454	3.84274403001e-22
455	1.1465936546e-25
456	3.19483239933e-22
457	1.08557724815e-25
458	2.64374054998e-22
459	1.02894931133e-25
460	2.16852259495e-22
461	9.90061763551e-26
462	1.81762416017e-22
463	9.10015450083e-26
464	1.55450862176e-22
465	8.93396887954e-26
466	1.38567177145e-22
467	8.53914303233e-26
468	1.20257282499e-22
469	7.1865585454e-26
470	1.07441150378e-22
471	6.20407780634e-26
472	9.89653383295e-23
473	5.01056194968e-26
474	9.42233028213e-23
475	4.60028449987e-26
476	8.71702037384e-23
477	4.23315346525e-26
478	7.97630821592e-23
479	4.00814029316e-26
480	7.31714587172e-23
481	4.04395866296e-26
482	7.05200847187e-23
483	4.04547123511e-26
484	6.80387113147e-23
485	4.10392674634e-26
486	6.65387724594e-23
487	3.82676537921e-26
488	6.39281627424e-23
489	3.48879400189e-26
490	6.09664621131e-23
491	3.57861891699e-26
492	5.83930522914e-23
493	3.22681583614e-26
494	5.60393407669e-23
495	3.09595702775e-26
496	5.33878286492e-23
497	2.88462378035e-26
498	5.08628815527e-23
499	2.61302166484e-26
500	4.97680530265e-23
501	2.43901051733e-26
502	4.8152867586e-23
503	2.4372694463e-26
504	4.74895342888e-23
505	2.57434742687e-26
506	4.61324755796e-23
507	2.46547204906e-26
508	4.55709726474e-23
509	2.55144090507e-26
510	4.46899398389e-23
511	2.81021890066e-26
512	4.46003595517e-23
513	2.81021884267e-26
514	4.46899271471e-23
515	2.55144089195e-26
516	4.55709720172e-23
517	2.46547206947e-26
518	4.61324770183e-23
519	2.57434742811e-26
520	4.7489533985e-23
521	2.43726944545e-26
522	4.81528667999e-23
523	2.43901051521e-26
524	4.9768053149e-23
525	2.61302166228e-26
526	5.08628824532e-23
527	2.88462378039e-26
528	5.33878286755e-23
529	3.09595702719e-26
530	5.60393404408e-23
531	3.226815835e-26
532	5.83930517202e-23
533	3.57861891723e-26
534	6.09664625103e-23
535	3.48879400016e-26
536	6.39281627581e-23
537	3.82676537923e-26
538	6.65387726082e-23
539	4.10392674618e-26
540	6.80387109265e-23
541	4.04547123576e-26
542	7.05200831308e-23
543	4.04395866059e-26
544	7.31714587238e-23
545	4.00814029169e-26
546	7.97630829285e-23
547	4.23315346698e-26
548	8.71702039675e-23
549	4.60028449997e-26
550	9.42233023258e-23
551	5.01056195073e-26
552	9.89653383367e-23
553	6.20407780676e-26
554	1.0744114951e-22
555	7.18655854253e-26
556	1.20257282275e-22
557	8.53914303231e-26
558	1.38567175742e-22
559	8.93396888261e-26
560	1.55450862154e-22
561	9.10015450268e-26
562	1.81762415943e-22
563	9.9006176354e-26
564	2.16852259006e-22
565	1.02894931124e-25
566	2.64374056113e-22
567	1.08557724819e-25
568	3.19483239528e-22
569	1.14659365512e-25
570	3.84274402429e-22
571	1.45674297846e-25
572	4.6257623309e-22
573	1.84042286119e-25
574	5.59997642183e-22
575	2.09625146284e-25
576	6.82515304902e-22
577	2.20602421703e-25
578	8.40531032211e-22
579	2.21980829465e-25
580	1.04105889829e-21
581	2.37090850132e-25
582	1.28044522013e-21
583	2.61593633185e-25
584	1.57010374075e-21
585	3.20902609987e-25
586	1.92019567261e-21
587	3.9277432429e-25
588	2.3461750304e-21
589	4.63002110203e-25
590	2.87474773185e-21
591	5.23227018253e-25
592	3.51519629415e-21
593	6.0637758522e-25
594	4.2954464252e-21
595	6.85059764163e-25
596	5.22437821841e-21
597	7.98471169141e-25
598	6.33915155802e-21
599	9.077652857e-25
600	7.660926127e-21
601	1.07066555478e-24
602	9.24264663734e-21
603	1.20547304389e-24
604	1.10883391962e-20
605	1.41931040485e-24
606	1.32991822582e-20
607	1.67018830122e-24
608	1.58308756658e-20
609	2.01350810243e-24
610	1.88303999754e-20
611	2.30392645663e-24
612	2.22775390997e-20
613	2.73987914327e-24
614	2.63019948329e-20
615	3.22703532278e-24
616	3.08765715792e-20
617	3.80816468287e-24
618	3.6205344051e-20
619	4.41682104336e-24
620	4.22048606631e-20
621	5.13965734456e-24
622	4.90926951656e-20
623	6.01797696081e-24
624	5.67945589744e-20
625	6.93564987892e-24
626	6.55333900495e-20
627	8.09029064761e-24
628	7.51811503889e-20
629	9.29783639201e-24
630	8.60217012682e-20
631	1.08111260496e-23
632	9.78130471221e-20
633	1.24043235019e-23
634	1.10903214094e-19
635	1.42642804122e-23
636	1.24967153675e-19
637	1.62621756883e-23
638	1.40262789191e-19
639	1.87940276632e-23
640	1.56440663005e-19
641	2.13118116054e-23
642	1.73727777168e-19
643	2.42916305294e-23
644	1.91593873427e-19
645	2.75083358841e-23
646	2.10136107948e-19
647	3.11406739087e-23
648	2.28742156977e-19
649	3.48308466597e-23
650	2.47326513077e-19
651	3.90209202801e-23
652	2.65073149164e-19
653	4.33248386433e-23
654	2.81762453618e-19
655	4.79224263525e-23
656	2.96238932757e-19
657	5.24810630707e-23
658	3.08317742937e-19
659	5.72306506019e-23
660	3.16614166044e-19
661	6.20895712735e-23
662	3.20661341742e-19
663	6.65755267453e-23
664	3.19137690701e-19
665	7.11463389223e-23
666	3.11802596596e-19
667	7.50732698407e-23
668	2.97605267429e-19
669	7.88325139365e-23
670	2.76569970241e-19
671	8.17972663169e-23
672	2.48839401844e-19
673	8.43811778097e-23
674	2.15350689106e-19
675	8.56979117986e-23
676	1.78219636436e-19
677	8.7201972605e-23
678	1.40732925922e-19
679	8.77264104376e-23
680	1.08174453587e-19
681	8.86857552442e-23
682	8.78797630594e-20
683	8.93890773722e-23
684	9.0780623833e-20
685	9.15917204264e-23
686	1.30183150588e-19
687	9.72482702677e-23
688	2.24241983967e-19
689	1.07325281483e-22
690	3.94356951283e-19
691	1.22104645276e-22
692	6.66515848732e-19
693	1.45704790811e-22
694	1.07453020232e-18
695	1.79429594865e-22
696	1.6537644728e-18
697	2.27834647056e-22
698	2.45061350766e-18
699	2.91963964811e-22
700	3.51429811338e-18
701	3.79354304089e-22
702	4.90499245709e-18
703	4.89668923254e-22
704	6.6884907723e-18
705	6.37645216015e-22
706	8.94108996172e-18
707	8.24430222183e-22
708	1.17496681489e-17
709	1.04772842834e-21
710	1.52093572873e-17
711	1.32962501226e-21
712	1.94455597483e-17
713	1.6928508335e-21
714	2.45736094917e-17
715	2.12019138244e-21
716	3.07444278348e-17
717	2.63105844484e-21
718	3.81022563493e-17
719	3.25736472492e-21
720	4.68178437209e-17
721	4.00032774633e-21
722	5.70716170501e-17
723	4.87729806618e-21
724	6.90364184124e-17
725	5.87550934531e-21
726	8.29090564174e-17
727	7.0431442697e-21
728	9.88695977006e-17
729	8.36910135648e-21
730	1.17113169477e-16
731	9.83502005308e-21
732	1.37710864271e-16
733	1.14306894719e-20
734	1.60779607304e-16
735	1.31474588492e-20
736	1.86396232209e-16
737	1.49726418923e-20
738	2.14624461301e-16
739	1.69817409247e-20
740	2.45604868123e-16
741	1.92490513919e-20
742	2.79402088145e-16
743	2.14444917037e-20
744	3.1614137087e-16
745	2.39912415307e-20
746	3.5578220348e-16
747	2.66738521079e-20
748	3.98056981732e-16
749	2.91998885802e-20
750	4.42935594098e-16
751	3.19486745347e-20
752	4.90404263811e-16
753	3.47394578798e-20
754	5.40397911947e-16
755	3.78580073391e-20
756	5.93290984193e-16
757	4.11346706279e-20
758	6.49138069017e-16
759	4.51664113364e-20
760	7.08184595548e-16
761	4.96388898743e-20
762	7.70211186867e-16
763	5.3685752349e-20
764	8.35358797314e-16
765	5.91703770947e-20
766	9.04598946839e-16
767	6.62731328434e-20
768	9.79325607913e-16
769	7.33721440202e-20
770	1.06179541693e-15
771	8.23892430093e-20
772	1.15428705887e-15
773	9.51037698649e-20
774	1.25995746229e-15
775	1.1127399572e-19
776	1.38444475022e-15
777	1.32032880194e-19
778	1.53029219953e-15
779	1.57115399739e-19
780	1.69871470463e-15
781	1.87272673936e-19
782	1.89780174482e-15
783	2.31446659466e-19
784	2.13676398187e-15
785	2.8610140437e-19
786	2.41297412016e-15
787	3.37590674014e-19
788	2.737544104e-15
789	4.08779998539e-19
790	3.11658398223e-15
791	4.91069296942e-19
792	3.51832258011e-15
793	5.65685357546e-19
794	3.94559203477e-15
795	6.46675379532e-19
796	4.40795195763e-15
797	7.35813204861e-19
798	4.87101218674e-15
799	8.27768389088e-19
800	5.31499246949e-15
801	9.71463944564e-19
802	5.83054755261e-15
803	1.15898742559e-18
804	6.40100077196e-15
805	1.29422372301e-18
806	6.96825245095e-15
807	1.57390991782e-18
808	7.5987536406e-15
809	1.9551724891e-18
810	8.19119729714e-15
811	2.17131864412e-18
812	8.6693440822e-15
813	2.44590984539e-18
814	9.21129028223e-15
815	3.01143246284e-18
816	9.98915699364e-15
817	3.65141389554e-18
818	1.08584219457e-14
819	4.1580497765e-18
820	1.17819696158e-14
821	4.82734055096e-18
822	1.31576616164e-14
823	5.72566297938e-18
824	1.49975679037e-14
825	6.49105852993e-18
826	1.69074088021e-14
827	7.16150080078e-18
828	1.86680612127e-14
829	7.81674439372e-18
830	2.03281290715e-14
831	8.61627626918e-18
832	2.21818688789e-14
833	9.84794934298e-18
834	2.40623560953e-14
835	1.07133415034e-17
836	2.56546740699e-14
837	1.14203330534e-17
838	2.87268908578e-14
839	1.31846518769e-17
840	3.20316002595e-14
841	1.43056435119e-17
842	3.35187874452e-14
843	1.56250422805e-17
844	3.50292380461e-14
845	1.68949162059e-17
846	3.69355754051e-14
847	1.83328473887e-17
848	3.87679757821e-14
849	1.97907149027e-17
850	4.03062024569e-14
851	2.22313685454e-17
852	4.47047417145e-14
853	2.44468081286e-17
854	5.0225585172e-14
855	2.74753881983e-17
856	6.16478111309e-14
857	3.35944576639e-17
858	7.39428140084e-14
859	3.54095552288e-17
860	8.40206129765e-14
861	3.85001117858e-17
862	1.00732396697e-13
863	4.23931835842e-17
864	1.24755104258e-13
865	4.7539101035e-17
866	1.54277481395e-13
867	5.38939775708e-17
868	1.82686900732e-13
869	6.13145661796e-17
870	2.07763588372e-13
871	7.18351872654e-17
872	2.27576046824e-13
873	8.5755510548e-17
874	2.73859348463e-13
875	1.03830193043e-16
876	3.31116044119e-13
877	1.24080255017e-16
878	3.36899274341e-13
879	1.45817655172e-16
880	3.25519219073e-13
881	1.74535663101e-16
882	3.7231279193e-13
883	2.02492242447e-16
884	3.89715586736e-13
885	2.26731202508e-16
886	4.17260653353e-13
887	2.96377606395e-16
888	5.49895466795e-13
889	3.72503548468e-16
890	6.37206962055e-13
891	4.23002348317e-16
892	7.13316904578e-13
893	5.24163807755e-16
894	9.72392975087e-13
895	6.69546265729e-16
896	1.23614814579e-12
897	7.93579186803e-16
898	1.34491104734e-12
899	9.42984117667e-16
900	1.53661332794e-12
901	1.12486982614e-15
902	1.65606331999e-12
903	1.31772072495e-15
904	1.73060910836e-12
905	1.50852965336e-15
906	1.64721811264e-12
907	1.72325739927e-15
908	1.84479187133e-12
909	2.08690924422e-15
910	2.67037753564e-12
911	2.71507423127e-15
912	3.88130903595e-12
913	3.35859194661e-15
914	4.66043874013e-12
915	3.75642500569e-15
916	5.51871555271e-12
917	4.33577125987e-15
918	6.9903150209e-12
919	4.72237569963e-15
920	7.01989570952e-12
921	4.99370629571e-15
922	6.8710086825e-12
923	5.34965455942e-15
924	7.1969329724e-12
925	5.96930361538e-15
926	9.06259876658e-12
927	6.78306250631e-15
928	1.0816884596e-11
929	7.45857384136e-15
930	1.06712212941e-11
931	7.61368045122e-15
932	1.1973410194e-11
933	8.70920380129e-15
934	1.64074021471e-11
935	9.90653394968e-15
936	2.1831835893e-11
937	1.14748622234e-14
938	2.83484822203e-11
939	1.2780381006e-14
940	2.77473407023e-11
941	1.46583495325e-14
942	3.40301366019e-11
943	1.66470824707e-14
944	4.21506530042e-11
945	1.89754079844e-14
946	5.39985526392e-11
947	2.19586786903e-14
948	8.41945720158e-11
949	2.86590548831e-14
950	1.16647021183e-10
951	3.14583445049e-14
952	9.29342545542e-11
953	3.29377014763e-14
954	1.26134818544e-10
955	3.76171900962e-14
956	2.0117504258e-10
957	4.28108749517e-14
958	2.38431601845e-10
959	4.96126872552e-14
960	2.22954737702e-10
961	5.585456864e-14
962	2.27783652754e-10
963	5.79329013737e-14
964	2.51628934863e-10
965	5.85779605281e-14
966	1.93235776943e-10
967	6.26559256161e-14
968	1.82078297541e-10
969	7.37126483294e-14
970	3.51927591667e-10
971	7.57570070911e-14
972	3.53754550474e-10
973	6.74809711604e-14
974	3.91037605779e-10
975	6.15823330389e-14
976	5.53313896572e-10
977	7.31583638547e-14
978	8.22144388708e-10
979	9.78816471483e-14
980	1.12266526104e-09
981	1.22721421168e-13
982	1.22339077642e-09
983	1.32519284339e-13
984	1.35560993928e-09
985	1.2798244202e-13
986	1.26320045046e-09
987	1.32396790557e-13
988	1.2680409324e-09
989	1.76123768469e-13
990	2.06445384523e-09
991	2.73348378992e-13
992	3.51480561317e-09
993	4.08170894854e-13
994	4.74119301015e-09
995	4.7388022982e-13
996	6.62393559026e-09
997	4.9194068137e-13
998	1.20187457179e-08
999	6.72262778508e-13
1000	2.95897565025e-08
1001	9.41727836221e-13
1002	2.66545538545e-08
1003	1.3747279348e-12
1004	4.61941692492e-08
1005	1.73001563068e-12
1006	8.80020904743e-08
1007	2.32386557112e-12
1008	1.3973883866e-07
1009	3.49007181456e-12
1010	4.42505362628e-07
1011	7.03768229925e-12
1012	7.52781071926e-07
1013	1.24968858915e-11
1014	1.67688328839e-06
1015	2.13885056363e-11
1016	5.40788719381e-06
1017	3.10890580523e-11
1018	3.1202814146e-05
1019	2.2568485631e-10
1020	0.000803565703364
1021	2.02255371843e-09
1022	0.0101810512785
1023	8.47499628291e-09
