0	0.886323279329
1	1.39491315722e-08
2	0.0102431550889
3	3.56009465641e-09
4	0.000753893744186
5	3.85174738351e-10
6	2.26739294391e-05
7	4.11688604132e-11
8	5.03675476154e-06
9	3.05862739797e-11
10	1.57714340202e-06
11	1.7000317275e-11
12	9.17221479458e-07
13	1.22651109234e-11
14	3.49819329933e-07
15	5.69776700205e-12
16	1.32015446744e-07
17	4.32224733553e-12
18	7.86196615934e-08
19	3.37005552307e-12
20	4.56462841021e-08
21	2.34829898942e-12
22	3.60622895775e-08
23	1.95443806024e-12
24	2.4943508483e-08
25	1.14013918788e-12
26	1.22269132925e-08
27	6.89691654265e-13
28	5.42105949892e-09
29	6.0802138428e-13
30	3.68133670375e-09
31	4.60626184507e-13
32	2.74493232515e-09
33	3.74955223408e-13
34	2.07635469042e-09
35	3.36094352002e-13
36	1.78729512769e-09
37	2.98588830818e-13
38	1.36238077852e-09
39	2.83429071268e-13
40	1.28379570102e-09
41	2.67181669075e-13
42	1.0480159096e-09
43	2.09723667695e-13
44	9.45509235121e-10
45	1.58487460018e-13
46	5.52401489366e-10
47	1.10658007704e-13
48	3.65412672507e-10
49	9.04151808946e-14
50	2.80368196824e-10
51	8.18377942465e-14
52	1.81903105866e-10
53	7.57973041098e-14
54	1.63723698524e-10
55	7.45647139752e-14
56	1.52558689749e-10
57	7.03941701433e-14
58	1.23059485721e-10
59	6.75170409564e-14
60	1.24850295247e-10
61	6.45057346042e-14
62	1.53245707619e-10
63	5.82953746033e-14
64	1.42897490157e-10
65	4.93115896896e-14
66	1.1494737062e-10
67	4.21294912191e-14
68	1.17861455887e-10
69	3.87391705896e-14
70	1.46987650336e-10
71	2.95062450437e-14
72	1.08648284955e-10
73	1.99779928805e-14
74	6.17723137569e-11
75	1.67175365538e-14
76	4.77207822836e-11
77	1.48231539348e-14
78	5.23673591885e-11
79	1.4441808645e-14
80	4.33661810661e-11
81	1.27679050996e-14
82	2.92302705252e-11
83	1.25825245135e-14
84	2.74428575363e-11
85	9.69383603908e-15
86	2.92361880422e-11
87	8.70324927734e-15
88	2.91059357648e-11
89	8.11018814866e-15
90	2.15426858338e-11
91	5.95323749946e-15
92	1.81775192345e-11
93	4.82914940678e-15
94	1.18975637967e-11
95	3.56618808182e-15
96	7.56877080465e-12
97	2.8681861558e-15
98	6.09429148979e-12
99	2.29481670511e-15
100	6.34504211029e-12
101	2.18460739333e-15
102	6.08352996054e-12
103	1.86288091014e-15
104	4.24631610315e-12
105	1.49054824552e-15
106	3.95871286786e-12
107	1.43618544258e-15
108	3.36500916281e-12
109	1.14671944664e-15
110	2.22126888341e-12
111	1.01094959262e-15
112	1.41198066447e-12
113	1.00296568878e-15
114	1.45530190227e-12
115	9.19428871458e-16
116	1.93793106649e-12
117	1.0347287116e-15
118	1.76733689087e-12
119	7.91931772023e-16
120	1.43526687913e-12
121	8.01360008657e-16
122	9.92887762409e-13
123	4.79968344158e-16
124	6.92268843506e-13
125	3.57940040019e-16
126	5.90094584875e-13
127	2.63911290657e-16
128	4.91075826404e-13
129	2.00345695516e-16
130	3.18524298415e-13
131	1.76902383719e-16
132	2.34213402151e-13
133	1.3804944386e-16
134	3.22281523679e-13
135	1.5841870863e-16
136	3.81502298352e-13
137	1.45147333029e-16
138	3.54064323835e-13
139	1.9216208176e-16
140	3.37440199152e-13
141	1.3423078744e-16
142	3.12818895539e-13
143	1.2123200893e-16
144	2.51660226339e-13
145	8.68192933601e-17
146	1.42772528534e-13
147	6.19128704157e-17
148	1.18795131021e-13
149	4.73927655567e-17
150	9.62813231485e-14
151	3.96136718722e-17
152	7.03917188157e-14
153	3.8578195844e-17
154	7.78245461148e-14
155	4.20948587422e-17
156	8.22678670061e-14
157	5.03810277015e-17
158	9.53460408643e-14
159	5.45373555148e-17
160	8.12653080317e-14
161	4.25257431732e-17
162	6.87319065372e-14
163	3.86105391733e-17
164	5.99547365821e-14
165	2.80684093712e-17
166	5.43920641395e-14
167	2.0866670908e-17
168	4.32126528716e-14
169	1.49486425459e-17
170	3.90940899715e-14
171	1.2249930339e-17
172	4.27538057641e-14
173	1.0495871795e-17
174	3.74847597218e-14
175	9.28986018352e-18
176	2.9839489742e-14
177	9.38060533895e-18
178	3.06497424798e-14
179	8.88999787295e-18
180	3.29782870625e-14
181	8.36818448277e-18
182	2.92094938019e-14
183	7.23655809323e-18
184	2.38136283984e-14
185	6.21134745325e-18
186	2.10710094799e-14
187	4.83115400723e-18
188	1.93383909083e-14
189	4.03742739649e-18
190	1.80064864282e-14
191	3.45727835035e-18
192	1.7465525327e-14
193	3.17986532529e-18
194	1.72770057979e-14
195	3.01690299906e-18
196	1.67677945545e-14
197	2.93420820471e-18
198	1.65452486319e-14
199	2.85802753554e-18
200	1.64422181879e-14
201	2.74721662725e-18
202	1.5797231276e-14
203	2.5533874127e-18
204	1.48779890047e-14
205	2.37746079974e-18
206	1.42542230667e-14
207	2.18717123224e-18
208	1.36077907048e-14
209	2.02052702882e-18
210	1.25534897649e-14
211	1.79741032175e-18
212	1.14142410136e-14
213	1.63212899911e-18
214	1.04314594298e-14
215	1.4428913986e-18
216	9.39275455592e-15
217	1.2926484929e-18
218	8.34462171872e-15
219	1.15856955885e-18
220	7.39437469042e-15
221	1.01686292287e-18
222	6.45686052608e-15
223	8.81321513898e-19
224	5.47990483691e-15
225	7.50967176959e-19
226	4.63901349439e-15
227	6.5289372935e-19
228	3.94745773314e-15
229	5.56800186554e-19
230	3.28657518007e-15
231	4.82385444387e-19
232	2.68487524048e-15
233	4.22040340842e-19
234	2.19299228905e-15
235	3.63749236153e-19
236	1.78680888154e-15
237	3.231282409e-19
238	1.43422192749e-15
239	2.82171532578e-19
240	1.15335743587e-15
241	2.49918413489e-19
242	9.35200758263e-16
243	2.20219583417e-19
244	7.54625215562e-16
245	1.94772846924e-19
246	6.12038726548e-16
247	1.7668224966e-19
248	5.09351217924e-16
249	1.60191816455e-19
250	4.3214283427e-16
251	1.49078189984e-19
252	3.71084962356e-16
253	1.37944392642e-19
254	3.23854632322e-16
255	1.27904188357e-19
256	2.88458529357e-16
257	1.17603619288e-19
258	2.57679049504e-16
259	1.07128821909e-19
260	2.30789384267e-16
261	9.7052908412e-20
262	2.08075532689e-16
263	8.76311325902e-20
264	1.87991625497e-16
265	7.90454789624e-20
266	1.69644489322e-16
267	7.17195474665e-20
268	1.53279165235e-16
269	6.48498460492e-20
270	1.38793578404e-16
271	5.88662469605e-20
272	1.25079135614e-16
273	5.29970478466e-20
274	1.12444925747e-16
275	4.76646047488e-20
276	1.01144709518e-16
277	4.26713751869e-20
278	9.11154429886e-17
279	3.81932193451e-20
280	8.22230593118e-17
281	3.42843076544e-20
282	7.46423283065e-17
283	3.08451961631e-20
284	6.81510444595e-17
285	2.78955873613e-20
286	6.2456056001e-17
287	2.52861274311e-20
288	5.75537810067e-17
289	2.30565196502e-20
290	5.3473140978e-17
291	2.10950992949e-20
292	5.00358519172e-17
293	1.94035321553e-20
294	4.69766311393e-17
295	1.78384837615e-20
296	4.42418234089e-17
297	1.64443534111e-20
298	4.17582939603e-17
299	1.51440143569e-20
300	3.94510798057e-17
301	1.39684998488e-20
302	3.72766521186e-17
303	1.28778530869e-20
304	3.51984827839e-17
305	1.18728223282e-20
306	3.31571818017e-17
307	1.09247479671e-20
308	3.11109233923e-17
309	1.00107763721e-20
310	2.90920076233e-17
311	9.16185711078e-21
312	2.71085562535e-17
313	8.33988392904e-21
314	2.51656756089e-17
315	7.57149999067e-21
316	2.3266193363e-17
317	6.8381824388e-21
318	2.14338195582e-17
319	6.15260012038e-21
320	1.96714245026e-17
321	5.51194382347e-21
322	1.79983079443e-17
323	4.91997408569e-21
324	1.64270140185e-17
325	4.37734572866e-21
326	1.49592721001e-17
327	3.88261539788e-21
328	1.35938051334e-17
329	3.43192473793e-21
330	1.2335262707e-17
331	3.02516191445e-21
332	1.11810289558e-17
333	2.65918052093e-21
334	1.01278535248e-17
335	2.33175313182e-21
336	9.17253900962e-18
337	2.04088105468e-21
338	8.30926121847e-18
339	1.78229404634e-21
340	7.53153855391e-18
341	1.5564861137e-21
342	6.831438249e-18
343	1.35630288005e-21
344	6.20410644883e-18
345	1.18216934369e-21
346	5.63990443207e-18
347	1.03035518676e-21
348	5.13521387583e-18
349	8.99431016701e-22
350	4.68048732015e-18
351	7.83948003456e-22
352	4.27222003085e-18
353	6.84699143672e-22
354	3.9026457333e-18
355	5.98790601057e-22
356	3.56923287903e-18
357	5.24304381242e-22
358	3.26577055012e-18
359	4.59667565219e-22
360	2.98969841927e-18
361	4.04109061452e-22
362	2.73609202711e-18
363	3.55470166535e-22
364	2.50411568545e-18
365	3.13311573139e-22
366	2.28968843996e-18
367	2.76571777275e-22
368	2.09209066956e-18
369	2.4448132011e-22
370	1.90848342195e-18
371	2.16111607253e-22
372	1.73885122822e-18
373	1.91564233378e-22
374	1.58053255011e-18
375	1.6959484766e-22
376	1.4344441477e-18
377	1.50236371944e-22
378	1.29832587911e-18
379	1.32883677603e-22
380	1.17241347285e-18
381	1.17959172514e-22
382	1.05544539982e-18
383	1.04085514648e-22
384	9.48152794338e-19
385	9.21308590693e-23
386	8.48596321934e-19
387	8.12536356501e-23
388	7.57680115954e-19
389	7.1724356323e-23
390	6.74154447992e-19
391	6.29302617457e-23
392	5.98222139905e-19
393	5.55026646841e-23
394	5.28778025043e-19
395	4.85219936077e-23
396	4.66364270646e-19
397	4.25803523679e-23
398	4.09743335192e-19
399	3.70387960309e-23
400	3.5901679958e-19
401	3.23466042006e-23
402	3.13465106026e-19
403	2.80098783153e-23
404	2.72994034775e-19
405	2.43433414658e-23
406	2.36877957344e-19
407	2.09324709068e-23
408	2.05034908643e-19
409	1.81573908442e-23
410	1.76871974743e-19
411	1.55026454768e-23
412	1.52190769141e-19
413	1.33670878487e-23
414	1.30492725548e-19
415	1.13756098971e-23
416	1.11659690819e-19
417	9.72383590733e-24
418	9.52262234789e-20
419	8.2628869853e-24
420	8.10259722254e-20
421	7.03321910958e-24
422	6.87049688184e-20
423	5.97088128111e-24
424	5.81675169039e-20
425	5.05546366702e-24
426	4.90725929154e-20
427	4.28845472329e-24
428	4.13064567743e-20
429	3.62181149269e-24
430	3.46675651407e-20
431	3.04425779502e-24
432	2.90390235448e-20
433	2.56764062191e-24
434	2.42351362404e-20
435	2.18803015468e-24
436	2.01999274778e-20
437	1.84088482178e-24
438	1.67727588903e-20
439	1.55356175981e-24
440	1.39033976924e-20
441	1.32787512979e-24
442	1.1488805704e-20
443	1.1093854725e-24
444	9.47983689334e-21
445	9.35228681292e-25
446	7.77701873971e-21
447	8.3144649639e-25
448	6.38325137344e-21
449	7.25676949111e-25
450	5.20973137205e-21
451	6.07761028055e-25
452	4.25332282566e-21
453	5.42254570311e-25
454	3.44943381302e-21
455	4.74971607687e-25
456	2.81030851107e-21
457	4.18197633326e-25
458	2.26308590826e-21
459	3.64541167054e-25
460	1.8316859425e-21
461	3.44949020364e-25
462	1.47220381568e-21
463	3.29387218424e-25
464	1.18571381929e-21
465	2.90170467434e-25
466	9.529231243e-22
467	2.42947669288e-25
468	7.68990396315e-22
469	2.21994198155e-25
470	6.24100788249e-22
471	2.00114218708e-25
472	5.10860014943e-22
473	1.8271245522e-25
474	4.123012842e-22
475	1.74199249877e-25
476	3.38103686344e-22
477	1.7263160413e-25
478	2.8625496436e-22
479	1.58375280394e-25
480	2.41398697052e-22
481	1.54323872034e-25
482	2.06279563143e-22
483	1.45053961696e-25
484	1.84056445451e-22
485	1.37089497426e-25
486	1.64993891988e-22
487	1.37202807592e-25
488	1.48830768592e-22
489	1.36541553002e-25
490	1.39008247511e-22
491	1.3377267484e-25
492	1.31447879129e-22
493	1.37791397828e-25
494	1.2460375259e-22
495	1.39060633888e-25
496	1.2058976792e-22
497	1.39160822921e-25
498	1.18129653632e-22
499	1.4001446016e-25
500	1.15876073849e-22
501	1.44946488494e-25
502	1.14084574712e-22
503	1.56441200657e-25
504	1.12772485459e-22
505	1.50768840816e-25
506	1.12066754997e-22
507	1.61251567095e-25
508	1.11600044318e-22
509	1.56474169007e-25
510	1.11148631374e-22
511	1.68312335492e-25
512	1.11160933483e-22
513	1.68312336732e-25
514	1.11148678895e-22
515	1.56474168984e-25
516	1.11600046217e-22
517	1.61251566624e-25
518	1.12066749898e-22
519	1.50768840818e-25
520	1.12772485272e-22
521	1.56441200646e-25
522	1.14084575327e-22
523	1.44946488486e-25
524	1.15876074281e-22
525	1.40014460115e-25
526	1.18129650181e-22
527	1.39160822871e-25
528	1.20589768023e-22
529	1.39060633862e-25
530	1.24603756389e-22
531	1.37791397832e-25
532	1.31447881087e-22
533	1.33772674853e-25
534	1.39008246601e-22
535	1.36541553034e-25
536	1.48830768405e-22
537	1.37202807572e-25
538	1.64993893785e-22
539	1.37089497369e-25
540	1.84056445869e-22
541	1.45053961638e-25
542	2.06279560876e-22
543	1.54323872111e-25
544	2.41398697056e-22
545	1.58375280437e-25
546	2.86254966603e-22
547	1.72631603968e-25
548	3.38103684566e-22
549	1.74199249912e-25
550	4.12301285128e-22
551	1.82712455227e-25
552	5.10860015246e-22
553	2.00114218646e-25
554	6.2410078754e-22
555	2.21994198103e-25
556	7.68990395119e-22
557	2.4294766922e-25
558	9.52923124558e-22
559	2.90170467446e-25
560	1.1857138193e-21
561	3.29387218495e-25
562	1.47220381723e-21
563	3.44949020389e-25
564	1.83168594149e-21
565	3.6454116709e-25
566	2.26308591228e-21
567	4.18197633239e-25
568	2.81030851106e-21
569	4.74971607687e-25
570	3.44943381113e-21
571	5.42254570094e-25
572	4.2533228295e-21
573	6.07761028443e-25
574	5.2097313859e-21
575	7.25676949237e-25
576	6.38325137343e-21
577	8.3144649621e-25
578	7.77701872378e-21
579	9.35228680887e-25
580	9.47983690342e-21
581	1.10938547223e-24
582	1.14888056911e-20
583	1.32787512993e-24
584	1.39033976914e-20
585	1.55356175985e-24
586	1.67727588949e-20
587	1.84088482192e-24
588	2.01999274771e-20
589	2.18803015488e-24
590	2.42351362371e-20
591	2.56764062178e-24
592	2.90390235448e-20
593	3.04425779466e-24
594	3.46675651463e-20
595	3.62181149253e-24
596	4.13064567708e-20
597	4.28845472348e-24
598	4.90725929163e-20
599	5.05546366698e-24
600	5.81675169044e-20
601	5.9708812811e-24
602	6.87049688324e-20
603	7.03321910997e-24
604	8.1025972228e-20
605	8.26288698542e-24
606	9.52262234777e-20
607	9.72383590734e-24
608	1.11659690819e-19
609	1.13756098962e-23
610	1.30492725571e-19
611	1.3367087849e-23
612	1.52190769142e-19
613	1.5502645477e-23
614	1.76871974733e-19
615	1.81573908438e-23
616	2.05034908641e-19
617	2.09324709067e-23
618	2.36877957352e-19
619	2.43433414645e-23
620	2.72994034775e-19
621	2.80098783139e-23
622	3.13465106032e-19
623	3.23466042007e-23
624	3.5901679958e-19
625	3.70387960296e-23
626	4.09743335229e-19
627	4.25803523686e-23
628	4.66364270664e-19
629	4.85219936082e-23
630	5.28778025029e-19
631	5.55026646839e-23
632	5.98222139904e-19
633	6.29302617452e-23
634	6.74154447992e-19
635	7.17243563233e-23
636	7.57680115876e-19
637	8.12536356499e-23
638	8.48596321978e-19
639	9.21308590626e-23
640	9.48152794338e-19
641	1.04085514648e-22
642	1.05544539999e-18
643	1.17959172511e-22
644	1.17241347275e-18
645	1.32883677599e-22
646	1.2983258791e-18
647	1.50236371942e-22
648	1.4344441477e-18
649	1.69594847661e-22
650	1.5805325501e-18
651	1.91564233381e-22
652	1.73885122827e-18
653	2.16111607251e-22
654	1.90848342189e-18
655	2.44481320109e-22
656	2.09209066956e-18
657	2.76571777276e-22
658	2.28968844018e-18
659	3.13311573138e-22
660	2.50411568546e-18
661	3.55470166535e-22
662	2.73609202715e-18
663	4.04109061449e-22
664	2.98969841927e-18
665	4.59667565221e-22
666	3.26577055036e-18
667	5.24304381244e-22
668	3.56923287893e-18
669	5.98790601055e-22
670	3.90264573343e-18
671	6.84699143672e-22
672	4.27222003085e-18
673	7.83948003446e-22
674	4.68048731996e-18
675	8.99431016695e-22
676	5.13521387574e-18
677	1.03035518676e-21
678	5.63990443241e-18
679	1.18216934369e-21
680	6.20410644884e-18
681	1.35630288004e-21
682	6.83143824876e-18
683	1.5564861137e-21
684	7.53153855408e-18
685	1.78229404634e-21
686	8.30926121873e-18
687	2.04088105469e-21
688	9.17253900962e-18
689	2.33175313183e-21
690	1.01278535254e-17
691	2.65918052093e-21
692	1.11810289559e-17
693	3.02516191444e-21
694	1.23352627071e-17
695	3.43192473794e-21
696	1.35938051334e-17
697	3.88261539787e-21
698	1.49592720996e-17
699	4.37734572867e-21
700	1.64270140188e-17
701	4.91997408567e-21
702	1.79983079438e-17
703	5.51194382345e-21
704	1.96714245026e-17
705	6.15260012039e-21
706	2.14338195575e-17
707	6.83818243879e-21
708	2.32661933632e-17
709	7.57149999067e-21
710	2.51656756091e-17
711	8.33988392903e-21
712	2.71085562536e-17
713	9.16185711078e-21
714	2.90920076232e-17
715	1.00107763721e-20
716	3.11109233924e-17
717	1.09247479671e-20
718	3.31571818012e-17
719	1.18728223282e-20
720	3.51984827839e-17
721	1.28778530869e-20
722	3.7276652119e-17
723	1.39684998488e-20
724	3.94510798055e-17
725	1.51440143569e-20
726	4.17582939604e-17
727	1.64443534111e-20
728	4.42418234089e-17
729	1.78384837615e-20
730	4.69766311391e-17
731	1.94035321553e-20
732	5.0035851917e-17
733	2.10950992949e-20
734	5.34731409799e-17
735	2.30565196502e-20
736	5.75537810067e-17
737	2.52861274311e-20
738	6.24560559981e-17
739	2.78955873613e-20
740	6.81510444595e-17
741	3.08451961631e-20
742	7.46423283059e-17
743	3.42843076544e-20
744	8.22230593118e-17
745	3.81932193452e-20
746	9.11154429887e-17
747	4.26713751869e-20
748	1.01144709518e-16
749	4.76646047488e-20
750	1.12444925747e-16
751	5.29970478466e-20
752	1.25079135614e-16
753	5.88662469605e-20
754	1.38793578405e-16
755	6.48498460492e-20
756	1.53279165234e-16
757	7.17195474665e-20
758	1.69644489322e-16
759	7.90454789623e-20
760	1.87991625496e-16
761	8.76311325902e-20
762	2.08075532688e-16
763	9.70529084121e-20
764	2.3078938426e-16
765	1.0712882191e-19
766	2.5767904951e-16
767	1.17603619289e-19
768	2.88458529357e-16
769	1.27904188358e-19
770	3.23854632322e-16
771	1.37944392642e-19
772	3.71084962354e-16
773	1.49078189984e-19
774	4.32142834269e-16
775	1.60191816455e-19
776	5.09351217924e-16
777	1.7668224966e-19
778	6.12038726546e-16
779	1.94772846924e-19
780	7.54625215563e-16
781	2.20219583417e-19
782	9.3520075827e-16
783	2.49918413489e-19
784	1.15335743587e-15
785	2.82171532578e-19
786	1.43422192749e-15
787	3.23128240901e-19
788	1.78680888154e-15
789	3.63749236153e-19
790	2.19299228905e-15
791	4.22040340842e-19
792	2.68487524048e-15
793	4.82385444387e-19
794	3.28657518007e-15
795	5.56800186554e-19
796	3.94745773314e-15
797	6.5289372935e-19
798	4.6390134944e-15
799	7.50967176959e-19
800	5.47990483691e-15
801	8.81321513898e-19
802	6.45686052608e-15
803	1.01686292287e-18
804	7.39437469042e-15
805	1.15856955885e-18
806	8.34462171871e-15
807	1.2926484929e-18
808	9.39275455592e-15
809	1.4428913986e-18
810	1.04314594298e-14
811	1.63212899911e-18
812	1.14142410136e-14
813	1.79741032175e-18
814	1.25534897649e-14
815	2.02052702882e-18
816	1.36077907048e-14
817	2.18717123224e-18
818	1.42542230668e-14
819	2.37746079974e-18
820	1.48779890047e-14
821	2.5533874127e-18
822	1.5797231276e-14
823	2.74721662725e-18
824	1.64422181879e-14
825	2.85802753554e-18
826	1.65452486319e-14
827	2.93420820471e-18
828	1.67677945545e-14
829	3.01690299906e-18
830	1.7277005798e-14
831	3.17986532529e-18
832	1.7465525327e-14
833	3.45727835035e-18
834	1.80064864282e-14
835	4.03742739649e-18
836	1.93383909083e-14
837	4.83115400723e-18
838	2.10710094799e-14
839	6.21134745325e-18
840	2.38136283984e-14
841	7.23655809323e-18
842	2.92094938019e-14
843	8.36818448277e-18
844	3.29782870625e-14
845	8.88999787295e-18
846	3.06497424797e-14
847	9.38060533895e-18
848	2.9839489742e-14
849	9.28986018352e-18
850	3.74847597218e-14
851	1.0495871795e-17
852	4.27538057641e-14
853	1.2249930339e-17
854	3.90940899715e-14
855	1.49486425459e-17
856	4.32126528716e-14
857	2.0866670908e-17
858	5.43920641396e-14
859	2.80684093712e-17
860	5.99547365821e-14
861	3.86105391733e-17
862	6.87319065373e-14
863	4.25257431732e-17
864	8.12653080317e-14
865	5.45373555148e-17
866	9.53460408643e-14
867	5.03810277015e-17
868	8.22678670061e-14
869	4.20948587422e-17
870	7.78245461148e-14
871	3.8578195844e-17
872	7.03917188157e-14
873	3.96136718722e-17
874	9.62813231485e-14
875	4.73927655567e-17
876	1.18795131021e-13
877	6.19128704157e-17
878	1.42772528534e-13
879	8.68192933601e-17
880	2.51660226339e-13
881	1.2123200893e-16
882	3.12818895539e-13
883	1.3423078744e-16
884	3.37440199152e-13
885	1.9216208176e-16
886	3.54064323835e-13
887	1.45147333029e-16
888	3.81502298352e-13
889	1.5841870863e-16
890	3.22281523679e-13
891	1.3804944386e-16
892	2.34213402151e-13
893	1.76902383719e-16
894	3.18524298414e-13
895	2.00345695516e-16
896	4.91075826404e-13
897	2.63911290657e-16
898	5.90094584876e-13
899	3.57940040019e-16
900	6.92268843506e-13
901	4.79968344158e-16
902	9.92887762409e-13
903	8.01360008657e-16
904	1.43526687913e-12
905	7.91931772023e-16
906	1.76733689087e-12
907	1.0347287116e-15
908	1.93793106649e-12
909	9.19428871458e-16
910	1.45530190227e-12
911	1.00296568878e-15
912	1.41198066447e-12
913	1.01094959262e-15
914	2.22126888341e-12
915	1.14671944664e-15
916	3.36500916281e-12
917	1.43618544258e-15
918	3.95871286786e-12
919	1.49054824552e-15
920	4.24631610315e-12
921	1.86288091014e-15
922	6.08352996054e-12
923	2.18460739333e-15
924	6.34504211029e-12
925	2.29481670511e-15
926	6.09429148979e-12
927	2.8681861558e-15
928	7.56877080465e-12
929	3.56618808182e-15
930	1.18975637967e-11
931	4.82914940678e-15
932	1.81775192345e-11
933	5.95323749946e-15
934	2.15426858338e-11
935	8.11018814866e-15
936	2.91059357648e-11
937	8.70324927734e-15
938	2.92361880422e-11
939	9.69383603908e-15
940	2.74428575363e-11
941	1.25825245135e-14
942	2.92302705252e-11
943	1.27679050996e-14
944	4.33661810661e-11
945	1.4441808645e-14
946	5.23673591885e-11
947	1.48231539348e-14
948	4.77207822836e-11
949	1.67175365538e-14
950	6.17723137569e-11
951	1.99779928805e-14
952	1.08648284955e-10
953	2.95062450437e-14
954	1.46987650336e-10
955	3.87391705896e-14
956	1.17861455887e-10
957	4.21294912191e-14
958	1.1494737062e-10
959	4.93115896896e-14
960	1.42897490157e-10
961	5.82953746033e-14
962	1.53245707619e-10
963	6.45057346042e-14
964	1.24850295247e-10
965	6.75170409564e-14
966	1.23059485721e-10
967	7.03941701433e-14
968	1.52558689749e-10
969	7.45647139752e-14
970	1.63723698524e-10
971	7.57973041098e-14
972	1.81903105866e-10
973	8.18377942465e-14
974	2.80368196824e-10
975	9.04151808946e-14
976	3.65412672507e-10
977	1.10658007704e-13
978	5.52401489366e-10
979	1.58487460018e-13
980	9.45509235121e-10
981	2.09723667695e-13
982	1.0480159096e-09
983	2.67181669075e-13
984	1.28379570102e-09
985	2.83429071268e-13
986	1.36238077852e-09
987	2.98588830818e-13
988	1.78729512769e-09
989	3.36094352002e-13
990	2.07635469042e-09
991	3.74955223408e-13
992	2.74493232515e-09
993	4.60626184507e-13
994	3.68133670375e-09
995	6.0802138428e-13
996	5.42105949892e-09
997	6.89691654265e-13
998	1.22269132925e-08
999	1.14013918788e-12
1000	2.4943508483e-08
1001	1.95443806024e-12
1002	3.60622895775e-08
1003	2.34829898942e-12
1004	4.56462841021e-08
1005	3.37005552307e-12
1006	7.86196615934e-08
1007	4.32224733553e-12
1008	1.32015446744e-07
1009	5.69776700205e-12
1010	3.49819329933e-07
1011	1.22651109234e-11
1012	9.17221479458e-07
1013	1.7000317275e-11
1014	1.57714340202e-06
1015	3.05862739797e-11
1016	5.03675476154e-06
1017	4.11688604132e-11
1018	2.26739294391e-05
1019	3.85174738351e-10
1020	0.000753893744186
1021	3.56009465641e-09
1022	0.0102431550889
1023	1.39491315722e-08
