0	0.778457912833
1	0.0234901628698
2	0.00354519406597
3	0.00107760988985
4	0.000261655259734
5	3.83655406676e-05
6	5.40898909692e-06
7	4.63923130509e-06
8	4.79591703287e-06
9	4.10555871147e-06
10	2.67574920093e-06
11	1.3152104433e-06
12	1.29648955056e-06
13	1.78051345826e-06
14	1.03848043832e-06
15	5.00740554775e-07
16	4.41534009124e-07
17	5.37298107209e-07
18	4.87189540597e-07
19	3.4656975133e-07
20	3.20605216297e-07
21	3.2018326766e-07
22	2.41353938952e-07
23	2.43604948986e-07
24	2.58705973534e-07
25	2.07593497602e-07
26	1.33492873983e-07
27	1.03671418312e-07
28	8.4126064992e-08
29	9.47159157184e-08
30	9.8311186037e-08
31	7.15973220565e-08
32	6.93336950738e-08
33	6.24442320436e-08
34	5.99436612057e-08
35	5.06597055031e-08
36	4.1440586692e-08
37	3.17823008479e-08
38	2.88586189406e-08
39	2.67113507542e-08
40	2.73372777383e-08
41	2.29556530228e-08
42	1.84729386264e-08
43	1.98935025738e-08
44	1.41085873038e-08
45	1.29735393151e-08
46	1.11515554233e-08
47	1.11563787032e-08
48	1.10782023245e-08
49	1.00422300966e-08
50	8.57778252674e-09
51	7.56557417972e-09
52	9.25206502723e-09
53	9.24119677844e-09
54	8.60122072713e-09
55	8.31560115908e-09
56	6.5774813774e-09
57	4.79340076374e-09
58	4.87148061099e-09
59	5.62822140022e-09
60	6.3059430401e-09
61	5.08964599124e-09
62	3.78726242963e-09
63	2.91126541703e-09
64	2.99956424243e-09
65	2.78560516559e-09
66	2.45779246861e-09
67	2.45869217979e-09
68	2.96737400416e-09
69	3.0102550246e-09
70	2.03170486821e-09
71	1.57451287987e-09
72	1.49723109785e-09
73	1.71397334985e-09
74	1.6241337394e-09
75	1.5205014436e-09
76	1.69623178483e-09
77	1.45325986208e-09
78	1.48032240663e-09
79	1.40560632816e-09
80	1.48836258764e-09
81	1.20091717833e-09
82	8.95076972608e-10
83	9.75017141991e-10
84	1.12697751695e-09
85	1.18472765391e-09
86	1.06191570977e-09
87	8.36572452358e-10
88	7.65469293902e-10
89	6.53679716476e-10
90	5.87369149375e-10
91	5.55923297338e-10
92	5.43568595736e-10
93	6.33726778755e-10
94	6.17825719301e-10
95	6.10878725884e-10
96	5.46573399363e-10
97	4.43979248047e-10
98	4.31685316227e-10
99	4.35520403724e-10
100	4.87666935411e-10
101	4.47804424798e-10
102	3.78901681778e-10
103	3.42928719011e-10
104	3.23049630852e-10
105	3.26217131356e-10
106	2.80173021399e-10
107	2.46777809343e-10
108	2.10525752503e-10
109	1.93071898427e-10
110	1.96779427444e-10
111	2.03257420012e-10
112	2.04026002699e-10
113	1.75187960336e-10
114	1.54557247253e-10
115	1.46753710089e-10
116	1.60587515787e-10
117	1.60644845603e-10
118	1.54373060458e-10
119	1.61231171435e-10
120	1.46926087799e-10
121	1.44039670015e-10
122	1.25381291106e-10
123	1.10706526375e-10
124	1.05087518304e-10
125	8.2942439024e-11
126	9.38149497317e-11
127	9.13050423934e-11
128	8.51154313383e-11
129	8.12433042974e-11
130	6.20381729526e-11
131	6.98324313253e-11
132	6.09316831332e-11
133	5.35210563303e-11
134	5.11289374222e-11
135	4.17416041218e-11
136	5.19069809339e-11
137	5.19968427609e-11
138	5.69314947045e-11
139	5.62279613012e-11
140	4.32829450725e-11
141	4.01671819003e-11
142	3.51249231e-11
143	3.97611745122e-11
144	4.14477699268e-11
145	4.01353564633e-11
146	3.99388305476e-11
147	3.43744099835e-11
148	3.24587332275e-11
149	2.70915286713e-11
150	2.45845355433e-11
151	2.2675258918e-11
152	2.09368002512e-11
153	2.19562291757e-11
154	2.07210253916e-11
155	2.25000996032e-11
156	1.94255213789e-11
157	1.71848205756e-11
158	1.63708107794e-11
159	1.41288137114e-11
160	1.53379049692e-11
161	1.30265111544e-11
162	1.43872555734e-11
163	1.5234806996e-11
164	1.433337779e-11
165	1.59631105441e-11
166	1.3149325989e-11
167	1.29198374074e-11
168	1.18157241919e-11
169	1.08759375187e-11
170	1.28769372588e-11
171	1.17760602228e-11
172	1.25857145281e-11
173	1.19076418235e-11
174	1.13036727452e-11
175	1.20214692971e-11
176	1.02956805054e-11
177	1.00701024501e-11
178	9.21297765118e-12
179	9.20184783485e-12
180	9.97235099367e-12
181	9.70092821007e-12
182	1.02441901312e-11
183	9.43918185383e-12
184	8.64854332644e-12
185	8.07507056626e-12
186	7.4378662056e-12
187	7.58406369261e-12
188	7.37811069274e-12
189	7.57723200778e-12
190	7.65872740992e-12
191	7.23440821805e-12
192	6.66179925346e-12
193	6.03156949629e-12
194	5.65814191512e-12
195	5.49249754557e-12
196	5.54431498064e-12
197	5.42366196069e-12
198	5.39644743621e-12
199	5.04064310354e-12
200	4.62079929533e-12
201	4.50222386891e-12
202	4.00489577505e-12
203	3.93337875785e-12
204	3.65942950647e-12
205	3.38681205296e-12
206	3.54023455802e-12
207	3.09773735581e-12
208	3.03387680422e-12
209	2.75738887597e-12
210	2.32586518913e-12
211	2.36831421073e-12
212	1.95680710522e-12
213	1.97213607591e-12
214	1.90247823338e-12
215	1.60216649015e-12
216	1.69504188752e-12
217	1.41815958655e-12
218	1.41093554411e-12
219	1.38929428183e-12
220	1.1774587002e-12
221	1.26092424531e-12
222	1.11916504588e-12
223	1.13755362922e-12
224	1.17899844818e-12
225	1.1072983174e-12
226	1.18313609298e-12
227	1.10350445705e-12
228	1.09414255875e-12
229	1.07922372691e-12
230	1.02145654085e-12
231	1.0509002059e-12
232	1.02587754481e-12
233	1.05822103973e-12
234	1.0470806762e-12
235	1.01051231436e-12
236	9.93471815933e-13
237	9.32825792407e-13
238	9.23991958163e-13
239	8.9809845234e-13
240	8.85477993025e-13
241	8.86048685165e-13
242	8.46475549904e-13
243	8.2521030598e-13
244	7.88351884563e-13
245	7.49503367136e-13
246	7.23947430133e-13
247	6.85529655894e-13
248	6.56682828733e-13
249	6.3652771219e-13
250	5.99597395618e-13
251	5.70853355333e-13
252	5.42351485589e-13
253	4.98840065654e-13
254	4.75471266452e-13
255	4.348946307e-13
256	4.05599267731e-13
257	3.90557655817e-13
258	3.51836541782e-13
259	3.40167044253e-13
260	3.11764973483e-13
261	2.85597750567e-13
262	2.74281509841e-13
263	2.41045818078e-13
264	2.33770979465e-13
265	2.1434001177e-13
266	1.96705356549e-13
267	1.92967806834e-13
268	1.72404514489e-13
269	1.69411961831e-13
270	1.56983683391e-13
271	1.46043112751e-13
272	1.43123542511e-13
273	1.30051006933e-13
274	1.29014534617e-13
275	1.22347845818e-13
276	1.18600939389e-13
277	1.18381957087e-13
278	1.12536016513e-13
279	1.12426937538e-13
280	1.07825591787e-13
281	1.05672830323e-13
282	1.04575576479e-13
283	1.02033127007e-13
284	1.02499394928e-13
285	1.00840856347e-13
286	1.00097991091e-13
287	9.84421154564e-14
288	9.6612291971e-14
289	9.47702087428e-14
290	9.28141419868e-14
291	9.12595664206e-14
292	8.91045974865e-14
293	8.80675833973e-14
294	8.52281505007e-14
295	8.33850171147e-14
296	8.10118611773e-14
297	7.76381661027e-14
298	7.59307233444e-14
299	7.20676417365e-14
300	6.98788932061e-14
301	6.72566959797e-14
302	6.37459340149e-14
303	6.19822863243e-14
304	5.81211789379e-14
305	5.54793986293e-14
306	5.25829559011e-14
307	4.89583597878e-14
308	4.68570149595e-14
309	4.35229166151e-14
310	4.10584192343e-14
311	3.8578588434e-14
312	3.55688371725e-14
313	3.34639318263e-14
314	3.07985774546e-14
315	2.86441271175e-14
316	2.65895908413e-14
317	2.44310573137e-14
318	2.27371896109e-14
319	2.09422338849e-14
320	1.94890562969e-14
321	1.80249206245e-14
322	1.67151975361e-14
323	1.55610315863e-14
324	1.44220591856e-14
325	1.36145691708e-14
326	1.26986023404e-14
327	1.20504008727e-14
328	1.14679533022e-14
329	1.08217410545e-14
330	1.05154508288e-14
331	1.00274127782e-14
332	9.71513577276e-15
333	9.49924158564e-15
334	9.11140605256e-15
335	9.04414368111e-15
336	8.83086770629e-15
337	8.64250336592e-15
338	8.61318052167e-15
339	8.34067262606e-15
340	8.2968296983e-15
341	8.19733542216e-15
342	7.98270779835e-15
343	7.96867481513e-15
344	7.71614795976e-15
345	7.57481910463e-15
346	7.48497087717e-15
347	7.20792179573e-15
348	7.13448062268e-15
349	6.87736911843e-15
350	6.62276290459e-15
351	6.48998658709e-15
352	6.14987301674e-15
353	5.98422284118e-15
354	5.72667969217e-15
355	5.41374760681e-15
356	5.26062282265e-15
357	4.91691233515e-15
358	4.69550734522e-15
359	4.45269502878e-15
360	4.12462642369e-15
361	3.96847300026e-15
362	3.67178307299e-15
363	3.45446969514e-15
364	3.26034405423e-15
365	2.96990326446e-15
366	2.83359593534e-15
367	2.60860263059e-15
368	2.4254401679e-15
369	2.29245452025e-15
370	2.0678244996e-15
371	1.96642124689e-15
372	1.81888766239e-15
373	1.68325214813e-15
374	1.60946913868e-15
375	1.45830220193e-15
376	1.39085708825e-15
377	1.30888444466e-15
378	1.2150710744e-15
379	1.18387939888e-15
380	1.09525932224e-15
381	1.05309701339e-15
382	1.01945412584e-15
383	9.56820513098e-16
384	9.46607607897e-16
385	9.01848629203e-16
386	8.71860320854e-16
387	8.65161659305e-16
388	8.21371515052e-16
389	8.13722923709e-16
390	7.94147024401e-16
391	7.66889650364e-16
392	7.69944115131e-16
393	7.37575281318e-16
394	7.21737199782e-16
395	7.11887271621e-16
396	6.81644080992e-16
397	6.81752410976e-16
398	6.57046832283e-16
399	6.31771276532e-16
400	6.2341126804e-16
401	5.90663154598e-16
402	5.82030483446e-16
403	5.627757515e-16
404	5.31139319986e-16
405	5.20353718621e-16
406	4.88924588356e-16
407	4.72040742355e-16
408	4.57047726641e-16
409	4.24611491827e-16
410	4.11544263425e-16
411	3.85357060442e-16
412	3.63381944198e-16
413	3.51307285168e-16
414	3.2310389435e-16
415	3.09507057325e-16
416	2.90508250765e-16
417	2.68017962791e-16
418	2.58347531141e-16
419	2.37177752896e-16
420	2.24600740772e-16
421	2.12519702831e-16
422	1.9309390052e-16
423	1.85394357496e-16
424	1.71544241962e-16
425	1.61192617737e-16
426	1.54551861393e-16
427	1.39913973633e-16
428	1.33799054485e-16
429	1.25804323239e-16
430	1.17914985192e-16
431	1.14701933329e-16
432	1.04910793625e-16
433	1.00126070999e-16
434	9.58529303526e-17
435	9.00716556243e-17
436	8.86238629148e-17
437	8.25911500664e-17
438	7.87735718164e-17
439	7.63746604535e-17
440	7.2085384054e-17
441	7.12184064682e-17
442	6.75492653972e-17
443	6.44153878607e-17
444	6.26946536036e-17
445	5.9267886508e-17
446	5.83767261337e-17
447	5.59834117578e-17
448	5.32969938818e-17
449	5.16457961857e-17
450	4.86587753774e-17
451	4.75642169518e-17
452	4.57848778717e-17
453	4.34326521354e-17
454	4.17352427053e-17
455	3.90257446571e-17
456	3.7787426351e-17
457	3.63416264744e-17
458	3.42829150944e-17
459	3.26247056076e-17
460	3.02311899221e-17
461	2.90067560997e-17
462	2.78089050675e-17
463	2.60707279556e-17
464	2.46446369727e-17
465	2.26733444863e-17
466	2.15818817959e-17
467	2.06319526186e-17
468	1.9255316502e-17
469	1.82021525408e-17
470	1.66939660067e-17
471	1.57783026561e-17
472	1.51216488671e-17
473	1.41623434187e-17
474	1.34861604583e-17
475	1.23792520895e-17
476	1.16681205115e-17
477	1.13537959455e-17
478	1.07498965602e-17
479	1.03143924991e-17
480	9.59220078599e-18
481	9.1294413514e-18
482	9.06012641457e-18
483	8.65419398184e-18
484	8.39178004992e-18
485	8.05359757424e-18
486	7.75932230936e-18
487	7.74975966088e-18
488	7.50839845941e-18
489	7.41809548987e-18
490	7.32541418738e-18
491	7.04969535209e-18
492	7.04044491809e-18
493	7.01129515426e-18
494	6.99673635666e-18
495	6.95167779141e-18
496	6.69342847246e-18
497	6.73246042996e-18
498	6.838267585e-18
499	6.7728313982e-18
500	6.72053596758e-18
501	6.57186476277e-18
502	6.61717856081e-18
503	6.73099067572e-18
504	6.62365659185e-18
505	6.60753958561e-18
506	6.56710677585e-18
507	6.54230148836e-18
508	6.62825927841e-18
509	6.56371638227e-18
510	6.57269227475e-18
511	6.58288703393e-18
512	6.50376990621e-18
513	6.58288703715e-18
514	6.57269227435e-18
515	6.5637163825e-18
516	6.62825927857e-18
517	6.54230148851e-18
518	6.5671067759e-18
519	6.60753958567e-18
520	6.62365659187e-18
521	6.73099067612e-18
522	6.61717856096e-18
523	6.57186476283e-18
524	6.72053596751e-18
525	6.77283139801e-18
526	6.83826758501e-18
527	6.73246043012e-18
528	6.69342847242e-18
529	6.95167779136e-18
530	6.99673635691e-18
531	7.01129515414e-18
532	7.04044491811e-18
533	7.04969535216e-18
534	7.32541418745e-18
535	7.41809548981e-18
536	7.50839845941e-18
537	7.74975966102e-18
538	7.75932230939e-18
539	8.05359757397e-18
540	8.3917800499e-18
541	8.65419398192e-18
542	9.06012641471e-18
543	9.12944135256e-18
544	9.59220078599e-18
545	1.03143924978e-17
546	1.07498965604e-17
547	1.13537959459e-17
548	1.16681205115e-17
549	1.23792520892e-17
550	1.3486160458e-17
551	1.41623434183e-17
552	1.51216488671e-17
553	1.57783026558e-17
554	1.66939660067e-17
555	1.82021525407e-17
556	1.92553165019e-17
557	2.06319526183e-17
558	2.15818817969e-17
559	2.26733444858e-17
560	2.46446369727e-17
561	2.6070727956e-17
562	2.78089050673e-17
563	2.90067560996e-17
564	3.02311899221e-17
565	3.26247056077e-17
566	3.42829150946e-17
567	3.63416264742e-17
568	3.7787426351e-17
569	3.90257446573e-17
570	4.17352427051e-17
571	4.34326521354e-17
572	4.57848778718e-17
573	4.75642169512e-17
574	4.86587753768e-17
575	5.16457961842e-17
576	5.32969938818e-17
577	5.59834117621e-17
578	5.83767261334e-17
579	5.92678865092e-17
580	6.26946536037e-17
581	6.44153878612e-17
582	6.75492653974e-17
583	7.12184064678e-17
584	7.20853840539e-17
585	7.63746604543e-17
586	7.87735718167e-17
587	8.25911500665e-17
588	8.86238629149e-17
589	9.00716556247e-17
590	9.5852930351e-17
591	1.00126071001e-16
592	1.04910793625e-16
593	1.14701933327e-16
594	1.17914985192e-16
595	1.25804323238e-16
596	1.33799054485e-16
597	1.39913973634e-16
598	1.54551861393e-16
599	1.61192617737e-16
600	1.71544241962e-16
601	1.85394357496e-16
602	1.9309390052e-16
603	2.1251970283e-16
604	2.24600740771e-16
605	2.37177752894e-16
606	2.58347531144e-16
607	2.6801796279e-16
608	2.90508250765e-16
609	3.09507057326e-16
610	3.23103894354e-16
611	3.51307285166e-16
612	3.63381944197e-16
613	3.85357060441e-16
614	4.11544263426e-16
615	4.24611491827e-16
616	4.57047726641e-16
617	4.72040742355e-16
618	4.88924588358e-16
619	5.20353718623e-16
620	5.31139319986e-16
621	5.62775751499e-16
622	5.82030483452e-16
623	5.90663154596e-16
624	6.2341126804e-16
625	6.31771276538e-16
626	6.5704683228e-16
627	6.81752410976e-16
628	6.81644080992e-16
629	7.11887271623e-16
630	7.21737199783e-16
631	7.37575281319e-16
632	7.69944115131e-16
633	7.66889650365e-16
634	7.94147024401e-16
635	8.13722923713e-16
636	8.21371515051e-16
637	8.65161659294e-16
638	8.71860320861e-16
639	9.01848629215e-16
640	9.46607607897e-16
641	9.56820513087e-16
642	1.01945412582e-15
643	1.0530970134e-15
644	1.09525932224e-15
645	1.18387939888e-15
646	1.2150710744e-15
647	1.30888444466e-15
648	1.39085708825e-15
649	1.45830220193e-15
650	1.60946913869e-15
651	1.68325214812e-15
652	1.81888766239e-15
653	1.96642124689e-15
654	2.06782449959e-15
655	2.29245452026e-15
656	2.4254401679e-15
657	2.60860263058e-15
658	2.83359593535e-15
659	2.96990326446e-15
660	3.26034405423e-15
661	3.45446969515e-15
662	3.671783073e-15
663	3.96847300026e-15
664	4.12462642369e-15
665	4.45269502879e-15
666	4.69550734521e-15
667	4.91691233516e-15
668	5.26062282265e-15
669	5.41374760681e-15
670	5.72667969217e-15
671	5.98422284116e-15
672	6.14987301674e-15
673	6.48998658709e-15
674	6.62276290459e-15
675	6.87736911842e-15
676	7.13448062268e-15
677	7.20792179573e-15
678	7.48497087717e-15
679	7.57481910464e-15
680	7.71614795976e-15
681	7.96867481513e-15
682	7.98270779834e-15
683	8.19733542215e-15
684	8.2968296983e-15
685	8.34067262606e-15
686	8.61318052167e-15
687	8.64250336591e-15
688	8.83086770629e-15
689	9.04414368111e-15
690	9.11140605256e-15
691	9.49924158562e-15
692	9.71513577276e-15
693	1.00274127782e-14
694	1.05154508288e-14
695	1.08217410545e-14
696	1.14679533022e-14
697	1.20504008727e-14
698	1.26986023404e-14
699	1.36145691708e-14
700	1.44220591856e-14
701	1.55610315863e-14
702	1.67151975362e-14
703	1.80249206245e-14
704	1.94890562969e-14
705	2.09422338849e-14
706	2.27371896109e-14
707	2.44310573138e-14
708	2.65895908412e-14
709	2.86441271175e-14
710	3.07985774546e-14
711	3.34639318263e-14
712	3.55688371725e-14
713	3.8578588434e-14
714	4.10584192343e-14
715	4.35229166151e-14
716	4.68570149595e-14
717	4.89583597878e-14
718	5.25829559011e-14
719	5.54793986293e-14
720	5.81211789379e-14
721	6.19822863243e-14
722	6.37459340148e-14
723	6.72566959797e-14
724	6.98788932061e-14
725	7.20676417365e-14
726	7.59307233444e-14
727	7.76381661027e-14
728	8.10118611773e-14
729	8.33850171147e-14
730	8.52281505007e-14
731	8.80675833973e-14
732	8.91045974865e-14
733	9.12595664207e-14
734	9.28141419868e-14
735	9.47702087428e-14
736	9.6612291971e-14
737	9.84421154564e-14
738	1.00097991091e-13
739	1.00840856347e-13
740	1.02499394928e-13
741	1.02033127007e-13
742	1.04575576479e-13
743	1.05672830323e-13
744	1.07825591787e-13
745	1.12426937538e-13
746	1.12536016513e-13
747	1.18381957087e-13
748	1.18600939389e-13
749	1.22347845818e-13
750	1.29014534617e-13
751	1.30051006933e-13
752	1.43123542511e-13
753	1.46043112751e-13
754	1.56983683391e-13
755	1.69411961831e-13
756	1.72404514489e-13
757	1.92967806834e-13
758	1.96705356549e-13
759	2.1434001177e-13
760	2.33770979465e-13
761	2.41045818078e-13
762	2.74281509841e-13
763	2.85597750567e-13
764	3.11764973483e-13
765	3.40167044254e-13
766	3.51836541782e-13
767	3.90557655817e-13
768	4.05599267731e-13
769	4.348946307e-13
770	4.75471266452e-13
771	4.98840065654e-13
772	5.42351485589e-13
773	5.70853355333e-13
774	5.99597395618e-13
775	6.3652771219e-13
776	6.56682828733e-13
777	6.85529655894e-13
778	7.23947430133e-13
779	7.49503367136e-13
780	7.88351884563e-13
781	8.2521030598e-13
782	8.46475549904e-13
783	8.86048685165e-13
784	8.85477993025e-13
785	8.9809845234e-13
786	9.23991958164e-13
787	9.32825792407e-13
788	9.93471815933e-13
789	1.01051231436e-12
790	1.0470806762e-12
791	1.05822103973e-12
792	1.02587754481e-12
793	1.0509002059e-12
794	1.02145654085e-12
795	1.07922372691e-12
796	1.09414255875e-12
797	1.10350445705e-12
798	1.18313609298e-12
799	1.1072983174e-12
800	1.17899844818e-12
801	1.13755362922e-12
802	1.11916504588e-12
803	1.26092424531e-12
804	1.1774587002e-12
805	1.38929428183e-12
806	1.41093554411e-12
807	1.41815958655e-12
808	1.69504188752e-12
809	1.60216649015e-12
810	1.90247823338e-12
811	1.97213607591e-12
812	1.95680710522e-12
813	2.36831421073e-12
814	2.32586518913e-12
815	2.75738887597e-12
816	3.03387680422e-12
817	3.09773735581e-12
818	3.54023455801e-12
819	3.38681205296e-12
820	3.65942950647e-12
821	3.93337875785e-12
822	4.00489577505e-12
823	4.50222386891e-12
824	4.62079929533e-12
825	5.04064310354e-12
826	5.39644743621e-12
827	5.42366196069e-12
828	5.54431498064e-12
829	5.49249754557e-12
830	5.65814191512e-12
831	6.03156949628e-12
832	6.66179925346e-12
833	7.23440821805e-12
834	7.65872740992e-12
835	7.57723200779e-12
836	7.37811069274e-12
837	7.58406369261e-12
838	7.4378662056e-12
839	8.07507056626e-12
840	8.64854332644e-12
841	9.43918185383e-12
842	1.02441901312e-11
843	9.70092821007e-12
844	9.97235099367e-12
845	9.20184783485e-12
846	9.21297765118e-12
847	1.00701024501e-11
848	1.02956805054e-11
849	1.20214692971e-11
850	1.13036727452e-11
851	1.19076418235e-11
852	1.25857145281e-11
853	1.17760602228e-11
854	1.28769372588e-11
855	1.08759375187e-11
856	1.18157241919e-11
857	1.29198374074e-11
858	1.3149325989e-11
859	1.59631105441e-11
860	1.433337779e-11
861	1.5234806996e-11
862	1.43872555734e-11
863	1.30265111544e-11
864	1.53379049692e-11
865	1.41288137114e-11
866	1.63708107794e-11
867	1.71848205756e-11
868	1.94255213789e-11
869	2.25000996032e-11
870	2.07210253916e-11
871	2.19562291757e-11
872	2.09368002512e-11
873	2.2675258918e-11
874	2.45845355433e-11
875	2.70915286713e-11
876	3.24587332275e-11
877	3.43744099835e-11
878	3.99388305476e-11
879	4.01353564633e-11
880	4.14477699268e-11
881	3.97611745122e-11
882	3.51249231e-11
883	4.01671819003e-11
884	4.32829450725e-11
885	5.62279613012e-11
886	5.69314947045e-11
887	5.19968427609e-11
888	5.19069809339e-11
889	4.17416041218e-11
890	5.11289374222e-11
891	5.35210563303e-11
892	6.09316831332e-11
893	6.98324313253e-11
894	6.20381729526e-11
895	8.12433042974e-11
896	8.51154313383e-11
897	9.13050423934e-11
898	9.38149497317e-11
899	8.2942439024e-11
900	1.05087518304e-10
901	1.10706526375e-10
902	1.25381291106e-10
903	1.44039670015e-10
904	1.46926087799e-10
905	1.61231171435e-10
906	1.54373060458e-10
907	1.60644845603e-10
908	1.60587515787e-10
909	1.46753710089e-10
910	1.54557247253e-10
911	1.75187960336e-10
912	2.04026002699e-10
913	2.03257420012e-10
914	1.96779427444e-10
915	1.93071898427e-10
916	2.10525752503e-10
917	2.46777809343e-10
918	2.80173021399e-10
919	3.26217131356e-10
920	3.23049630852e-10
921	3.42928719011e-10
922	3.78901681778e-10
923	4.47804424798e-10
924	4.87666935411e-10
925	4.35520403724e-10
926	4.31685316227e-10
927	4.43979248047e-10
928	5.46573399363e-10
929	6.10878725884e-10
930	6.17825719301e-10
931	6.33726778755e-10
932	5.43568595736e-10
933	5.55923297338e-10
934	5.87369149375e-10
935	6.53679716476e-10
936	7.65469293902e-10
937	8.36572452358e-10
938	1.06191570977e-09
939	1.18472765391e-09
940	1.12697751695e-09
941	9.75017141991e-10
942	8.95076972608e-10
943	1.20091717833e-09
944	1.48836258764e-09
945	1.40560632816e-09
946	1.48032240663e-09
947	1.45325986208e-09
948	1.69623178483e-09
949	1.5205014436e-09
950	1.6241337394e-09
951	1.71397334985e-09
952	1.49723109785e-09
953	1.57451287987e-09
954	2.03170486821e-09
955	3.0102550246e-09
956	2.96737400416e-09
957	2.45869217979e-09
958	2.45779246861e-09
959	2.78560516559e-09
960	2.99956424243e-09
961	2.91126541703e-09
962	3.78726242963e-09
963	5.08964599124e-09
964	6.3059430401e-09
965	5.62822140022e-09
966	4.87148061099e-09
967	4.79340076374e-09
968	6.5774813774e-09
969	8.31560115908e-09
970	8.60122072713e-09
971	9.24119677844e-09
972	9.25206502723e-09
973	7.56557417972e-09
974	8.57778252674e-09
975	1.00422300966e-08
976	1.10782023245e-08
977	1.11563787032e-08
978	1.11515554233e-08
979	1.29735393151e-08
980	1.41085873038e-08
981	1.98935025738e-08
982	1.84729386264e-08
983	2.29556530228e-08
984	2.73372777383e-08
985	2.67113507542e-08
986	2.88586189406e-08
987	3.17823008479e-08
988	4.1440586692e-08
989	5.06597055031e-08
990	5.99436612057e-08
991	6.24442320436e-08
992	6.93336950738e-08
993	7.15973220565e-08
994	9.8311186037e-08
995	9.47159157184e-08
996	8.4126064992e-08
997	1.03671418312e-07
998	1.33492873983e-07
999	2.07593497602e-07
1000	2.58705973534e-07
1001	2.43604948986e-07
1002	2.41353938952e-07
1003	3.2018326766e-07
1004	3.20605216297e-07
1005	3.4656975133e-07
1006	4.87189540597e-07
1007	5.37298107209e-07
1008	4.41534009124e-07
1009	5.00740554775e-07
1010	1.03848043832e-06
1011	1.78051345826e-06
1012	1.29648955056e-06
1013	1.3152104433e-06
1014	2.67574920093e-06
1015	4.10555871147e-06
1016	4.79591703287e-06
1017	4.63923130509e-06
1018	5.40898909692e-06
1019	3.83655406676e-05
1020	0.000261655259734
1021	0.00107760988985
1022	0.00354519406597
1023	0.0234901628698
