0	0.875535607722
1	0.00436454230514
2	0.00807685369437
3	0.000917132627378
4	0.00047313506372
5	8.85464810575e-05
6	1.17234034958e-05
7	2.58141852905e-06
8	2.64977467274e-06
9	1.38960353929e-06
10	8.72259939033e-07
11	1.90545979277e-07
12	4.89487287457e-07
13	1.77407167463e-07
14	1.31331818289e-07
15	6.81353236668e-08
16	2.81581641772e-08
17	2.88802106385e-08
18	1.50462610493e-08
19	2.09399818115e-08
20	1.21580037355e-08
21	1.00080461463e-08
22	1.06559360584e-08
23	8.85792035084e-09
24	7.88273304651e-09
25	5.04313351606e-09
26	3.75657100186e-09
27	2.78295906299e-09
28	1.27467961734e-09
29	1.21848190211e-09
30	1.440912499e-09
31	5.14909638296e-10
32	4.65652277452e-10
33	2.29452039125e-10
34	3.01465939405e-10
35	2.0965398207e-10
36	2.41587277185e-10
37	2.29709345612e-10
38	1.31398666971e-10
39	1.87423804333e-10
40	7.2908495096e-11
41	9.49587822705e-11
42	7.67199059462e-11
43	5.9226315146e-11
44	7.30554307834e-11
45	5.05561175601e-11
46	5.06835460881e-11
47	4.13092446012e-11
48	4.0675576199e-11
49	3.61032005658e-11
50	3.94043283236e-11
51	3.1459458533e-11
52	3.98148367684e-11
53	3.17231510398e-11
54	3.43628120144e-11
55	3.2770459683e-11
56	2.95268067799e-11
57	3.07558096292e-11
58	2.25374274066e-11
59	2.03743930724e-11
60	2.1291702231e-11
61	1.61655776822e-11
62	1.93948721403e-11
63	1.73134552074e-11
64	1.27906289309e-11
65	1.56786845534e-11
66	9.1377361953e-12
67	1.10816931668e-11
68	8.33112382796e-12
69	7.64250763931e-12
70	7.45149397781e-12
71	4.74245486239e-12
72	6.73895825671e-12
73	5.15906895474e-12
74	6.38586524216e-12
75	6.34435876085e-12
76	5.36532115304e-12
77	5.43284514385e-12
78	4.25575397083e-12
79	4.25355001192e-12
80	4.05190891773e-12
81	3.74345849903e-12
82	2.7613878757e-12
83	2.60805768485e-12
84	2.14234752101e-12
85	2.26530470423e-12
86	2.01618293237e-12
87	2.02776631328e-12
88	1.95650201187e-12
89	1.5833109854e-12
90	1.69511104048e-12
91	1.58959982572e-12
92	1.52482380656e-12
93	1.27466911336e-12
94	1.29954647948e-12
95	1.27170936545e-12
96	9.74516239478e-13
97	9.27218568355e-13
98	7.78873372276e-13
99	6.69804267917e-13
100	5.73718711858e-13
101	5.02548772098e-13
102	4.49001137609e-13
103	4.76421642913e-13
104	3.79771213757e-13
105	4.18396304863e-13
106	3.3105884525e-13
107	3.11152730399e-13
108	2.83184594474e-13
109	2.31883641687e-13
110	2.53563098566e-13
111	1.99677607767e-13
112	1.97214283546e-13
113	1.5783809566e-13
114	1.7430620732e-13
115	1.34955537058e-13
116	1.33945876354e-13
117	1.30651486871e-13
118	1.04259267527e-13
119	1.26137874388e-13
120	8.70544223146e-14
121	1.17146803169e-13
122	8.02242030443e-14
123	9.23196826035e-14
124	7.94918672531e-14
125	6.30882579253e-14
126	6.95883090563e-14
127	4.17777328017e-14
128	6.04365050358e-14
129	3.73042007693e-14
130	5.14691447955e-14
131	3.8591613151e-14
132	4.48389822971e-14
133	4.30571858536e-14
134	4.05775944801e-14
135	4.526708226e-14
136	3.50684684665e-14
137	4.28764348696e-14
138	3.22852081427e-14
139	3.65003595865e-14
140	2.8739771147e-14
141	2.80071807947e-14
142	2.35600136981e-14
143	1.94728195154e-14
144	1.83906481803e-14
145	1.46926942698e-14
146	1.47055573734e-14
147	1.27489279978e-14
148	1.2605805669e-14
149	1.19882760186e-14
150	1.10004952355e-14
151	1.11019044147e-14
152	9.8315338327e-15
153	9.64997419639e-15
154	8.74253913986e-15
155	7.79810930707e-15
156	7.37144979586e-15
157	6.49207328737e-15
158	6.09171358128e-15
159	5.34200933627e-15
160	5.03103631718e-15
161	4.73837414887e-15
162	4.13008473029e-15
163	4.5458406777e-15
164	3.78837048032e-15
165	4.44297240373e-15
166	3.86965165982e-15
167	4.13820995673e-15
168	3.9713820739e-15
169	3.66202266489e-15
170	3.81775583154e-15
171	3.13930228144e-15
172	3.44905653268e-15
173	2.65956178735e-15
174	2.9633026736e-15
175	2.32931106523e-15
176	2.4600340244e-15
177	2.11295102338e-15
178	2.02499319211e-15
179	1.98600704249e-15
180	1.70108844636e-15
181	1.88280030247e-15
182	1.52453132009e-15
183	1.71639031391e-15
184	1.44397250418e-15
185	1.50590822583e-15
186	1.37136404083e-15
187	1.29344831834e-15
188	1.27396190465e-15
189	1.12093426053e-15
190	1.15045730857e-15
191	1.01079589269e-15
192	1.02787230444e-15
193	9.48863362651e-16
194	9.31670715308e-16
195	9.1245135245e-16
196	8.67121408559e-16
197	8.78512144084e-16
198	8.21912861759e-16
199	8.28879544937e-16
200	7.77533078893e-16
201	7.59748502531e-16
202	7.19192971964e-16
203	6.76890454612e-16
204	6.46160598677e-16
205	5.92870789251e-16
206	5.65306052693e-16
207	5.15922131084e-16
208	4.88029741349e-16
209	4.50342659798e-16
210	4.21038394002e-16
211	3.97403332758e-16
212	3.68051870961e-16
213	3.53545705957e-16
214	3.27893645909e-16
215	3.14816244452e-16
216	2.94268209565e-16
217	2.78373924658e-16
218	2.61469267259e-16
219	2.4331094459e-16
220	2.28071405424e-16
221	2.10599861889e-16
222	1.9625459358e-16
223	1.8158187118e-16
224	1.68686834006e-16
225	1.57142448841e-16
226	1.46165349035e-16
227	1.37269212477e-16
228	1.28353031322e-16
229	1.21291024877e-16
230	1.14425487299e-16
231	1.08370476353e-16
232	1.03263212506e-16
233	9.7808147614e-17
234	9.37277971361e-17
235	8.89857013402e-17
236	8.52540990154e-17
237	8.14300595047e-17
238	7.78717525575e-17
239	7.49143976007e-17
240	7.17983471626e-17
241	6.93931190051e-17
242	6.69290324041e-17
243	6.47708142959e-17
244	6.28789403894e-17
245	6.07994014723e-17
246	5.9219070829e-17
247	5.71483934697e-17
248	5.56552860344e-17
249	5.35985200502e-17
250	5.20477215405e-17
251	5.00531357223e-17
252	4.83687352817e-17
253	4.65281639426e-17
254	4.47145594459e-17
255	4.30544724248e-17
256	4.11849452238e-17
257	3.96709450049e-17
258	3.78630047336e-17
259	3.64144750192e-17
260	3.4729589911e-17
261	3.32973097352e-17
262	3.17477268322e-17
263	3.0330777987e-17
264	2.88848531822e-17
265	2.75037149437e-17
266	2.61464442549e-17
267	2.48310996057e-17
268	2.35599690565e-17
269	2.2325679022e-17
270	2.11473586364e-17
271	2.00072829681e-17
272	1.89265694255e-17
273	1.78819245117e-17
274	1.68948206719e-17
275	1.5942783115e-17
276	1.50449083384e-17
277	1.41792346851e-17
278	1.33611609099e-17
279	1.25739404832e-17
280	1.18292538228e-17
281	1.11163581027e-17
282	1.04382970522e-17
283	9.79531004835e-18
284	9.18027799576e-18
285	8.6032332291e-18
286	8.04899353471e-18
287	7.53221790412e-18
288	7.03644731411e-18
289	6.5747013979e-18
290	6.13305231258e-18
291	5.72005121949e-18
292	5.32748509199e-18
293	4.95842542038e-18
294	4.61077278714e-18
295	4.28080987608e-18
296	3.97335578612e-18
297	3.6799131841e-18
298	3.40833655141e-18
299	3.14936925682e-18
300	2.91004312521e-18
301	2.68353467577e-18
302	2.4741595515e-18
303	2.27716049946e-18
304	2.09515137038e-18
305	1.92507540597e-18
306	1.76824377274e-18
307	1.62237174548e-18
308	1.48782360287e-18
309	1.36372508407e-18
310	1.24861556376e-18
311	1.14400397962e-18
312	1.04610655052e-18
313	9.58001651731e-19
314	8.75775494267e-19
315	8.0157553094e-19
316	7.33133687602e-19
317	6.70927830732e-19
318	6.14107463813e-19
319	5.62458993079e-19
320	5.1543422367e-19
321	4.72622618831e-19
322	4.33797423449e-19
323	3.98538308406e-19
324	3.66520372278e-19
325	3.37363589908e-19
326	3.11046746228e-19
327	2.86916889411e-19
328	2.65189978624e-19
329	2.45223324977e-19
330	2.27153429254e-19
331	2.10527079744e-19
332	1.95466753487e-19
333	1.81575530567e-19
334	1.68841989159e-19
335	1.57177078654e-19
336	1.46301704538e-19
337	1.36479221863e-19
338	1.27041985519e-19
339	1.18700674249e-19
340	1.10463112325e-19
341	1.03290213512e-19
342	9.60549802843e-20
343	8.98101644624e-20
344	8.34450964555e-20
345	7.79261734225e-20
346	7.23942275e-20
347	6.73958379157e-20
348	6.26240873028e-20
349	5.8065157021e-20
350	5.39978317084e-20
351	4.98263925756e-20
352	4.63163942765e-20
353	4.2612870205e-20
354	3.95105817787e-20
355	3.63160179051e-20
356	3.349288258e-20
357	3.081181494e-20
358	2.82622033094e-20
359	2.60023267492e-20
360	2.37320849435e-20
361	2.18336074219e-20
362	1.98663043722e-20
363	1.82253387565e-20
364	1.65777619457e-20
365	1.515193655e-20
366	1.38010353702e-20
367	1.2549190113e-20
368	1.14732222691e-20
369	1.03765084458e-20
370	9.52412880811e-21
371	8.58599845342e-21
372	7.90142889679e-21
373	7.12630610656e-21
374	6.55430766802e-21
375	5.94495200826e-21
376	5.45462912913e-21
377	4.98080876695e-21
378	4.56722599117e-21
379	4.19973354208e-21
380	3.85833410426e-21
381	3.55727580952e-21
382	3.29297458302e-21
383	3.03971348208e-21
384	2.83443819841e-21
385	2.62368085933e-21
386	2.46316460963e-21
387	2.28901897827e-21
388	2.15820627566e-21
389	2.01618445436e-21
390	1.90790531401e-21
391	1.79044957175e-21
392	1.70027128706e-21
393	1.6004679527e-21
394	1.5240179613e-21
395	1.43983185903e-21
396	1.37356506436e-21
397	1.29909170071e-21
398	1.24226821627e-21
399	1.17644735184e-21
400	1.12673259567e-21
401	1.06608628378e-21
402	1.02256308391e-21
403	9.6900990529e-22
404	9.26822765186e-22
405	8.79656143981e-22
406	8.4013308888e-22
407	7.98652777424e-22
408	7.62975034037e-22
409	7.21363637277e-22
410	6.92597466738e-22
411	6.50638962839e-22
412	6.27764803018e-22
413	5.85913222337e-22
414	5.67129645546e-22
415	5.28497531997e-22
416	5.10086353576e-22
417	4.75181201319e-22
418	4.59159301411e-22
419	4.26716373688e-22
420	4.13085876936e-22
421	3.81720559786e-22
422	3.71808290669e-22
423	3.42634236719e-22
424	3.33397808908e-22
425	3.08001832115e-22
426	2.97867067699e-22
427	2.77475437068e-22
428	2.65762148716e-22
429	2.49189583706e-22
430	2.37106264068e-22
431	2.23628088386e-22
432	2.1157275949e-22
433	1.99934846743e-22
434	1.8907386721e-22
435	1.78749721786e-22
436	1.68560184457e-22
437	1.59109595703e-22
438	1.50079547507e-22
439	1.41090096496e-22
440	1.338391615e-22
441	1.25245884833e-22
442	1.19334155351e-22
443	1.11972658401e-22
444	1.06986909183e-22
445	1.01478156273e-22
446	9.5409540121e-23
447	9.2226978154e-23
448	8.46547297293e-23
449	8.29697966839e-23
450	7.53254576556e-23
451	7.47574660149e-23
452	6.76892890604e-23
453	6.68258870996e-23
454	6.1166957782e-23
455	5.93116355231e-23
456	5.50932343386e-23
457	5.34599431739e-23
458	4.87719027481e-23
459	4.87277446728e-23
460	4.34048779868e-23
461	4.34000416941e-23
462	3.90337564359e-23
463	3.8718413457e-23
464	3.53515993592e-23
465	3.5057235937e-23
466	3.22140874594e-23
467	3.23248895757e-23
468	2.94620399694e-23
469	2.98153126507e-23
470	2.65658703242e-23
471	2.7143354964e-23
472	2.44678621246e-23
473	2.3841821574e-23
474	2.34999471586e-23
475	2.11633489821e-23
476	2.21040441951e-23
477	1.96776240332e-23
478	2.03475706066e-23
479	1.87137114274e-23
480	1.89149516009e-23
481	1.72170517795e-23
482	1.78287932922e-23
483	1.57203894098e-23
484	1.65360825848e-23
485	1.49738377121e-23
486	1.52534374194e-23
487	1.4713351038e-23
488	1.40528579496e-23
489	1.44172687722e-23
490	1.29780105148e-23
491	1.40673056907e-23
492	1.21038171491e-23
493	1.37835683226e-23
494	1.17451959968e-23
495	1.34659018599e-23
496	1.15562558911e-23
497	1.29344461084e-23
498	1.14333800203e-23
499	1.24933241971e-23
500	1.14827262643e-23
501	1.21194504732e-23
502	1.16320994104e-23
503	1.16614266292e-23
504	1.18769307168e-23
505	1.12370094458e-23
506	1.21372389086e-23
507	1.10353338236e-23
508	1.21943429698e-23
509	1.09099666817e-23
510	1.22303832139e-23
511	1.06712728461e-23
512	1.21347183999e-23
513	1.06712732611e-23
514	1.2230388723e-23
515	1.09099671277e-23
516	1.21943430998e-23
517	1.10353336468e-23
518	1.21372388092e-23
519	1.12370097965e-23
520	1.18769307837e-23
521	1.16614267935e-23
522	1.16320995992e-23
523	1.21194507282e-23
524	1.14827263281e-23
525	1.24933242077e-23
526	1.14333797956e-23
527	1.29344463483e-23
528	1.15562559054e-23
529	1.34659021608e-23
530	1.17451959202e-23
531	1.37835683731e-23
532	1.21038170903e-23
533	1.40673057644e-23
534	1.29780104614e-23
535	1.44172689756e-23
536	1.40528579382e-23
537	1.47133513564e-23
538	1.52534374631e-23
539	1.49738376471e-23
540	1.65360825837e-23
541	1.57203891299e-23
542	1.78287921638e-23
543	1.72170519622e-23
544	1.89149516004e-23
545	1.87137121119e-23
546	2.03475704931e-23
547	1.96776240572e-23
548	2.21040441205e-23
549	2.11633485169e-23
550	2.34999473421e-23
551	2.38418217689e-23
552	2.44678621253e-23
553	2.71433547896e-23
554	2.65658706199e-23
555	2.98153126184e-23
556	2.94620400012e-23
557	3.2324889418e-23
558	3.22140875312e-23
559	3.50572364966e-23
560	3.53515993521e-23
561	3.8718414111e-23
562	3.90337567867e-23
563	4.34000420365e-23
564	4.34048778881e-23
565	4.87277453232e-23
566	4.87719029521e-23
567	5.34599435209e-23
568	5.50932344232e-23
569	5.93116355792e-23
570	6.11669577082e-23
571	6.6825886314e-23
572	6.76892885811e-23
573	7.4757467125e-23
574	7.53254598168e-23
575	8.29697979066e-23
576	8.46547297297e-23
577	9.22269804294e-23
578	9.54095372344e-23
579	1.01478155257e-22
580	1.06986908796e-22
581	1.11972658699e-22
582	1.19334153392e-22
583	1.25245884675e-22
584	1.33839161413e-22
585	1.41090096096e-22
586	1.50079548155e-22
587	1.59109595138e-22
588	1.6856018415e-22
589	1.78749721935e-22
590	1.89073865832e-22
591	1.99934844966e-22
592	2.11572759503e-22
593	2.23628086096e-22
594	2.3710626382e-22
595	2.49189582449e-22
596	2.65762148692e-22
597	2.77475436786e-22
598	2.97867066499e-22
599	3.08001833861e-22
600	3.33397808954e-22
601	3.4263423671e-22
602	3.71808291185e-22
603	3.8172055906e-22
604	4.1308587688e-22
605	4.26716370965e-22
606	4.59159300037e-22
607	4.75181204834e-22
608	5.10086353576e-22
609	5.28497533435e-22
610	5.67129649571e-22
611	5.85913223053e-22
612	6.27764802447e-22
613	6.50638965632e-22
614	6.92597467019e-22
615	7.21363638939e-22
616	7.62975033971e-22
617	7.98652776253e-22
618	8.40133087656e-22
619	8.79656145154e-22
620	9.26822764188e-22
621	9.69009902871e-22
622	1.02256308607e-21
623	1.06608627868e-21
624	1.12673259566e-21
625	1.17644735313e-21
626	1.24226821886e-21
627	1.2990916987e-21
628	1.37356506422e-21
629	1.43983185869e-21
630	1.52401795975e-21
631	1.60046795614e-21
632	1.70027128664e-21
633	1.79044957191e-21
634	1.90790530914e-21
635	2.0161844558e-21
636	2.15820627603e-21
637	2.28901897111e-21
638	2.46316461008e-21
639	2.62368084205e-21
640	2.83443819841e-21
641	3.03971347238e-21
642	3.29297457758e-21
643	3.55727580648e-21
644	3.8583341105e-21
645	4.19973354398e-21
646	4.56722598643e-21
647	4.98080876582e-21
648	5.45462912976e-21
649	5.94495200155e-21
650	6.55430766941e-21
651	7.12630610552e-21
652	7.90142889659e-21
653	8.58599844791e-21
654	9.52412881237e-21
655	1.03765084458e-20
656	1.14732222692e-20
657	1.25491901043e-20
658	1.38010353793e-20
659	1.51519365496e-20
660	1.65777619453e-20
661	1.82253387487e-20
662	1.98663043631e-20
663	2.18336074253e-20
664	2.37320849434e-20
665	2.60023267517e-20
666	2.82622033034e-20
667	3.08118149426e-20
668	3.34928825797e-20
669	3.63160179197e-20
670	3.95105817875e-20
671	4.26128701334e-20
672	4.63163942765e-20
673	4.98263925158e-20
674	5.39978317007e-20
675	5.80651569884e-20
676	6.2624087307e-20
677	6.73958379197e-20
678	7.23942275182e-20
679	7.79261734461e-20
680	8.34450964566e-20
681	8.98101644598e-20
682	9.60549803002e-20
683	1.0329021351e-19
684	1.10463112325e-19
685	1.18700674219e-19
686	1.27041985462e-19
687	1.36479221852e-19
688	1.46301704538e-19
689	1.57177078592e-19
690	1.68841989184e-19
691	1.81575530536e-19
692	1.95466753497e-19
693	2.10527079781e-19
694	2.27153429248e-19
695	2.45223325036e-19
696	2.65189978623e-19
697	2.86916889428e-19
698	3.11046746259e-19
699	3.37363589894e-19
700	3.66520372234e-19
701	3.98538308313e-19
702	4.33797423534e-19
703	4.72622618834e-19
704	5.1543422367e-19
705	5.62458993102e-19
706	6.14107463862e-19
707	6.70927830775e-19
708	7.33133687569e-19
709	8.01575530974e-19
710	8.75775494302e-19
711	9.5800165174e-19
712	1.04610655052e-18
713	1.14400397967e-18
714	1.24861556376e-18
715	1.36372508407e-18
716	1.48782360288e-18
717	1.62237174553e-18
718	1.76824377289e-18
719	1.92507540636e-18
720	2.09515137038e-18
721	2.27716049961e-18
722	2.47415955158e-18
723	2.68353467576e-18
724	2.91004312528e-18
725	3.14936925676e-18
726	3.40833655141e-18
727	3.67991318395e-18
728	3.97335578613e-18
729	4.28080987599e-18
730	4.61077278721e-18
731	4.95842542027e-18
732	5.32748509202e-18
733	5.72005121942e-18
734	6.13305231274e-18
735	6.57470139818e-18
736	7.03644731411e-18
737	7.53221790498e-18
738	8.04899353452e-18
739	8.60323322915e-18
740	9.18027799567e-18
741	9.7953100485e-18
742	1.04382970522e-17
743	1.11163581026e-17
744	1.18292538228e-17
745	1.25739404832e-17
746	1.33611609102e-17
747	1.41792346853e-17
748	1.50449083384e-17
749	1.5942783115e-17
750	1.68948206723e-17
751	1.78819245115e-17
752	1.89265694255e-17
753	2.00072829682e-17
754	2.11473586358e-17
755	2.23256790223e-17
756	2.35599690565e-17
757	2.48310996054e-17
758	2.61464442546e-17
759	2.75037149434e-17
760	2.88848531822e-17
761	3.03307779866e-17
762	3.17477268323e-17
763	3.32973097345e-17
764	3.472958991e-17
765	3.64144750195e-17
766	3.7863004732e-17
767	3.96709450054e-17
768	4.11849452238e-17
769	4.30544724242e-17
770	4.47145594494e-17
771	4.6528163942e-17
772	4.8368735281e-17
773	5.00531357222e-17
774	5.20477215412e-17
775	5.35985200504e-17
776	5.56552860344e-17
777	5.71483934699e-17
778	5.92190708296e-17
779	6.07994014724e-17
780	6.28789403896e-17
781	6.47708142954e-17
782	6.69290324035e-17
783	6.9393119004e-17
784	7.17983471626e-17
785	7.49143976007e-17
786	7.78717525577e-17
787	8.14300595039e-17
788	8.52540990154e-17
789	8.898570134e-17
790	9.37277971366e-17
791	9.78081476132e-17
792	1.03263212506e-16
793	1.08370476352e-16
794	1.144254873e-16
795	1.21291024876e-16
796	1.28353031322e-16
797	1.37269212477e-16
798	1.46165349035e-16
799	1.5714244884e-16
800	1.68686834006e-16
801	1.81581871181e-16
802	1.96254593576e-16
803	2.10599861889e-16
804	2.28071405425e-16
805	2.43310944589e-16
806	2.6146926726e-16
807	2.78373924658e-16
808	2.94268209565e-16
809	3.14816244452e-16
810	3.2789364591e-16
811	3.53545705958e-16
812	3.68051870961e-16
813	3.97403332757e-16
814	4.21038394005e-16
815	4.50342659798e-16
816	4.88029741349e-16
817	5.15922131084e-16
818	5.65306052695e-16
819	5.92870789252e-16
820	6.46160598678e-16
821	6.76890454611e-16
822	7.19192971964e-16
823	7.59748502532e-16
824	7.77533078893e-16
825	8.28879544939e-16
826	8.21912861758e-16
827	8.78512144084e-16
828	8.67121408562e-16
829	9.12451352455e-16
830	9.31670715314e-16
831	9.48863362652e-16
832	1.02787230444e-15
833	1.01079589269e-15
834	1.15045730857e-15
835	1.12093426054e-15
836	1.27396190466e-15
837	1.29344831834e-15
838	1.37136404083e-15
839	1.50590822583e-15
840	1.44397250418e-15
841	1.71639031391e-15
842	1.52453132009e-15
843	1.88280030247e-15
844	1.70108844636e-15
845	1.9860070425e-15
846	2.02499319211e-15
847	2.11295102338e-15
848	2.4600340244e-15
849	2.32931106523e-15
850	2.96330267361e-15
851	2.65956178735e-15
852	3.44905653268e-15
853	3.13930228143e-15
854	3.81775583154e-15
855	3.66202266489e-15
856	3.9713820739e-15
857	4.13820995673e-15
858	3.86965165982e-15
859	4.44297240373e-15
860	3.78837048032e-15
861	4.54584067769e-15
862	4.13008473027e-15
863	4.73837414887e-15
864	5.03103631718e-15
865	5.34200933625e-15
866	6.09171358128e-15
867	6.49207328737e-15
868	7.37144979586e-15
869	7.79810930707e-15
870	8.74253913986e-15
871	9.64997419639e-15
872	9.8315338327e-15
873	1.11019044147e-14
874	1.10004952355e-14
875	1.19882760186e-14
876	1.2605805669e-14
877	1.27489279978e-14
878	1.47055573734e-14
879	1.46926942698e-14
880	1.83906481803e-14
881	1.94728195154e-14
882	2.35600136981e-14
883	2.80071807947e-14
884	2.8739771147e-14
885	3.65003595865e-14
886	3.22852081427e-14
887	4.28764348696e-14
888	3.50684684665e-14
889	4.526708226e-14
890	4.05775944801e-14
891	4.30571858536e-14
892	4.4838982297e-14
893	3.8591613151e-14
894	5.14691447956e-14
895	3.73042007694e-14
896	6.04365050358e-14
897	4.17777328017e-14
898	6.95883090561e-14
899	6.30882579253e-14
900	7.94918672531e-14
901	9.23196826035e-14
902	8.02242030443e-14
903	1.17146803169e-13
904	8.70544223146e-14
905	1.26137874388e-13
906	1.04259267527e-13
907	1.30651486872e-13
908	1.33945876354e-13
909	1.34955537058e-13
910	1.7430620732e-13
911	1.5783809566e-13
912	1.97214283546e-13
913	1.99677607767e-13
914	2.53563098567e-13
915	2.31883641687e-13
916	2.83184594474e-13
917	3.11152730399e-13
918	3.3105884525e-13
919	4.18396304863e-13
920	3.79771213757e-13
921	4.76421642913e-13
922	4.49001137609e-13
923	5.02548772098e-13
924	5.73718711858e-13
925	6.69804267917e-13
926	7.78873372277e-13
927	9.27218568355e-13
928	9.74516239478e-13
929	1.27170936545e-12
930	1.29954647947e-12
931	1.27466911336e-12
932	1.52482380656e-12
933	1.58959982572e-12
934	1.69511104048e-12
935	1.5833109854e-12
936	1.95650201187e-12
937	2.02776631328e-12
938	2.01618293237e-12
939	2.26530470423e-12
940	2.14234752101e-12
941	2.60805768485e-12
942	2.7613878757e-12
943	3.74345849903e-12
944	4.05190891773e-12
945	4.25355001192e-12
946	4.25575397083e-12
947	5.43284514385e-12
948	5.36532115304e-12
949	6.34435876085e-12
950	6.38586524216e-12
951	5.15906895474e-12
952	6.73895825671e-12
953	4.74245486239e-12
954	7.45149397781e-12
955	7.64250763931e-12
956	8.33112382796e-12
957	1.10816931668e-11
958	9.1377361953e-12
959	1.56786845534e-11
960	1.27906289309e-11
961	1.73134552074e-11
962	1.93948721403e-11
963	1.61655776822e-11
964	2.1291702231e-11
965	2.03743930724e-11
966	2.25374274066e-11
967	3.07558096292e-11
968	2.95268067799e-11
969	3.2770459683e-11
970	3.43628120144e-11
971	3.17231510398e-11
972	3.98148367684e-11
973	3.1459458533e-11
974	3.94043283236e-11
975	3.61032005658e-11
976	4.0675576199e-11
977	4.13092446012e-11
978	5.06835460881e-11
979	5.05561175601e-11
980	7.30554307834e-11
981	5.9226315146e-11
982	7.67199059462e-11
983	9.49587822705e-11
984	7.2908495096e-11
985	1.87423804333e-10
986	1.31398666971e-10
987	2.29709345612e-10
988	2.41587277185e-10
989	2.0965398207e-10
990	3.01465939405e-10
991	2.29452039125e-10
992	4.65652277452e-10
993	5.14909638296e-10
994	1.440912499e-09
995	1.21848190211e-09
996	1.27467961734e-09
997	2.78295906299e-09
998	3.75657100186e-09
999	5.04313351606e-09
1000	7.88273304651e-09
1001	8.85792035084e-09
1002	1.06559360584e-08
1003	1.00080461463e-08
1004	1.21580037355e-08
1005	2.09399818115e-08
1006	1.50462610493e-08
1007	2.88802106385e-08
1008	2.81581641772e-08
1009	6.81353236668e-08
1010	1.31331818289e-07
1011	1.77407167463e-07
1012	4.89487287457e-07
1013	1.90545979277e-07
1014	8.72259939033e-07
1015	1.38960353929e-06
1016	2.64977467274e-06
1017	2.58141852905e-06
1018	1.17234034958e-05
1019	8.85464810575e-05
1020	0.00047313506372
1021	0.000917132627378
1022	0.00807685369437
1023	0.00436454230514
