0	0.883912091027
1	6.13349906454e-05
2	0.0101991341203
3	1.54893468694e-05
4	0.000822886678521
5	1.96097598641e-06
6	2.53309554873e-05
7	2.04255159981e-07
8	4.48951286736e-06
9	1.47549535139e-07
10	1.47827641929e-06
11	6.03090109098e-08
12	6.02867486343e-07
13	3.90620926817e-08
14	2.57285577516e-07
15	1.79432600598e-08
16	7.11031868292e-08
17	9.15572295231e-09
18	4.09361442182e-08
19	7.7993998801e-09
20	3.38821966721e-08
21	5.65670486088e-09
22	2.27341212417e-08
23	4.27648845633e-09
24	1.55144802241e-08
25	2.69281897602e-09
26	6.42745944748e-09
27	6.5813538084e-10
28	3.2320811811e-09
29	5.35276933402e-10
30	1.19793301637e-09
31	4.85227439403e-10
32	7.70505590842e-10
33	3.16221083613e-10
34	4.82176408369e-10
35	2.23099360835e-10
36	2.29246611624e-10
37	1.64441098897e-10
38	2.110076645e-10
39	1.33587930267e-10
40	2.51118983343e-10
41	1.25786405638e-10
42	2.33978979516e-10
43	1.18774170292e-10
44	2.36241402912e-10
45	1.05912348197e-10
46	1.95551472728e-10
47	9.31333664375e-11
48	1.98992945112e-10
49	7.91267888353e-11
50	2.06165358053e-10
51	5.07477939006e-11
52	2.04672019046e-10
53	4.00540984399e-11
54	1.29812523937e-10
55	1.89569973729e-11
56	6.01090226727e-11
57	1.47900088117e-11
58	2.35521012492e-11
59	1.35856815473e-11
60	3.08186357064e-11
61	1.34800921658e-11
62	4.71387132698e-11
63	1.41699464332e-11
64	3.91172725199e-11
65	1.30940153636e-11
66	2.83697534242e-11
67	1.40256993583e-11
68	2.99284065317e-11
69	1.0473284652e-11
70	2.79767795837e-11
71	6.74832200203e-12
72	2.1042654844e-11
73	5.40338264618e-12
74	1.29128399704e-11
75	4.31057304082e-12
76	7.06065699023e-12
77	3.76850406711e-12
78	6.37617041512e-12
79	3.83924722353e-12
80	6.42361171593e-12
81	4.07997887681e-12
82	5.07382772195e-12
83	3.74617477062e-12
84	4.05148901901e-12
85	2.06598569166e-12
86	3.24642961621e-12
87	1.68925130318e-12
88	2.88956305401e-12
89	1.40375377854e-12
90	2.95333235772e-12
91	1.31093783705e-12
92	2.45669980956e-12
93	1.27121605159e-12
94	1.27581451588e-12
95	9.70820421071e-13
96	9.37910327206e-13
97	9.2258223392e-13
98	1.23283375216e-12
99	8.2578555387e-13
100	1.08203634488e-12
101	7.35468835237e-13
102	8.55423514763e-13
103	6.66249945378e-13
104	9.16815070503e-13
105	5.86701382964e-13
106	8.95603536803e-13
107	5.86907431379e-13
108	7.55575974821e-13
109	5.97942185993e-13
110	6.54218448258e-13
111	5.20057097634e-13
112	6.13949401008e-13
113	4.54200760396e-13
114	5.69316121184e-13
115	3.84871564398e-13
116	4.47062694455e-13
117	3.03101070238e-13
118	3.31608869205e-13
119	2.39376508062e-13
120	3.03913717567e-13
121	1.86390073947e-13
122	2.85047648578e-13
123	1.52829822778e-13
124	2.52634830612e-13
125	1.36596980375e-13
126	2.46293078905e-13
127	1.32834796898e-13
128	2.32602265872e-13
129	1.30091833128e-13
130	1.98308539996e-13
131	1.25410510093e-13
132	1.60372829829e-13
133	1.09508710205e-13
134	1.17004755335e-13
135	8.50896512627e-14
136	7.33706499579e-14
137	6.02200390995e-14
138	4.37580597684e-14
139	3.96594285253e-14
140	3.1567152674e-14
141	2.97791340554e-14
142	3.11252500197e-14
143	2.63906557e-14
144	3.24621424061e-14
145	2.4090043355e-14
146	3.2922487665e-14
147	2.18738143088e-14
148	3.3999950198e-14
149	2.08255610925e-14
150	3.5273126461e-14
151	2.01598224397e-14
152	3.39249426889e-14
153	1.7645106657e-14
154	2.86069404911e-14
155	1.37894961136e-14
156	2.30470547754e-14
157	1.02074113177e-14
158	1.96450376544e-14
159	7.63190826949e-15
160	1.72132636371e-14
161	5.69363256092e-15
162	1.46139756874e-14
163	4.01066472309e-15
164	1.17302326845e-14
165	2.67550301933e-15
166	8.75590925388e-15
167	1.84945891674e-15
168	6.21338503765e-15
169	1.59032290539e-15
170	4.38062858071e-15
171	1.65958223387e-15
172	2.93686174949e-15
173	1.75035957507e-15
174	1.78032638881e-15
175	1.7850523088e-15
176	1.13315100646e-15
177	1.83188571347e-15
178	1.05541832055e-15
179	1.8707844886e-15
180	1.40303689381e-15
181	1.79222100834e-15
182	1.96934277502e-15
183	1.58310023715e-15
184	2.69495426092e-15
185	1.39924826116e-15
186	3.58583647636e-15
187	1.35886923809e-15
188	4.47257198017e-15
189	1.42273155993e-15
190	5.13928775201e-15
191	1.4902060499e-15
192	5.55688854269e-15
193	1.51586619827e-15
194	5.73376371851e-15
195	1.5115876621e-15
196	5.72154252093e-15
197	1.47633875763e-15
198	5.4945097357e-15
199	1.38981847171e-15
200	5.09536831667e-15
201	1.23789611334e-15
202	4.56241019327e-15
203	1.04372630813e-15
204	3.97458701021e-15
205	8.49203224325e-16
206	3.3788255988e-15
207	6.86678030659e-16
208	2.80714875793e-15
209	5.6135024329e-16
210	2.27820127094e-15
211	4.6393534543e-16
212	1.80158472131e-15
213	3.85388962264e-16
214	1.38980330063e-15
215	3.23662422427e-16
216	1.04631214209e-15
217	2.77334152176e-16
218	7.70132403056e-16
219	2.408705782e-16
220	5.52289103654e-16
221	2.07331754249e-16
222	3.85028396513e-16
223	1.73667405966e-16
224	2.61063756744e-16
225	1.41797574446e-16
226	1.73592260045e-16
227	1.14322677488e-16
228	1.14439060922e-16
229	9.22298606758e-17
230	7.57172108235e-17
231	7.45328018952e-17
232	5.10328356347e-17
233	6.07785805271e-17
234	3.6051572556e-17
235	5.07019809191e-17
236	2.71943646936e-17
237	4.4326104923e-17
238	2.24417855572e-17
239	4.09375540819e-17
240	1.98746703473e-17
241	3.972229756e-17
242	1.89296622737e-17
243	4.0001549576e-17
244	1.88231953913e-17
245	4.11536283261e-17
246	1.93205268117e-17
247	4.23435139934e-17
248	1.99392092784e-17
249	4.25483677592e-17
250	2.06968073136e-17
251	4.11866665223e-17
252	2.15243303467e-17
253	3.83153413278e-17
254	2.25343656146e-17
255	3.46112436004e-17
256	2.35074762112e-17
257	3.06547405577e-17
258	2.42166169853e-17
259	2.68243269153e-17
260	2.43681473535e-17
261	2.32055826158e-17
262	2.38589856271e-17
263	1.99092036931e-17
264	2.26568538382e-17
265	1.69856623472e-17
266	2.08396099836e-17
267	1.44358605382e-17
268	1.85190522943e-17
269	1.21292098799e-17
270	1.58944615907e-17
271	9.9791025797e-18
272	1.31968932199e-17
273	7.96405174123e-18
274	1.06600724859e-17
275	6.18340653082e-18
276	8.4504536583e-18
277	4.71977534387e-18
278	6.66787928662e-18
279	3.63666402722e-18
280	5.34611857447e-18
281	2.92205655699e-18
282	4.47913464377e-18
283	2.537571911e-18
284	4.02259207232e-18
285	2.40567807593e-18
286	3.91174736254e-18
287	2.44815813758e-18
288	4.06517881591e-18
289	2.5833425612e-18
290	4.39858230392e-18
291	2.75466309096e-18
292	4.82767981823e-18
293	2.91479047324e-18
294	5.27329801866e-18
295	3.03631200587e-18
296	5.66930750554e-18
297	3.09528725434e-18
298	5.96469551321e-18
299	3.0871126526e-18
300	6.12752130872e-18
301	3.01504118404e-18
302	6.14214430647e-18
303	2.89286852954e-18
304	6.006392355e-18
305	2.72983459955e-18
306	5.73127359531e-18
307	2.53492421274e-18
308	5.33811783202e-18
309	2.31406380562e-18
310	4.85598258171e-18
311	2.07648284194e-18
312	4.3165446308e-18
313	1.83229697875e-18
314	3.75061104912e-18
315	1.59066415688e-18
316	3.18547786151e-18
317	1.35889492213e-18
318	2.64444043684e-18
319	1.14231238995e-18
320	2.14553498072e-18
321	9.45257446568e-19
322	1.70080798356e-18
323	7.70573712817e-19
324	1.3168797921e-18
325	6.20204098217e-19
326	9.95274314272e-19
327	4.93860756012e-19
328	7.33964745501e-19
329	3.90100992743e-19
330	5.28124446794e-19
331	3.06864279785e-19
332	3.71220044105e-19
333	2.41675557384e-19
334	2.55591715649e-19
335	1.91984131241e-19
336	1.7358745345e-19
337	1.55100434916e-19
338	1.17909973756e-19
339	1.28588875432e-19
340	8.20708430012e-20
341	1.10008170047e-19
342	6.05934145714e-20
343	9.73588987109e-20
344	4.89748907307e-20
345	8.88043537971e-20
346	4.37268929913e-20
347	8.29078022696e-20
348	4.22544987358e-20
349	7.85772116965e-20
350	4.27502080454e-20
351	7.49995820866e-20
352	4.39724640591e-20
353	7.16765996517e-20
354	4.51385514903e-20
355	6.81674059841e-20
356	4.57745274647e-20
357	6.43513974318e-20
358	4.56409496148e-20
359	6.00613371481e-20
360	4.46663158862e-20
361	5.54238991531e-20
362	4.28867531245e-20
363	5.03905941086e-20
364	4.0410329412e-20
365	4.51692641766e-20
366	3.73478784454e-20
367	3.9796289005e-20
368	3.38392425966e-20
369	3.45028350098e-20
370	3.00272128107e-20
371	2.93530470408e-20
372	2.60864351809e-20
373	2.45345187573e-20
374	2.21610748884e-20
375	2.00851227903e-20
376	1.83876436352e-20
377	1.61246993457e-20
378	1.48710738492e-20
379	1.26495405191e-20
380	1.16974604253e-20
381	9.71530773889e-21
382	8.93199328081e-21
383	7.26981805391e-21
384	6.61189170594e-21
385	5.30604255452e-21
386	4.74007946232e-21
387	3.75834064896e-21
388	3.29801914504e-21
389	2.5921579305e-21
390	2.24190091928e-21
391	1.73415247437e-21
392	1.52123188612e-21
393	1.14157445719e-21
394	1.07253485701e-21
395	7.46296743958e-22
396	8.35203835328e-22
397	5.03012264159e-22
398	7.4540415905e-22
399	3.61650352507e-22
400	7.49086787099e-22
401	2.87931787993e-22
402	8.00992523393e-22
403	2.54045510398e-22
404	8.6457846107e-22
405	2.3951232825e-22
406	9.14780476071e-22
407	2.34115404284e-22
408	9.36979930788e-22
409	2.27726072768e-22
410	9.22752138036e-22
411	2.18450294967e-22
412	8.73289133118e-22
413	2.01476968993e-22
414	7.93504226735e-22
415	1.81868509992e-22
416	6.92046238594e-22
417	1.58517472559e-22
418	5.79381359701e-22
419	1.36499941948e-22
420	4.63571305139e-22
421	1.16146373635e-22
422	3.529227476e-22
423	9.86885264904e-23
424	2.55176101495e-22
425	8.4475575341e-23
426	1.73456703902e-22
427	7.44349537425e-23
428	1.1029663607e-22
429	6.75855502533e-23
430	6.56977586058e-23
431	6.36829606638e-23
432	3.67833711358e-23
433	6.36368576886e-23
434	2.30073868658e-23
435	6.48575975353e-23
436	2.18967381525e-23
437	6.76198467908e-23
438	2.84371568313e-23
439	7.04463716769e-23
440	4.01641408453e-23
441	7.30986787222e-23
442	5.50044605661e-23
443	7.44824107023e-23
444	6.97133613416e-23
445	7.53759711409e-23
446	8.27729027716e-23
447	7.50783009715e-23
448	9.31648721411e-23
449	7.30136538968e-23
450	1.00332396878e-22
451	7.01985171645e-23
452	1.03983089757e-22
453	6.63415481969e-23
454	1.04273589703e-22
455	6.19325058478e-23
456	1.01558896246e-22
457	5.63992985995e-23
458	9.68825097631e-23
459	5.11037691898e-23
460	9.03371845391e-23
461	4.56091578705e-23
462	8.25112951506e-23
463	4.03743137973e-23
464	7.39017399933e-23
465	3.51565645135e-23
466	6.53430558614e-23
467	3.07261734962e-23
468	5.7214227759e-23
469	2.7009113335e-23
470	5.01697477479e-23
471	2.38348564031e-23
472	4.35267450595e-23
473	2.06817698121e-23
474	3.76496593163e-23
475	1.78160903026e-23
476	3.27749742729e-23
477	1.55216246529e-23
478	2.87230638785e-23
479	1.35580687948e-23
480	2.4970499825e-23
481	1.17555316344e-23
482	2.19684538526e-23
483	1.00334712035e-23
484	1.99442086488e-23
485	8.84811772229e-24
486	1.82070941739e-23
487	8.11025940257e-24
488	1.63850389039e-23
489	7.59804173002e-24
490	1.50048995591e-23
491	7.17691157295e-24
492	1.42155962737e-23
493	7.14481778726e-24
494	1.33889624083e-23
495	7.29155448159e-24
496	1.23331826618e-23
497	7.58976241886e-24
498	1.14226579706e-23
499	7.98974732639e-24
500	1.07967832276e-23
501	8.3521968235e-24
502	1.01607870286e-23
503	8.60793701651e-24
504	9.40456169343e-24
505	8.81132781696e-24
506	8.77211530437e-24
507	8.88390236287e-24
508	8.31249838757e-24
509	9.02643947794e-24
510	7.99787419696e-24
511	9.00259554822e-24
512	7.88555447777e-24
513	9.00259561199e-24
514	7.99787447877e-24
515	9.0264394383e-24
516	8.31249858637e-24
517	8.88390239046e-24
518	8.77211484348e-24
519	8.81132781388e-24
520	9.40456159978e-24
521	8.60793697488e-24
522	1.01607872422e-23
523	8.35219680359e-24
524	1.07967834415e-23
525	7.98974731791e-24
526	1.14226575865e-23
527	7.58976243271e-24
528	1.23331826671e-23
529	7.29155448299e-24
530	1.338896276e-23
531	7.14481778982e-24
532	1.42155965896e-23
533	7.17691158661e-24
534	1.50048992668e-23
535	7.5980417567e-24
536	1.63850388405e-23
537	8.11025939167e-24
538	1.82070948923e-23
539	8.84811769429e-24
540	1.99442090873e-23
541	1.00334712155e-23
542	2.19684538505e-23
543	1.1755531622e-23
544	2.49704998257e-23
545	1.3558068735e-23
546	2.87230641646e-23
547	1.55216246436e-23
548	3.27749742829e-23
549	1.78160902683e-23
550	3.76496593159e-23
551	2.06817698153e-23
552	4.3526745038e-23
553	2.38348563865e-23
554	5.01697475086e-23
555	2.70091133381e-23
556	5.72142278609e-23
557	3.07261735385e-23
558	6.53430554124e-23
559	3.51565644224e-23
560	7.39017399974e-23
561	4.03743138171e-23
562	8.25112951823e-23
563	4.56091578222e-23
564	9.03371843251e-23
565	5.11037691188e-23
566	9.68825100716e-23
567	5.63992985505e-23
568	1.01558896464e-22
569	6.19325057699e-23
570	1.04273589614e-22
571	6.63415481561e-23
572	1.03983088819e-22
573	7.01985172389e-23
574	1.00332397825e-22
575	7.30136540168e-23
576	9.31648721418e-23
577	7.50783007469e-23
578	8.27729040357e-23
579	7.53759711528e-23
580	6.97133626008e-23
581	7.44824106515e-23
582	5.5004460006e-23
583	7.30986787007e-23
584	4.01641406696e-23
585	7.04463716504e-23
586	2.84371563177e-23
587	6.76198468876e-23
588	2.18967381917e-23
589	6.48575975316e-23
590	2.3007386107e-23
591	6.36368575718e-23
592	3.67833711274e-23
593	6.36829606864e-23
594	6.56977585936e-23
595	6.75855502424e-23
596	1.10296636309e-22
597	7.44349537464e-23
598	1.73456704239e-22
599	8.44755752793e-23
600	2.55176101452e-22
601	9.86885264613e-23
602	3.52922747761e-22
603	1.16146373529e-22
604	4.63571304216e-22
605	1.36499941813e-22
606	5.79381356469e-22
607	1.58517472675e-22
608	6.92046238592e-22
609	1.81868510024e-22
610	7.93504226049e-22
611	2.01476969043e-22
612	8.73289131124e-22
613	2.18450295109e-22
614	9.22752135205e-22
615	2.27726072989e-22
616	9.36979930952e-22
617	2.34115404331e-22
618	9.14780475783e-22
619	2.39512328213e-22
620	8.64578461338e-22
621	2.54045510444e-22
622	8.00992521673e-22
623	2.8793178793e-22
624	7.49086787098e-22
625	3.6165035226e-22
626	7.45404161738e-22
627	5.03012264212e-22
628	8.35203834716e-22
629	7.46296744016e-22
630	1.07253485825e-21
631	1.14157445764e-21
632	1.52123188644e-21
633	1.73415247488e-21
634	2.24190092251e-21
635	2.59215793028e-21
636	3.29801915162e-21
637	3.75834064939e-21
638	4.7400794453e-21
639	5.30604255255e-21
640	6.61189170594e-21
641	7.2698180496e-21
642	8.9319932853e-21
643	9.71530773757e-21
644	1.16974604267e-20
645	1.26495405195e-20
646	1.48710738368e-20
647	1.61246993447e-20
648	1.83876436373e-20
649	2.00851227916e-20
650	2.21610749016e-20
651	2.45345187567e-20
652	2.60864351781e-20
653	2.93530470389e-20
654	3.00272127969e-20
655	3.45028350109e-20
656	3.38392425967e-20
657	3.97962890058e-20
658	3.73478784314e-20
659	4.51692641733e-20
660	4.04103294061e-20
661	5.03905941086e-20
662	4.2886753108e-20
663	5.54238991578e-20
664	4.46663158853e-20
665	6.00613371532e-20
666	4.56409496081e-20
667	6.43513974322e-20
668	4.57745274645e-20
669	6.81674059803e-20
670	4.51385514733e-20
671	7.1676599654e-20
672	4.39724640591e-20
673	7.49995820895e-20
674	4.2750208037e-20
675	7.85772116924e-20
676	4.2254498745e-20
677	8.29078022712e-20
678	4.37268929952e-20
679	8.88043538001e-20
680	4.89748907323e-20
681	9.7358898711e-20
682	6.05934145879e-20
683	1.10008170053e-19
684	8.20708429942e-20
685	1.28588875432e-19
686	1.17909973708e-19
687	1.55100434925e-19
688	1.7358745345e-19
689	1.91984131249e-19
690	2.55591715639e-19
691	2.41675557379e-19
692	3.71220044094e-19
693	3.06864279784e-19
694	5.28124446825e-19
695	3.90100992747e-19
696	7.33964745508e-19
697	4.93860756015e-19
698	9.95274314283e-19
699	6.2020409821e-19
700	1.31687979207e-18
701	7.70573712836e-19
702	1.70080798375e-18
703	9.45257446591e-19
704	2.14553498072e-18
705	1.14231238995e-18
706	2.64444043657e-18
707	1.35889492213e-18
708	3.1854778615e-18
709	1.59066415688e-18
710	3.75061104908e-18
711	1.83229697875e-18
712	4.31654463079e-18
713	2.07648284193e-18
714	4.85598258158e-18
715	2.31406380562e-18
716	5.33811783208e-18
717	2.53492421276e-18
718	5.73127359523e-18
719	2.72983459957e-18
720	6.006392355e-18
721	2.89286852956e-18
722	6.14214430659e-18
723	3.01504118404e-18
724	6.12752130874e-18
725	3.08711265261e-18
726	5.96469551337e-18
727	3.09528725434e-18
728	5.66930750553e-18
729	3.03631200588e-18
730	5.27329801878e-18
731	2.91479047326e-18
732	4.82767981827e-18
733	2.75466309096e-18
734	4.39858230404e-18
735	2.5833425612e-18
736	4.06517881591e-18
737	2.44815813758e-18
738	3.91174736222e-18
739	2.40567807592e-18
740	4.02259207238e-18
741	2.53757191098e-18
742	4.47913464375e-18
743	2.922056557e-18
744	5.34611857447e-18
745	3.63666402721e-18
746	6.66787928671e-18
747	4.71977534389e-18
748	8.45045365841e-18
749	6.18340653083e-18
750	1.06600724862e-17
751	7.96405174128e-18
752	1.31968932199e-17
753	9.97910257977e-18
754	1.58944615903e-17
755	1.21292098799e-17
756	1.85190522945e-17
757	1.44358605382e-17
758	2.08396099832e-17
759	1.69856623473e-17
760	2.26568538382e-17
761	1.99092036931e-17
762	2.38589856268e-17
763	2.32055826157e-17
764	2.43681473538e-17
765	2.68243269153e-17
766	2.421661699e-17
767	3.06547405576e-17
768	2.35074762112e-17
769	3.46112436005e-17
770	2.25343656133e-17
771	3.83153413277e-17
772	2.15243303473e-17
773	4.11866665225e-17
774	2.06968073135e-17
775	4.25483677592e-17
776	1.99392092785e-17
777	4.23435139935e-17
778	1.93205268117e-17
779	4.11536283261e-17
780	1.88231953913e-17
781	4.00015495761e-17
782	1.89296622746e-17
783	3.97222975601e-17
784	1.98746703472e-17
785	4.0937554082e-17
786	2.24417855581e-17
787	4.43261049231e-17
788	2.71943646937e-17
789	5.07019809191e-17
790	3.60515725554e-17
791	6.07785805272e-17
792	5.10328356348e-17
793	7.45328018953e-17
794	7.57172108231e-17
795	9.22298606758e-17
796	1.14439060923e-16
797	1.14322677488e-16
798	1.73592260045e-16
799	1.41797574446e-16
800	2.61063756744e-16
801	1.73667405966e-16
802	3.85028396516e-16
803	2.07331754249e-16
804	5.52289103655e-16
805	2.408705782e-16
806	7.70132403055e-16
807	2.77334152175e-16
808	1.04631214209e-15
809	3.23662422427e-16
810	1.38980330063e-15
811	3.85388962265e-16
812	1.80158472131e-15
813	4.6393534543e-16
814	2.27820127094e-15
815	5.6135024329e-16
816	2.80714875793e-15
817	6.86678030658e-16
818	3.37882559881e-15
819	8.49203224325e-16
820	3.97458701021e-15
821	1.04372630813e-15
822	4.56241019326e-15
823	1.23789611334e-15
824	5.09536831667e-15
825	1.38981847171e-15
826	5.49450973571e-15
827	1.47633875763e-15
828	5.72154252092e-15
829	1.5115876621e-15
830	5.73376371852e-15
831	1.51586619827e-15
832	5.55688854269e-15
833	1.4902060499e-15
834	5.139287752e-15
835	1.42273155993e-15
836	4.47257198017e-15
837	1.35886923809e-15
838	3.58583647636e-15
839	1.39924826116e-15
840	2.69495426092e-15
841	1.58310023715e-15
842	1.96934277502e-15
843	1.79222100834e-15
844	1.40303689381e-15
845	1.8707844886e-15
846	1.05541832055e-15
847	1.83188571347e-15
848	1.13315100646e-15
849	1.7850523088e-15
850	1.78032638882e-15
851	1.75035957507e-15
852	2.93686174949e-15
853	1.65958223387e-15
854	4.38062858071e-15
855	1.59032290539e-15
856	6.21338503765e-15
857	1.84945891674e-15
858	8.75590925388e-15
859	2.67550301933e-15
860	1.17302326845e-14
861	4.01066472309e-15
862	1.46139756874e-14
863	5.69363256092e-15
864	1.72132636371e-14
865	7.63190826949e-15
866	1.96450376544e-14
867	1.02074113177e-14
868	2.30470547754e-14
869	1.37894961136e-14
870	2.86069404911e-14
871	1.7645106657e-14
872	3.39249426889e-14
873	2.01598224397e-14
874	3.5273126461e-14
875	2.08255610925e-14
876	3.3999950198e-14
877	2.18738143088e-14
878	3.2922487665e-14
879	2.4090043355e-14
880	3.24621424061e-14
881	2.63906557e-14
882	3.11252500197e-14
883	2.97791340555e-14
884	3.1567152674e-14
885	3.96594285253e-14
886	4.37580597684e-14
887	6.02200390995e-14
888	7.33706499579e-14
889	8.50896512627e-14
890	1.17004755335e-13
891	1.09508710205e-13
892	1.60372829829e-13
893	1.25410510093e-13
894	1.98308539995e-13
895	1.30091833128e-13
896	2.32602265872e-13
897	1.32834796898e-13
898	2.46293078905e-13
899	1.36596980375e-13
900	2.52634830612e-13
901	1.52829822778e-13
902	2.85047648578e-13
903	1.86390073947e-13
904	3.03913717567e-13
905	2.39376508062e-13
906	3.31608869205e-13
907	3.03101070238e-13
908	4.47062694455e-13
909	3.84871564398e-13
910	5.69316121183e-13
911	4.54200760396e-13
912	6.13949401008e-13
913	5.20057097634e-13
914	6.54218448258e-13
915	5.97942185993e-13
916	7.55575974821e-13
917	5.86907431379e-13
918	8.95603536803e-13
919	5.86701382964e-13
920	9.16815070503e-13
921	6.66249945378e-13
922	8.55423514763e-13
923	7.35468835237e-13
924	1.08203634488e-12
925	8.2578555387e-13
926	1.23283375216e-12
927	9.2258223392e-13
928	9.37910327206e-13
929	9.70820421071e-13
930	1.27581451588e-12
931	1.2712160516e-12
932	2.45669980956e-12
933	1.31093783705e-12
934	2.95333235772e-12
935	1.40375377854e-12
936	2.88956305401e-12
937	1.68925130318e-12
938	3.24642961621e-12
939	2.06598569166e-12
940	4.05148901901e-12
941	3.74617477062e-12
942	5.07382772195e-12
943	4.07997887681e-12
944	6.42361171593e-12
945	3.83924722353e-12
946	6.37617041512e-12
947	3.76850406711e-12
948	7.06065699023e-12
949	4.31057304082e-12
950	1.29128399704e-11
951	5.40338264618e-12
952	2.1042654844e-11
953	6.74832200203e-12
954	2.79767795837e-11
955	1.0473284652e-11
956	2.99284065317e-11
957	1.40256993583e-11
958	2.83697534242e-11
959	1.30940153636e-11
960	3.91172725199e-11
961	1.41699464332e-11
962	4.71387132698e-11
963	1.34800921658e-11
964	3.08186357064e-11
965	1.35856815473e-11
966	2.35521012492e-11
967	1.47900088117e-11
968	6.01090226727e-11
969	1.89569973729e-11
970	1.29812523937e-10
971	4.00540984399e-11
972	2.04672019046e-10
973	5.07477939006e-11
974	2.06165358053e-10
975	7.91267888353e-11
976	1.98992945112e-10
977	9.31333664375e-11
978	1.95551472728e-10
979	1.05912348197e-10
980	2.36241402912e-10
981	1.18774170292e-10
982	2.33978979516e-10
983	1.25786405638e-10
984	2.51118983343e-10
985	1.33587930267e-10
986	2.110076645e-10
987	1.64441098897e-10
988	2.29246611624e-10
989	2.23099360835e-10
990	4.82176408369e-10
991	3.16221083613e-10
992	7.70505590842e-10
993	4.85227439403e-10
994	1.19793301637e-09
995	5.35276933402e-10
996	3.2320811811e-09
997	6.5813538084e-10
998	6.42745944748e-09
999	2.69281897602e-09
1000	1.55144802241e-08
1001	4.27648845633e-09
1002	2.27341212417e-08
1003	5.65670486088e-09
1004	3.38821966721e-08
1005	7.7993998801e-09
1006	4.09361442182e-08
1007	9.15572295231e-09
1008	7.11031868292e-08
1009	1.79432600598e-08
1010	2.57285577516e-07
1011	3.90620926817e-08
1012	6.02867486343e-07
1013	6.03090109098e-08
1014	1.47827641929e-06
1015	1.47549535139e-07
1016	4.48951286736e-06
1017	2.04255159981e-07
1018	2.53309554873e-05
1019	1.96097598641e-06
1020	0.000822886678521
1021	1.54893468694e-05
1022	0.0101991341203
1023	6.13349906454e-05
