0	0.780513706911
1	0.0255525439276
2	0.00379970566633
3	0.000722667059845
4	0.00017952104452
5	2.56630403353e-05
6	1.03798231317e-05
7	1.24860690729e-05
8	8.75295451004e-06
9	7.9440593589e-06
10	4.19990579012e-06
11	3.02059979424e-06
12	1.49085608572e-06
13	9.77790749939e-07
14	1.05647645015e-06
15	9.81393787336e-07
16	5.81567745666e-07
17	4.22359571475e-07
18	5.15970626339e-07
19	4.97080512449e-07
20	4.88417030446e-07
21	4.60274134816e-07
22	4.04118792111e-07
23	2.65034055491e-07
24	2.63751334783e-07
25	2.42981125798e-07
26	2.42869021268e-07
27	2.40906855132e-07
28	1.20422821794e-07
29	1.71056087581e-07
30	1.44326269452e-07
31	1.06515310956e-07
32	9.73819407021e-08
33	7.84509826833e-08
34	1.14408245844e-07
35	6.64091900748e-08
36	8.17568995445e-08
37	6.60602412044e-08
38	4.20511198407e-08
39	6.36901393441e-08
40	5.06395990167e-08
41	4.2232275039e-08
42	3.73700874323e-08
43	4.26600867815e-08
44	4.78770821978e-08
45	3.61717209008e-08
46	2.93604367842e-08
47	3.42894368292e-08
48	2.45464696389e-08
49	3.21861883806e-08
50	3.08189569693e-08
51	2.22611722936e-08
52	2.00642339405e-08
53	1.53757598825e-08
54	1.31079183441e-08
55	1.27206071027e-08
56	1.09926737979e-08
57	7.01237908858e-09
58	6.42383577604e-09
59	4.17579269119e-09
60	6.387326295e-09
61	5.29176931896e-09
62	3.5817925539e-09
63	4.44636003762e-09
64	4.45179137383e-09
65	6.86101680471e-09
66	5.90875671811e-09
67	5.00796137016e-09
68	6.19786815666e-09
69	4.69541367274e-09
70	4.98156442179e-09
71	4.82165032723e-09
72	3.75457429769e-09
73	4.34651836279e-09
74	2.96561544195e-09
75	2.01631561344e-09
76	2.34288226217e-09
77	2.37559877664e-09
78	2.37489637307e-09
79	1.40796149519e-09
80	2.35954386256e-09
81	1.97759821578e-09
82	1.4798043251e-09
83	1.92935594627e-09
84	1.67564110692e-09
85	1.51970875645e-09
86	1.50165062041e-09
87	1.31953197483e-09
88	1.1533449293e-09
89	1.11648789998e-09
90	7.98285066463e-10
91	7.08684542723e-10
92	6.48991502302e-10
93	5.38863049382e-10
94	4.7451751961e-10
95	4.83892026499e-10
96	4.98355027394e-10
97	5.13522722031e-10
98	4.90777829487e-10
99	4.62739149478e-10
100	6.91677463493e-10
101	5.06549589092e-10
102	5.72752731369e-10
103	5.91140633637e-10
104	2.48942553409e-10
105	3.90736733333e-10
106	3.50122996044e-10
107	1.96411999061e-10
108	2.31383391855e-10
109	1.58248868356e-10
110	2.1138398685e-10
111	1.96582793881e-10
112	2.30609518316e-10
113	3.22496640292e-10
114	2.02928657008e-10
115	3.4538047455e-10
116	2.82656395961e-10
117	2.78459243742e-10
118	4.35370302178e-10
119	1.85043050144e-10
120	1.7363571134e-10
121	2.01214356413e-10
122	1.31532959346e-10
123	1.28640432502e-10
124	8.09177170993e-11
125	8.98606287723e-11
126	9.39029225003e-11
127	8.03295854791e-11
128	9.95147330751e-11
129	9.82655934038e-11
130	1.11933649139e-10
131	1.06730796972e-10
132	1.01690312281e-10
133	1.26652866763e-10
134	1.08520672225e-10
135	6.79546330679e-11
136	6.96722492463e-11
137	8.18213384832e-11
138	5.41747365822e-11
139	4.18030252688e-11
140	3.69707946412e-11
141	3.08360746757e-11
142	3.22899868766e-11
143	2.08353773171e-11
144	2.98886364206e-11
145	2.74831475202e-11
146	2.89613051553e-11
147	3.33416559763e-11
148	3.31738979536e-11
149	3.81184225302e-11
150	2.54874369839e-11
151	2.84552868738e-11
152	3.55980155844e-11
153	2.10116980808e-11
154	1.7069174328e-11
155	2.13004954769e-11
156	1.37242207168e-11
157	1.09580629192e-11
158	1.37741118869e-11
159	1.20369511025e-11
160	9.76777294828e-12
161	1.06591750611e-11
162	1.36875479273e-11
163	1.35377710504e-11
164	1.32895888181e-11
165	1.41609419248e-11
166	1.19563839501e-11
167	1.40615138314e-11
168	1.45373200121e-11
169	8.69985429412e-12
170	1.11646170463e-11
171	1.00112010528e-11
172	6.32789516112e-12
173	7.95868854281e-12
174	5.97457503706e-12
175	5.30243763296e-12
176	5.18545447484e-12
177	5.46125881995e-12
178	5.42579067799e-12
179	4.40501225731e-12
180	4.85989771283e-12
181	5.19919835625e-12
182	4.66954406761e-12
183	5.00608241717e-12
184	4.88839724193e-12
185	3.93307435994e-12
186	4.33497337352e-12
187	3.93754157015e-12
188	2.84372136471e-12
189	2.76115407768e-12
190	2.60830698479e-12
191	2.55330655727e-12
192	2.36662977788e-12
193	1.57692273875e-12
194	1.70496548594e-12
195	1.82445017229e-12
196	1.85965675454e-12
197	1.78893586818e-12
198	1.4251938975e-12
199	2.13199688063e-12
200	1.95053831108e-12
201	1.43518949843e-12
202	2.28219133194e-12
203	2.16353736801e-12
204	1.48057783631e-12
205	1.76253188262e-12
206	1.84950004375e-12
207	1.75545180272e-12
208	1.53058852559e-12
209	1.12661655597e-12
210	1.2746229987e-12
211	1.39282872632e-12
212	1.26016438182e-12
213	1.06720469417e-12
214	1.14691996944e-12
215	1.31103808797e-12
216	1.14996449268e-12
217	1.1738388444e-12
218	1.2828238673e-12
219	1.19505634158e-12
220	1.1084097306e-12
221	1.12123676144e-12
222	1.11242811409e-12
223	1.04025778022e-12
224	9.25511806171e-13
225	8.65127624608e-13
226	8.51081856186e-13
227	8.01322762983e-13
228	7.51958928321e-13
229	7.38808077149e-13
230	6.97988433608e-13
231	6.64309114976e-13
232	6.52599851752e-13
233	6.40423117569e-13
234	6.43953590629e-13
235	5.67224126095e-13
236	5.294768006e-13
237	5.52077088669e-13
238	4.75051011734e-13
239	4.04399258773e-13
240	3.95684305551e-13
241	3.7202550257e-13
242	3.26289788483e-13
243	2.87544606062e-13
244	2.78671054016e-13
245	2.69523962299e-13
246	2.61215568258e-13
247	2.71636448456e-13
248	2.50774425649e-13
249	2.25417203313e-13
250	2.41806851604e-13
251	2.78429032313e-13
252	2.61070071481e-13
253	1.83015089466e-13
254	1.84248983884e-13
255	2.55176862496e-13
256	2.32503259717e-13
257	1.42317762521e-13
258	1.5794074862e-13
259	2.43272642381e-13
260	2.14251815136e-13
261	1.34656685017e-13
262	1.95687250163e-13
263	2.95423045674e-13
264	2.37215747859e-13
265	1.50308177178e-13
266	2.40715651573e-13
267	3.4797560539e-13
268	2.51726196153e-13
269	1.45189324942e-13
270	2.40313704898e-13
271	3.27605930223e-13
272	2.20675139806e-13
273	1.32185214e-13
274	2.21855380995e-13
275	2.78073963178e-13
276	1.75852899439e-13
277	1.30552627062e-13
278	2.2558408568e-13
279	2.44551769629e-13
280	1.44672983323e-13
281	1.3469539292e-13
282	2.22933598085e-13
283	2.08620564304e-13
284	1.13839756084e-13
285	1.23837167709e-13
286	1.88572878399e-13
287	1.51715972127e-13
288	8.38883708051e-14
289	1.08262368256e-13
290	1.43112312777e-13
291	9.97869394324e-14
292	6.76021079863e-14
293	1.01887451898e-13
294	1.10305191732e-13
295	6.86224668849e-14
296	6.47315003572e-14
297	9.58422831877e-14
298	8.34579639329e-14
299	5.07951858909e-14
300	6.2362780786e-14
301	8.05600806635e-14
302	5.82439994054e-14
303	4.22491614535e-14
304	6.07531185349e-14
305	6.3224670267e-14
306	4.21154949571e-14
307	4.59519868925e-14
308	6.27393875275e-14
309	5.04614698259e-14
310	3.70470137395e-14
311	5.4668648573e-14
312	6.24434979213e-14
313	3.97451963736e-14
314	3.60324807103e-14
315	5.88440434106e-14
316	5.48971390959e-14
317	3.01046816427e-14
318	3.74755461163e-14
319	5.8543810814e-14
320	4.42466047224e-14
321	2.43841969221e-14
322	4.16186690961e-14
323	5.66799013164e-14
324	3.47815629875e-14
325	2.20412136379e-14
326	4.42740694349e-14
327	5.12593122086e-14
328	2.62215523353e-14
329	2.03412965348e-14
330	4.18721702993e-14
331	4.13900441372e-14
332	1.85781397248e-14
333	1.91192620993e-14
334	3.65052810692e-14
335	3.05730907498e-14
336	1.3365992045e-14
337	1.87512768906e-14
338	3.07244381504e-14
339	2.1903646739e-14
340	1.06115809091e-14
341	1.78849896265e-14
342	2.45806119276e-14
343	1.54514526419e-14
344	9.1024713664e-15
345	1.56811306315e-14
346	1.8182250483e-14
347	1.08010932842e-14
348	8.27756657955e-15
349	1.30039968428e-14
350	1.2859969183e-14
351	7.996071059e-15
352	7.88581631399e-15
353	1.06484861001e-14
354	9.29894878503e-15
355	6.63054725876e-15
356	7.42111483855e-15
357	8.57521649388e-15
358	7.09996087981e-15
359	5.91661836107e-15
360	6.61809243345e-15
361	6.76611252694e-15
362	5.76364894916e-15
363	5.40205901702e-15
364	5.65306405992e-15
365	5.40056767816e-15
366	4.98718642001e-15
367	4.8952906412e-15
368	4.69910594642e-15
369	4.43776326348e-15
370	4.43652556305e-15
371	4.26350184981e-15
372	3.78343464293e-15
373	3.68483673783e-15
374	3.86563765523e-15
375	3.50576375227e-15
376	2.95202400065e-15
377	3.0511704106e-15
378	3.25006639192e-15
379	2.75032311119e-15
380	2.26433836119e-15
381	2.49925609104e-15
382	2.64182787593e-15
383	2.09698811723e-15
384	1.71761789516e-15
385	1.98598563401e-15
386	2.06398493209e-15
387	1.56984580545e-15
388	1.28547782715e-15
389	1.51066724201e-15
390	1.54990294554e-15
391	1.16721325125e-15
392	9.57443522613e-16
393	1.11371859051e-15
394	1.14441852592e-15
395	8.82529939453e-16
396	7.21598606421e-16
397	8.1623188066e-16
398	8.59456905327e-16
399	6.96284241186e-16
400	5.58578683726e-16
401	6.06265759755e-16
402	6.69175054805e-16
403	5.7774806865e-16
404	4.49865427723e-16
405	4.6260845227e-16
406	5.38986772317e-16
407	4.95742155309e-16
408	3.76725495843e-16
409	3.66449380205e-16
410	4.45113275707e-16
411	4.29471378785e-16
412	3.21796315678e-16
413	3.00680432431e-16
414	3.7406750251e-16
415	3.69470579373e-16
416	2.73753117235e-16
417	2.51334653929e-16
418	3.15491782508e-16
419	3.10878014785e-16
420	2.27409543442e-16
421	2.09633280343e-16
422	2.61234283542e-16
423	2.50311971833e-16
424	1.81788058751e-16
425	1.72776452808e-16
426	2.08921160763e-16
427	1.89822023259e-16
428	1.3996106651e-16
429	1.41422681724e-16
430	1.60840954345e-16
431	1.35796788017e-16
432	1.06578719815e-16
433	1.15910894939e-16
434	1.19659813003e-16
435	9.41621869644e-17
436	8.39647591294e-17
437	9.5372273807e-17
438	8.70980950617e-17
439	6.75481304179e-17
440	7.12497027865e-17
441	7.87678658862e-17
442	6.48823715448e-17
443	5.56595438397e-17
444	6.53396658386e-17
445	6.56160690435e-17
446	5.37061391449e-17
447	5.53822642971e-17
448	6.23995059022e-17
449	5.55826137047e-17
450	5.2175310676e-17
451	6.12517645311e-17
452	5.90679278963e-17
453	4.87644496754e-17
454	5.70835186957e-17
455	6.74819295875e-17
456	5.36801011597e-17
457	4.53454006391e-17
458	6.45257457631e-17
459	6.98693930752e-17
460	4.64847027944e-17
461	4.49539588827e-17
462	7.05730246276e-17
463	6.67019882617e-17
464	3.89283555522e-17
465	4.64525488774e-17
466	7.22843643726e-17
467	5.84561227846e-17
468	3.26747429622e-17
469	4.82912465667e-17
470	6.84644533659e-17
471	4.7446449992e-17
472	2.88737118659e-17
473	4.89053862821e-17
474	5.98301296318e-17
475	3.65409875211e-17
476	2.77216699956e-17
477	4.72980441109e-17
478	4.85417509375e-17
479	2.81607406954e-17
480	2.84310798091e-17
481	4.33275894392e-17
482	3.72133881434e-17
483	2.35489331567e-17
484	2.98238682317e-17
485	3.75402225403e-17
486	2.81168765895e-17
487	2.2624542222e-17
488	3.07103956222e-17
489	3.11465755094e-17
490	2.26331425418e-17
491	2.42698699351e-17
492	3.03586810803e-17
493	2.55603780856e-17
494	2.09731216005e-17
495	2.69321676865e-17
496	2.87432085868e-17
497	2.18036313421e-17
498	2.23637411634e-17
499	2.91431861505e-17
500	2.62540389714e-17
501	2.04380465011e-17
502	2.53987574682e-17
503	2.98824777651e-17
504	2.3648600434e-17
505	2.12838814236e-17
506	2.85367885496e-17
507	2.89003736679e-17
508	2.16904766523e-17
509	2.36720000637e-17
510	3.04773559924e-17
511	2.65578616679e-17
512	2.09626541249e-17
513	2.65578616691e-17
514	3.04773559934e-17
515	2.36720000631e-17
516	2.16904766525e-17
517	2.89003736678e-17
518	2.85367885496e-17
519	2.12838814232e-17
520	2.36486004341e-17
521	2.98824777654e-17
522	2.53987574683e-17
523	2.04380465008e-17
524	2.62540389713e-17
525	2.91431861505e-17
526	2.23637411635e-17
527	2.18036313421e-17
528	2.87432085868e-17
529	2.69321676868e-17
530	2.09731216004e-17
531	2.55603780856e-17
532	3.03586810802e-17
533	2.4269869935e-17
534	2.26331425419e-17
535	3.11465755097e-17
536	3.07103956223e-17
537	2.26245422224e-17
538	2.81168765897e-17
539	3.75402225403e-17
540	2.98238682318e-17
541	2.35489331568e-17
542	3.72133881433e-17
543	4.33275894391e-17
544	2.84310798091e-17
545	2.81607406955e-17
546	4.85417509377e-17
547	4.7298044111e-17
548	2.77216699955e-17
549	3.65409875209e-17
550	5.98301296319e-17
551	4.89053862819e-17
552	2.88737118659e-17
553	4.7446449992e-17
554	6.84644533658e-17
555	4.82912465668e-17
556	3.26747429622e-17
557	5.84561227848e-17
558	7.22843643726e-17
559	4.64525488778e-17
560	3.89283555522e-17
561	6.67019882614e-17
562	7.05730246281e-17
563	4.49539588824e-17
564	4.64847027944e-17
565	6.98693930745e-17
566	6.45257457632e-17
567	4.53454006394e-17
568	5.36801011598e-17
569	6.74819295872e-17
570	5.70835186958e-17
571	4.87644496755e-17
572	5.9067927896e-17
573	6.12517645311e-17
574	5.21753106769e-17
575	5.55826137031e-17
576	6.23995059022e-17
577	5.53822642962e-17
578	5.37061391459e-17
579	6.56160690441e-17
580	6.53396658384e-17
581	5.56595438397e-17
582	6.48823715448e-17
583	7.8767865887e-17
584	7.12497027864e-17
585	6.75481304177e-17
586	8.70980950615e-17
587	9.53722738063e-17
588	8.39647591295e-17
589	9.41621869648e-17
590	1.19659813003e-16
591	1.15910894938e-16
592	1.06578719815e-16
593	1.35796788018e-16
594	1.60840954346e-16
595	1.41422681723e-16
596	1.3996106651e-16
597	1.89822023259e-16
598	2.08921160763e-16
599	1.72776452807e-16
600	1.81788058751e-16
601	2.50311971833e-16
602	2.61234283542e-16
603	2.09633280344e-16
604	2.27409543441e-16
605	3.10878014786e-16
606	3.15491782506e-16
607	2.51334653928e-16
608	2.73753117235e-16
609	3.69470579378e-16
610	3.7406750251e-16
611	3.0068043243e-16
612	3.21796315677e-16
613	4.29471378784e-16
614	4.45113275706e-16
615	3.66449380205e-16
616	3.76725495843e-16
617	4.95742155311e-16
618	5.38986772318e-16
619	4.62608452271e-16
620	4.49865427723e-16
621	5.7774806865e-16
622	6.69175054808e-16
623	6.06265759753e-16
624	5.58578683726e-16
625	6.96284241188e-16
626	8.59456905327e-16
627	8.1623188066e-16
628	7.21598606421e-16
629	8.82529939453e-16
630	1.14441852592e-15
631	1.11371859051e-15
632	9.57443522613e-16
633	1.16721325125e-15
634	1.54990294553e-15
635	1.51066724201e-15
636	1.28547782714e-15
637	1.56984580545e-15
638	2.06398493209e-15
639	1.98598563401e-15
640	1.71761789516e-15
641	2.09698811724e-15
642	2.64182787593e-15
643	2.49925609104e-15
644	2.26433836119e-15
645	2.75032311119e-15
646	3.25006639191e-15
647	3.0511704106e-15
648	2.95202400065e-15
649	3.50576375227e-15
650	3.86563765522e-15
651	3.68483673783e-15
652	3.78343464293e-15
653	4.26350184981e-15
654	4.43652556305e-15
655	4.43776326348e-15
656	4.69910594642e-15
657	4.89529064121e-15
658	4.98718642001e-15
659	5.40056767816e-15
660	5.65306405992e-15
661	5.40205901702e-15
662	5.76364894916e-15
663	6.76611252693e-15
664	6.61809243345e-15
665	5.91661836107e-15
666	7.09996087981e-15
667	8.57521649388e-15
668	7.42111483855e-15
669	6.63054725876e-15
670	9.29894878504e-15
671	1.06484861001e-14
672	7.88581631399e-15
673	7.99607105899e-15
674	1.2859969183e-14
675	1.30039968428e-14
676	8.27756657955e-15
677	1.08010932842e-14
678	1.8182250483e-14
679	1.56811306315e-14
680	9.1024713664e-15
681	1.54514526419e-14
682	2.45806119276e-14
683	1.78849896265e-14
684	1.06115809091e-14
685	2.1903646739e-14
686	3.07244381504e-14
687	1.87512768906e-14
688	1.3365992045e-14
689	3.05730907498e-14
690	3.65052810692e-14
691	1.91192620993e-14
692	1.85781397248e-14
693	4.13900441372e-14
694	4.18721702993e-14
695	2.03412965348e-14
696	2.62215523353e-14
697	5.12593122086e-14
698	4.42740694349e-14
699	2.20412136379e-14
700	3.47815629875e-14
701	5.66799013164e-14
702	4.16186690961e-14
703	2.43841969222e-14
704	4.42466047224e-14
705	5.8543810814e-14
706	3.74755461163e-14
707	3.01046816427e-14
708	5.48971390959e-14
709	5.88440434106e-14
710	3.60324807103e-14
711	3.97451963736e-14
712	6.24434979213e-14
713	5.4668648573e-14
714	3.70470137395e-14
715	5.04614698259e-14
716	6.27393875275e-14
717	4.59519868925e-14
718	4.21154949571e-14
719	6.32246702671e-14
720	6.07531185349e-14
721	4.22491614535e-14
722	5.82439994054e-14
723	8.05600806635e-14
724	6.2362780786e-14
725	5.07951858909e-14
726	8.34579639329e-14
727	9.58422831877e-14
728	6.47315003572e-14
729	6.86224668849e-14
730	1.10305191732e-13
731	1.01887451898e-13
732	6.76021079863e-14
733	9.97869394324e-14
734	1.43112312777e-13
735	1.08262368256e-13
736	8.3888370805e-14
737	1.51715972127e-13
738	1.88572878399e-13
739	1.23837167709e-13
740	1.13839756084e-13
741	2.08620564304e-13
742	2.22933598085e-13
743	1.3469539292e-13
744	1.44672983323e-13
745	2.44551769629e-13
746	2.2558408568e-13
747	1.30552627062e-13
748	1.75852899439e-13
749	2.78073963178e-13
750	2.21855380995e-13
751	1.32185214e-13
752	2.20675139806e-13
753	3.27605930223e-13
754	2.40313704898e-13
755	1.45189324942e-13
756	2.51726196153e-13
757	3.4797560539e-13
758	2.40715651572e-13
759	1.50308177178e-13
760	2.37215747859e-13
761	2.95423045674e-13
762	1.95687250163e-13
763	1.34656685017e-13
764	2.14251815136e-13
765	2.4327264238e-13
766	1.5794074862e-13
767	1.42317762521e-13
768	2.32503259717e-13
769	2.55176862496e-13
770	1.84248983884e-13
771	1.83015089466e-13
772	2.61070071481e-13
773	2.78429032313e-13
774	2.41806851604e-13
775	2.25417203313e-13
776	2.50774425649e-13
777	2.71636448456e-13
778	2.61215568258e-13
779	2.69523962299e-13
780	2.78671054016e-13
781	2.87544606062e-13
782	3.26289788483e-13
783	3.7202550257e-13
784	3.95684305551e-13
785	4.04399258774e-13
786	4.75051011734e-13
787	5.52077088669e-13
788	5.294768006e-13
789	5.67224126095e-13
790	6.43953590629e-13
791	6.4042311757e-13
792	6.52599851752e-13
793	6.64309114976e-13
794	6.97988433608e-13
795	7.38808077149e-13
796	7.51958928322e-13
797	8.01322762983e-13
798	8.51081856186e-13
799	8.65127624608e-13
800	9.25511806171e-13
801	1.04025778022e-12
802	1.11242811409e-12
803	1.12123676144e-12
804	1.1084097306e-12
805	1.19505634158e-12
806	1.2828238673e-12
807	1.1738388444e-12
808	1.14996449268e-12
809	1.31103808797e-12
810	1.14691996944e-12
811	1.06720469417e-12
812	1.26016438182e-12
813	1.39282872632e-12
814	1.2746229987e-12
815	1.12661655597e-12
816	1.53058852559e-12
817	1.75545180272e-12
818	1.84950004375e-12
819	1.76253188262e-12
820	1.48057783631e-12
821	2.16353736801e-12
822	2.28219133194e-12
823	1.43518949843e-12
824	1.95053831108e-12
825	2.13199688063e-12
826	1.4251938975e-12
827	1.78893586818e-12
828	1.85965675454e-12
829	1.82445017229e-12
830	1.70496548594e-12
831	1.57692273875e-12
832	2.36662977788e-12
833	2.55330655727e-12
834	2.60830698479e-12
835	2.76115407768e-12
836	2.84372136471e-12
837	3.93754157015e-12
838	4.33497337352e-12
839	3.93307435994e-12
840	4.88839724193e-12
841	5.00608241717e-12
842	4.66954406761e-12
843	5.19919835625e-12
844	4.85989771283e-12
845	4.40501225731e-12
846	5.42579067799e-12
847	5.46125881995e-12
848	5.18545447484e-12
849	5.30243763296e-12
850	5.97457503706e-12
851	7.95868854281e-12
852	6.32789516112e-12
853	1.00112010528e-11
854	1.11646170463e-11
855	8.69985429412e-12
856	1.45373200121e-11
857	1.40615138314e-11
858	1.19563839501e-11
859	1.41609419248e-11
860	1.32895888181e-11
861	1.35377710504e-11
862	1.36875479273e-11
863	1.06591750611e-11
864	9.76777294828e-12
865	1.20369511025e-11
866	1.37741118869e-11
867	1.09580629192e-11
868	1.37242207168e-11
869	2.13004954769e-11
870	1.7069174328e-11
871	2.10116980808e-11
872	3.55980155844e-11
873	2.84552868738e-11
874	2.54874369839e-11
875	3.81184225302e-11
876	3.31738979536e-11
877	3.33416559763e-11
878	2.89613051553e-11
879	2.74831475202e-11
880	2.98886364206e-11
881	2.08353773171e-11
882	3.22899868766e-11
883	3.08360746757e-11
884	3.69707946412e-11
885	4.18030252688e-11
886	5.41747365822e-11
887	8.18213384832e-11
888	6.96722492463e-11
889	6.79546330679e-11
890	1.08520672225e-10
891	1.26652866763e-10
892	1.01690312281e-10
893	1.06730796972e-10
894	1.11933649139e-10
895	9.82655934038e-11
896	9.95147330751e-11
897	8.03295854791e-11
898	9.39029225003e-11
899	8.98606287724e-11
900	8.09177170993e-11
901	1.28640432502e-10
902	1.31532959346e-10
903	2.01214356413e-10
904	1.7363571134e-10
905	1.85043050144e-10
906	4.35370302178e-10
907	2.78459243742e-10
908	2.82656395961e-10
909	3.4538047455e-10
910	2.02928657008e-10
911	3.22496640292e-10
912	2.30609518316e-10
913	1.96582793881e-10
914	2.1138398685e-10
915	1.58248868356e-10
916	2.31383391855e-10
917	1.96411999061e-10
918	3.50122996044e-10
919	3.90736733333e-10
920	2.48942553409e-10
921	5.91140633637e-10
922	5.72752731369e-10
923	5.06549589092e-10
924	6.91677463493e-10
925	4.62739149478e-10
926	4.90777829487e-10
927	5.13522722031e-10
928	4.98355027394e-10
929	4.83892026499e-10
930	4.7451751961e-10
931	5.38863049382e-10
932	6.48991502302e-10
933	7.08684542723e-10
934	7.98285066463e-10
935	1.11648789998e-09
936	1.1533449293e-09
937	1.31953197483e-09
938	1.50165062041e-09
939	1.51970875645e-09
940	1.67564110692e-09
941	1.92935594627e-09
942	1.4798043251e-09
943	1.97759821578e-09
944	2.35954386256e-09
945	1.40796149519e-09
946	2.37489637307e-09
947	2.37559877664e-09
948	2.34288226217e-09
949	2.01631561344e-09
950	2.96561544195e-09
951	4.34651836279e-09
952	3.75457429769e-09
953	4.82165032723e-09
954	4.98156442179e-09
955	4.69541367274e-09
956	6.19786815666e-09
957	5.00796137016e-09
958	5.90875671811e-09
959	6.86101680471e-09
960	4.45179137383e-09
961	4.44636003762e-09
962	3.5817925539e-09
963	5.29176931896e-09
964	6.387326295e-09
965	4.17579269119e-09
966	6.42383577604e-09
967	7.01237908858e-09
968	1.09926737979e-08
969	1.27206071027e-08
970	1.31079183441e-08
971	1.53757598825e-08
972	2.00642339405e-08
973	2.22611722936e-08
974	3.08189569693e-08
975	3.21861883806e-08
976	2.45464696389e-08
977	3.42894368292e-08
978	2.93604367842e-08
979	3.61717209008e-08
980	4.78770821978e-08
981	4.26600867815e-08
982	3.73700874323e-08
983	4.2232275039e-08
984	5.06395990167e-08
985	6.36901393441e-08
986	4.20511198407e-08
987	6.60602412044e-08
988	8.17568995445e-08
989	6.64091900748e-08
990	1.14408245844e-07
991	7.84509826833e-08
992	9.73819407021e-08
993	1.06515310956e-07
994	1.44326269452e-07
995	1.71056087581e-07
996	1.20422821794e-07
997	2.40906855132e-07
998	2.42869021268e-07
999	2.42981125798e-07
1000	2.63751334783e-07
1001	2.65034055491e-07
1002	4.04118792111e-07
1003	4.60274134816e-07
1004	4.88417030446e-07
1005	4.97080512449e-07
1006	5.15970626339e-07
1007	4.22359571475e-07
1008	5.81567745666e-07
1009	9.81393787336e-07
1010	1.05647645015e-06
1011	9.77790749939e-07
1012	1.49085608572e-06
1013	3.02059979424e-06
1014	4.19990579012e-06
1015	7.9440593589e-06
1016	8.75295451004e-06
1017	1.24860690729e-05
1018	1.03798231317e-05
1019	2.56630403353e-05
1020	0.00017952104452
1021	0.000722667059845
1022	0.00379970566633
1023	0.0255525439276
