0	0.880782622215
1	0.000652418014301
2	0.00979010353048
3	0.000166584083804
4	0.000745648015068
5	1.94833385287e-05
6	2.47408438919e-05
7	1.30446976878e-06
8	2.78831890577e-06
9	1.0169085105e-06
10	8.22802482328e-07
11	4.37882665591e-07
12	3.72252753192e-07
13	2.49294385385e-07
14	1.28754121446e-07
15	7.08079084453e-08
16	3.85932030254e-08
17	2.91860561725e-08
18	2.03475876944e-08
19	2.07294706594e-08
20	1.32189495544e-08
21	9.80861456928e-09
22	1.15460536233e-08
23	6.92067249731e-09
24	8.97208394819e-09
25	7.10395656675e-09
26	3.9681020826e-09
27	1.98076515559e-09
28	1.52250760016e-09
29	9.36551063637e-10
30	7.48487621001e-10
31	5.8055139159e-10
32	4.02947102327e-10
33	1.99091998056e-10
34	2.44509369886e-10
35	1.16552412286e-10
36	2.0568633071e-10
37	9.68938347713e-11
38	1.55772084206e-10
39	8.66212248006e-11
40	1.15358683435e-10
41	7.74667313021e-11
42	9.77854117907e-11
43	8.91645891905e-11
44	8.19708357599e-11
45	8.02559511574e-11
46	7.61374582665e-11
47	7.17468252905e-11
48	8.60030065745e-11
49	6.27510038803e-11
50	6.05365039966e-11
51	6.12740017517e-11
52	3.66719122612e-11
53	4.44037314978e-11
54	3.06569269912e-11
55	2.83699845151e-11
56	3.30824534741e-11
57	2.31889399564e-11
58	2.54196438097e-11
59	2.0978506537e-11
60	2.72377632691e-11
61	2.17662608044e-11
62	3.13235130766e-11
63	2.30578800492e-11
64	2.72788808784e-11
65	1.88833022796e-11
66	1.46512300712e-11
67	1.22877779607e-11
68	1.02018503206e-11
69	9.24899588268e-12
70	8.85999929627e-12
71	8.03573386375e-12
72	7.58667791798e-12
73	7.62233962369e-12
74	6.05311734023e-12
75	6.92989129317e-12
76	6.14764845546e-12
77	6.05280901286e-12
78	5.66503365624e-12
79	4.54070200746e-12
80	4.40885814475e-12
81	3.03291914069e-12
82	2.74404439436e-12
83	2.0390252066e-12
84	2.09672095543e-12
85	1.96472664115e-12
86	1.50854330139e-12
87	1.7749482676e-12
88	1.22773768768e-12
89	1.36424498611e-12
90	1.23011408801e-12
91	1.19369277283e-12
92	1.25515167008e-12
93	7.29144821996e-13
94	1.07052311356e-12
95	7.66028719933e-13
96	7.05016209114e-13
97	4.79024424673e-13
98	4.58270260492e-13
99	4.6355684811e-13
100	3.15155875856e-13
101	3.30419626628e-13
102	2.81811203894e-13
103	2.89624014103e-13
104	2.85060374352e-13
105	2.93941646972e-13
106	2.51341109594e-13
107	2.91762602796e-13
108	2.2399985299e-13
109	2.25813652306e-13
110	1.69357760895e-13
111	1.65625474954e-13
112	1.35254486618e-13
113	1.25140613674e-13
114	1.09781036817e-13
115	1.00482373264e-13
116	8.59141372264e-14
117	9.2214354885e-14
118	6.78491514195e-14
119	7.71785099801e-14
120	5.81465311432e-14
121	5.67530067443e-14
122	5.22614823794e-14
123	4.13575821786e-14
124	4.64202908402e-14
125	3.53978832263e-14
126	4.51429661928e-14
127	3.45547311386e-14
128	4.23745105886e-14
129	3.87989468521e-14
130	3.79167168838e-14
131	4.1886090199e-14
132	3.91064500384e-14
133	4.01703961642e-14
134	3.26827452285e-14
135	3.29780362425e-14
136	2.97074593691e-14
137	2.75053063365e-14
138	3.1783107949e-14
139	2.5332925772e-14
140	3.31653410665e-14
141	2.62798973261e-14
142	2.94289180931e-14
143	2.7286246206e-14
144	2.4848277019e-14
145	2.67209622301e-14
146	2.14864487428e-14
147	2.29863630446e-14
148	1.87741873872e-14
149	1.98860161665e-14
150	1.73872205084e-14
151	1.67152475912e-14
152	1.59419339147e-14
153	1.57774476441e-14
154	1.35070337888e-14
155	1.4256424584e-14
156	1.15100944602e-14
157	1.25682186937e-14
158	1.04204413758e-14
159	1.07991580595e-14
160	9.79207620803e-15
161	9.24818427939e-15
162	9.12200858646e-15
163	8.47199117414e-15
164	8.49188575088e-15
165	7.43205330795e-15
166	7.46701471092e-15
167	6.65682809892e-15
168	6.7010360332e-15
169	5.45707735771e-15
170	6.12451492733e-15
171	4.60444912453e-15
172	5.65223047792e-15
173	4.06068884136e-15
174	5.00825424531e-15
175	3.76013086209e-15
176	4.19620091875e-15
177	3.48254141236e-15
178	3.54168166437e-15
179	3.06602435914e-15
180	2.93315638408e-15
181	2.71858545481e-15
182	2.6328027841e-15
183	2.37320174449e-15
184	2.2628155274e-15
185	2.15226114766e-15
186	1.92431120421e-15
187	1.93013586489e-15
188	1.61474129978e-15
189	1.72243049856e-15
190	1.45805128914e-15
191	1.55520836968e-15
192	1.36817796186e-15
193	1.43227637357e-15
194	1.34549068379e-15
195	1.37240199555e-15
196	1.27161485237e-15
197	1.29205157435e-15
198	1.24547873448e-15
199	1.24712053772e-15
200	1.18640874811e-15
201	1.17107958768e-15
202	1.16549409986e-15
203	1.12956870723e-15
204	1.10678435743e-15
205	1.06054499065e-15
206	1.05149953163e-15
207	1.00519353412e-15
208	9.77280473857e-16
209	9.29152592521e-16
210	9.09729444059e-16
211	8.66105386036e-16
212	8.37923754712e-16
213	7.93181305691e-16
214	7.67068977199e-16
215	7.28375949035e-16
216	6.94251804943e-16
217	6.54127839175e-16
218	6.23684876026e-16
219	5.88019244242e-16
220	5.58150000422e-16
221	5.23099820438e-16
222	4.96985655426e-16
223	4.68169123755e-16
224	4.41911891909e-16
225	4.15781691394e-16
226	3.91388515263e-16
227	3.690987232e-16
228	3.47274273024e-16
229	3.25549394588e-16
230	3.07326242281e-16
231	2.87937927281e-16
232	2.72255127158e-16
233	2.55091330313e-16
234	2.40631352665e-16
235	2.26601211086e-16
236	2.13170923066e-16
237	2.01211140484e-16
238	1.89292010541e-16
239	1.78712876223e-16
240	1.68839065401e-16
241	1.59368317758e-16
242	1.50935343632e-16
243	1.42978864733e-16
244	1.35262415219e-16
245	1.29053253285e-16
246	1.21551854992e-16
247	1.16861413152e-16
248	1.09835484014e-16
249	1.06115146948e-16
250	9.97778237713e-17
251	9.67739050986e-17
252	9.10328695961e-17
253	8.87789750147e-17
254	8.32649728112e-17
255	8.1850066598e-17
256	7.63084174705e-17
257	7.55989354104e-17
258	7.01785705481e-17
259	6.98508595995e-17
260	6.47321029165e-17
261	6.4554829146e-17
262	5.98436080768e-17
263	5.97348711508e-17
264	5.53174507451e-17
265	5.52705156882e-17
266	5.11387494212e-17
267	5.10475581952e-17
268	4.72864883902e-17
269	4.70070694641e-17
270	4.37509338958e-17
271	4.31855315482e-17
272	4.04528203817e-17
273	3.96112908304e-17
274	3.73384611218e-17
275	3.62679585525e-17
276	3.43840257758e-17
277	3.31173357806e-17
278	3.15936755979e-17
279	3.01524635518e-17
280	2.89537532218e-17
281	2.73851346457e-17
282	2.64418113443e-17
283	2.48237913494e-17
284	2.4040551294e-17
285	2.24503569621e-17
286	2.17536704242e-17
287	2.02428206453e-17
288	1.95897502547e-17
289	1.8188506005e-17
290	1.75555768738e-17
291	1.62854427584e-17
292	1.56504031536e-17
293	1.45298935414e-17
294	1.3878217278e-17
295	1.29124539077e-17
296	1.22435868611e-17
297	1.14226408824e-17
298	1.07509864033e-17
299	1.0055347703e-17
300	9.39968174887e-18
301	8.80924689925e-18
302	8.18488739296e-18
303	7.68265123086e-18
304	7.10068029489e-18
305	6.67072881402e-18
306	6.14010626568e-18
307	5.76658927831e-18
308	5.29489076836e-18
309	4.96455194399e-18
310	4.55498255167e-18
311	4.25898179861e-18
312	3.90995615067e-18
313	3.64315550831e-18
314	3.34934205864e-18
315	3.10902058403e-18
316	2.86405709973e-18
317	2.64790164518e-18
318	2.44499255399e-18
319	2.25145707427e-18
320	2.0839451712e-18
321	1.91214685529e-18
322	1.77343890227e-18
323	1.6228745397e-18
324	1.50697499994e-18
325	1.37658955286e-18
326	1.27871000331e-18
327	1.16725324016e-18
328	1.08376708542e-18
329	9.89399179636e-19
330	9.17656832052e-19
331	8.38499364938e-19
332	7.76514117479e-19
333	7.1065659665e-19
334	6.56860264437e-19
335	6.02448985491e-19
336	5.55764824754e-19
337	5.10965908534e-19
338	4.70616585779e-19
339	4.33759031352e-19
340	3.9911801909e-19
341	3.68789548889e-19
342	3.39241769447e-19
343	3.14194531847e-19
344	2.8919321521e-19
345	2.68500999364e-19
346	2.47447611907e-19
347	2.3029600406e-19
348	2.1270824637e-19
349	1.98444989955e-19
350	1.83819437802e-19
351	1.71926027303e-19
352	1.59785196304e-19
353	1.49877649704e-19
354	1.39767261167e-19
355	1.31508180077e-19
356	1.23064152138e-19
357	1.16214474306e-19
358	1.09105444351e-19
359	1.0340579298e-19
360	9.7367295058e-20
361	9.26414364296e-20
362	8.74492539279e-20
363	8.35266567036e-20
364	7.90004983836e-20
365	7.57438965363e-20
366	7.17517330087e-20
367	6.9024998266e-20
368	6.54637163296e-20
369	6.31731129188e-20
370	5.99650581638e-20
371	5.80044935764e-20
372	5.50930267814e-20
373	5.34030107746e-20
374	5.07364685197e-20
375	4.92442311984e-20
376	4.67960900095e-20
377	4.5465837304e-20
378	4.32054185672e-20
379	4.19828240645e-20
380	3.99043762064e-20
381	3.8770134271e-20
382	3.68433903927e-20
383	3.57739347037e-20
384	3.39948749405e-20
385	3.29735896635e-20
386	3.13290638878e-20
387	3.03462679083e-20
388	2.88245771861e-20
389	2.78812178847e-20
390	2.64719457824e-20
391	2.55630941523e-20
392	2.42580772321e-20
393	2.33824553049e-20
394	2.2175963544e-20
395	2.13365314416e-20
396	2.02167625388e-20
397	1.94178624287e-20
398	1.8380416112e-20
399	1.7622955377e-20
400	1.6656492768e-20
401	1.59451270165e-20
402	1.50525919091e-20
403	1.43841094989e-20
404	1.35583604413e-20
405	1.29331364397e-20
406	1.2175116099e-20
407	1.1590724648e-20
408	1.08938850847e-20
409	1.03532732975e-20
410	9.71548169074e-21
411	9.2170370453e-21
412	8.63484469143e-21
413	8.17571160036e-21
414	7.64930162009e-21
415	7.22829327818e-21
416	6.75142974475e-21
417	6.36563674792e-21
418	5.9387387644e-21
419	5.58668144744e-21
420	5.20378228122e-21
421	4.88496031286e-21
422	4.54628090438e-21
423	4.25624936663e-21
424	3.95512065657e-21
425	3.69406413305e-21
426	3.4291959582e-21
427	3.1947796479e-21
428	2.9610903153e-21
429	2.75255475071e-21
430	2.54605013533e-21
431	2.36320857188e-21
432	2.18064543458e-21
433	2.01975564295e-21
434	1.86157761389e-21
435	1.72002874252e-21
436	1.58110390152e-21
437	1.45900018552e-21
438	1.33868482993e-21
439	1.23137812805e-21
440	1.12881805919e-21
441	1.03456342302e-21
442	9.46519307913e-22
443	8.66755718256e-22
444	7.8945872927e-22
445	7.23159803884e-22
446	6.56569884833e-22
447	6.00324504582e-22
448	5.43298615435e-22
449	4.96800359667e-22
450	4.46320705695e-22
451	4.09409714371e-22
452	3.65257284604e-22
453	3.35813558179e-22
454	2.98070430057e-22
455	2.74216030349e-22
456	2.42215455643e-22
457	2.22659510045e-22
458	1.95735197892e-22
459	1.79834427667e-22
460	1.57669650965e-22
461	1.44910680203e-22
462	1.26676092303e-22
463	1.16389276648e-22
464	1.013131193e-22
465	9.30688200733e-23
466	8.08925592454e-23
467	7.42133901342e-23
468	6.46880756145e-23
469	5.92043143283e-23
470	5.18347128387e-23
471	4.72031146078e-23
472	4.15401339499e-23
473	3.77281275506e-23
474	3.35795031685e-23
475	3.03561259858e-23
476	2.72700753092e-23
477	2.48077296044e-23
478	2.24306337739e-23
479	2.05657372023e-23
480	1.89034546785e-23
481	1.7299833722e-23
482	1.61405957743e-23
483	1.4978856821e-23
484	1.39596723312e-23
485	1.34436027111e-23
486	1.21281717638e-23
487	1.2430729182e-23
488	1.09067686856e-23
489	1.17246914238e-23
490	1.00666603925e-23
491	1.10564940961e-23
492	9.48814261286e-24
493	1.07804128016e-23
494	9.08309718194e-24
495	1.07149049282e-23
496	8.75301743554e-24
497	1.08252859237e-23
498	8.57843121051e-24
499	1.09274291143e-23
500	8.48565812582e-24
501	1.08937448694e-23
502	8.46841525819e-24
503	1.10798629915e-23
504	8.39608414886e-24
505	1.12571889626e-23
506	8.39441567628e-24
507	1.13216997936e-23
508	8.32328274016e-24
509	1.1455828559e-23
510	8.25861851233e-24
511	1.14041689997e-23
512	8.22058791037e-24
513	1.14041687867e-23
514	8.25862231979e-24
515	1.14558283142e-23
516	8.32328206107e-24
517	1.13217003819e-23
518	8.39441525381e-24
519	1.12571888761e-23
520	8.39608418229e-24
521	1.10798628276e-23
522	8.46841564396e-24
523	1.08937446897e-23
524	8.48565812179e-24
525	1.0927429017e-23
526	8.57843084057e-24
527	1.08252857662e-23
528	8.75301744098e-24
529	1.07149049432e-23
530	9.08309808603e-24
531	1.07804127657e-23
532	9.48814246879e-24
533	1.10564941312e-23
534	1.00666600755e-23
535	1.17246916007e-23
536	1.09067687113e-23
537	1.24307291693e-23
538	1.21281720025e-23
539	1.34436025894e-23
540	1.39596723856e-23
541	1.4978856724e-23
542	1.61405945255e-23
543	1.72998335485e-23
544	1.89034546748e-23
545	2.05657375007e-23
546	2.24306349473e-23
547	2.4807729855e-23
548	2.72700749472e-23
549	3.03561261221e-23
550	3.35795031628e-23
551	3.77281278416e-23
552	4.15401339274e-23
553	4.72031148973e-23
554	5.18347129874e-23
555	5.92043143761e-23
556	6.46880754552e-23
557	7.42133898311e-23
558	8.08925598496e-23
559	9.30688200514e-23
560	1.01313119292e-22
561	1.1638927642e-22
562	1.26676089285e-22
563	1.44910680508e-22
564	1.57669650661e-22
565	1.79834427415e-22
566	1.9573519859e-22
567	2.22659510444e-22
568	2.42215455596e-22
569	2.74216031045e-22
570	2.98070431059e-22
571	3.358135581e-22
572	3.65257284584e-22
573	4.09409714681e-22
574	4.46320707771e-22
575	4.96800361572e-22
576	5.43298615434e-22
577	6.00324503387e-22
578	6.56569880392e-22
579	7.23159803165e-22
580	7.89458728438e-22
581	8.66755718351e-22
582	9.46519307806e-22
583	1.03456342454e-21
584	1.1288180593e-21
585	1.23137812898e-21
586	1.33868483199e-21
587	1.4590001856e-21
588	1.58110390172e-21
589	1.72002874272e-21
590	1.86157761695e-21
591	2.01975564373e-21
592	2.18064543459e-21
593	2.36320857002e-21
594	2.54605013459e-21
595	2.75255475133e-21
596	2.96109031456e-21
597	3.19477964972e-21
598	3.42919595209e-21
599	3.69406413419e-21
600	3.95512065636e-21
601	4.25624936682e-21
602	4.54628090947e-21
603	4.88496031244e-21
604	5.20378227578e-21
605	5.58668144674e-21
606	5.93873876489e-21
607	6.36563673961e-21
608	6.75142974475e-21
609	7.22829327968e-21
610	7.64930162896e-21
611	8.17571160312e-21
612	8.63484468821e-21
613	9.21703704658e-21
614	9.71548169634e-21
615	1.03532732916e-20
616	1.08938850841e-20
617	1.159072464e-20
618	1.21751161011e-20
619	1.29331364426e-20
620	1.35583604382e-20
621	1.43841094971e-20
622	1.50525919155e-20
623	1.59451270227e-20
624	1.6656492768e-20
625	1.76229553806e-20
626	1.83804161166e-20
627	1.94178624294e-20
628	2.02167625329e-20
629	2.13365314422e-20
630	2.21759635311e-20
631	2.33824553032e-20
632	2.42580772313e-20
633	2.55630941534e-20
634	2.64719457937e-20
635	2.78812178789e-20
636	2.88245771838e-20
637	3.03462679051e-20
638	3.13290639494e-20
639	3.29735896613e-20
640	3.39948749405e-20
641	3.57739346857e-20
642	3.6843390321e-20
643	3.87701342704e-20
644	3.99043761893e-20
645	4.19828240602e-20
646	4.32054185695e-20
647	4.54658373097e-20
648	4.67960900066e-20
649	4.9244231206e-20
650	5.07364685248e-20
651	5.34030107712e-20
652	5.50930267846e-20
653	5.80044935771e-20
654	5.99650581525e-20
655	6.31731129186e-20
656	6.54637163294e-20
657	6.90249982785e-20
658	7.17517330466e-20
659	7.57438965406e-20
660	7.90004983678e-20
661	8.35266567024e-20
662	8.74492539597e-20
663	9.26414364183e-20
664	9.73672950569e-20
665	1.03405792969e-19
666	1.0910544431e-19
667	1.16214474308e-19
668	1.23064152132e-19
669	1.31508180068e-19
670	1.39767261202e-19
671	1.49877649735e-19
672	1.59785196304e-19
673	1.71926027317e-19
674	1.83819437925e-19
675	1.98444989956e-19
676	2.12708246341e-19
677	2.30296004058e-19
678	2.47447611891e-19
679	2.6850099936e-19
680	2.8919321521e-19
681	3.14194531852e-19
682	3.3924176949e-19
683	3.68789548881e-19
684	3.99118019064e-19
685	4.3375903136e-19
686	4.70616585826e-19
687	5.10965908504e-19
688	5.55764824754e-19
689	6.02448985443e-19
690	6.56860264531e-19
691	7.10656596673e-19
692	7.76514117443e-19
693	8.3849936493e-19
694	9.17656831914e-19
695	9.89399179608e-19
696	1.08376708542e-18
697	1.16725324013e-18
698	1.27871000339e-18
699	1.37658955285e-18
700	1.50697499995e-18
701	1.62287453966e-18
702	1.77343890239e-18
703	1.91214685532e-18
704	2.0839451712e-18
705	2.2514570742e-18
706	2.44499255364e-18
707	2.64790164518e-18
708	2.86405709992e-18
709	3.10902058406e-18
710	3.3493420587e-18
711	3.64315550836e-18
712	3.90995615068e-18
713	4.25898179861e-18
714	4.55498255153e-18
715	4.96455194401e-18
716	5.29489076832e-18
717	5.76658927826e-18
718	6.1401062661e-18
719	6.67072881389e-18
720	7.10068029489e-18
721	7.68265123084e-18
722	8.18488739309e-18
723	8.80924689922e-18
724	9.39968174883e-18
725	1.00553477029e-17
726	1.07509864028e-17
727	1.14226408824e-17
728	1.22435868611e-17
729	1.29124539075e-17
730	1.38782172782e-17
731	1.45298935413e-17
732	1.56504031534e-17
733	1.62854427583e-17
734	1.75555768739e-17
735	1.81885060051e-17
736	1.95897502547e-17
737	2.02428206455e-17
738	2.17536704235e-17
739	2.24503569621e-17
740	2.40405512942e-17
741	2.48237913492e-17
742	2.64418113443e-17
743	2.73851346458e-17
744	2.89537532218e-17
745	3.01524635519e-17
746	3.15936755977e-17
747	3.31173357804e-17
748	3.4384025776e-17
749	3.62679585524e-17
750	3.73384611224e-17
751	3.96112908302e-17
752	4.04528203817e-17
753	4.31855315485e-17
754	4.37509338957e-17
755	4.70070694639e-17
756	4.72864883901e-17
757	5.10475581951e-17
758	5.11387494213e-17
759	5.52705156883e-17
760	5.53174507451e-17
761	5.97348711509e-17
762	5.98436080776e-17
763	6.45548291462e-17
764	6.4732102915e-17
765	6.98508595989e-17
766	7.01785705446e-17
767	7.55989354117e-17
768	7.63084174705e-17
769	8.18500665982e-17
770	8.32649728046e-17
771	8.87789750144e-17
772	9.10328695971e-17
773	9.67739050982e-17
774	9.97778237705e-17
775	1.06115146947e-16
776	1.09835484014e-16
777	1.16861413151e-16
778	1.21551854992e-16
779	1.29053253285e-16
780	1.35262415219e-16
781	1.42978864733e-16
782	1.50935343632e-16
783	1.59368317758e-16
784	1.68839065401e-16
785	1.78712876224e-16
786	1.8929201054e-16
787	2.01211140484e-16
788	2.13170923065e-16
789	2.26601211086e-16
790	2.40631352666e-16
791	2.55091330313e-16
792	2.72255127158e-16
793	2.87937927281e-16
794	3.07326242283e-16
795	3.25549394588e-16
796	3.47274273023e-16
797	3.69098723199e-16
798	3.91388515264e-16
799	4.15781691395e-16
800	4.41911891909e-16
801	4.68169123758e-16
802	4.96985655425e-16
803	5.2309982044e-16
804	5.5815000042e-16
805	5.88019244243e-16
806	6.23684876027e-16
807	6.54127839176e-16
808	6.94251804943e-16
809	7.28375949035e-16
810	7.670689772e-16
811	7.9318130569e-16
812	8.37923754712e-16
813	8.66105386034e-16
814	9.09729444057e-16
815	9.29152592521e-16
816	9.77280473857e-16
817	1.00519353412e-15
818	1.05149953163e-15
819	1.06054499065e-15
820	1.10678435743e-15
821	1.12956870723e-15
822	1.16549409986e-15
823	1.17107958768e-15
824	1.18640874811e-15
825	1.24712053772e-15
826	1.24547873448e-15
827	1.29205157435e-15
828	1.27161485237e-15
829	1.37240199555e-15
830	1.34549068377e-15
831	1.43227637357e-15
832	1.36817796186e-15
833	1.55520836968e-15
834	1.45805128914e-15
835	1.72243049856e-15
836	1.61474129979e-15
837	1.93013586489e-15
838	1.92431120421e-15
839	2.15226114766e-15
840	2.2628155274e-15
841	2.37320174449e-15
842	2.6328027841e-15
843	2.71858545481e-15
844	2.93315638408e-15
845	3.06602435914e-15
846	3.54168166438e-15
847	3.48254141236e-15
848	4.19620091875e-15
849	3.76013086209e-15
850	5.00825424532e-15
851	4.06068884136e-15
852	5.65223047792e-15
853	4.60444912453e-15
854	6.12451492734e-15
855	5.45707735771e-15
856	6.7010360332e-15
857	6.65682809892e-15
858	7.46701471092e-15
859	7.43205330795e-15
860	8.49188575087e-15
861	8.47199117414e-15
862	9.12200858646e-15
863	9.24818427939e-15
864	9.79207620803e-15
865	1.07991580595e-14
866	1.04204413758e-14
867	1.25682186937e-14
868	1.15100944602e-14
869	1.4256424584e-14
870	1.35070337888e-14
871	1.57774476441e-14
872	1.59419339147e-14
873	1.67152475912e-14
874	1.73872205084e-14
875	1.98860161665e-14
876	1.87741873872e-14
877	2.29863630446e-14
878	2.14864487428e-14
879	2.67209622301e-14
880	2.4848277019e-14
881	2.7286246206e-14
882	2.94289180931e-14
883	2.62798973261e-14
884	3.31653410666e-14
885	2.5332925772e-14
886	3.1783107949e-14
887	2.75053063365e-14
888	2.97074593691e-14
889	3.29780362425e-14
890	3.26827452285e-14
891	4.01703961641e-14
892	3.91064500384e-14
893	4.1886090199e-14
894	3.79167168838e-14
895	3.87989468521e-14
896	4.23745105886e-14
897	3.45547311386e-14
898	4.51429661928e-14
899	3.53978832263e-14
900	4.64202908402e-14
901	4.13575821786e-14
902	5.22614823793e-14
903	5.67530067442e-14
904	5.81465311432e-14
905	7.71785099801e-14
906	6.78491514195e-14
907	9.2214354885e-14
908	8.59141372264e-14
909	1.00482373264e-13
910	1.09781036817e-13
911	1.25140613674e-13
912	1.35254486618e-13
913	1.65625474954e-13
914	1.69357760895e-13
915	2.25813652306e-13
916	2.2399985299e-13
917	2.91762602796e-13
918	2.51341109594e-13
919	2.93941646972e-13
920	2.85060374352e-13
921	2.89624014103e-13
922	2.81811203894e-13
923	3.30419626628e-13
924	3.15155875856e-13
925	4.6355684811e-13
926	4.58270260492e-13
927	4.79024424673e-13
928	7.05016209114e-13
929	7.66028719932e-13
930	1.07052311356e-12
931	7.29144821996e-13
932	1.25515167008e-12
933	1.19369277283e-12
934	1.23011408801e-12
935	1.36424498611e-12
936	1.22773768768e-12
937	1.7749482676e-12
938	1.50854330139e-12
939	1.96472664115e-12
940	2.09672095543e-12
941	2.0390252066e-12
942	2.74404439436e-12
943	3.03291914069e-12
944	4.40885814475e-12
945	4.54070200746e-12
946	5.66503365623e-12
947	6.05280901286e-12
948	6.14764845546e-12
949	6.92989129317e-12
950	6.05311734023e-12
951	7.62233962369e-12
952	7.58667791798e-12
953	8.03573386375e-12
954	8.85999929627e-12
955	9.24899588268e-12
956	1.02018503206e-11
957	1.22877779607e-11
958	1.46512300712e-11
959	1.88833022797e-11
960	2.72788808784e-11
961	2.30578800492e-11
962	3.13235130766e-11
963	2.17662608044e-11
964	2.72377632691e-11
965	2.0978506537e-11
966	2.54196438097e-11
967	2.31889399564e-11
968	3.30824534741e-11
969	2.83699845151e-11
970	3.06569269912e-11
971	4.44037314978e-11
972	3.66719122612e-11
973	6.12740017517e-11
974	6.05365039966e-11
975	6.27510038803e-11
976	8.60030065745e-11
977	7.17468252905e-11
978	7.61374582665e-11
979	8.02559511574e-11
980	8.19708357599e-11
981	8.91645891905e-11
982	9.77854117907e-11
983	7.74667313021e-11
984	1.15358683435e-10
985	8.66212248006e-11
986	1.55772084206e-10
987	9.68938347713e-11
988	2.0568633071e-10
989	1.16552412286e-10
990	2.44509369886e-10
991	1.99091998056e-10
992	4.02947102327e-10
993	5.8055139159e-10
994	7.48487621001e-10
995	9.36551063637e-10
996	1.52250760016e-09
997	1.98076515559e-09
998	3.9681020826e-09
999	7.10395656675e-09
1000	8.97208394819e-09
1001	6.92067249731e-09
1002	1.15460536233e-08
1003	9.80861456928e-09
1004	1.32189495544e-08
1005	2.07294706594e-08
1006	2.03475876944e-08
1007	2.91860561725e-08
1008	3.85932030254e-08
1009	7.08079084453e-08
1010	1.28754121446e-07
1011	2.49294385385e-07
1012	3.72252753192e-07
1013	4.37882665591e-07
1014	8.22802482328e-07
1015	1.0169085105e-06
1016	2.78831890577e-06
1017	1.30446976878e-06
1018	2.47408438919e-05
1019	1.94833385287e-05
1020	0.000745648015068
1021	0.000166584083804
1022	0.00979010353048
1023	0.000652418014301
