0	0.900082429363
1	3.57839077541e-17
2	0.0100756410721
3	7.56440158412e-18
4	0.000517938716021
5	1.1825657088e-18
6	1.02047416071e-05
7	8.9659893743e-19
8	3.77861427802e-06
9	4.45017983611e-19
10	6.10274089086e-06
11	3.08154405318e-19
12	2.58849622864e-06
13	2.15608538687e-19
14	1.60258302262e-06
15	2.3993583339e-19
16	3.06054916817e-06
17	1.87480199602e-19
18	1.07952827361e-06
19	1.39709672405e-19
20	3.57940941806e-07
21	1.35208977423e-19
22	5.30047763991e-07
23	1.50869751742e-19
24	4.04977620376e-07
25	1.23018079035e-19
26	1.88948197436e-07
27	1.4412627257e-19
28	2.82193843229e-07
29	1.04435772061e-19
30	2.76268391677e-07
31	1.46862682702e-19
32	4.32961134507e-07
33	1.69546685747e-19
34	2.33805583902e-07
35	1.1859826311e-19
36	1.17908771749e-07
37	1.38221409167e-19
38	1.83000204887e-07
39	9.09484265844e-20
40	1.25047603672e-07
41	7.04499480653e-20
42	9.49593129591e-08
43	6.88662843273e-20
44	8.37433558919e-08
45	7.93109485141e-20
46	9.20499020403e-08
47	5.84858909249e-20
48	9.378704494e-08
49	4.48384668607e-20
50	3.29740912026e-08
51	3.68153374779e-20
52	3.63054984778e-08
53	4.21120033798e-20
54	3.36001048392e-08
55	3.31304065783e-20
56	2.70470225927e-08
57	2.94368564076e-20
58	4.38060427768e-08
59	2.34595686105e-20
60	2.93484782428e-08
61	3.80802153398e-20
62	2.00867976702e-08
63	3.02267721366e-20
64	4.28808592142e-08
65	1.90785146292e-20
66	8.81246003736e-09
67	2.74892982579e-20
68	1.2088234898e-08
69	1.35723149314e-20
70	1.07462107794e-08
71	1.36699845459e-20
72	5.97573984221e-09
73	1.4290479669e-20
74	6.86752456613e-09
75	1.11032538626e-20
76	5.42508388201e-09
77	1.37837793725e-20
78	6.75511073502e-09
79	1.91500397538e-20
80	7.61313295054e-09
81	1.31140898733e-20
82	8.33094490396e-09
83	1.29113314597e-20
84	7.93201107125e-09
85	1.20598711107e-20
86	3.19931614959e-09
87	1.03530309973e-20
88	4.26470282541e-09
89	7.85639224376e-21
90	1.56803284387e-09
91	3.32452926587e-21
92	1.78013645444e-09
93	6.54834074322e-21
94	2.79863437194e-09
95	5.58427878302e-21
96	1.89597381813e-09
97	5.12816776486e-21
98	2.25883909307e-09
99	4.85527380276e-21
100	1.40459825113e-09
101	2.14068302067e-21
102	1.60924838839e-09
103	5.02195567584e-21
104	1.03944998481e-09
105	3.44240941059e-21
106	4.81526807114e-10
107	3.47846825641e-21
108	1.55942531292e-09
109	2.74621106503e-21
110	9.47903078697e-10
111	3.46810832752e-21
112	6.38399484742e-10
113	2.29816414187e-21
114	5.06091239125e-10
115	1.21324041853e-21
116	3.90516629566e-10
117	1.36180745066e-21
118	2.7190499911e-10
119	1.01626967372e-21
120	3.3120789552e-10
121	1.21390229906e-21
122	2.21782098445e-10
123	9.03303446096e-22
124	3.01622683214e-10
125	1.02809153657e-21
126	1.93948304753e-10
127	8.53197023344e-22
128	1.52148661406e-10
129	6.60371869784e-22
130	1.55759409189e-10
131	8.03753523079e-22
132	1.23683725165e-10
133	4.55201142252e-22
134	1.00162928595e-10
135	3.57758308861e-22
136	8.062961411e-11
137	2.60904287837e-22
138	6.43462511997e-11
139	3.96731923064e-22
140	7.72243062659e-11
141	2.39803614035e-22
142	4.66731715906e-11
143	2.37698663333e-22
144	8.58234053494e-11
145	3.53483704368e-22
146	6.85801826777e-11
147	3.23011074112e-22
148	4.93663927881e-11
149	1.92639622235e-22
150	5.46299818904e-11
151	2.30707133199e-22
152	4.46347148883e-11
153	1.29957288123e-22
154	2.25497406219e-11
155	7.84626969288e-23
156	2.83563617913e-11
157	1.3641972575e-22
158	2.42092124419e-11
159	1.14998890469e-22
160	1.74772685346e-11
161	1.13239241735e-22
162	1.66714972617e-11
163	1.39788066665e-22
164	2.5015597919e-11
165	1.72080825227e-22
166	1.92345100665e-11
167	1.53262360492e-22
168	1.90117502915e-11
169	1.1524218625e-22
170	1.26332586832e-11
171	9.0469000865e-23
172	1.11495743937e-11
173	7.10489992461e-23
174	9.01828076357e-12
175	5.08829487482e-23
176	6.24022446108e-12
177	5.34554068488e-23
178	6.48465287553e-12
179	4.15973401254e-23
180	6.15548978048e-12
181	4.59350581075e-23
182	5.45519558767e-12
183	5.73788650391e-23
184	8.33093442555e-12
185	5.76429748043e-23
186	6.35382732834e-12
187	3.52209797581e-23
188	3.87224815763e-12
189	2.1329826996e-23
190	3.2361279066e-12
191	2.4276197075e-23
192	2.82428773875e-12
193	3.32332577709e-23
194	4.90893518208e-12
195	3.3140737239e-23
196	3.58109753739e-12
197	4.33645020844e-23
198	5.3051243312e-12
199	3.85458701285e-23
200	3.59197436621e-12
201	2.10911312433e-23
202	2.25302053042e-12
203	1.85567809973e-23
204	2.81437681337e-12
205	1.85316501469e-23
206	1.92847811882e-12
207	2.1904229513e-23
208	2.7984076329e-12
209	1.94628039763e-23
210	2.02658894588e-12
211	2.01129535321e-23
212	2.32067646685e-12
213	2.21946279499e-23
214	1.70188182415e-12
215	1.18027122147e-23
216	1.55935954418e-12
217	1.27087418677e-23
218	1.44160162913e-12
219	1.57349123756e-23
220	2.10434158622e-12
221	1.49727935719e-23
222	1.29908109341e-12
223	1.29910868216e-23
224	1.18218465387e-12
225	9.06130971203e-24
226	8.30402381251e-13
227	9.05160338375e-24
228	8.38852810534e-13
229	8.30662424604e-24
230	1.17163881495e-12
231	1.03235849507e-23
232	9.75501706565e-13
233	1.18102228106e-23
234	1.25206668005e-12
235	8.38604915031e-24
236	5.2224806259e-13
237	5.37045029889e-24
238	5.44403143646e-13
239	5.52106872144e-24
240	5.96692871178e-13
241	5.28324180633e-24
242	5.09602715651e-13
243	5.66837130686e-24
244	6.64168430964e-13
245	5.28803853403e-24
246	4.74876716955e-13
247	4.97762709793e-24
248	4.84331442395e-13
249	4.41709912886e-24
250	2.87558695369e-13
251	3.32850928255e-24
252	3.5024574465e-13
253	4.15330071427e-24
254	3.63892244439e-13
255	4.65317969578e-24
256	4.54551755783e-13
257	4.00825745844e-24
258	3.01336059818e-13
259	3.172025872e-24
260	2.9497492641e-13
261	2.66058346415e-24
262	1.70053286975e-13
263	2.09614993202e-24
264	1.79207344194e-13
265	2.06383329569e-24
266	2.24013680223e-13
267	3.29597558756e-24
268	2.81117447524e-13
269	3.50112061768e-24
270	2.75818978335e-13
271	2.58927387852e-24
272	1.54555911087e-13
273	1.76577669812e-24
274	1.32227847916e-13
275	1.49654400503e-24
276	1.12576507575e-13
277	1.47382575799e-24
278	1.14414401972e-13
279	1.7367319994e-24
280	1.49392876155e-13
281	2.22945516081e-24
282	1.50877170491e-13
283	2.00961977007e-24
284	1.23712149129e-13
285	1.53086804339e-24
286	8.69363138696e-14
287	1.15354995372e-24
288	8.10575292414e-14
289	1.07222918253e-24
290	7.5114695172e-14
291	1.017596669e-24
292	7.33636821655e-14
293	1.0426717012e-24
294	7.02234016308e-14
295	1.14813759451e-24
296	7.35100128094e-14
297	1.05443281307e-24
298	5.36490462941e-14
299	8.82326042552e-25
300	4.97932752347e-14
301	7.90814768734e-25
302	4.60351762124e-14
303	7.20520641044e-25
304	4.1794284113e-14
305	6.02215465564e-25
306	3.70477309776e-14
307	5.20915836921e-25
308	2.92926249693e-14
309	4.7308417054e-25
310	2.84880316725e-14
311	4.26544239079e-25
312	2.27075621263e-14
313	3.95954075732e-25
314	2.32507409998e-14
315	4.53365271376e-25
316	2.43626431027e-14
317	4.40329198999e-25
318	2.05833699755e-14
319	3.85066807827e-25
320	1.83882369247e-14
321	3.55637162063e-25
322	1.67084396201e-14
323	3.13741427503e-25
324	1.54471803996e-14
325	2.55166847573e-25
326	1.21169072865e-14
327	1.98219449575e-25
328	9.88171887021e-15
329	2.05232194911e-25
330	9.58097696614e-15
331	1.90146441316e-25
332	8.2662412065e-15
333	2.0676514099e-25
334	9.33666465805e-15
335	2.36777938109e-25
336	9.82565546934e-15
337	2.02718522137e-25
338	7.80483972239e-15
339	1.47137085454e-25
340	5.49445635287e-15
341	9.26985869281e-26
342	3.43290737828e-15
343	8.88721237449e-26
344	3.9927452156e-15
345	1.06236150222e-25
346	4.08095948495e-15
347	1.21594444298e-25
348	4.94939443808e-15
349	1.50677653966e-25
350	5.51521555477e-15
351	1.25227252434e-25
352	3.63923067279e-15
353	8.43380980965e-26
354	2.65761287695e-15
355	5.93414792142e-26
356	1.76336892792e-15
357	4.83569734144e-26
358	1.85928967749e-15
359	5.67468979214e-26
360	2.17202870817e-15
361	5.19526011639e-26
362	1.85168672583e-15
363	6.1702437268e-26
364	2.08833770268e-15
365	5.13106041589e-26
366	1.25179496756e-15
367	3.16894896179e-26
368	9.07894689478e-16
369	3.16079565528e-26
370	1.18028873191e-15
371	2.93817750382e-26
372	9.66137948764e-16
373	3.13559351362e-26
374	1.14802124545e-15
375	2.91515098808e-26
376	8.01154012981e-16
377	2.40250646251e-26
378	6.77565067055e-16
379	2.56216529864e-26
380	6.7539465236e-16
381	1.67477511812e-26
382	4.32354810664e-16
383	2.26551997698e-26
384	7.91388772344e-16
385	2.20902722401e-26
386	6.35898160471e-16
387	1.99231127405e-26
388	5.24784422059e-16
389	1.53349932959e-26
390	4.36528517334e-16
391	1.0562856914e-26
392	2.62545027383e-16
393	1.1250757539e-26
394	3.48119000177e-16
395	9.75028602729e-27
396	2.92050738088e-16
397	1.10173305464e-26
398	3.43277590346e-16
399	1.2148907174e-26
400	3.70638267818e-16
401	9.88693247017e-27
402	2.30898952366e-16
403	9.11953670463e-27
404	2.69128874404e-16
405	8.68726101217e-27
406	2.22330654962e-16
407	6.84387216579e-27
408	2.03687835444e-16
409	7.42115851191e-27
410	2.15143643852e-16
411	6.53515577592e-27
412	1.67202450232e-16
413	7.35348278806e-27
414	1.88054056567e-16
415	5.557770377e-27
416	1.48180486596e-16
417	5.35424196199e-27
418	1.5107032818e-16
419	6.07141298464e-27
420	1.61366390842e-16
421	4.67492992998e-27
422	1.23715875712e-16
423	4.42633624741e-27
424	1.26664589652e-16
425	4.0176271458e-27
426	1.03539075757e-16
427	4.40115973391e-27
428	9.30881224415e-17
429	3.65893844497e-27
430	9.41191081619e-17
431	3.72293321041e-27
432	8.76238463465e-17
433	3.31956224115e-27
434	8.97268672694e-17
435	3.76880955323e-27
436	7.89614729999e-17
437	2.84898792513e-27
438	7.18760522568e-17
439	3.45675549006e-27
440	6.73574364499e-17
441	2.72617869769e-27
442	5.62163108734e-17
443	2.6080050056e-27
444	5.36453288079e-17
445	2.63157386016e-27
446	5.08208294632e-17
447	2.30133075534e-27
448	4.59175052575e-17
449	2.37173293074e-27
450	4.43662691419e-17
451	2.06672565647e-27
452	4.15390802451e-17
453	2.32221621886e-27
454	3.70657185842e-17
455	2.16412117056e-27
456	3.33642988274e-17
457	1.88839064856e-27
458	2.95210773959e-17
459	1.87188437417e-27
460	2.78612902801e-17
461	1.76754771152e-27
462	2.47598704109e-17
463	1.92688868211e-27
464	2.29851839793e-17
465	1.85349742485e-27
466	2.21206255818e-17
467	1.70248007551e-27
468	1.88837262666e-17
469	1.65961359188e-27
470	1.74445077709e-17
471	1.52795433449e-27
472	1.64201342524e-17
473	1.91119903775e-27
474	1.42230262021e-17
475	1.63708459617e-27
476	1.3358674088e-17
477	1.87737094065e-27
478	1.16146228875e-17
479	1.71827640736e-27
480	1.06250363973e-17
481	1.96011733405e-27
482	9.36239185931e-18
483	1.60913800032e-27
484	8.5030746484e-18
485	2.19612502783e-27
486	8.35085762211e-18
487	2.16443253534e-27
488	7.05310780364e-18
489	2.6039983206e-27
490	6.76920819931e-18
491	2.75865669846e-27
492	5.98050194486e-18
493	2.77346507567e-27
494	5.09388854002e-18
495	2.44478274294e-27
496	4.82636527238e-18
497	3.21891168667e-27
498	4.41532489779e-18
499	3.02691645389e-27
500	4.2528222072e-18
501	4.11567216375e-27
502	3.78282289223e-18
503	3.80343255913e-27
504	3.77945623488e-18
505	5.2415087603e-27
506	3.62708075488e-18
507	5.36268688052e-27
508	3.20620601744e-18
509	5.78050209972e-27
510	3.27678272111e-18
511	9.79948394078e-27
512	3.21833959233e-18
513	9.79948394078e-27
514	3.27678271985e-18
515	5.78050209972e-27
516	3.20620601723e-18
517	5.36268688052e-27
518	3.62708075479e-18
519	5.2415087603e-27
520	3.77945623485e-18
521	3.80343255913e-27
522	3.78282289219e-18
523	4.11567216375e-27
524	4.25282220714e-18
525	3.02691645389e-27
526	4.41532489793e-18
527	3.21891168667e-27
528	4.82636527246e-18
529	2.44478274294e-27
530	5.09388854012e-18
531	2.77346507568e-27
532	5.98050194483e-18
533	2.75865669846e-27
534	6.76920819924e-18
535	2.6039983206e-27
536	7.05310780367e-18
537	2.16443253534e-27
538	8.350857622e-18
539	2.19612502783e-27
540	8.50307464847e-18
541	1.60913800032e-27
542	9.36239185855e-18
543	1.96011733405e-27
544	1.06250363973e-17
545	1.71827640736e-27
546	1.16146228874e-17
547	1.87737094065e-27
548	1.3358674088e-17
549	1.63708459617e-27
550	1.42230262023e-17
551	1.91119903775e-27
552	1.64201342524e-17
553	1.52795433449e-27
554	1.74445077707e-17
555	1.65961359188e-27
556	1.88837262666e-17
557	1.70248007551e-27
558	2.21206255823e-17
559	1.85349742485e-27
560	2.29851839793e-17
561	1.92688868211e-27
562	2.47598704114e-17
563	1.76754771152e-27
564	2.78612902803e-17
565	1.87188437417e-27
566	2.95210773962e-17
567	1.88839064856e-27
568	3.33642988274e-17
569	2.16412117056e-27
570	3.70657185845e-17
571	2.32221621886e-27
572	4.15390802451e-17
573	2.06672565647e-27
574	4.43662691426e-17
575	2.37173293075e-27
576	4.59175052575e-17
577	2.30133075534e-27
578	5.0820829463e-17
579	2.63157386016e-27
580	5.36453288076e-17
581	2.6080050056e-27
582	5.62163108725e-17
583	2.72617869769e-27
584	6.73574364498e-17
585	3.45675549006e-27
586	7.18760522562e-17
587	2.84898792513e-27
588	7.89614729997e-17
589	3.76880955323e-27
590	8.97268672702e-17
591	3.31956224115e-27
592	8.76238463465e-17
593	3.72293321041e-27
594	9.41191081622e-17
595	3.65893844496e-27
596	9.30881224412e-17
597	4.40115973391e-27
598	1.03539075757e-16
599	4.0176271458e-27
600	1.26664589652e-16
601	4.42633624741e-27
602	1.23715875711e-16
603	4.67492992998e-27
604	1.61366390843e-16
605	6.07141298464e-27
606	1.5107032818e-16
607	5.35424196198e-27
608	1.48180486596e-16
609	5.55777037699e-27
610	1.8805405657e-16
611	7.35348278806e-27
612	1.67202450232e-16
613	6.53515577592e-27
614	2.15143643853e-16
615	7.42115851191e-27
616	2.03687835444e-16
617	6.84387216579e-27
618	2.22330654962e-16
619	8.68726101217e-27
620	2.69128874404e-16
621	9.11953670463e-27
622	2.30898952368e-16
623	9.88693247017e-27
624	3.70638267818e-16
625	1.2148907174e-26
626	3.43277590346e-16
627	1.10173305464e-26
628	2.92050738087e-16
629	9.75028602729e-27
630	3.48119000177e-16
631	1.1250757539e-26
632	2.62545027384e-16
633	1.05628569141e-26
634	4.36528517335e-16
635	1.53349932959e-26
636	5.24784422062e-16
637	1.99231127405e-26
638	6.35898160476e-16
639	2.20902722401e-26
640	7.91388772344e-16
641	2.26551997698e-26
642	4.3235481067e-16
643	1.67477511812e-26
644	6.75394652359e-16
645	2.56216529864e-26
646	6.77565067054e-16
647	2.40250646251e-26
648	8.01154012981e-16
649	2.91515098808e-26
650	1.14802124545e-15
651	3.13559351362e-26
652	9.66137948764e-16
653	2.93817750382e-26
654	1.18028873191e-15
655	3.16079565528e-26
656	9.07894689478e-16
657	3.16894896179e-26
658	1.25179496755e-15
659	5.13106041589e-26
660	2.08833770269e-15
661	6.1702437268e-26
662	1.85168672583e-15
663	5.19526011639e-26
664	2.17202870817e-15
665	5.67468979214e-26
666	1.85928967749e-15
667	4.83569734144e-26
668	1.76336892792e-15
669	5.93414792142e-26
670	2.65761287695e-15
671	8.43380980965e-26
672	3.63923067279e-15
673	1.25227252434e-25
674	5.51521555478e-15
675	1.50677653966e-25
676	4.94939443808e-15
677	1.21594444298e-25
678	4.08095948495e-15
679	1.06236150222e-25
680	3.9927452156e-15
681	8.88721237449e-26
682	3.43290737828e-15
683	9.26985869281e-26
684	5.49445635287e-15
685	1.47137085454e-25
686	7.80483972238e-15
687	2.02718522137e-25
688	9.82565546934e-15
689	2.36777938109e-25
690	9.33666465804e-15
691	2.0676514099e-25
692	8.2662412065e-15
693	1.90146441316e-25
694	9.58097696614e-15
695	2.05232194911e-25
696	9.88171887021e-15
697	1.98219449575e-25
698	1.21169072865e-14
699	2.55166847573e-25
700	1.54471803996e-14
701	3.13741427503e-25
702	1.67084396201e-14
703	3.55637162063e-25
704	1.83882369247e-14
705	3.85066807827e-25
706	2.05833699755e-14
707	4.40329198999e-25
708	2.43626431027e-14
709	4.53365271376e-25
710	2.32507409998e-14
711	3.95954075732e-25
712	2.27075621263e-14
713	4.26544239079e-25
714	2.84880316725e-14
715	4.7308417054e-25
716	2.92926249693e-14
717	5.20915836921e-25
718	3.70477309776e-14
719	6.02215465564e-25
720	4.1794284113e-14
721	7.20520641043e-25
722	4.60351762124e-14
723	7.90814768734e-25
724	4.97932752347e-14
725	8.82326042552e-25
726	5.36490462941e-14
727	1.05443281307e-24
728	7.35100128094e-14
729	1.14813759451e-24
730	7.02234016308e-14
731	1.0426717012e-24
732	7.33636821655e-14
733	1.017596669e-24
734	7.5114695172e-14
735	1.07222918253e-24
736	8.10575292414e-14
737	1.15354995372e-24
738	8.69363138696e-14
739	1.53086804339e-24
740	1.23712149129e-13
741	2.00961977007e-24
742	1.50877170491e-13
743	2.22945516081e-24
744	1.49392876155e-13
745	1.7367319994e-24
746	1.14414401972e-13
747	1.47382575799e-24
748	1.12576507575e-13
749	1.49654400503e-24
750	1.32227847916e-13
751	1.76577669812e-24
752	1.54555911087e-13
753	2.58927387852e-24
754	2.75818978335e-13
755	3.50112061768e-24
756	2.81117447524e-13
757	3.29597558756e-24
758	2.24013680223e-13
759	2.06383329569e-24
760	1.79207344194e-13
761	2.09614993202e-24
762	1.70053286975e-13
763	2.66058346415e-24
764	2.9497492641e-13
765	3.172025872e-24
766	3.01336059818e-13
767	4.00825745844e-24
768	4.54551755783e-13
769	4.65317969578e-24
770	3.63892244439e-13
771	4.15330071427e-24
772	3.5024574465e-13
773	3.32850928255e-24
774	2.87558695369e-13
775	4.41709912886e-24
776	4.84331442395e-13
777	4.97762709793e-24
778	4.74876716955e-13
779	5.28803853403e-24
780	6.64168430964e-13
781	5.66837130686e-24
782	5.09602715651e-13
783	5.28324180633e-24
784	5.96692871177e-13
785	5.52106872144e-24
786	5.44403143646e-13
787	5.37045029889e-24
788	5.2224806259e-13
789	8.38604915031e-24
790	1.25206668005e-12
791	1.18102228106e-23
792	9.75501706565e-13
793	1.03235849507e-23
794	1.17163881495e-12
795	8.30662424604e-24
796	8.38852810534e-13
797	9.05160338375e-24
798	8.30402381251e-13
799	9.06130971203e-24
800	1.18218465387e-12
801	1.29910868216e-23
802	1.29908109341e-12
803	1.49727935719e-23
804	2.10434158622e-12
805	1.57349123756e-23
806	1.44160162913e-12
807	1.27087418677e-23
808	1.55935954418e-12
809	1.18027122147e-23
810	1.70188182415e-12
811	2.21946279499e-23
812	2.32067646685e-12
813	2.01129535321e-23
814	2.02658894588e-12
815	1.94628039763e-23
816	2.7984076329e-12
817	2.1904229513e-23
818	1.92847811882e-12
819	1.85316501469e-23
820	2.81437681337e-12
821	1.85567809973e-23
822	2.25302053042e-12
823	2.10911312433e-23
824	3.59197436621e-12
825	3.85458701285e-23
826	5.3051243312e-12
827	4.33645020844e-23
828	3.58109753739e-12
829	3.3140737239e-23
830	4.90893518208e-12
831	3.32332577709e-23
832	2.82428773875e-12
833	2.4276197075e-23
834	3.2361279066e-12
835	2.1329826996e-23
836	3.87224815763e-12
837	3.52209797581e-23
838	6.35382732834e-12
839	5.76429748043e-23
840	8.33093442555e-12
841	5.73788650391e-23
842	5.45519558768e-12
843	4.59350581075e-23
844	6.15548978048e-12
845	4.15973401254e-23
846	6.48465287553e-12
847	5.34554068488e-23
848	6.24022446108e-12
849	5.08829487482e-23
850	9.01828076357e-12
851	7.10489992461e-23
852	1.11495743937e-11
853	9.0469000865e-23
854	1.26332586832e-11
855	1.1524218625e-22
856	1.90117502915e-11
857	1.53262360492e-22
858	1.92345100665e-11
859	1.72080825227e-22
860	2.5015597919e-11
861	1.39788066665e-22
862	1.66714972617e-11
863	1.13239241735e-22
864	1.74772685346e-11
865	1.14998890469e-22
866	2.42092124419e-11
867	1.3641972575e-22
868	2.83563617913e-11
869	7.84626969288e-23
870	2.25497406219e-11
871	1.29957288123e-22
872	4.46347148883e-11
873	2.30707133199e-22
874	5.46299818904e-11
875	1.92639622235e-22
876	4.93663927881e-11
877	3.23011074112e-22
878	6.85801826777e-11
879	3.53483704368e-22
880	8.58234053494e-11
881	2.37698663333e-22
882	4.66731715906e-11
883	2.39803614035e-22
884	7.72243062659e-11
885	3.96731923064e-22
886	6.43462511997e-11
887	2.60904287837e-22
888	8.062961411e-11
889	3.57758308861e-22
890	1.00162928595e-10
891	4.55201142252e-22
892	1.23683725165e-10
893	8.03753523079e-22
894	1.55759409189e-10
895	6.60371869784e-22
896	1.52148661406e-10
897	8.53197023344e-22
898	1.93948304753e-10
899	1.02809153657e-21
900	3.01622683214e-10
901	9.03303446096e-22
902	2.21782098445e-10
903	1.21390229906e-21
904	3.3120789552e-10
905	1.01626967372e-21
906	2.7190499911e-10
907	1.36180745066e-21
908	3.90516629566e-10
909	1.21324041853e-21
910	5.06091239125e-10
911	2.29816414187e-21
912	6.38399484742e-10
913	3.46810832752e-21
914	9.47903078697e-10
915	2.74621106503e-21
916	1.55942531292e-09
917	3.47846825641e-21
918	4.81526807114e-10
919	3.44240941059e-21
920	1.03944998481e-09
921	5.02195567584e-21
922	1.60924838839e-09
923	2.14068302067e-21
924	1.40459825113e-09
925	4.85527380276e-21
926	2.25883909307e-09
927	5.12816776486e-21
928	1.89597381813e-09
929	5.58427878302e-21
930	2.79863437194e-09
931	6.54834074322e-21
932	1.78013645444e-09
933	3.32452926587e-21
934	1.56803284387e-09
935	7.85639224376e-21
936	4.26470282541e-09
937	1.03530309973e-20
938	3.19931614959e-09
939	1.20598711107e-20
940	7.93201107125e-09
941	1.29113314597e-20
942	8.33094490396e-09
943	1.31140898733e-20
944	7.61313295054e-09
945	1.91500397538e-20
946	6.75511073502e-09
947	1.37837793725e-20
948	5.42508388201e-09
949	1.11032538626e-20
950	6.86752456613e-09
951	1.4290479669e-20
952	5.97573984221e-09
953	1.36699845459e-20
954	1.07462107794e-08
955	1.35723149314e-20
956	1.2088234898e-08
957	2.74892982579e-20
958	8.81246003735e-09
959	1.90785146292e-20
960	4.28808592142e-08
961	3.02267721366e-20
962	2.00867976702e-08
963	3.80802153398e-20
964	2.93484782428e-08
965	2.34595686105e-20
966	4.38060427768e-08
967	2.94368564076e-20
968	2.70470225927e-08
969	3.31304065783e-20
970	3.36001048392e-08
971	4.21120033798e-20
972	3.63054984778e-08
973	3.68153374779e-20
974	3.29740912026e-08
975	4.48384668607e-20
976	9.378704494e-08
977	5.84858909249e-20
978	9.20499020403e-08
979	7.93109485141e-20
980	8.37433558919e-08
981	6.88662843273e-20
982	9.49593129591e-08
983	7.04499480653e-20
984	1.25047603672e-07
985	9.09484265844e-20
986	1.83000204887e-07
987	1.38221409167e-19
988	1.17908771749e-07
989	1.1859826311e-19
990	2.33805583902e-07
991	1.69546685747e-19
992	4.32961134507e-07
993	1.46862682702e-19
994	2.76268391677e-07
995	1.04435772061e-19
996	2.82193843229e-07
997	1.4412627257e-19
998	1.88948197436e-07
999	1.23018079035e-19
1000	4.04977620376e-07
1001	1.50869751742e-19
1002	5.30047763991e-07
1003	1.35208977423e-19
1004	3.57940941806e-07
1005	1.39709672405e-19
1006	1.07952827361e-06
1007	1.87480199602e-19
1008	3.06054916817e-06
1009	2.3993583339e-19
1010	1.60258302262e-06
1011	2.15608538687e-19
1012	2.58849622864e-06
1013	3.08154405318e-19
1014	6.10274089086e-06
1015	4.45017983611e-19
1016	3.77861427802e-06
1017	8.9659893743e-19
1018	1.02047416071e-05
1019	1.1825657088e-18
1020	0.000517938716021
1021	7.56440158412e-18
1022	0.0100756410721
1023	3.57839077541e-17
