# physical_time	scaled_time	kinetic_energy	enstrophy	palinstrophy	div_u_h
0	0.0	0.4822116495017884	37.63382690835509	95219.18092146925	9.141423511881706e-13
0.03571428571428571	1.0	0.48220205216994566	37.60951662692675	95553.98483053442	2.576150991097067e-14
0.07142857142857142	2.0	0.48219246103306523	37.58498834320076	96923.81394647982	2.5919012517124702e-14
0.10714285714285714	3.0	0.4821828762165308	37.55996567564706	99468.96676304365	2.6366753362658388e-14
0.14285714285714285	4.0	0.4821732979015161	37.534120784228065	103419.66592839832	2.6820228825571443e-14
0.17857142857142855	5.0	0.4821637263609603	37.5070329508536	109370.59008085428	2.7214027882851813e-14
0.21428571428571427	6.0	0.48215416201615346	37.47804428116891	118586.86887559536	2.742905235363749e-14
0.24999999999999997	7.0	0.4821446055087983	37.4460656066409	133356.59321284827	2.7646110049391024e-14
0.2857142857142857	8.0	0.48213505779854593	37.40921389406355	157594.75480354286	2.822720778968068e-14
0.3214285714285714	9.0	0.48212552038584516	37.36433673349093	197454.8402704477	2.8811514118472214e-14
0.3571428571428571	10.0	0.48211599580090864	37.306216157816074	263194.0587666154	2.923538527016936e-14
0.3928571428571428	10.999999999999998	0.4821064883400259	37.22701955595995	364273.08541110926	2.941502344679002e-14
0.42857142857142855	12.0	0.48209700464086175	37.11785839498609	495389.82628621114	2.920933559559437e-14
0.46428571428571425	13.0	0.4820875532108375	36.9742816414128	627571.5188824026	2.8934602534798274e-14
0.49999999999999994	14.0	0.48207814259587695	36.799786094980874	733190.5303449307	2.90478451760374e-14
0.5357142857142857	15.0	0.48206877962540035	36.602653965342796	804753.107714171	2.905567974347598e-14
0.5714285714285714	16.0	0.4820594688444427	36.392228040492995	839451.2526813934	2.913879962066976e-14
0.6071428571428571	17.0	0.48205021252539687	36.177037774662146	841969.4252353333	2.9077140503833783e-14
0.6428571428571428	18.0	0.48204101081111267	35.965635913405826	810889.3509970463	2.909267508005166e-14
0.6785714285714285	19.0	0.4820318618380155	35.76406251254749	771808.4916418171	2.9051874468757644e-14
0.7142857142857142	20.0	0.48202276318185394	35.570344821722216	753611.5041244378	2.9266697097916835e-14
0.7499999999999999	20.999999999999996	0.48201371373282914	35.377656131059595	761373.68932273	2.9457946169843323e-14
0.7857142857142856	21.999999999999996	0.482004713857207	35.18163693835608	777830.3592789273	2.978438203643023e-14
0.8214285714285713	22.999999999999996	0.48199576456455556	34.98171902271887	788551.619725362	3.0072822563115895e-14
0.8571428571428571	24.0	0.4819868665046563	34.78166503574837	777756.6260750209	3.0707992292723744e-14
0.8928571428571428	25.0	0.4819780188776546	34.58879851261152	733103.3325053079	3.078783258952315e-14
0.9285714285714285	26.0	0.48196921889824934	34.409777721782454	668947.2330714061	3.138098810054023e-14
0.9642857142857142	27.0	0.48196046256027286	34.24892012378882	592170.5772315045	3.1804241968627716e-14
0.9999999999999999	28.0	0.48195174528247586	34.10554371767085	539676.2358274815	3.2911530684336316e-14
1.0357142857142856	28.999999999999996	0.48194306383543195	33.971631289613	516160.2072137554	3.447353244107077e-14
1.0714285714285714	30.0	0.48193441639038886	33.8448538113663	482148.7744871709	3.791117144962608e-14
1.107142857142857	30.999999999999996	0.4819258005716335	33.72698749033742	445091.10692605784	4.089045127936072e-14
1.1428571428571428	32.0	0.48191721352212374	33.61889162881948	402673.6314967819	4.067044082219661e-14
1.1785714285714284	33.0	0.48190865181290865	33.5214118845247	366411.6653963246	3.5530297865144214e-14
1.2142857142857142	34.0	0.48190011244496056	33.43092261952448	347115.2458140313	3.2808348905695795e-14
1.2499999999999998	34.99999999999999	0.48189159379932656	33.34393224206196	337040.00578966306	3.68726486667326e-14
1.2857142857142856	36.0	0.48188309582083194	33.258942863394644	330032.9161277655	3.9009858464476564e-14
1.3214285714285712	36.99999999999999	0.481874619276795	33.17570004075873	323066.3829079247	3.704177621697479e-14
1.357142857142857	38.0	0.4818661645675936	33.09309107167598	329049.4131260142	3.4057737910372457e-14
1.3928571428571428	39.0	0.48185773222446293	33.00518385262722	365650.8035865993	3.253573592183987e-14
1.4285714285714284	40.0	0.4818493243381817	32.90398047948038	430841.691243343	3.169581923496166e-14
1.4642857142857142	41.0	0.4818409447563084	32.784959429128236	500509.7630462369	3.170938213342721e-14
1.4999999999999998	41.99999999999999	0.4818325977797655	32.650091364632225	553985.0364797001	3.1811996971178796e-14
1.5357142857142856	43.0	0.4818242869053671	32.50323220799127	597020.1013624215	3.133656338218607e-14
1.5714285714285712	43.99999999999999	0.4818160148246209	32.34699484231062	625354.6927866914	3.140896674429041e-14
1.607142857142857	45.0	0.4818077832295534	32.186739278330755	626473.7101865821	3.160162674479158e-14
1.6428571428571426	45.99999999999999	0.4817995924158639	32.028079004237334	618304.9168549402	3.15699673611326e-14
1.6785714285714284	47.0	0.48179144209125735	31.869722657741406	625215.9978079273	3.16417150044791e-14
1.7142857142857142	48.0	0.4817833325347425	31.708598440945345	636581.7186338323	3.185656324214882e-14
1.7499999999999998	49.0	0.48177526436192114	31.54543225399887	641136.6712306484	3.2412292121416966e-14
1.7857142857142856	50.0	0.48176723794062654	31.38138270959704	645864.8392383243	3.2779320835342164e-14
1.8214285714285712	50.99999999999999	0.48175925361550576	31.215324366268597	656236.8028795186	3.2986386236986034e-14
1.857142857142857	52.0	0.48175131197901716	31.04661686986347	665252.8102152438	3.2976801505036625e-14
1.8928571428571426	52.99999999999999	0.4817434136202605	30.876161774666844	670930.3787396251	3.2532207941460035e-14
1.9285714285714284	54.0	0.4817355590062348	30.70363115496416	683541.8687077755	3.240319239500412e-14
1.964285714285714	54.99999999999999	0.48172774892994524	30.526867176908922	702126.3404877814	3.273606977567275e-14
1.9999999999999998	56.0	0.4817199844696794	30.34627232344991	711061.4384753046	3.264317246922429e-14
2.0357142857142856	57.0	0.48171226615851576	30.1654650638655	704265.4575657465	3.223764758325468e-14
2.071428571428571	57.99999999999999	0.48170459362145673	29.987846869261766	686813.1399403928	3.207970566502961e-14
2.1071428571428568	58.99999999999999	0.48169696576370474	29.81587595237201	658918.6141036123	3.189049084093176e-14
2.142857142857143	60.0	0.48168938072890316	29.653222961530744	612948.5545515658	3.187337036051357e-14
2.1785714285714284	61.0	0.481681835555232	29.504290437186473	553815.0485872272	3.187022998810327e-14
2.214285714285714	61.99999999999999	0.48167432651672065	29.36995709406265	502058.2611553631	3.1918466266257604e-14
2.2499999999999996	62.99999999999999	0.4816668503156203	29.24634818804279	470366.040023362	3.256159849260058e-14
2.2857142857142856	64.0	0.48165940485035724	29.128411754396243	456940.52554704703	3.27074348732538e-14
2.321428571428571	65.0	0.4816519891323201	29.011732912964728	461119.26692381414	3.213463896581265e-14
2.3571428571428568	66.0	0.4816446033829987	28.89141289633887	485095.66721629334	3.15966533094999e-14
2.392857142857143	67.0	0.48163724925153767	28.763448656111507	517927.5680126755	3.1943939506710153e-14
2.4285714285714284	68.0	0.48162992887391237	28.628240482442727	537890.1730651853	3.280925801927755e-14
2.464285714285714	69.0	0.4816226434126698	28.491765893239034	526511.9068201793	3.3972905558338583e-14
2.4999999999999996	69.99999999999999	0.48161539207389875	28.361835762231248	489529.4574466488	3.442726221152084e-14
2.5357142857142856	71.0	0.4816081725284535	28.242348691237847	447354.99414517474	3.3287456846048676e-14
2.571428571428571	72.0	0.48160098203616925	28.133462527574984	407037.75536257087	3.2231219225961753e-14
2.6071428571428568	73.0	0.4815938179842778	28.034088512884477	373539.3387164613	3.27785692196198e-14
2.6428571428571423	73.99999999999999	0.4815866781799514	27.94184755836776	351590.8991053141	3.368372111520459e-14
2.6785714285714284	75.0	0.48157956117415457	27.853873564146443	338549.89309977426	3.358493727904384e-14
2.714285714285714	76.0	0.4815724661551469	27.769280449637307	323456.90915985696	3.2481169500852113e-14
2.7499999999999996	76.99999999999999	0.4815653922255248	27.689573384412896	299804.51719319646	3.201755399046946e-14
2.7857142857142856	78.0	0.4815583379056199	27.616440911583183	273099.2334817351	3.203626888338055e-14
2.821428571428571	79.0	0.4815513014258963	27.54999856534757	248038.2942591751	3.222389970671773e-14
2.8571428571428568	80.0	0.4815442811245497	27.489407865317656	228010.317754767	3.212088323001662e-14
2.8928571428571423	80.99999999999999	0.4815372757029608	27.43300474995074	214952.52781649772	3.195113421847368e-14
2.9285714285714284	82.0	0.4815302843192274	27.379438711229646	205043.53787299411	3.189586616044671e-14
2.964285714285714	83.0	0.48152330630632795	27.32826339433852	196518.11296383248	3.20094874090775e-14
2.9999999999999996	83.99999999999999	0.48151634108728303	27.27892128199805	190376.86660512284	3.198403597619283e-14
3.0357142857142856	85.0	0.48150938823918565	27.231289024504868	182151.85049924417	3.1896876760195356e-14
3.071428571428571	86.0	0.48150244723312324	27.186385782627884	168994.9807332383	3.183133824594731e-14
3.1071428571428568	87.0	0.48149551724336104	27.1451710342738	154275.64641436972	3.1706257948979225e-14
3.1428571428571423	87.99999999999999	0.4814885973265867	27.10736466371388	142797.13319138196	3.1807527469966815e-14
3.1785714285714284	89.0	0.48148168673213415	27.07188817521448	136076.09188379956	3.1964068123895745e-14
3.214285714285714	90.0	0.4814747850087482	27.037644655396704	132631.2002464029	3.187253262173943e-14
3.2499999999999996	90.99999999999999	0.48146789191849815	27.004187130875447	129409.85855658271	3.20138945695727e-14
3.285714285714285	91.99999999999999	0.4814610072409294	26.971839977951348	123883.21788785592	3.216828599400668e-14
3.321428571428571	93.0	0.481454130629468	26.940982990264082	118358.24645642392	3.206728218492584e-14
3.3571428571428568	94.0	0.481447261731731	26.911283683466397	114692.80867988318	3.196320696705215e-14
3.3928571428571423	94.99999999999999	0.48144040030324137	26.882433900680315	111317.21578108953	3.198072473175214e-14
3.4285714285714284	96.0	0.48143354611952716	26.85453439693076	107365.81138591628	3.191153603595247e-14
3.464285714285714	97.0	0.4814266989244122	26.827668195359394	103166.08380970583	3.2006365719664695e-14
3.4999999999999996	98.0	0.4814198584398332	26.80195248184098	98344.58683435754	3.2030576227521774e-14
3.535714285714285	98.99999999999999	0.4814130243598292	26.777455853112926	93961.53128810893	3.188855294769378e-14
3.571428571428571	100.0	0.4814061964087911	26.753853009430895	91378.99523781725	3.1739098653105135e-14
3.6071428571428568	101.0	0.48139937441178876	26.730764172321297	89556.23356067618	3.182078036350732e-14
3.6428571428571423	101.99999999999999	0.4813925582324786	26.708252285226973	86727.2645272566	3.185938081049597e-14
3.678571428571428	102.99999999999999	0.48138574768621606	26.68661025256616	82801.2732278564	3.1760207390848446e-14
3.714285714285714	104.0	0.4813789425240453	26.666054679841803	78348.04473476461	3.18660330039913e-14
3.7499999999999996	105.0	0.481372142465191	26.64658531617256	74510.8006405364	3.1714031951223264e-14
3.785714285714285	105.99999999999999	0.48136534726400493	26.62793154964879	71820.11463579735	3.188211034575092e-14
3.821428571428571	107.0	0.4813585567347802	26.609972325060433	68798.66810857983	3.18379194981554e-14
3.8571428571428568	108.0	0.48135177068014146	26.59289909011582	65026.196242675964	3.191190069943128e-14
3.8928571428571423	108.99999999999999	0.48134498886478366	26.576707680848884	62205.555256894004	3.1833646350908304e-14
3.928571428571428	109.99999999999999	0.4813382111070482	26.561027184735064	60858.76767409916	3.19048077688181e-14
3.964285714285714	111.0	0.4813314373060505	26.5456853371938	59213.33194935725	3.188899083709688e-14
3.9999999999999996	112.0	0.48132466735080315	26.53090996494265	56523.36442232902	3.189657815359541e-14
4.035714285714286	113.0	0.4813179010743905	26.51683746417694	53903.85564041686	3.1811807642568394e-14
4.071428571428571	114.0	0.4813111383126425	26.503338386020513	52038.15615738401	3.201020684112505e-14
4.107142857142857	115.0	0.4813043789405288	26.490271585453886	50348.250007365285	3.201269996293247e-14
4.142857142857142	115.99999999999999	0.48129762284222277	26.47769446126125	48177.06257554513	3.1854713607808424e-14
4.178571428571428	116.99999999999999	0.48129086987811487	26.465706217111343	45841.63597302593	3.1977917055923305e-14
4.2142857142857135	117.99999999999999	0.4812841199002165	26.454266737402946	43931.074787409525	3.1769509347896034e-14
4.249999999999999	118.99999999999999	0.4812773727845496	26.44324991462055	42483.88436484675	3.190319073459486e-14
4.285714285714286	120.0	0.4812706284322908	26.432589614453896	41063.25493681974	3.182848327923079e-14
4.321428571428571	121.0	0.4812638867497554	26.42229901726283	39668.098583778876	3.179158777679586e-14
4.357142857142857	122.0	0.4812571476505936	26.412308162946836	38736.1318559351	3.174367245269183e-14
4.392857142857142	122.99999999999999	0.4812504110748681	26.40252282459699	37945.196382006405	3.179299667206628e-14
4.428571428571428	123.99999999999999	0.4812436769690322	26.392978198212138	36820.29840459517	3.1772467308326327e-14
4.4642857142857135	124.99999999999999	0.4812369452587072	26.38375298421341	35506.995273902285	3.199770117312173e-14
4.499999999999999	125.99999999999999	0.481230215858232	26.374848704166176	34337.070492189465	3.2006860202926344e-14
4.535714285714286	127.0	0.48122348869136145	26.36622109070615	33329.28411251522	3.1947538730750584e-14
4.571428571428571	128.0	0.48121676369421573	26.35782288110009	32572.183569050172	3.182392583192592e-14
4.607142857142857	129.0	0.4812100408183166	26.349575163169977	32122.28697485946	3.210743486824527e-14
4.642857142857142	130.0	0.48120332003324645	26.34143146080137	31710.360243493942	3.1854141168631776e-14
4.678571428571428	131.0	0.48119660131145614	26.333401871590002	31237.350066296847	3.182178024579755e-14
4.7142857142857135	132.0	0.48118988462355816	26.32548569693499	30853.68276457826	3.202242946882552e-14
4.749999999999999	132.99999999999997	0.48118316994502314	26.31765037176329	30572.70430733197	3.1727414000899566e-14
4.785714285714286	134.0	0.4811764572551341	26.309903990347376	30105.546674978596	3.1789673675775415e-14
4.821428571428571	135.0	0.4811697465227439	26.302320731834754	29295.36455505026	3.191467936016272e-14
4.857142857142857	136.0	0.4811630376962952	26.29497213774561	28321.3429681573	3.1961650548945525e-14
4.892857142857142	137.0	0.48115633071418995	26.287853155657274	27539.00456603856	3.192169672545722e-14
4.928571428571428	138.0	0.48114962552575974	26.28090468829314	26932.373789613503	3.191528444534236e-14
4.9642857142857135	139.0	0.4811429220894304	26.274132263194787	26112.652094129382	3.1662791003496386e-14
4.999999999999999	139.99999999999997	0.48113622035128917	26.267599098710026	25108.591753104927	3.17925532571494e-14
5.035714285714285	140.99999999999997	0.48112952024748956	26.261302858662138	24309.718720700945	3.192136291797941e-14
5.071428571428571	142.0	0.48112282172684695	26.25516901523071	23810.18763402028	3.1870880139210126e-14
5.107142857142857	143.0	0.48111612475607196	26.24914960900865	23380.23354959515	3.182326271097102e-14
5.142857142857142	144.0	0.48110942930703393	26.243237925792787	22983.326551851114	3.1812019783069336e-14
5.178571428571428	145.0	0.48110273535442133	26.23741063690102	22722.417309178683	3.188141112032223e-14
5.2142857142857135	146.0	0.4810960428807504	26.231640939107763	22507.507625091075	3.192257689143039e-14
5.249999999999999	146.99999999999997	0.4810893518717454	26.22593279932546	22232.508946055743	3.194851108520862e-14
5.285714285714285	147.99999999999997	0.4810826623097445	26.22029865396961	21950.806898676252	3.216444199144218e-14
5.321428571428571	149.0	0.48107597417700576	26.214720449377715	21811.242507484767	3.190588034351067e-14
5.357142857142857	150.0	0.48106928746450167	26.209160297024187	21781.82287120057	3.19386829675415e-14
5.392857142857142	151.0	0.48106260216989977	26.203617586483634	21636.870816393788	3.1829816595948754e-14
5.428571428571428	152.0	0.48105591828342	26.198140892334155	21273.531594312157	3.19606062877893e-14
5.4642857142857135	153.0	0.4810492357825449	26.19276176774399	20931.468026173952	3.178613287355403e-14
5.499999999999999	153.99999999999997	0.48104255464681195	26.18743719929127	20858.140611239854	3.1798180749386767e-14
5.535714285714285	154.99999999999997	0.4810358748710656	26.182105644324068	20948.159569777315	3.195137614941968e-14
5.571428571428571	156.0	0.481029196458349	26.17675313230203	21002.87916590306	3.187328929577419e-14
5.607142857142857	157.0	0.48102251940959556	26.171393728640783	21013.822576571132	3.189165242546794e-14
5.642857142857142	158.0	0.4810158437259559	26.16602985483047	21038.93593280007	3.185508409186135e-14
5.678571428571428	159.0	0.4810091694115828	26.160664868798587	20999.864437888293	3.173139880412829e-14
5.7142857142857135	160.0	0.481002496465942	26.15533211586381	20771.253651402865	3.193434840312097e-14
5.749999999999999	160.99999999999997	0.4809958248728175	26.15008701366353	20316.730246491567	3.204767962327667e-14
5.785714285714285	161.99999999999997	0.48098915459882524	26.144977493886906	19736.024357293772	3.193898472412757e-14
5.821428571428571	163.0	0.4809824856044615	26.140012221424872	19215.28374963341	3.200705160504267e-14
5.857142857142857	164.0	0.4809758178587643	26.13515652379054	18893.863305260846	3.19760570474675e-14
5.892857142857142	165.0	0.48096915134495927	26.13034934063345	18839.24924561231	3.197853527223007e-14
5.928571428571428	166.0	0.4809624860589782	26.12552443757307	19017.64730196221	3.19435310673322e-14
5.9642857142857135	167.0	0.4809558220089515	26.120638276330173	19289.88848790439	3.2002684921248336e-14
5.999999999999999	167.99999999999997	0.48094915921180553	26.115689766510265	19483.106171235904	3.188270124890204e-14
6.035714285714285	168.99999999999997	0.48094249768313707	26.110712765077842	19503.25052696042	3.171532956800115e-14
6.071428571428571	170.0	0.48093583742652757	26.10575693778469	19313.347404240765	3.200211463600484e-14
6.107142857142857	171.0	0.48092917842789296	26.100877313681952	18912.953279687707	3.178854444556152e-14
6.142857142857142	172.0	0.4809225206578552	26.096115949166197	18415.13493156028	3.1954397794665554e-14
6.178571428571428	173.0	0.4809158640839909	26.091472996098258	18016.35973560572	3.18668048695228e-14
6.2142857142857135	174.0	0.4809092086840001	26.0869030587704	17853.510577825517	3.1818054229337005e-14
6.249999999999999	174.99999999999997	0.48090255444934377	26.082344580768694	17913.24877716502	3.187355446504912e-14
6.285714285714285	175.99999999999997	0.48089590138170646	26.07775347793726	18090.007331253284	3.189997487248897e-14
6.32142857142857	176.99999999999997	0.48088924948928313	26.07311507236099	18266.12356931071	3.174773480703034e-14
6.357142857142857	178.0	0.4808825987829653	26.068441157238638	18358.93475822273	3.172359103532438e-14
6.392857142857142	179.0	0.48087594927084587	26.063758878320442	18327.65410564785	3.1787760547864974e-14
6.428571428571428	180.0	0.4808693009523685	26.059101450684697	18165.438019579808	3.1772703111569304e-14
6.4642857142857135	181.0	0.48086265381624127	26.054499186267165	17903.92358339158	3.1790934918994175e-14
6.499999999999999	181.99999999999997	0.4808560078439533	26.049969527034403	17609.14483651074	3.185684401554164e-14
6.535714285714285	182.99999999999997	0.4808493630162677	26.0455109372131	17359.011607703265	3.186590058422144e-14
6.57142857142857	183.99999999999997	0.4808427193184439	26.04110394969107	17210.254200248542	3.199617970597346e-14
6.607142857142857	185.0	0.4808360767421253	26.036720616280817	17170.49594615872	3.1735635598942115e-14
6.642857142857142	186.0	0.48082943528463856	26.032337375428128	17201.165789377457	3.1922255974298333e-14
6.678571428571428	187.0	0.48082279494717495	26.02794234384281	17257.68045163759	3.195752652522521e-14
6.7142857142857135	188.0	0.4808161557329251	26.02353177437515	17321.02104950765	3.194420150640065e-14
6.749999999999999	188.99999999999997	0.48080951764606666	26.019105877436477	17373.12383632332	3.211163156083793e-14
6.785714285714285	189.99999999999997	0.48080288069007826	26.01467159828603	17381.277355958195	3.176512875030233e-14
6.82142857142857	190.99999999999997	0.48079624486538297	26.010243550310022	17323.362782910062	3.180183457830348e-14
6.857142857142857	192.0	0.48078961016805283	26.005837982515217	17208.7137597448	3.1855838350483233e-14
6.892857142857142	193.0	0.48078297659059727	26.00146642594158	17060.50720605011	3.179061633193017e-14
6.928571428571428	194.0	0.48077634412362413	25.99713438660126	16904.062788098858	3.1811157056110836e-14
6.9642857142857135	195.0	0.4807697127573375	25.992839148173182	16780.436736747688	3.1852643678837025e-14
6.999999999999999	196.0	0.4807630824840042	25.988565622258854	16741.65143034283	3.184962478010609e-14
7.035714285714285	196.99999999999997	0.4807564533010436	25.9842876720657	16816.33993456716	3.1913826958022255e-14
7.07142857142857	197.99999999999997	0.48074982521293985	25.979977923694918	16983.31575733853	3.1770592800594265e-14
7.107142857142857	199.0	0.4807431982301885	25.97561994589476	17182.481352535866	3.1734130656678825e-14
7.142857142857142	200.0	0.4807365723656663	25.97121492531255	17339.674378797183	3.1935753278127965e-14
7.178571428571428	201.0	0.480729947629544	25.966782232502144	17390.849429547907	3.194225191176921e-14
7.2142857142857135	202.0	0.48072332402488016	25.962353669487282	17305.89438136283	3.1948503184252705e-14
7.249999999999999	203.0	0.4807167015457802	25.95796297015725	17100.87331666652	3.16747173218737e-14
7.285714285714285	203.99999999999997	0.48071008017891176	25.953633598280092	16838.403830191375	3.214460987271144e-14
7.32142857142857	204.99999999999997	0.48070345990797264	25.949369717007503	16600.700476205307	3.193076715155847e-14
7.357142857142856	205.99999999999997	0.4806968407185719	25.94515641657107	16447.965428872896	3.2075206629658405e-14
7.392857142857142	207.0	0.4806902226013601	25.94096976432078	16388.407339982758	3.2247571698874365e-14
7.428571428571428	208.0	0.48068360555236767	25.936790513699712	16380.626622089754	3.2196098478863396e-14
7.4642857142857135	209.0	0.48067698957095456	25.93261266887497	16369.196341423294	3.2343964011783755e-14
7.499999999999999	210.0	0.4806703746567818	25.928441981559164	16322.108158295057	3.2198905331311596e-14
7.535714285714285	210.99999999999997	0.48066376080751333	25.92428832733968	16237.077011630752	3.237572941769008e-14
7.57142857142857	211.99999999999997	0.48065714801833404	25.92016001497544	16126.060054065663	3.2248895973501163e-14
7.607142857142856	212.99999999999997	0.480650536282698	25.916061288315543	16009.50967317668	3.261707550501802e-14
7.642857142857142	214.0	0.48064392559396957	25.911989794574005	15918.513662399877	3.260722841688369e-14
7.678571428571428	215.0	0.48063731594757836	25.90793477326752	15884.280424403767	3.298953488176338e-14
7.7142857142857135	216.0	0.48063070734295066	25.903879795440048	15917.24954460289	3.30102296784801e-14
7.749999999999999	217.0	0.4806240997840999	25.899809396590953	16000.607378297114	3.324415845296905e-14
7.785714285714285	217.99999999999997	0.48061749327860587	25.89571483228353	16100.560650364821	3.37395169521839e-14
7.82142857142857	218.99999999999997	0.4806108878353816	25.891596826474558	16178.233849716948	3.4114948063589647e-14
7.857142857142856	219.99999999999997	0.48060428346227807	25.887465400698098	16201.949637874906	3.453029368212025e-14
7.892857142857142	221.0	0.4805976801641417	25.883336175599606	16161.855214389261	3.5010944070664343e-14
7.928571428571428	222.0	0.48059107794235234	25.87922381775903	16074.305631681378	3.562720010845134e-14
7.9642857142857135	223.0	0.4805844767964084	25.87513661116324	15970.03917458826	3.6258045978957407e-14
7.999999999999999	224.0	0.48057787672677904	25.87107507425	15876.600475648953	3.707738087248969e-14
8.035714285714285	224.99999999999997	0.4805712777375485	25.867034309950423	15808.48469288066	3.78689265018268e-14
8.071428571428571	226.0	0.4805646798384118	25.86300739203529	15769.011885917866	3.8953653468153984e-14
8.107142857142856	226.99999999999997	0.48055808304606823	25.858986891739455	15757.790850292658	3.9675600973302414e-14
8.142857142857142	228.0	0.4805514873847223	25.854965780122065	15773.912147851728	4.0857249333416327e-14
8.178571428571427	228.99999999999997	0.48054489288520696	25.85093806016019	15808.945352443683	4.196679131530648e-14
8.214285714285714	230.0	0.48053829958241656	25.846900560127306	15848.082494136317	4.283994538018225e-14
8.249999999999998	230.99999999999997	0.48053170751087865	25.842854498440786	15876.949023772031	4.3703419764603996e-14
8.285714285714285	231.99999999999997	0.4805251166992345	25.838802515314555	15897.108322173166	4.408383616179315e-14
8.321428571428571	233.0	0.48051852716400134	25.834745222235238	15923.996160040047	4.405773471099146e-14
8.357142857142856	233.99999999999997	0.48051193889823574	25.83067865970834	15974.585939854758	4.368841971251016e-14
8.392857142857142	235.0	0.4805053518511786	25.82659459600636	16067.128758047551	4.243556179631527e-14
8.428571428571427	235.99999999999997	0.4804987659070737	25.822478817114508	16231.163131209962	4.0587169096073185e-14
8.464285714285714	237.0	0.4804921808820689	25.818307160318803	16519.590282959707	3.810341180781177e-14
8.499999999999998	237.99999999999997	0.4804855965490316	25.814034136628532	17057.12205581021	3.57860565319195e-14
8.535714285714285	238.99999999999997	0.4804790126868985	25.809564336722516	18130.98312592837	3.492022900047954e-14
8.571428571428571	240.0	0.4804724291702689	25.80470109760524	20240.028177451008	3.605423511221091e-14
8.607142857142856	240.99999999999997	0.4804658461052129	25.799099147704773	24034.97020046708	3.791302199118508e-14
8.642857142857142	242.0	0.48045926393387606	25.792253477916546	30027.28687991971	3.9569113633506473e-14
8.678571428571427	242.99999999999997	0.48045268340078007	25.78364096345713	37644.71607772292	4.0127700807889605e-14
8.714285714285714	244.0	0.48044610536157667	25.773111668066175	44539.440588309626	3.9190602109595954e-14
8.749999999999998	244.99999999999997	0.4804395305204124	25.76122189520973	47930.234542376216	3.777658499037113e-14
8.785714285714285	245.99999999999997	0.48043295922906876	25.749033191562717	46956.40928687209	3.614594281787924e-14
8.821428571428571	247.0	0.4804263914494749	25.737510374904314	43090.854967556	3.501788406698184e-14
8.857142857142856	247.99999999999997	0.48041982687744417	25.72710752764596	38737.654435684744	3.505826085226078e-14
8.892857142857142	249.0	0.4804132651535241	25.717663322206214	35898.84838341329	3.559881294213632e-14
8.928571428571427	249.99999999999997	0.4804067060901152	25.70862374014162	35700.74307075956	3.643229975408704e-14
8.964285714285714	251.0	0.4804001498075969	25.69929596941969	37930.86199410021	3.7286186898720285e-14
8.999999999999998	251.99999999999997	0.4803935966547208	25.68918006859156	41575.10422699081	3.843350733914964e-14
9.035714285714285	252.99999999999997	0.4803870469322153	25.678075308468873	45456.51734586118	3.9659998277336104e-14
9.071428571428571	254.0	0.4803805005907624	25.666149264884986	47750.120944163646	4.004124297659245e-14
9.107142857142856	254.99999999999997	0.48037395726253956	25.653940980823123	47952.28207171495	3.7580492836636167e-14
9.142857142857142	256.0	0.48036741635276853	25.641670476702128	49048.228445663306	3.5694671344597865e-14
9.178571428571427	257.0	0.4803608772133961	25.628719726139717	53649.55460134436	3.8303242603857967e-14
9.214285714285714	258.0	0.48035433986960363	25.614110904085514	61688.25494645663	4.144632426910944e-14
9.249999999999998	258.99999999999994	0.48034780539683053	25.597162224960037	71802.1454697578	4.2066627050884304e-14
9.285714285714285	260.0	0.4803412753470762	25.577386144976156	83937.41395350425	3.9960092725881043e-14
9.321428571428571	261.0	0.4803347511535418	25.55415678347613	98986.87716590213	3.6997930477951284e-14
9.357142857142856	262.0	0.4803282340194864	25.52665019621279	117563.27015579451	3.502500586433755e-14
9.392857142857142	263.0	0.48032172510362303	25.493891167634107	140232.4634897806	3.438194611476911e-14
9.428571428571427	264.0	0.48031522575517016	25.454761247060663	167563.22850984646	3.5327841249733284e-14
9.464285714285714	265.0	0.48030873749693936	25.408045803419796	199393.87481963617	3.70567602872219e-14
9.499999999999998	265.99999999999994	0.4803022621815933	25.352955417423978	232424.49822556123	3.7830642116476435e-14
9.535714285714285	267.0	0.48029580189576715	25.289888342253676	260749.36204232604	3.6583526537711565e-14
9.571428571428571	268.0	0.4802893585301666	25.220355255062987	283395.84844308154	3.494219238641985e-14
9.607142857142856	269.0	0.4802829335520434	25.14562864892733	302474.4449862122	3.459896073879593e-14
9.642857142857142	270.0	0.4802765282261857	25.066078112906535	321382.5655414244	3.482922454383364e-14
9.678571428571427	271.0	0.4802701439270598	24.981532347054525	342184.89185535593	3.4713451164800365e-14
9.714285714285714	272.0	0.480263782131076	24.891188102164254	366521.05609636015	3.4243917831261083e-14
9.749999999999998	272.99999999999994	0.4802574443847395	24.794581694982615	390023.0139272802	3.416666398004443e-14
9.785714285714285	274.0	0.48025113210558207	24.692936815091503	405132.1592206227	3.450524373005778e-14
9.821428571428571	275.0	0.4802448462328221	24.58847204773815	413528.3671148017	3.453155138289293e-14
9.857142857142856	276.0	0.4802385872094417	24.482331067260915	419482.7729669607	3.439061604678561e-14
9.892857142857142	277.0	0.48023235532671993	24.37483363878306	423219.7029842193	3.423058175380041e-14
9.928571428571427	278.0	0.48022615082506503	24.26679873591809	423419.18053188577	3.4339307006259725e-14
9.964285714285714	279.0	0.48021997383189596	24.159155668519126	419664.38016353943	3.473741116314457e-14
9.999999999999998	279.99999999999994	0.48021382417651204	24.05345893642051	407672.767304947	3.439444483500337e-14
10.035714285714285	281.0	0.4802077011079362	23.95177760919405	389322.94887166	3.434057400514392e-14
10.07142857142857	281.99999999999994	0.48020160344799384	23.854588848205474	373711.005033197	3.439164296943449e-14
10.107142857142856	283.0	0.4801955301632278	23.760653408212175	363290.9155095817	3.4695263280929146e-14
10.142857142857142	284.0	0.48018948053004656	23.669109243806428	354406.88951541483	3.4853391883443074e-14
10.178571428571427	285.0	0.4801834539303185	23.57994517313616	344547.3396132039	3.444760385190556e-14
10.214285714285714	286.0	0.48017744973448656	23.49339988412305	334257.29863757297	3.4223714265057925e-14
10.249999999999998	286.99999999999994	0.4801714673159506	23.40929146482173	325644.89833856386	3.441679556600325e-14
10.285714285714285	288.0	0.48016550612616166	23.32703154779385	319641.54580429546	3.482518778288754e-14
10.32142857142857	288.99999999999994	0.480159565742439	23.246151891505892	314556.64946306346	3.472681418321113e-14
10.357142857142856	290.0	0.4801536458430003	23.166531955133095	309807.6794371377	3.437943585996452e-14
10.392857142857142	291.0	0.48014774616200256	23.088003015565963	306079.87092627666	3.432008984494501e-14
10.428571428571427	292.0	0.480141866478343	23.010302155981684	302943.3125316384	3.468359835300054e-14
10.464285714285714	293.0	0.4801360065684113	22.933670785235876	297161.5774781932	3.511604207846718e-14
10.499999999999998	293.99999999999994	0.4801301660443804	22.858944811442264	288152.8773564859	3.475907895126548e-14
10.535714285714285	295.0	0.480124344313592	22.786658948735916	278472.96864616935	3.433991147860424e-14
10.57142857142857	295.99999999999994	0.4801185406933	22.71685958904456	268922.77759615955	3.5261936845617994e-14
10.607142857142856	297.0	0.480112754468979	22.649459797913	259721.6483774833	3.644095055817877e-14
10.642857142857142	298.0	0.480106984990388	22.584338652015155	251057.29811955572	3.582233877253638e-14
10.678571428571427	299.0	0.48010123177584024	22.521322509744742	243212.05070262327	3.469860773194116e-14
10.714285714285714	300.0	0.4800954944416824	22.460236993162365	235738.77212002283	3.4478221935155287e-14
10.749999999999998	300.99999999999994	0.4800897725407863	22.401133401227757	227231.81159967877	3.532468714818346e-14
10.785714285714285	302.0	0.48008406543142357	22.344689709289717	214565.04153034784	3.615290950574826e-14
10.82142857142857	302.99999999999994	0.48007837218869065	22.291949176108563	198844.46402360057	3.594056465150429e-14
10.857142857142856	304.0	0.48007269174615075	22.243055319627437	185498.94209257647	3.4701291344922275e-14
10.892857142857142	305.0	0.48006702324093303	22.19678870848504	178367.3786561792	3.426059634941666e-14
10.928571428571427	306.0	0.48006136623275186	22.151601209816988	176600.60946583	3.497745574342956e-14
10.964285714285714	307.0	0.4800557206700535	22.10644761942775	177760.0879979223	3.5096988778461613e-14
10.999999999999998	307.99999999999994	0.4800500867531156	22.060735287634778	181095.86563210204	3.4804679459098124e-14
11.035714285714285	309.0	0.4800444647602425	22.013833739077654	187144.03118869153	3.402724416162372e-14
11.07142857142857	309.99999999999994	0.48003885503526206	21.965133520003373	194588.85866261102	3.4288255921171676e-14
11.107142857142856	311.0	0.48003325799142266	21.91475863495188	199433.52933151208	3.473579348126096e-14
11.142857142857142	312.0	0.48002767390061024	21.86394762317427	198080.00210638024	3.464204228143785e-14
11.178571428571427	313.0	0.48002210269345896	21.81405443482587	192697.0239089496	3.4351620658352627e-14
11.214285714285714	314.0	0.48001654402762217	21.765707532715712	186369.46107523015	3.410558946040956e-14
11.249999999999998	314.99999999999994	0.48001099748588505	21.718950710986622	180397.44241771605	3.443033515871754e-14
11.285714285714285	316.0	0.4800054626912604	21.67355449791042	175934.14382593372	3.483765301306022e-14
11.32142857142857	316.99999999999994	0.4799999393713114	21.628954998653988	174247.1135142349	3.449428113441586e-14
11.357142857142856	318.0	0.47999442741195864	21.58447296939763	174633.79111189596	3.41760481766371e-14
11.392857142857142	319.0	0.4799889268071819	21.540040338780372	172954.5137211931	3.412402069529615e-14
11.428571428571427	320.0	0.4799834374198234	21.496712930382625	165943.3117425695	3.428038847091882e-14
11.464285714285714	321.0	0.47997795881480165	21.455285267626227	159314.73412197086	3.445573633586397e-14
11.499999999999998	321.99999999999994	0.4799724905604534	21.415192870156233	155508.88234340152	3.4287919294322483e-14
11.535714285714285	323.0	0.47996703242560385	21.37591952038662	152318.55676180235	3.4119631803940916e-14
11.57142857142857	323.99999999999994	0.4799615842236768	21.337591822018553	147842.29131356187	3.404860532766743e-14
11.607142857142856	325.0	0.4799561456658973	21.300681140967168	141139.83084981647	3.417134371177833e-14
11.642857142857142	326.0	0.4799507163153112	21.265703003464214	132953.3602361653	3.4004229425424295e-14
11.678571428571427	327.0	0.47994529564111255	21.23277419901556	125369.02292872008	3.403842021406212e-14
11.714285714285714	328.0	0.479939883135777	21.201612837935773	119186.0608949179	3.392252157099442e-14
11.749999999999998	328.99999999999994	0.47993447837882014	21.171907803565308	113772.41226526059	3.3976078097212134e-14
11.785714285714285	330.0	0.47992908101755266	21.143542038729983	108660.48578944537	3.420271834083259e-14
11.82142857142857	330.99999999999994	0.47992369073385766	21.116428147888	104044.54032523443	3.3847154232600633e-14
11.857142857142856	332.0	0.47991830723677137	21.090401533605505	100088.12599600502	3.384297134502057e-14
11.892857142857142	333.0	0.47991293026300597	21.065366622046955	96130.66494279307	3.4027747660726376e-14
11.928571428571427	334.0	0.47990755955017195	21.041392049339194	91806.08678677357	3.3910193545118903e-14
11.964285714285714	335.0	0.47990219481793306	21.018501000962758	87797.8785879834	3.414200487604386e-14
11.999999999999998	335.99999999999994	0.47989683580046955	20.996500377263978	84841.86534309361	3.4231668605497526e-14
12.035714285714285	337.0	0.4798914822894997	20.975176823265244	82315.7051462423	3.4150801641420094e-14
12.07142857142857	337.99999999999994	0.47988613411902753	20.95452326817369	79581.88842325911	3.399815027202824e-14
12.107142857142856	339.0	0.4798807911236846	20.934569186607032	76919.85383749289	3.386469151930238e-14
12.142857142857142	340.0	0.4798754531428192	20.915241380450095	74650.21136720889	3.389224536271558e-14
12.178571428571427	341.0	0.4798701200298896	20.896456950437706	72647.1963720169	3.377914070151518e-14
12.214285714285714	342.0	0.47986479164958795	20.878160583614214	70819.67883950954	3.3784018334343193e-14
12.249999999999998	342.99999999999994	0.4798594678812387	20.860312828067283	69110.7357717262	3.384562116896054e-14
12.285714285714285	344.0	0.47985414861209896	20.842893000209198	67447.44243309049	3.392712848161736e-14
12.32142857142857	344.99999999999994	0.47984883373033743	20.82590262607535	65754.0979436627	3.389240156751718e-14
12.357142857142856	346.0	0.4798435231266944	20.809335747473288	64159.42715475575	3.3946074235045704e-14
12.39285714285714	346.99999999999994	0.47983821670178406	20.793145181172747	62833.95255158294	3.3890607981388763e-14
12.428571428571427	348.0	0.4798329143731775	20.777248554163155	61840.333564288376	3.389384302702989e-14
12.464285714285714	349.0	0.47982761607739566	20.7615931824918	60843.787083287374	3.394231723893579e-14
12.499999999999998	349.99999999999994	0.4798223217456286	20.746256889101705	59239.60293374192	3.406509475774534e-14
12.535714285714285	351.0	0.4798170312648367	20.73144887990291	56743.75948055871	3.415990152830371e-14
12.57142857142857	351.99999999999994	0.4798117444742354	20.7173327163676	53954.52659605949	3.398643514033646e-14
12.607142857142856	353.0	0.4798064611968066	20.703889979588695	51508.72717751683	3.3931162080959254e-14
12.64285714285714	353.99999999999994	0.47980118126973365	20.691040633697902	49215.505634882975	3.4018392992750945e-14
12.678571428571427	355.0	0.4797959045461531	20.678809146381607	46627.448740039894	3.4218935382893583e-14
12.714285714285714	356.0	0.4797906308654085	20.667259937982188	43960.02385766953	3.434896139064926e-14
12.749999999999998	356.99999999999994	0.4797853600537795	20.65633406437067	41831.94657227996	3.415018511628264e-14
12.785714285714285	358.0	0.47978009196702526	20.6458529079956	40448.98788983625	3.425353637893172e-14
12.82142857142857	358.99999999999994	0.47977482651265896	20.635667195104595	39420.893838427786	3.436066102421881e-14
12.857142857142856	360.0	0.47976956362331763	20.62575676734922	38227.25109294375	3.4404781376474074e-14
12.89285714285714	360.99999999999994	0.47976430321775865	20.616186853286845	36786.556990503894	3.4738594910803995e-14
12.928571428571427	362.0	0.47975904519828255	20.606984366599015	35406.29327211524	3.438723591475094e-14
12.964285714285714	363.0	0.47975378947408726	20.59809045019035	34378.514978141495	3.420154309161211e-14
12.999999999999998	363.99999999999994	0.47974853597241857	20.58941876881007	33645.005278406104	3.401186988808183e-14
13.035714285714285	365.0	0.4797432846386036	20.58090893340305	33094.623836690065	3.438568210700097e-14
13.07142857142857	365.99999999999994	0.47973803543843047	20.572527274284237	32615.35683970298	3.4513122542735775e-14
13.107142857142856	367.0	0.47973278835548416	20.564281676514426	31987.7509153103	3.4145537419872946e-14
13.14285714285714	367.99999999999994	0.4797275433657836	20.556232727922637	31058.814959256895	3.420666525332093e-14
13.178571428571427	369.0	0.4797223004098002	20.548459802570225	29834.406482048846	3.422309090408279e-14
13.214285714285714	370.0	0.47971705939744375	20.54102633629729	28408.086968133062	3.422980448995297e-14
13.249999999999998	370.99999999999994	0.4797118202347961	20.533956253864964	27055.126767144837	3.4032944794365016e-14
13.285714285714285	372.0	0.4797065828413179	20.52718806172647	26090.665854877447	3.400886912390173e-14
13.32142857142857	372.99999999999994	0.4797013471596748	20.52059909776472	25638.43110142321	3.401243785477296e-14
13.357142857142856	374.0	0.47969611315724703	20.51407538306895	25545.11525480056	3.4204854508237426e-14
13.39285714285714	374.99999999999994	0.47969088081896594	20.507556377059977	25558.364159076355	3.4387486296953293e-14
13.428571428571427	376.0	0.47968565013766024	20.50104532235979	25455.65665613631	3.4369587880067364e-14
13.464285714285714	377.0	0.47968042110333026	20.494588396299527	25133.618387441493	3.39583822067167e-14
13.499999999999998	377.99999999999994	0.4796751936990941	20.488227912122607	24751.93145862291	3.372114827933574e-14
13.535714285714285	379.0	0.4796699679063239	20.481935439199564	24647.729098050168	3.376005484354929e-14
13.57142857142857	379.99999999999994	0.4796647437205029	20.475624645610594	24854.22643596046	3.396326211193111e-14
13.607142857142856	381.0	0.4796595211525108	20.46926303127936	24967.637843551744	3.38301660611983e-14
13.64285714285714	381.99999999999994	0.4796543002077832	20.462919959603436	24702.84599930275	3.3964706122706695e-14
13.678571428571427	383.0	0.4796490808698424	20.456673828787903	24273.377763006538	3.3788704176636016e-14
13.714285714285714	384.0	0.4796438631119327	20.450522363066312	23989.149336775936	3.376832918268542e-14
13.749999999999998	385.0	0.47963864691635	20.44442666952243	23793.171581366245	3.3952828526200616e-14
13.785714285714285	386.0	0.4796334322707734	20.438401199065243	23392.17898733863	3.385110724045104e-14
13.82142857142857	386.99999999999994	0.47962821914992654	20.432515762752065	22726.390843407415	3.399046280465957e-14
13.857142857142856	388.0	0.4796230075129999	20.426803636748602	22091.07209763651	3.3941247469808606e-14
13.89285714285714	388.99999999999994	0.47961779731937815	20.421223790378985	21692.221269667003	3.392652874857584e-14
13.928571428571427	390.0	0.47961258853826333	20.41572792623478	21390.313951969827	3.3905223564987317e-14
13.964285714285714	391.0	0.4796073811445776	20.410317969201937	21007.4896051701	3.404735447983444e-14
13.999999999999998	392.0	0.4796021751127893	20.405009743031144	20624.47271144405	3.4052617957776327e-14
14.035714285714285	393.0	0.47959697042202243	20.399779080709212	20420.44822658989	3.4029180410280855e-14
14.07142857142857	393.99999999999994	0.47959176706347306	20.39457289228653	20417.899916277227	3.4142979024506785e-14
14.107142857142856	395.0	0.47958656503736447	20.38935643167086	20478.699379780806	3.4176276774585704e-14
14.14285714285714	395.99999999999994	0.4795813643460391	20.384126429417876	20521.44849429801	3.406515649635843e-14
14.178571428571427	397.0	0.4795761649912285	20.378886592456606	20558.322423558002	3.405962040792385e-14
14.214285714285714	398.0	0.47957096697467033	20.373640854300604	20552.337290265186	3.415461786329898e-14
14.249999999999998	399.0	0.4795657702953551	20.368414050315593	20392.82866687069	3.410284261977842e-14
14.285714285714285	400.0	0.47956057494240406	20.363254351970298	20030.334740949584	3.4219212934175503e-14
