# physical_time	scaled_time	kinetic_energy	enstrophy	palinstrophy	div_u_h
0	0.0	0.482211649501782	37.63383753547873	95217.23382559398	1.3665328387327074e-13
0.03571428571428571	1.0	0.48220205216295936	37.60951717388597	95552.93674652338	6.497787222902045e-15
0.07142857142857142	2.0	0.48219246101909496	37.58497844779282	96928.87424892456	6.704569426649065e-15
0.10714285714285714	3.0	0.48218287619519606	37.55995543686798	99519.40985895519	6.912393421026134e-15
0.14285714285714285	4.0	0.4821732978671844	37.53447165385437	103722.47596109033	6.9641258367614394e-15
0.17857142857142855	5.0	0.4821637263015128	37.5077701982565	109975.7088372469	7.119244944150118e-15
0.21428571428571427	6.0	0.4821541619200494	37.47724091235536	120787.21687149687	7.308490048912956e-15
0.24999999999999997	7.0	0.4821446050474141	37.4475704767484	148084.20958093097	7.498376370967782e-15
0.2857142857142857	8.0	0.482135055246619	37.404975615013164	193271.62417166922	8.265116524920327e-15
0.3214285714285714	9.0	0.48212551505949935	37.355536351024575	209777.9043684554	9.084235507975903e-15
0.3571428571428571	10.0	0.4821159875544815	37.30246715664891	281586.22754440684	9.926299920113806e-15
0.3928571428571428	10.999999999999998	0.4821064737003667	37.22801778786951	416101.1491103568	9.786489089893317e-15
0.42857142857142855	12.0	0.48209697843215515	37.10783244867744	573390.3964845403	8.8187412020111e-15
0.46428571428571425	13.0	0.4820875099694568	36.951346760589274	717099.2012076569	7.60104340292617e-15
0.49999999999999994	14.0	0.48207807992655055	36.761067151086635	785091.638705672	7.729690753926237e-15
0.5357142857142857	15.0	0.4820686997527446	36.56035665982125	866605.9690690943	8.04646728895653e-15
0.5714285714285714	16.0	0.4820593705482404	36.33831892888151	892308.9195973518	8.033733484858023e-15
0.6071428571428571	17.0	0.48205009751420014	36.10453163311103	893468.9726989508	7.938441183204257e-15
0.6428571428571428	18.0	0.482040880150631	35.880777108157076	817320.6309494314	7.893214279922435e-15
0.6785714285714285	19.0	0.4820317225998468	35.680170602791286	843306.8676565846	7.779434438233938e-15
0.7142857142857142	20.0	0.48202261795270757	35.48843025158373	766959.6507121417	7.94116405304323e-15
0.7499999999999999	20.999999999999996	0.48201356241072196	35.27494241489855	739189.9973302482	8.034079394916076e-15
0.7857142857142856	21.999999999999996	0.48200456187342217	35.079067300718464	743096.6310810928	8.623864020291803e-15
0.8214285714285713	22.999999999999996	0.4819956144704293	34.9118992900748	821308.1987332702	9.033048201376962e-15
0.8571428571428571	24.0	0.481986708627759	34.68818857252418	816375.571832551	9.739026147093257e-15
0.8928571428571428	25.0	0.4819778477500631	34.492398745205165	757177.5863106196	1.0223605018600009e-14
0.9285714285714285	26.0	0.4819690414650835	34.31085933019344	646199.6313470233	1.0478086487737268e-14
0.9642857142857142	27.0	0.4819602858445782	34.161609866907284	608446.5691733053	1.1210884064692234e-14
0.9999999999999999	28.0	0.4819515692268384	34.029764259622034	609881.60623893	1.2766997485902237e-14
1.0357142857142856	28.999999999999996	0.4819428777816428	33.883085007180924	473357.54791276733	1.6379292946408122e-14
1.0714285714285714	30.0	0.4819342215611608	33.77251235509774	565713.2194358956	2.1914950475496737e-14
1.107142857142857	30.999999999999996	0.48192559729124673	33.64272008872201	416669.90014588134	2.7100060014294678e-14
1.1428571428571428	32.0	0.48191701359594713	33.52465567820373	382156.7419333641	2.6512445445832626e-14
1.1785714285714284	33.0	0.4819084538376898	33.440348919046535	381022.48774864466	1.6618928687557136e-14
1.2142857142857142	34.0	0.48189991484743366	33.33695407247442	287997.76909109205	9.611119213890356e-15
1.2499999999999998	34.99999999999999	0.48189139927279284	33.25344878707671	263294.54360437015	1.9244784777508874e-14
1.2857142857142856	36.0	0.48188291188350896	33.1804580540197	269242.58243372914	2.281019356516135e-14
1.3214285714285712	36.99999999999999	0.4818744438177012	33.11644771305314	280741.7606380175	1.9706155549967182e-14
1.357142857142857	38.0	0.48186599393483437	33.04022949843175	297434.430798957	1.4334120272952595e-14
1.3928571428571428	39.0	0.48185756517639633	32.9503333847868	331960.9959305397	1.0038292171862291e-14
1.4285714285714284	40.0	0.4818491570327608	32.8545265679775	412723.58485040494	8.589214292801605e-15
1.4642857142857142	41.0	0.48184077307627554	32.724124884564766	462791.3361472191	9.452335490825585e-15
1.4999999999999998	41.99999999999999	0.4818324184430652	32.60255790828816	560167.9535437027	1.0389559033452507e-14
1.5357142857142856	43.0	0.4818240944615163	32.4441207794269	652151.3440861858	9.440727020827929e-15
1.5714285714285712	43.99999999999999	0.48181580601585056	32.28003738007826	614013.35714418	8.606474934024168e-15
1.607142857142857	45.0	0.4818075700517751	32.121884193366434	571749.8012947346	8.843855739260888e-15
1.6428571428571426	45.99999999999999	0.4817993797100408	31.969394774538177	572748.6428211642	8.739639854510834e-15
1.6785714285714284	47.0	0.4817912253415773	31.823095860141144	612358.3868606461	8.62475930767749e-15
1.7142857142857142	48.0	0.4817831127359565	31.668426688110937	639525.2359529113	8.617889814821889e-15
1.7499999999999998	49.0	0.4817750400187369	31.504907641993324	652001.448573508	9.622706341094066e-15
1.7857142857142856	50.0	0.48176700959550967	31.345415730973517	641861.0111355352	1.0786910682709661e-14
1.8214285714285712	50.99999999999999	0.48175902288428996	31.174752335273446	652316.3092616557	1.1159306644426398e-14
1.857142857142857	52.0	0.48175107821103474	31.01998977201379	680805.1782798192	1.0374489728217287e-14
1.8928571428571426	52.99999999999999	0.48174317703000624	30.839229420940498	674181.5198856923	9.085968483634153e-15
1.9285714285714284	54.0	0.4817353185263573	30.672655140564217	698068.9378381025	9.068569867998819e-15
1.964285714285714	54.99999999999999	0.48172750360398303	30.492210527697733	712340.8468257323	1.014269191990892e-14
1.9999999999999998	56.0	0.4817197317258113	30.324252881783394	760899.3251149941	1.0419468584361016e-14
2.0357142857142856	57.0	0.48171200631131894	30.132513676011396	723218.8546227491	9.49114403812294e-15
2.071428571428571	57.99999999999999	0.48170432723375833	29.959966750223874	688523.9472916358	8.691065042513897e-15
2.1071428571428568	58.99999999999999	0.481696689835144	29.79386677415927	705242.8208363387	8.846768021203962e-15
2.142857142857143	60.0	0.48168909629772494	29.629944979486773	645920.8290685632	9.124452725803651e-15
2.1785714285714284	61.0	0.4816815455198461	29.47030410171096	546329.9134590434	8.559342213026113e-15
2.214285714285714	61.99999999999999	0.48167403509687534	29.336618001981947	479719.31197630265	9.113694514236073e-15
2.2499999999999996	62.99999999999999	0.4816665569969302	29.212418668771683	447448.02949638927	1.1080815376170353e-14
2.2857142857142856	64.0	0.4816591089248848	29.10957226376247	448411.4268061151	1.2427379143738228e-14
2.321428571428571	65.0	0.48165168410733156	28.988291947758228	464223.97205202794	1.1179749355214792e-14
2.3571428571428568	66.0	0.48164428792286756	28.867693290664416	539719.2487486178	9.016351177747188e-15
2.392857142857143	67.0	0.4816369198688917	28.734879825845578	544240.19940852	8.94305358085957e-15
2.4285714285714284	68.0	0.48162957891089797	28.618211782453148	630908.8975267695	1.1964454323023155e-14
2.464285714285714	69.0	0.48162227016952364	28.444073664783527	559774.6635854898	1.481135800595217e-14
2.4999999999999996	69.99999999999999	0.48161500494090465	28.31224926645472	469904.72230137524	1.5294237518750187e-14
2.5357142857142856	71.0	0.48160778205083227	28.200063973715643	382113.32233752176	1.2784661718668103e-14
2.571428571428571	72.0	0.4816005916959819	28.104725812411058	353292.7270608438	9.147677198510906e-15
2.6071428571428568	73.0	0.4815934243942162	28.020724236449798	343138.5546990546	1.0515496036649738e-14
2.6428571428571423	73.99999999999999	0.48158627743714155	27.931893904055354	339854.1441582257	1.32854861555905e-14
2.6785714285714284	75.0	0.48157915206154894	27.849173943444583	333873.1031194581	1.312088462103155e-14
2.714285714285714	76.0	0.4815720467548271	27.770292908685537	326704.99157591426	1.0533532648789701e-14
2.7499999999999996	76.99999999999999	0.4815649632282844	27.679046500601764	330294.6751552612	8.689423268671528e-15
2.7857142857142856	78.0	0.4815578973420523	27.609534522199965	286175.07916540996	8.858816468089825e-15
2.821428571428571	79.0	0.48155085320307445	27.552054133494817	234391.52990572833	9.844253483205206e-15
2.8571428571428568	80.0	0.4815438245380156	27.48959478340796	221944.8065883729	9.831553467324042e-15
2.8928571428571423	80.99999999999999	0.4815368105930281	27.43982670963957	200383.11796783432	8.908160271237301e-15
2.9285714285714284	82.0	0.4815298099550029	27.394010772851487	205937.42050703824	8.58631208170202e-15
2.964285714285714	83.0	0.4815228226800552	27.344229691580626	177652.07853685212	9.11902899079268e-15
2.9999999999999996	83.99999999999999	0.4815158490112747	27.293290861196752	176685.86689033406	9.264886301838231e-15
3.0357142857142856	85.0	0.48150888565702216	27.25245197165654	183990.18478724273	8.87439366614135e-15
3.071428571428571	86.0	0.4815019337040707	27.20306655536474	156439.91371786207	8.578563711873647e-15
3.1071428571428568	87.0	0.481494994434741	27.170117983650755	134322.39390597353	8.560916550874742e-15
3.1428571428571423	87.99999999999999	0.4814880650376789	27.13803716794932	126432.24296431923	8.678083850194017e-15
3.1785714285714284	89.0	0.481481144193409	27.10200616475915	124339.81538700835	8.59922171116928e-15
3.214285714285714	90.0	0.4814742310487358	27.076008017413283	127585.82356473328	8.625028848643026e-15
3.2499999999999996	90.99999999999999	0.48146732580659185	27.04576982312562	123417.83939922777	8.710342511751017e-15
3.285714285714285	91.99999999999999	0.4814604280335192	27.01413033476111	120382.64993672952	8.631087039707285e-15
3.321428571428571	93.0	0.4814535380314188	26.985143183949223	117939.74600794105	8.434399076026571e-15
3.3571428571428568	94.0	0.48144665542930365	26.956355000622466	118203.3080791253	8.414662694455599e-15
3.3928571428571423	94.99999999999999	0.48143978041375035	26.924773227012995	109109.43249078172	8.493759217287329e-15
3.4285714285714284	96.0	0.481432912307212	26.897811725091227	106582.83145916907	8.48281401622613e-15
3.464285714285714	97.0	0.48142605146367207	26.8730258595333	98918.67902473491	8.638725412863204e-15
3.4999999999999996	98.0	0.48141919763071056	26.849712446338895	97210.67769698512	8.641415201016304e-15
3.535714285714285	98.99999999999999	0.48141235003838384	26.825322598481485	89635.3430696417	8.728404577696103e-15
3.571428571428571	100.0	0.48140550844917274	26.802616814189708	88702.34074591103	8.583890074168486e-15
3.6071428571428568	101.0	0.4813986720484578	26.7807406485543	89695.59992858324	8.772855171316661e-15
3.6428571428571423	101.99999999999999	0.4813918409294956	26.758972223340248	87563.8271818352	8.642812129154843e-15
3.678571428571428	102.99999999999999	0.4813850151438176	26.736807361826383	84166.75742084223	8.631253411279845e-15
3.714285714285714	104.0	0.48137819507175067	26.718569565207	79602.20873964508	8.54261649386355e-15
3.7499999999999996	105.0	0.4813713800213796	26.699509157677372	76770.5895469588	8.740952551645194e-15
3.785714285714285	105.99999999999999	0.4813645697009759	26.680073910229144	72633.90932789547	8.766505095509723e-15
3.821428571428571	107.0	0.48135776413534115	26.663153243025583	70677.53466883927	8.761021093793894e-15
3.8571428571428568	108.0	0.4813509630390796	26.64889065060118	66966.8570236185	8.572732723321023e-15
3.8928571428571423	108.99999999999999	0.4813441664898426	26.630832542386468	62017.85109985311	8.685733554672191e-15
3.928571428571428	109.99999999999999	0.481337374285056	26.6142678051781	59601.617116122055	8.744879930040533e-15
3.964285714285714	111.0	0.48133058603477735	26.597467240485916	58850.495298333924	8.923292784612165e-15
3.9999999999999996	112.0	0.4813238014375246	26.586176074283177	60280.810100572	8.412759376005064e-15
4.035714285714286	113.0	0.48131702052608216	26.57023145019322	58661.3463745523	8.570256232915536e-15
4.071428571428571	114.0	0.4813102432564851	26.5563021394338	56337.019601045824	8.591120379143728e-15
4.107142857142857	115.0	0.4813034694651791	26.54353426372355	54792.97622243427	8.64657580104756e-15
4.142857142857142	115.99999999999999	0.48129669897862454	26.528182001659268	51477.24945841893	8.792305968002922e-15
4.178571428571428	116.99999999999999	0.4812899320549354	26.516736714397542	48491.434289108125	8.521070376153599e-15
4.2142857142857135	117.99999999999999	0.48128316836458335	26.50679689259879	46676.390406166116	8.579709132310406e-15
4.249999999999999	118.99999999999999	0.48127640774825664	26.49378239001462	43814.54160333391	8.89370276660411e-15
4.285714285714286	120.0	0.48126964995330584	26.483502836085986	43108.41468455725	8.754479904336479e-15
4.321428571428571	121.0	0.48126289485451407	26.47188395404651	42032.80287115367	8.576720451581218e-15
4.357142857142857	122.0	0.48125614244085807	26.463490609171608	41470.01797672053	8.522776911923623e-15
4.392857142857142	122.99999999999999	0.4812493926714693	26.45223176484299	39278.90561950274	8.615460281960956e-15
4.428571428571428	123.99999999999999	0.48124264547496576	26.442693729637327	36237.846075673566	8.60721398539463e-15
4.4642857142857135	124.99999999999999	0.4812359007239249	26.434475424497446	34336.69818328336	8.50501282903798e-15
4.499999999999999	125.99999999999999	0.48122915815677686	26.42560977827891	33693.49273045006	8.618545070963547e-15
4.535714285714286	127.0	0.4812224177275578	26.41698737418946	32917.561125874745	8.635961255231077e-15
4.571428571428571	128.0	0.4812156794437629	26.40854413064191	32675.93291112846	8.594349009801055e-15
4.607142857142857	129.0	0.4812089432693196	26.40093479947715	32289.84034066394	8.718109567495158e-15
4.642857142857142	130.0	0.4812022091492587	26.392466451811476	32393.642855280104	8.6958384544127e-15
4.678571428571428	131.0	0.481195477073561	26.3837391464784	31818.202669550144	8.649936985155637e-15
4.7142857142857135	132.0	0.48118874705905296	26.37659005606841	31465.32743917559	8.845017308441322e-15
4.749999999999999	132.99999999999997	0.4811820190813687	26.36867433673957	30629.45182377714	8.90392944309733e-15
4.785714285714286	134.0	0.48117529313331586	26.36053082306976	30752.441875893564	8.637291418959248e-15
4.821428571428571	135.0	0.4811685691861377	26.352992396178625	31138.993958771713	8.84880985382303e-15
4.857142857142857	136.0	0.48116184717484084	26.346058568127198	31879.84324580135	9.106920795909688e-15
4.892857142857142	137.0	0.4811551271147149	26.33746423168802	32148.645393782597	8.963017730110502e-15
4.928571428571428	138.0	0.481148409084525	26.32959466632884	32481.321587781647	8.704586708656142e-15
4.9642857142857135	139.0	0.48114169315147925	26.321136137862418	31431.33208973008	8.657533288128166e-15
4.999999999999999	139.99999999999997	0.4811349792907966	26.31294863131044	30668.17473733745	9.074332048471537e-15
5.035714285714285	140.99999999999997	0.48112826733388436	26.305795913909954	28351.17260834545	9.255566212737133e-15
5.071428571428571	142.0	0.4811215572645946	26.299570176856367	26595.214037925598	9.06100577366704e-15
5.107142857142857	143.0	0.4811148489691929	26.29279385397625	25010.011763063427	8.685948371608316e-15
5.142857142857142	144.0	0.4811081423469807	26.286163447849987	25169.203485987015	8.6811213613572e-15
5.178571428571428	145.0	0.4811014373401655	26.280063578377206	25650.367498946845	9.04119943339005e-15
5.2142857142857135	146.0	0.4810947339719751	26.2738113227552	25951.779668635256	9.022020287525362e-15
5.249999999999999	146.99999999999997	0.48108803226179464	26.267070108196698	26328.692542737022	8.670259407065611e-15
5.285714285714285	147.99999999999997	0.4810813322332454	26.25998154167174	26277.99895213211	8.598920026157283e-15
5.321428571428571	149.0	0.48107463388043553	26.253531901800464	25270.446872981443	8.66159213558759e-15
5.357142857142857	150.0	0.48106793716800383	26.247668723980325	24237.004083303087	8.816717868388464e-15
5.392857142857142	151.0	0.4810612420262733	26.24105035445488	23135.9949471069	8.675061561316643e-15
5.428571428571428	152.0	0.48105454840452105	26.235879458042373	22808.192872513573	8.70755316261364e-15
5.4642857142857135	153.0	0.4810478562546553	26.230157703796056	22751.064296379154	8.706583977047637e-15
5.499999999999999	153.99999999999997	0.48104116554371934	26.223760631806933	22962.707532339893	8.846438253449923e-15
5.535714285714285	154.99999999999997	0.4810344763362522	26.21838739403479	23108.087743877626	8.710874333544977e-15
5.571428571428571	156.0	0.4810277886403646	26.212470703580312	23123.73390869647	8.704309942308324e-15
5.607142857142857	157.0	0.4810211024236751	26.206195715440884	22929.0231975356	8.52875033410526e-15
5.642857142857142	158.0	0.4810144177105092	26.200659833629132	22410.558832136732	8.575717321584679e-15
5.678571428571428	159.0	0.4810077344809116	26.19501284775424	21936.597369139185	8.652321466833951e-15
5.7142857142857135	160.0	0.4810010526681887	26.189797584519418	21555.812492717785	8.681199027490382e-15
5.749999999999999	160.99999999999997	0.48099437222185554	26.184140932749347	21155.240641157583	8.651903173458968e-15
5.785714285714285	161.99999999999997	0.4809876931589579	26.179052149652875	20596.174895067776	8.623570428268573e-15
5.821428571428571	163.0	0.480981015466948	26.173771075521994	20490.230635546035	8.675558523369314e-15
5.857142857142857	164.0	0.48097433912374166	26.168470166431966	20437.063060938348	8.534193321868477e-15
5.892857142857142	165.0	0.4809676641004141	26.163010279718538	20519.29253106598	8.650854790875586e-15
5.928571428571428	166.0	0.48096099039621293	26.158248084152227	20653.855445707388	8.683583700666748e-15
5.9642857142857135	167.0	0.48095431804250766	26.15285049502125	20720.38030320819	8.551377026538908e-15
5.999999999999999	167.99999999999997	0.48094764703237725	26.14754797144606	20690.281830751504	8.641616690266306e-15
6.035714285714285	168.99999999999997	0.4809409773651783	26.142440202308695	20518.493100793505	8.488566485965647e-15
6.071428571428571	170.0	0.4809343090368624	26.13690086684574	20454.09278339788	8.709082724764846e-15
6.107142857142857	171.0	0.48092764203218324	26.131815650152006	20496.109218657377	8.707728103970886e-15
6.142857142857142	172.0	0.48092097635041964	26.126744250443714	20657.272688769393	8.615285591876579e-15
6.178571428571428	173.0	0.48091431200640977	26.121449623203905	20547.852939505523	8.744158360338529e-15
6.2142857142857135	174.0	0.48090764899693716	26.116032852818105	20621.592533667383	8.474548742813451e-15
6.249999999999999	174.99999999999997	0.48090098730874076	26.111037070812216	20283.32427849586	8.56599836649145e-15
6.285714285714285	175.99999999999997	0.4808943269354226	26.106027773265726	20273.986754248333	8.488772628758278e-15
6.32142857142857	176.99999999999997	0.4808876678781103	26.100795455575376	20069.482388142005	8.665743296816079e-15
6.357142857142857	178.0	0.4808810101340815	26.09573562399318	19823.65662817955	8.544899824562195e-15
6.392857142857142	179.0	0.48087435368313775	26.09064380916063	19680.85139875367	8.608464814696606e-15
6.428571428571428	180.0	0.48086769850915906	26.085657058622683	19684.89896095115	8.828967603571277e-15
6.4642857142857135	181.0	0.4808610446093426	26.080615574213493	19684.334539508458	8.563818804034251e-15
6.499999999999999	181.99999999999997	0.4808543919860462	26.075750995697557	19956.66771141279	8.706006320489508e-15
6.535714285714285	182.99999999999997	0.4808477406415835	26.07053298468118	19739.52470165623	8.511678788694232e-15
6.57142857142857	183.99999999999997	0.4808410905813283	26.06547591627506	19838.967884435704	8.652407747754416e-15
6.607142857142857	185.0	0.48083444180325136	26.060605108346337	19900.844519939175	8.39999028862164e-15
6.642857142857142	186.0	0.4808277943085766	26.055543517766324	20140.41724256924	8.574847442428642e-15
6.678571428571428	187.0	0.48082114810025967	26.050342823608077	20171.33516075586	8.612824367498932e-15
6.7142857142857135	188.0	0.48081450318484703	26.04536476551983	20050.981385985666	8.597365015333787e-15
6.749999999999999	188.99999999999997	0.4808078595506204	26.040288981524718	19807.019632858322	8.803624247245066e-15
6.785714285714285	189.99999999999997	0.4808012171872014	26.0352559868455	19485.20357864306	8.483366658350759e-15
6.82142857142857	190.99999999999997	0.4807945760859351	26.030364258152908	19097.125676761698	8.579313747247007e-15
6.857142857142857	192.0	0.48078793622511584	26.025611730944135	18608.2723873517	8.549162487230284e-15
6.892857142857142	193.0	0.48078129758566807	26.020928947557277	18347.049452781	8.526866279512323e-15
6.928571428571428	194.0	0.4807746601389581	26.016270053780378	18171.961831327015	8.796798693180895e-15
6.9642857142857135	195.0	0.4807680238722155	26.011658505932026	18224.728942231148	8.497634305406291e-15
6.999999999999999	196.0	0.48076138878057756	26.00709420359843	18148.988594722756	8.835004600373073e-15
7.035714285714285	196.99999999999997	0.48075475486668434	26.002588134544514	18017.075381381914	8.595454105220392e-15
7.07142857142857	197.99999999999997	0.4807481221251301	25.99797578799788	17938.177234144805	8.515311469498985e-15
7.107142857142857	199.0	0.48074149055417154	25.993376545440125	17860.102460375634	8.739636225380549e-15
7.142857142857142	200.0	0.4807348601503424	25.98884564633306	17826.54216000138	8.715993724636156e-15
7.178571428571428	201.0	0.48072823090360267	25.984452833797903	17635.916403292515	8.685511829352541e-15
7.2142857142857135	202.0	0.48072160280303233	25.979820217645827	17455.457486906347	8.566599467516557e-15
7.249999999999999	203.0	0.4807149758354701	25.975342163863093	17371.013748330697	8.572268930296792e-15
7.285714285714285	203.99999999999997	0.48070834999393636	25.97105358671329	17281.214084700194	8.7105192559593e-15
7.32142857142857	204.99999999999997	0.4807017252756269	25.966730943345997	17252.72246577593	8.601513778948562e-15
7.357142857142856	205.99999999999997	0.4806951016779908	25.96228593507284	17221.899158567434	8.88366613730598e-15
7.392857142857142	207.0	0.48068847919837526	25.957842082133656	17197.242600650887	8.716944804725484e-15
7.428571428571428	208.0	0.4806818578358584	25.953478410015155	17131.163615111614	8.749339347402412e-15
7.4642857142857135	209.0	0.48067523758848096	25.949162501793417	17048.993763275772	8.702795721294939e-15
7.499999999999999	210.0	0.48066861844932585	25.944828452874088	16873.827858356817	8.570955815590392e-15
7.535714285714285	210.99999999999997	0.4806620004074878	25.94056076150925	16705.63857869728	8.754169223825129e-15
7.57142857142857	211.99999999999997	0.48065538344796654	25.936367643735608	16533.784200820588	8.60429708140541e-15
7.607142857142856	212.99999999999997	0.480648767560627	25.93213890144911	16394.416076608308	8.668081818191419e-15
7.642857142857142	214.0	0.480642152740648	25.927861091285962	16335.147968400206	8.590443103619026e-15
7.678571428571428	215.0	0.480635538986905	25.92373319247596	16388.0450033692	8.79644693043128e-15
7.7142857142857135	216.0	0.4806289263003355	25.91970267398398	16496.524097739966	8.940413601538846e-15
7.749999999999999	217.0	0.48062231468628397	25.915495520817068	16624.033519855722	8.796928395233422e-15
7.785714285714285	217.99999999999997	0.4806157041530122	25.911136945538498	16710.9440692046	8.740835018489641e-15
7.82142857142857	218.99999999999997	0.48060909470491486	25.906820630380587	16724.697656441855	8.844646044543436e-15
7.857142857142856	219.99999999999997	0.48060248634056824	25.902611784443526	16630.443535587576	8.953105199396821e-15
7.892857142857142	221.0	0.4805958790524651	25.89842677688532	16467.52135931894	9.075408479548159e-15
7.928571428571428	222.0	0.480589272829994	25.89430509822992	16252.80337935748	9.273509144085956e-15
7.9642857142857135	223.0	0.4805826676650718	25.890259596688463	16044.33409579948	9.274527404410329e-15
7.999999999999999	224.0	0.48057606354743165	25.886123979852965	15907.060492861323	9.464374012681139e-15
8.035714285714285	224.99999999999997	0.48056946047102767	25.882031747809638	15888.437449956002	9.65048562625148e-15
8.071428571428571	226.0	0.48056285843340374	25.87802084455889	15968.794820642912	9.890474570115837e-15
8.107142857142856	226.99999999999997	0.48055625743811897	25.873889919473715	16057.990431938382	1.0027913082362387e-14
8.142857142857142	228.0	0.48054965749183604	25.869748067537387	16144.396751467813	1.0382139293805902e-14
8.178571428571427	228.99999999999997	0.4805430585997071	25.865704337321088	16130.09251710372	1.0822499727744675e-14
8.214285714285714	230.0	0.48053646076258033	25.861557390023755	16005.858774084398	1.1289086898137331e-14
8.249999999999998	230.99999999999997	0.4805298639751302	25.857544912602968	15892.027687247815	1.1758369821982364e-14
8.285714285714285	231.99999999999997	0.4805232682298428	25.853462089418453	15796.058510425517	1.2295595146015115e-14
8.321428571428571	233.0	0.4805166735219246	25.849486252197394	15778.90664841672	1.3028409783782634e-14
8.357142857142856	233.99999999999997	0.48051007985130745	25.845413707166838	15817.745907358973	1.3885914742889975e-14
8.392857142857142	235.0	0.4805034872236518	25.841420909455252	15921.494409546278	1.4773144036828156e-14
8.428571428571427	235.99999999999997	0.4804968956481845	25.837381223951382	16061.376671207172	1.584742175871369e-14
8.464285714285714	237.0	0.4804903051425924	25.833227528691285	16170.697460131178	1.71862554082199e-14
8.499999999999998	237.99999999999997	0.4804837157280558	25.829175202356954	16156.707083243899	1.823130480308586e-14
8.535714285714285	238.99999999999997	0.48047712741540977	25.825085445545657	16014.724089225008	1.963560784763606e-14
8.571428571428571	240.0	0.4804705402075946	25.820998988311462	15818.819217010376	2.1032378730423195e-14
8.607142857142856	240.99999999999997	0.4804639541009493	25.816983536700324	15668.873824020991	2.2638846598333012e-14
8.642857142857142	242.0	0.4804573690954349	25.813012462098307	15520.766933183475	2.412652497802995e-14
8.678571428571427	242.99999999999997	0.48045078519948503	25.809074576234835	15464.829614936749	2.5593662484178216e-14
8.714285714285714	244.0	0.48044420243520325	25.80512080191322	15465.401802975432	2.6995492434524487e-14
8.749999999999998	244.99999999999997	0.48043762084110797	25.801190973705424	15549.08815348252	2.83371240338067e-14
8.785714285714285	245.99999999999997	0.4804310404653044	25.797238646666624	15727.243949420383	2.9457674190198293e-14
8.821428571428571	247.0	0.4804244613639214	25.793205893818648	15834.195683798507	2.9715617408759706e-14
8.857142857142856	247.99999999999997	0.48041788357363463	25.789132402348024	15978.246509001885	2.953171864969639e-14
8.892857142857142	249.0	0.4804113070859932	25.785053121899562	16148.641698095364	2.8398647470614503e-14
8.928571428571427	249.99999999999997	0.48040473182688814	25.780920972202527	16371.067268094732	2.59841626711922e-14
8.964285714285714	251.0	0.480398157634714	25.776719848865785	16700.195861485314	2.228294715703705e-14
8.999999999999998	251.99999999999997	0.4803915842729142	25.772398812162553	17279.88832449087	1.7303697710643516e-14
9.035714285714285	252.99999999999997	0.4803850114786051	25.76788631178481	18321.526670530686	1.3372073095858023e-14
9.071428571428571	254.0	0.48037843904329064	25.762948782571204	20300.6442190847	1.4293168287280803e-14
9.107142857142856	254.99999999999997	0.4803718669647211	25.757319288810127	24390.511288057955	1.809892166284881e-14
9.142857142857142	256.0	0.48036529540705897	25.750420267075853	32536.35618615653	2.14051123621672e-14
9.178571428571427	257.0	0.4803587250827761	25.74099315124745	41547.00426982576	2.255544327267282e-14
9.214285714285714	258.0	0.4803521572780105	25.728969772592446	49585.15627992858	2.1403893795053778e-14
9.249999999999998	258.99999999999994	0.48034559281883416	25.715355140550987	59543.435839725695	1.80479495950277e-14
9.285714285714285	260.0	0.48033903190104155	25.700907976042622	60747.70751617331	1.3928686010843818e-14
9.321428571428571	261.0	0.48033247515359523	25.68657832063712	54364.5883462866	1.075154362524594e-14
9.357142857142856	262.0	0.4803259227469561	25.672553339392913	49803.33240077812	1.0367641837771485e-14
9.392857142857142	263.0	0.48031937439658307	25.66010298421751	45922.00928402956	1.27320614863026e-14
9.428571428571427	264.0	0.48031282949386656	25.650711348420614	40957.928436372174	1.5178810147341696e-14
9.464285714285714	265.0	0.4803062880581047	25.63916502905618	43687.91623902163	1.7719876843010403e-14
9.499999999999998	265.99999999999994	0.4802997499428237	25.62749959262929	49676.743518030904	2.0730860101218857e-14
9.535714285714285	267.0	0.4802932151838335	25.613420514584448	55193.515374985385	2.3371031113265018e-14
9.571428571428571	268.0	0.48028668398330104	25.598714235916376	55739.23640755666	2.273867704797769e-14
9.607142857142856	269.0	0.4802801557002287	25.583111104314156	56311.16537796291	1.7165212319109516e-14
9.642857142857142	270.0	0.48027363012349006	25.570265642813414	55435.05831019657	1.5693014230767188e-14
9.678571428571427	271.0	0.4802671074131182	25.555248700319634	55772.55322145217	2.1720596453962672e-14
9.714285714285714	272.0	0.48026058748604067	25.53997622307874	59175.43396294353	2.6045095294881507e-14
9.749999999999998	272.99999999999994	0.48025407100300427	25.524150771999796	64906.7735232812	2.5821037591475342e-14
9.785714285714285	274.0	0.48024755877114533	25.506530975651504	74746.97657465417	2.1764030608520133e-14
9.821428571428571	275.0	0.480241051854538	25.485807514731597	87005.75820858801	1.613305272216854e-14
9.857142857142856	276.0	0.4802345510093152	25.462377354866444	106642.46216716047	1.1554078506597876e-14
9.892857142857142	277.0	0.48022805626901366	25.43021521006379	130876.29190636921	1.128944452209681e-14
9.928571428571427	278.0	0.48022156873118876	25.392449500152257	156119.4147799666	1.5372364752539722e-14
9.964285714285714	279.0	0.4802150924533146	25.349937831618277	180540.95764994097	1.8669804796384734e-14
9.999999999999998	279.99999999999994	0.4802086246901004	25.296534474054315	227376.88606415087	1.874977644363908e-14
10.035714285714285	281.0	0.4802021701388639	25.22740784625017	247439.73394547554	1.498254641008013e-14
10.07142857142857	281.99999999999994	0.48019573377005104	25.15983585840585	261771.30545704483	1.1539587673875226e-14
10.107142857142856	283.0	0.4801893164265603	25.0860143698413	292170.13986587024	1.2238266304460532e-14
10.142857142857142	284.0	0.4801829173223621	25.00970153713636	331313.25482289895	1.2403417733353217e-14
10.178571428571427	285.0	0.48017653646567365	24.92240640094551	365076.6819140184	1.1030820706541939e-14
10.214285714285714	286.0	0.480170177706585	24.82617241884711	383527.11038037454	9.572831626813559e-15
10.249999999999998	286.99999999999994	0.4801638476840352	24.727696095270865	388395.6459298835	1.0057026300368727e-14
10.285714285714285	288.0	0.4801575420677368	24.625168979316594	402507.24059073924	1.1313620841127662e-14
10.32142857142857	288.99999999999994	0.4801512612507423	24.519354451069574	411181.18977166736	1.1315507497846088e-14
10.357142857142856	290.0	0.48014500816107375	24.41451234866453	414758.12974053266	9.94034735633647e-15
10.392857142857142	291.0	0.4801387815084246	24.306214414964344	416880.076790049	1.0004839605508046e-14
10.428571428571427	292.0	0.4801325822158674	24.196914975435803	402604.4908546117	1.1257239350295087e-14
10.464285714285714	293.0	0.4801264138246789	24.09725946855022	392422.6930491579	1.1029874686617439e-14
10.499999999999998	293.99999999999994	0.4801202688684261	23.996714220690347	389127.89968143107	9.816452994878698e-15
10.535714285714285	295.0	0.4801141513228542	23.902037404414592	368146.33774897276	9.477269283235346e-15
10.57142857142857	295.99999999999994	0.4801080579317253	23.811415729479368	373125.90975163504	1.0425733138399279e-14
10.607142857142856	297.0	0.48010198893530087	23.719615770578372	356053.43151464814	1.1306035889032117e-14
10.642857142857142	298.0	0.48009594323280264	23.630501740346325	341635.5570363773	1.0863486479959456e-14
10.678571428571427	299.0	0.4800899211771569	23.54247322304594	328952.6855135577	9.458069347279241e-15
10.714285714285714	300.0	0.48008392051209337	23.46239760700791	321240.1354350132	9.868178168472989e-15
10.749999999999998	300.99999999999994	0.48007794065880605	23.37893277760049	320456.7386745486	1.1013736020419686e-14
10.785714285714285	302.0	0.48007198156663533	23.296750350747335	316016.53530805855	1.157445377573912e-14
10.82142857142857	302.99999999999994	0.48006604138120923	23.21986550604203	324145.76506909885	1.0308118720959638e-14
10.857142857142856	304.0	0.48006012022537614	23.137286663480126	314624.02481942275	9.708766500666812e-15
10.892857142857142	305.0	0.4800542200461301	23.060101172421927	304950.56195257773	1.1124017679377125e-14
10.928571428571427	306.0	0.480048340800223	22.977008396717093	294864.5223784443	1.2902612895262987e-14
10.964285714285714	307.0	0.4800424809055006	22.905295448225253	286180.51680295815	1.2305013274722163e-14
10.999999999999998	307.99999999999994	0.4800366391086569	22.83220872809615	284939.718148055	1.0592152972092522e-14
11.035714285714285	309.0	0.4800308145248853	22.76044782178204	291500.36087116145	1.254725301557554e-14
11.07142857142857	309.99999999999994	0.4800250090957285	22.689657571100906	271403.9117884985	1.5649239372362905e-14
11.107142857142856	311.0	0.4800192221857706	22.623654743927318	272189.27426324674	1.5592335380975296e-14
11.142857142857142	312.0	0.48001345016409436	22.555684006567628	265994.96420697495	1.2436657188074953e-14
11.178571428571427	313.0	0.4800076944189773	22.49232469147578	271020.08423573227	1.0091576622843425e-14
11.214285714285714	314.0	0.4800019544509456	22.428352851376616	241112.71178114196	1.1698424345253955e-14
11.249999999999998	314.99999999999994	0.47999623325297713	22.367662576005884	216949.9080478765	1.474604425326074e-14
11.285714285714285	316.0	0.4799905291840401	22.315619742750073	190310.3618198348	1.5463834976892978e-14
11.32142857142857	316.99999999999994	0.47998483902389505	22.268660495086767	170721.89343086828	1.2879505020867539e-14
11.357142857142856	318.0	0.4799791604157479	22.22451146233724	168067.55780237046	1.0422587398082799e-14
11.392857142857142	319.0	0.47997349292379293	22.183776704145448	162177.82668843423	1.1849112365099618e-14
11.428571428571427	320.0	0.47996783677161564	22.140680012384625	165948.634051915	1.3417623990905614e-14
11.464285714285714	321.0	0.47996219127359224	22.097045632270653	173481.89066159984	1.2529379906793635e-14
11.499999999999998	321.99999999999994	0.47995655610254273	22.05119576007037	189280.98534824804	1.0403886497084142e-14
11.535714285714285	323.0	0.4799509304764885	22.005300399768608	204101.72697504112	9.63398703132767e-15
11.57142857142857	323.99999999999994	0.4799453177452333	21.947774444110053	201294.09456255942	1.053650265033692e-14
11.607142857142856	325.0	0.47993971881921543	21.89700145394126	206203.19292805085	1.1427638848474306e-14
11.642857142857142	326.0	0.4799341319573022	21.842729617610424	207287.72891421418	1.0571699646680733e-14
11.678571428571427	327.0	0.47992855841393606	21.79017171655229	202588.96525825688	9.612251566403966e-15
11.714285714285714	328.0	0.47992299947804723	21.738756859835846	187903.62201867258	9.610486922396183e-15
11.749999999999998	328.99999999999994	0.47991745375754835	21.68846960622042	187656.99306585983	1.0557053474059882e-14
11.785714285714285	330.0	0.47991191849244763	21.641339793286058	178759.266983347	1.0394442359027742e-14
11.82142857142857	330.99999999999994	0.4799063983233281	21.593765857714736	170982.62792470082	9.58067973979683e-15
11.857142857142856	332.0	0.47990088907825684	21.54746636327521	163579.777660881	8.98636949959233e-15
11.892857142857142	333.0	0.4798953921901302	21.50911268500095	155846.9443013024	9.528863282587738e-15
11.928571428571427	334.0	0.47988990625433087	21.46897471655779	146067.64444745774	9.53443014852777e-15
11.964285714285714	335.0	0.47988442986691726	21.43090260144433	146912.84876676908	9.064608149502992e-15
11.999999999999998	335.99999999999994	0.47987896285105003	21.393930423961695	147005.88614253406	8.78326839437052e-15
12.035714285714285	337.0	0.479873505440582	21.3569819366413	144819.6407147686	8.768611228042228e-15
12.07142857142857	337.99999999999994	0.4798680579959037	21.32139848192614	139771.13687137756	8.608533417509269e-15
12.107142857142856	339.0	0.4798626197220805	21.28666965095851	131576.89679389753	8.842485549907824e-15
12.142857142857142	340.0	0.4798571906854001	21.25506188875017	125632.81955605822	8.813050183249305e-15
12.178571428571427	341.0	0.4798517700334532	21.222385050746944	117605.3883783009	8.72993546411801e-15
12.214285714285714	342.0	0.479846357315919	21.193795808491366	111315.67201898397	8.673861202915262e-15
12.249999999999998	342.99999999999994	0.4798409519359887	21.169438888031593	106673.53686177873	8.79160122197743e-15
12.285714285714285	344.0	0.47983555332450184	21.14186474174971	101577.25539805104	8.944067704914257e-15
12.32142857142857	344.99999999999994	0.479830161403703	21.1166250325821	95881.44620738245	8.718008573304084e-15
12.357142857142856	346.0	0.4798247755860378	21.093784312967568	91672.8109459958	8.616944332223449e-15
12.39285714285714	346.99999999999994	0.4798193958294967	21.072281041709022	85262.96504371312	8.81801709098948e-15
12.428571428571427	348.0	0.4798140218942169	21.050009765944175	82013.61940520577	8.793947115365078e-15
12.464285714285714	349.0	0.4798086532779817	21.02862508778433	80343.97792527096	8.67078852893734e-15
12.499999999999998	349.99999999999994	0.4798032899027813	21.00938944035617	80533.99016608426	8.727404710320801e-15
12.535714285714285	351.0	0.4797979316776758	20.988824794221237	80615.76730906779	8.698612433805571e-15
12.57142857142857	351.99999999999994	0.47979257854948815	20.967971253361767	79140.7168681809	8.721453999336266e-15
12.607142857142856	353.0	0.4797872305524868	20.949124340521355	76968.07392631653	8.783260079786223e-15
12.64285714285714	353.99999999999994	0.479781887545819	20.92910335247703	74848.61700624798	8.955074670904551e-15
12.678571428571427	355.0	0.47977654932402974	20.910344700218314	74359.66199463238	8.691873908716071e-15
12.714285714285714	356.0	0.47977121584088767	20.892648273507298	72498.33166430297	8.86016518062915e-15
12.749999999999998	356.99999999999994	0.4797658872736493	20.874450981543035	70303.09622207687	8.77613424570107e-15
12.785714285714285	358.0	0.4797605633962345	20.856181671180277	69170.24864824173	8.57808997002595e-15
12.82142857142857	358.99999999999994	0.47975524381053325	20.839669652834306	67993.18786069629	8.670951233264434e-15
12.857142857142856	360.0	0.4797499285652725	20.82191009793123	65553.02551719977	8.7682119479574e-15
12.89285714285714	360.99999999999994	0.4797446176405231	20.80614762004547	63511.39176298709	8.809749376685252e-15
12.928571428571427	362.0	0.4797393110064758	20.79022618889931	61547.913212862266	8.663836077846495e-15
12.964285714285714	363.0	0.47973400836568336	20.774961517696028	60254.62972170918	8.807706492865061e-15
12.999999999999998	363.99999999999994	0.4797287095922028	20.75941185567666	57716.13668060744	8.674917319929404e-15
13.035714285714285	365.0	0.4797234147180747	20.74498879243364	56028.832505462065	8.888348009495208e-15
13.07142857142857	365.99999999999994	0.47971812346924875	20.731802945962773	54815.106023815526	8.768644122387628e-15
13.107142857142856	367.0	0.4797128357435411	20.718153835010426	51909.97560534063	8.778395569825296e-15
13.14285714285714	367.99999999999994	0.479707551361805	20.704496529088466	50133.036801265574	8.721269843084954e-15
13.178571428571427	369.0	0.47970227026793444	20.69240490909364	48470.683503292545	8.771975442008709e-15
13.214285714285714	370.0	0.4796969923791931	20.68073482485405	46957.07130926884	8.654232449198801e-15
13.249999999999998	370.99999999999994	0.47969171754222173	20.669648281026966	45319.3142982108	8.652521020251101e-15
13.285714285714285	372.0	0.4796864456316026	20.65832175777971	43845.00600209033	8.622129665792746e-15
13.32142857142857	372.99999999999994	0.4796811765354708	20.647023600386152	42315.12635842763	8.73602803168046e-15
13.357142857142856	374.0	0.4796759101716414	20.636892235948174	41582.692707405826	8.713801104060146e-15
13.39285714285714	374.99999999999994	0.4796706463775108	20.62704142957347	39260.58041529309	8.707467481385981e-15
13.428571428571427	376.0	0.4796653851239083	20.617481261552058	37576.28572523101	8.725948002862609e-15
13.464285714285714	377.0	0.47966012638940014	20.607936985161878	35580.70176296945	8.712733352072607e-15
13.499999999999998	377.99999999999994	0.47965487000727275	20.598939119283703	34913.8517511738	8.784726284662126e-15
13.535714285714285	379.0	0.47964961583874843	20.589942751873696	34408.29119206008	8.71296239426228e-15
13.57142857142857	379.99999999999994	0.4796443638225852	20.581537331335973	33340.692010538296	8.607946697156225e-15
13.607142857142856	381.0	0.4796391138712358	20.573891844116208	32682.656160920065	8.711868201529298e-15
13.64285714285714	381.99999999999994	0.4796338660140957	20.56589764024024	30145.426026555702	8.548974010994918e-15
13.678571428571427	383.0	0.4796286202397738	20.558319251714334	28096.77672881482	8.673365706598199e-15
13.714285714285714	384.0	0.47962337638114905	20.551192452793217	27101.249544926737	8.839285760059732e-15
13.749999999999998	385.0	0.4796181343218362	20.544438632049165	26573.106146910537	8.901617839019672e-15
13.785714285714285	386.0	0.4796128939908795	20.5378211043144	26139.219735925886	8.848974677180824e-15
13.82142857142857	386.99999999999994	0.47960765535533867	20.531219752846106	25881.149935047877	8.82816288223321e-15
13.857142857142856	388.0	0.4796024183769933	20.52514340114065	25349.307981593247	8.783550095310608e-15
13.89285714285714	388.99999999999994	0.47959718301713156	20.518664840616225	24204.648777263832	9.035348298347376e-15
13.928571428571427	390.0	0.47959194924374604	20.512386555105678	23128.477915296568	8.665920706318364e-15
13.964285714285714	391.0	0.47958671702281824	20.506884249691204	22775.97081479361	8.83988272429173e-15
13.999999999999998	392.0	0.47958148626583386	20.500735187779767	22375.347001088783	9.087022154774988e-15
14.035714285714285	393.0	0.4795762569649983	20.495474442811563	22016.70209473046	9.105573543421413e-15
14.07142857142857	393.99999999999994	0.4795710290920112	20.48987913631433	21683.496903368556	8.806708736843279e-15
14.107142857142856	395.0	0.47956580261752585	20.4846755623694	21047.404212463836	8.831797472672063e-15
14.14285714285714	395.99999999999994	0.47956057753319353	20.479165405950603	20692.957302366645	8.924840373147774e-15
14.178571428571427	397.0	0.47955535379510905	20.47405458463163	20503.889879177113	9.144656370095685e-15
14.214285714285714	398.0	0.47955013136662367	20.469025732226253	20529.23336449085	8.899799005645748e-15
14.249999999999998	399.0	0.479544910240848	20.463334734537014	20665.590184427747	8.849592461803627e-15
14.285714285714285	400.0	0.4795396904347956	20.4582549800687	20426.188662317072	8.840315939286302e-15
