# physical_time	scaled_time	kinetic_energy	enstrophy	palinstrophy	div_u_h
0	0.0	0.48221164950179535	37.63382690816737	95219.18167275861	1.6750908359416763e-10
0.03571428571428571	1.0	0.48220205216341155	37.60951662595501	95553.98590652144	2.4743607177036986e-14
0.07142857142857142	2.0	0.4821924610199944	37.584988311050886	96923.86386656876	2.5402883918909894e-14
0.10714285714285714	3.0	0.48218287619692396	37.559965247102326	99469.48993818235	2.5692753924251075e-14
0.14285714285714285	4.0	0.4821732978753658	37.53412679334271	103418.79343230836	2.6006185958634223e-14
0.17857142857142855	5.0	0.48216372632811005	37.506957555825224	109409.98074883783	2.6519356135387075e-14
0.21428571428571427	6.0	0.48215416197602184	37.47819354436286	118624.24517231692	2.6594508453630014e-14
0.24999999999999997	7.0	0.4821446054603393	37.44598890550612	133629.14973438854	2.6825298779059418e-14
0.2857142857142857	8.0	0.4821350577200904	37.4087060794039	161432.79129298413	2.7632044705089856e-14
0.3214285714285714	9.0	0.4821255201643583	37.36520583116389	210797.16489014705	2.825457897784697e-14
0.3571428571428571	10.0	0.4821159953006602	37.30502192471773	281916.4191291133	2.862568019414388e-14
0.3928571428571428	10.999999999999998	0.482106487525202	37.22708296382321	376973.2036295488	2.8775586285152755e-14
0.42857142857142855	12.0	0.4820970031136778	37.11618377771691	548782.8319802877	2.870607787999303e-14
0.46428571428571425	13.0	0.4820875498764779	36.97134233717441	700162.451025788	2.871206146445161e-14
0.49999999999999994	14.0	0.48207813757295437	36.79460440926293	824773.0457331849	2.8611601999325283e-14
0.5357142857142857	15.0	0.48206877212275634	36.595075402289815	891417.0696557164	2.9061955399117706e-14
0.5714285714285714	16.0	0.48205945958361257	36.38338561305092	914669.46757229	2.9116058689490403e-14
0.6071428571428571	17.0	0.48205020159296247	36.167277345105724	941792.8077836648	2.9337741115295133e-14
0.6428571428571428	18.0	0.48204099785533744	35.95376403855352	882082.9704258488	2.966898041448331e-14
0.6785714285714285	19.0	0.4820318477463882	35.754008313966345	852116.7610173067	3.034783935245975e-14
0.7142857142857142	20.0	0.48202274794819194	35.5601444746536	819909.8904938203	3.077662288327158e-14
0.7499999999999999	20.999999999999996	0.4820136975298535	35.36718339860119	829697.1812808148	3.108881614910925e-14
0.7857142857142856	21.999999999999996	0.48200469637331234	35.171979980949686	875599.8840101862	3.1402171762011416e-14
0.8214285714285713	22.999999999999996	0.48199574563443964	34.97244765997539	871881.4158984408	3.1822921107130834e-14
0.8571428571428571	24.0	0.4819868457336128	34.77058348641399	859678.6541068841	3.241427564994398e-14
0.8928571428571428	25.0	0.4819779977077583	34.58069024343686	810646.4600486921	3.249344933493179e-14
0.9285714285714285	26.0	0.4819691962909244	34.398794983004954	745610.2218078672	3.300542551200822e-14
0.9642857142857142	27.0	0.48196043939267974	34.23798805145943	657281.0659358791	3.3200483241004884e-14
0.9999999999999999	28.0	0.48195172164095834	34.096799118141	596765.6769709329	3.3222904976086676e-14
1.0357142857142856	28.999999999999996	0.4819430399127864	33.96417584570214	594449.1064050385	3.509099314385389e-14
1.0714285714285714	30.0	0.4819343925701982	33.83615621887356	508378.2906613025	3.824892238937875e-14
1.107142857142857	30.999999999999996	0.4819257765700339	33.72114766685286	515795.1295540153	4.122882009004971e-14
1.1428571428571428	32.0	0.4819171887980092	33.609843903563444	431968.4795288537	4.0388439696022285e-14
1.1785714285714284	33.0	0.4819086266425889	33.51264274049845	395427.7978914646	3.5197622350438485e-14
1.2142857142857142	34.0	0.4819000863137092	33.420814950452275	379269.65730896813	3.2270305266428014e-14
1.2499999999999998	34.99999999999999	0.48189156744878675	33.33290818123728	354504.7660875884	3.6736164581724976e-14
1.2857142857142856	36.0	0.48188306955954807	33.248286158658956	347037.32903312374	3.889894865446583e-14
1.3214285714285712	36.99999999999999	0.4818745930754549	33.16553862435394	327251.0738881187	3.7538299756108026e-14
1.357142857142857	38.0	0.48186613923490684	33.084858275539624	327132.4733685443	3.473167397775233e-14
1.3928571428571428	39.0	0.4818577074401675	32.99939730053453	379951.8648447332	3.310703471316248e-14
1.4285714285714284	40.0	0.481849299771154	32.898245759752406	452069.4165750255	3.23121466080044e-14
1.4642857142857142	41.0	0.481840920325189	32.77984986210627	523561.55823442567	3.2580587299564584e-14
1.4999999999999998	41.99999999999999	0.48183257345302394	32.6441530995598	571865.6001060222	3.248611268842831e-14
1.5357142857142856	43.0	0.4818242624343113	32.49722440015566	613494.1151369618	3.2029236371772375e-14
1.5714285714285712	43.99999999999999	0.48181599000932307	32.340735240375764	665730.2925338291	3.168702177945793e-14
1.607142857142857	45.0	0.48180775739019566	32.17897387779522	696993.9981280778	3.196565242887303e-14
1.6428571428571426	45.99999999999999	0.4817995658647376	32.018516145926824	649784.9636686842	3.24315366596218e-14
1.6785714285714284	47.0	0.48179141528691644	31.861329225789536	677850.211295417	3.1830182160173796e-14
1.7142857142857142	48.0	0.4817833055419918	31.701181645591486	673281.9098205307	3.2366657276409567e-14
1.7499999999999998	49.0	0.4817752375474507	31.53750203613787	660976.8098430488	3.2519534470522554e-14
1.7857142857142856	50.0	0.4817672112576733	31.375359945047276	671931.3297897904	3.320717515141239e-14
1.8214285714285712	50.99999999999999	0.4817592271614053	31.20959144051156	677056.9771931445	3.298798051824959e-14
1.857142857142857	52.0	0.4817512859566092	31.04188191407574	680004.7652555477	3.260407320223503e-14
1.8928571428571426	52.99999999999999	0.48174338777029574	30.87275696107686	690350.3295649596	3.231785085996183e-14
1.9285714285714284	54.0	0.48173553317227413	30.699847684677923	698891.2623608682	3.241564604796132e-14
1.964285714285714	54.99999999999999	0.4817277232204475	30.523234626596793	714821.5932704062	3.302612800845957e-14
1.9999999999999998	56.0	0.48171995882104157	30.34393330974802	732017.4850920475	3.276842118013379e-14
2.0357142857142856	57.0	0.4817122400420262	30.162412986205677	730510.8604505425	3.262860541404365e-14
2.071428571428571	57.99999999999999	0.4817045672238644	29.98405003323774	701354.9881688311	3.246887202033597e-14
2.1071428571428568	58.99999999999999	0.481696939204707	29.81377021670911	684463.7573595075	3.218524139894926e-14
2.142857142857143	60.0	0.48168935321039585	29.650025496675042	645865.2083082818	3.2543174886049947e-14
2.1785714285714284	61.0	0.48168180725076026	29.500438552876545	578834.0358841053	3.224641862569554e-14
2.214285714285714	61.99999999999999	0.4816742979904414	29.36645471865964	516529.10855619714	3.2339135170312143e-14
2.2499999999999996	62.99999999999999	0.48166682182220005	29.243708064000057	476293.83941005333	3.288669559540088e-14
2.2857142857142856	64.0	0.48165937566379563	29.12654151965971	487774.6905291615	3.33048984948513e-14
2.321428571428571	65.0	0.4816519589714549	29.00878690079817	488072.65995873726	3.305658834734421e-14
2.3571428571428568	66.0	0.48164457272893146	28.8880242100292	502828.1302474156	3.267818861086784e-14
2.392857142857143	67.0	0.4816372184543437	28.76024612645098	529139.6885571266	3.2315953919346505e-14
2.4285714285714284	68.0	0.4816298979224695	28.62571362363103	564923.5394386785	3.3920919108826556e-14
2.464285714285714	69.0	0.4816226117433393	28.488334134159725	567212.6609221334	3.483963552290486e-14
2.4999999999999996	69.99999999999999	0.48161535946278167	28.357176608997435	539726.3487632163	3.484715643385994e-14
2.5357142857142856	71.0	0.48160813868063507	28.23523553895803	500251.3712229574	3.321647375962517e-14
2.571428571428571	72.0	0.4816009473945891	28.124698264515004	439275.4474454284	3.243122587659626e-14
2.6071428571428568	73.0	0.4815937835727535	28.02734952516094	387264.3935619053	3.2654550064507226e-14
2.6428571428571423	73.99999999999999	0.4815866438358484	27.937018458691373	372196.1638311011	3.3572666761294384e-14
2.6785714285714284	75.0	0.48157952653691516	27.85051632147453	358359.0278611617	3.3762452048433005e-14
2.714285714285714	76.0	0.4815724308947723	27.76538976921713	333296.25981829467	3.273298508072421e-14
2.7499999999999996	76.99999999999999	0.48156535678255447	27.688017766437742	302681.4758294689	3.2535637115227526e-14
2.7857142857142856	78.0	0.4815583021300547	27.615564118179897	287916.86862756475	3.240280087773932e-14
2.821428571428571	79.0	0.4815512650493078	27.548980003878754	260173.81815855595	3.3049850723426184e-14
2.8571428571428568	80.0	0.4815442440057552	27.48906605644294	242579.33708759674	3.233939532151719e-14
2.8928571428571423	80.99999999999999	0.48153723787673613	27.43344097406908	224100.6490367231	3.221538899018512e-14
2.9285714285714284	82.0	0.4815302457051959	27.380220028885784	214210.30947511012	3.253628323656439e-14
2.964285714285714	83.0	0.48152326683148533	27.329889685516548	208509.71886777144	3.194382553573292e-14
2.9999999999999996	83.99999999999999	0.48151630053501965	27.279959256473923	210051.47568287028	3.2119373972672305e-14
3.0357142857142856	85.0	0.4815093466932697	27.232211897396034	193375.4811787168	3.2353290793318137e-14
3.071428571428571	86.0	0.4815024048685035	27.187456557120917	177084.0633352324	3.232688255985565e-14
3.1071428571428568	87.0	0.4814954740622741	27.146239443460555	160181.1359392781	3.209182901696997e-14
3.1428571428571423	87.99999999999999	0.48148855324838635	27.109024668197485	151676.77693613613	3.20092142351845e-14
3.1785714285714284	89.0	0.48148164175571767	27.073622572343492	143115.29364216872	3.2437945771326657e-14
3.214285714285714	90.0	0.481474739207325	27.03979774082308	137344.51819710917	3.2224691879287e-14
3.2499999999999996	90.99999999999999	0.481467845245345	27.00671019962906	134916.63374656902	3.216707025151706e-14
3.285714285714285	91.99999999999999	0.48146095966415386	26.974573494349244	127863.9416868818	3.212315672568816e-14
3.321428571428571	93.0	0.481454082123788	26.943612613270975	122340.67801404011	3.2627819640118377e-14
3.3571428571428568	94.0	0.48144721231014725	26.91409537172098	119806.13870636678	3.24040608201775e-14
3.3928571428571423	94.99999999999999	0.48144034990740364	26.885321930066336	117215.51286055768	3.213383750593662e-14
3.4285714285714284	96.0	0.48143349481391673	26.85723163068297	108581.22319989439	3.211698527828574e-14
3.464285714285714	97.0	0.4814266467095285	26.831035468017607	103781.75631978194	3.245075080372187e-14
3.4999999999999996	98.0	0.48141980526329436	26.80534819439867	98999.29728114093	3.222228291145619e-14
3.535714285714285	98.99999999999999	0.48141297018122586	26.780981313924556	95545.87629390774	3.23239727548488e-14
3.571428571428571	100.0	0.4814061411921177	26.757455548413173	92564.19029146024	3.1914727147019313e-14
3.6071428571428568	101.0	0.4813993181389615	26.734557391822722	90144.32653555264	3.223559907164451e-14
3.6428571428571423	101.99999999999999	0.4813925008651256	26.712340663107877	88481.64665793789	3.2223891608992586e-14
3.678571428571428	102.99999999999999	0.48138568918712715	26.690572139270632	84796.61014183334	3.2338989467516235e-14
3.714285714285714	104.0	0.4813788829112483	26.669910673213558	79566.57933568217	3.23584921831888e-14
3.7499999999999996	105.0	0.4813720817391322	26.65054763411277	76312.42027896347	3.235533046345744e-14
3.785714285714285	105.99999999999999	0.48136528542967955	26.631922051394106	73639.46924583665	3.270488830421406e-14
3.821428571428571	107.0	0.4813584938069263	26.61392142368466	70444.05464963743	3.2214813198259565e-14
3.8571428571428568	108.0	0.4813517066967283	26.596696362026872	66140.33984129857	3.24796076127606e-14
3.8928571428571423	108.99999999999999	0.4813449238437838	26.58052282451975	63604.78138831109	3.227291345828006e-14
3.928571428571428	109.99999999999999	0.4813381450570889	26.564713844248658	62609.86466371292	3.2431236490066e-14
3.964285714285714	111.0	0.4813313702556877	26.549369550131907	60669.76843913412	3.244733994339556e-14
3.9999999999999996	112.0	0.48132459931425237	26.53441188325247	57984.60461086107	3.21498591215086e-14
4.035714285714286	113.0	0.4813178320882713	26.520377286712797	55187.39616461952	3.249381715494919e-14
4.071428571428571	114.0	0.48131106840919397	26.50663917989809	52917.947977294185	3.213638448424498e-14
4.107142857142857	115.0	0.481304308148534	26.493483531451396	51406.181090710554	3.2094988364333374e-14
4.142857142857142	115.99999999999999	0.48129755118813466	26.48084930707777	49285.665794997076	3.212909081865003e-14
4.178571428571428	116.99999999999999	0.48129079738867214	26.468778753083598	46733.519282306435	3.202671974657291e-14
4.2142857142857135	117.99999999999999	0.48128404660246854	26.457265710285945	44675.92062356143	3.1864346361205445e-14
4.249999999999999	118.99999999999999	0.4812772986942723	26.446108399372598	43164.147066881545	3.2144259839840094e-14
4.285714285714286	120.0	0.4812705535685005	26.435438884504432	41469.483050941824	3.251632009919818e-14
4.321428571428571	121.0	0.4812638111277168	26.42515169655038	39904.549834344856	3.216792481321383e-14
4.357142857142857	122.0	0.4812570712706752	26.41516325859884	38887.84351732209	3.232888040025647e-14
4.392857142857142	122.99999999999999	0.48125033393578154	26.405389584777804	38049.16420644531	3.221505544745831e-14
4.428571428571428	123.99999999999999	0.48124359906579284	26.39589402793915	36912.23338335962	3.221587024981235e-14
4.4642857142857135	124.99999999999999	0.48123686658235987	26.386733956810144	35506.301012496915	3.224023419852212e-14
4.499999999999999	125.99999999999999	0.48123013639108625	26.377912336263797	34435.38177415135	3.232264256868779e-14
4.535714285714286	127.0	0.48122340840831995	26.369341131484568	33446.488042609264	3.218898712965064e-14
4.571428571428571	128.0	0.4812166825656915	26.36101276307629	32762.762235300343	3.197231929640316e-14
4.607142857142857	129.0	0.4812099588206379	26.352893127066018	32238.905965644546	3.216291608534127e-14
4.642857142857142	130.0	0.4812032371511134	26.344806514110665	31802.930021315045	3.218563553635706e-14
4.678571428571428	131.0	0.4811965175305504	26.336852844456242	31401.20020593895	3.23246070268622e-14
4.7142857142857135	132.0	0.4811897999290114	26.32897727799253	31042.861498686914	3.2206590991102076e-14
4.749999999999999	132.99999999999997	0.48118308432616613	26.321192002379355	30759.658137639428	3.2140819483239006e-14
4.785714285714286	134.0	0.4811763707035502	26.31349309925078	30247.864475055223	3.226331997679205e-14
4.821428571428571	135.0	0.48116965903596787	26.30590091526149	29668.521316801434	3.20714381589467e-14
4.857142857142857	136.0	0.4811629492791494	26.2985146195117	28731.44607667907	3.2148706396896325e-14
4.892857142857142	137.0	0.48115624137763174	26.291364207704905	28005.0082574609	3.227193713338425e-14
4.928571428571428	138.0	0.48114953528475596	26.284329424653823	27569.19707846629	3.226744355446694e-14
4.9642857142857135	139.0	0.48114283096811794	26.277466648757652	26952.082220116063	3.234051871592408e-14
4.999999999999999	139.99999999999997	0.4811361283832137	26.270739388130316	25993.459819394844	3.2225868905200664e-14
5.035714285714285	140.99999999999997	0.4811294274733196	26.26432343109928	24936.289932851858	3.236958501949658e-14
5.071428571428571	142.0	0.4811227281764989	26.258137975299555	24264.445206436376	3.1783878579912004e-14
5.107142857142857	143.0	0.4811160304492213	26.252073527934645	23748.937700026054	3.193331395491995e-14
5.142857142857142	144.0	0.48110933425920743	26.246059296101958	23236.150669678857	3.204760818970743e-14
5.178571428571428	145.0	0.48110263957878147	26.24019363067918	22921.591398017732	3.23945755065568e-14
5.2142857142857135	146.0	0.4810959463878204	26.234403326217855	22763.124212161772	3.1997339766729396e-14
5.249999999999999	146.99999999999997	0.4810892546721102	26.22861143746094	22657.47120848246	3.2245264643392685e-14
5.285714285714285	147.99999999999997	0.4810825644243747	26.222910028354875	22438.73441038826	3.218638695701072e-14
5.321428571428571	149.0	0.48107587563534737	26.217206695599607	22270.65468374106	3.2432352048293313e-14
5.357142857142857	150.0	0.4810691882972437	26.211533730969162	22242.084294820306	3.199221983702087e-14
5.392857142857142	151.0	0.48106250240293974	26.205881758537046	22058.675897733396	3.195677997062433e-14
5.428571428571428	152.0	0.48105581793887475	26.200326059617353	21719.592450794036	3.213425868740342e-14
5.4642857142857135	153.0	0.48104913488047835	26.194878900711615	21254.342177550105	3.2580689069191653e-14
5.499999999999999	153.99999999999997	0.48104245320317734	26.189497785218606	21169.05694251314	3.215814804822007e-14
5.535714285714285	154.99999999999997	0.4810357728995812	26.18412711607814	21289.596087374066	3.2254426665996803e-14
5.571428571428571	156.0	0.4810290939734473	26.178662638740203	21481.32946874121	3.245154477636497e-14
5.607142857142857	157.0	0.4810224164343984	26.173181538935882	21696.625776687823	3.253257373783482e-14
5.642857142857142	158.0	0.48101574029927346	26.167655138932677	21827.32751579538	3.246892712628967e-14
5.678571428571428	159.0	0.4810090655824971	26.16210822900258	21751.441851406504	3.250148661352292e-14
5.7142857142857135	160.0	0.4810023922795158	26.15661206401343	21312.029099376243	3.18014901442755e-14
5.749999999999999	160.99999999999997	0.480995720360153	26.151273168851038	20665.992853871558	3.2253746595199967e-14
5.785714285714285	161.99999999999997	0.48098904977345946	26.146133074451285	19820.345091038398	3.231019530650375e-14
5.821428571428571	163.0	0.4809823804674114	26.14118323262124	19131.52093026141	3.238759148778239e-14
5.857142857142857	164.0	0.4809757124022789	26.13638355159657	18754.08123810805	3.2282736981725364e-14
5.892857142857142	165.0	0.4809690455589467	26.131604734098097	18793.090373395007	3.2157417101554485e-14
5.928571428571428	166.0	0.4809623799360691	26.126795633888754	19097.634724454783	3.226733930998281e-14
5.9642857142857135	167.0	0.4809557155494902	26.12187929437379	19421.533393144986	3.23209623382865e-14
5.999999999999999	167.99999999999997	0.4809490524228049	26.116908549116083	19547.867822579326	3.250022551331138e-14
6.035714285714285	168.99999999999997	0.4809423905685248	26.111957270848393	19465.96841429641	3.246385756740343e-14
6.071428571428571	170.0	0.4809357299812244	26.107028948329617	19179.030654769012	3.22621847057791e-14
6.107142857142857	171.0	0.4809290706404829	26.102194121186656	18818.145059556766	3.2599356138280113e-14
6.142857142857142	172.0	0.4809224125179081	26.097459623394666	18387.208900489448	3.212210445584616e-14
6.178571428571428	173.0	0.4809157555874782	26.092828986381612	18065.94357540112	3.2152482095768864e-14
6.2142857142857135	174.0	0.4809090998310131	26.088248463049666	17950.738569232148	3.214371909946459e-14
6.249999999999999	174.99999999999997	0.4809024452410469	26.083686501896164	18016.766929999874	3.177001554273735e-14
6.285714285714285	175.99999999999997	0.4808957918202213	26.079094931820123	18127.084987228336	3.2255460256673e-14
6.32142857142857	176.99999999999997	0.48088913957586055	26.07445828623542	18251.786125461076	3.2210846780916926e-14
6.357142857142857	178.0	0.4808824885145818	26.06980839332889	18310.94591766098	3.245585832595884e-14
6.392857142857142	179.0	0.48087583864088823	26.065154706796623	18273.87867816632	3.223505081177607e-14
6.428571428571428	180.0	0.4808691899539673	26.060522031794246	18170.23089168721	3.245760762256742e-14
6.4642857142857135	181.0	0.48086254244729487	26.055915183109846	18019.52228016561	3.228669775687369e-14
6.499999999999999	181.99999999999997	0.4808558961096422	26.05134954554791	17839.499418875374	3.2222902582198586e-14
6.535714285714285	182.99999999999997	0.48084925092951064	26.046838929067746	17637.910576307233	3.23351098360883e-14
6.57142857142857	183.99999999999997	0.4808426068953601	26.042367743949253	17474.327513123204	3.220168947406228e-14
6.607142857142857	185.0	0.48083596399776607	26.037927743919536	17393.941084901733	3.208403475802385e-14
6.642857142857142	186.0	0.48082932223130165	26.033502868590368	17367.508425414893	3.245420348998115e-14
6.678571428571428	187.0	0.4808226815928655	26.02908592098786	17387.191460636986	3.236473948262809e-14
6.7142857142857135	188.0	0.4808160420844025	26.024645286281643	17440.70360992714	3.1994665864677106e-14
6.749999999999999	188.99999999999997	0.4808094037098566	26.020188031831125	17564.917851515547	3.221951000551538e-14
6.785714285714285	189.99999999999997	0.4808027664768186	26.015702047783513	17645.878159850192	3.24302928567284e-14
6.82142857142857	190.99999999999997	0.48079613039078717	26.01120031569528	17621.343262855935	3.231569774334128e-14
6.857142857142857	192.0	0.48078949545064087	26.00672501410473	17500.271364308843	3.233978460143141e-14
6.892857142857142	193.0	0.48078286164806344	26.002286023484675	17323.114162200567	3.206855985582669e-14
6.928571428571428	194.0	0.4807762289717194	25.997896368510034	17142.878750121396	3.207923564371283e-14
6.9642857142857135	195.0	0.48076959741032527	25.99354474818923	16984.173878105947	3.2511590719884684e-14
6.999999999999999	196.0	0.48076296695477405	25.989230952312493	16943.523004850154	3.244541258330117e-14
7.035714285714285	196.99999999999997	0.4807563376017865	25.984897172840878	17066.708155282264	3.213767862171228e-14
7.07142857142857	197.99999999999997	0.48074970935780553	25.98052230726425	17313.412055417743	3.227637561924794e-14
7.107142857142857	199.0	0.48074308223789247	25.97608289174487	17567.045531371885	3.214910233002798e-14
7.142857142857142	200.0	0.48073645625870315	25.971579362542926	17712.371114215493	3.231324977206465e-14
7.178571428571428	201.0	0.4807298314301574	25.967072101009826	17696.17889823376	3.2155946926557204e-14
7.2142857142857135	202.0	0.48072320775151295	25.96258150781098	17523.950956095206	3.2317245093482995e-14
7.249999999999999	203.0	0.48071658521101157	25.958141080388863	17264.077395205273	3.228371516772281e-14
7.285714285714285	203.99999999999997	0.4807099637920457	25.95377721345547	17003.551213724248	3.2190769518315725e-14
7.32142857142857	204.99999999999997	0.48070334347819466	25.949473203887454	16815.60403627714	3.2066716484892156e-14
7.357142857142856	205.99999999999997	0.4806967242577273	25.945200468658403	16706.499319787432	3.2275698907642324e-14
7.392857142857142	207.0	0.48069010612459884	25.940948621881624	16691.986934300363	3.240890528851987e-14
7.428571428571428	208.0	0.4806834890765823	25.93668984931829	16715.562024639345	3.243610142298364e-14
7.4642857142857135	209.0	0.48067687311474455	25.932432380070498	16679.020071716586	3.222939874491665e-14
7.499999999999999	210.0	0.48067025823760556	25.92819315821711	16572.2979277083	3.23299974652605e-14
7.535714285714285	210.99999999999997	0.48066364443861914	25.923982624607987	16430.061553091342	3.206873527044745e-14
7.57142857142857	211.99999999999997	0.4806570317083123	25.919814697544112	16291.407654849629	3.211843632038357e-14
7.607142857142856	212.99999999999997	0.4806504200367081	25.915677275406743	16166.922936988867	3.2067812045890303e-14
7.642857142857142	214.0	0.4806438094158765	25.9115714457908	16108.73289371022	3.213131261465818e-14
7.678571428571428	215.0	0.48063719984176295	25.907471739722222	16098.584888659008	3.224215670391406e-14
7.7142857142857135	216.0	0.4806305913146822	25.9033629125765	16177.965549580453	3.2364115308326333e-14
7.749999999999999	217.0	0.48062398383953986	25.899227823163002	16301.755816193147	3.2127107003444035e-14
7.785714285714285	217.99999999999997	0.4806173774239457	25.89505783148035	16412.3021672736	3.2540949170631723e-14
7.82142857142857	218.99999999999997	0.4806107720752344	25.890867039489002	16470.942904280375	3.2030209186937584e-14
7.857142857142856	219.99999999999997	0.4806041677966138	25.886672384689774	16434.41894147001	3.1928933865999295e-14
7.892857142857142	221.0	0.48059756458664915	25.882494967854036	16326.312210952436	3.218889010692897e-14
7.928571428571428	222.0	0.4805909624384289	25.878351356544513	16158.181010401453	3.221442127629974e-14
7.9642857142857135	223.0	0.48058436134124694	25.874256647313455	15962.184784065239	3.2052626142167415e-14
7.999999999999999	224.0	0.48057776128255203	25.870210932212466	15766.866075500348	3.228063376688558e-14
8.035714285714285	224.99999999999997	0.48057116224983715	25.866212837177052	15589.60531573761	3.233311217545131e-14
8.071428571428571	226.0	0.4805645642318728	25.862257305610424	15446.707273998036	3.241939202310447e-14
8.107142857142856	226.99999999999997	0.48055796721964783	25.858328352016898	15364.237105441285	3.215412759397243e-14
8.142857142857142	228.0	0.48055137120762653	25.854412383314777	15360.36358844406	3.2300183060422155e-14
8.178571428571427	228.99999999999997	0.48054477619491265	25.850489178304407	15424.282535322518	3.245468299453503e-14
8.214285714285714	230.0	0.4805381821850742	25.846544639878637	15517.889951722826	3.2141721310622295e-14
8.249999999999998	230.99999999999997	0.4805315891841598	25.842576481562396	15596.050876544556	3.243955280250017e-14
8.285714285714285	231.99999999999997	0.4805249971977191	25.838593334509724	15630.66538377725	3.220872680796164e-14
8.321428571428571	233.0	0.4805184062284001	25.834607721535452	15616.875064651482	3.222841820448573e-14
8.357142857142856	233.99999999999997	0.48051181627512757	25.830631084272383	15560.99142562734	3.2092456408120785e-14
8.392857142857142	235.0	0.4805052273338349	25.826672699896413	15476.909113096533	3.2656629333892646e-14
8.428571428571427	235.99999999999997	0.4804986393990798	25.82273688803682	15398.81033913419	3.23274506303246e-14
8.464285714285714	237.0	0.4804920524663078	25.818815630702023	15364.575409996138	3.2080182241456066e-14
8.499999999999998	237.99999999999997	0.48048546653361013	25.814894824565407	15394.60885190878	3.2441115372933835e-14
8.535714285714285	238.99999999999997	0.4804788816029431	25.810959721999996	15476.239580356209	3.2462381203889446e-14
8.571428571428571	240.0	0.48047229767890876	25.807002944415856	15562.032593542885	3.220338271930701e-14
8.607142857142856	240.99999999999997	0.48046571476685973	25.80302967595057	15594.58256841063	3.198163350858156e-14
8.642857142857142	242.0	0.48045913286947517	25.799057866554573	15546.552307825417	3.221935387328132e-14
8.678571428571427	242.99999999999997	0.48045255198408077	25.795108246771342	15422.83947292326	3.221730069394783e-14
8.714285714285714	244.0	0.48044597210254497	25.79119783529675	15255.210793905142	3.2320683271265774e-14
8.749999999999998	244.99999999999997	0.4804393932134933	25.787330425742088	15073.954707774694	3.2184996526376266e-14
8.785714285714285	245.99999999999997	0.4804328153058928	25.78350693706124	14939.489358668883	3.235364871764409e-14
8.821428571428571	247.0	0.4804262383717969	25.779703981437553	14885.488157376296	3.22318743377837e-14
8.857142857142856	247.99999999999997	0.4804196624081794	25.77590395761794	14934.860687575016	3.2453585726091124e-14
8.892857142857142	249.0	0.4804130874178414	25.772080635949113	15057.124764045171	3.242742664512005e-14
8.928571428571427	249.99999999999997	0.4804065134083284	25.768223643329364	15196.278044225617	3.224421447954689e-14
8.964285714285714	251.0	0.4803999403893864	25.76433395342637	15287.615990199009	3.247718812352971e-14
8.999999999999998	251.99999999999997	0.4803933683683333	25.760433129398272	15286.889581211968	3.2733701966631744e-14
9.035714285714285	252.99999999999997	0.4803867973460275	25.756544111869346	15184.7418448525	3.318993325431506e-14
9.071428571428571	254.0	0.480380227315771	25.752692097816244	15024.372546758914	3.303973264031017e-14
9.107142857142856	254.99999999999997	0.480373658266563	25.748883872969344	14844.684155446148	3.3236026128134785e-14
9.142857142857142	256.0	0.48036709018753904	25.74511744917564	14703.092557925782	3.3305638033962546e-14
9.178571428571427	257.0	0.4803605230718406	25.7413780009598	14640.35526740716	3.320301413674768e-14
9.214285714285714	258.0	0.48035395691862054	25.73764364038243	14664.295440530625	3.383567867747196e-14
9.249999999999998	258.99999999999994	0.4803473917330254	25.73389238707392	14757.530219830103	3.3972849973035204e-14
9.285714285714285	260.0	0.4803408275250631	25.730113307708933	14883.001606742651	3.4055059457892055e-14
9.321428571428571	261.0	0.48033426430781306	25.72630226136805	14994.105751178686	3.4354751812092824e-14
9.357142857142856	262.0	0.4803277020944311	25.722469295126107	15051.640038772477	3.508887623954181e-14
9.392857142857142	263.0	0.4803211408949097	25.71862947319202	15046.405272747174	3.553574284633264e-14
9.428571428571427	264.0	0.48031458071429295	25.714799254873405	14986.029217782334	3.607182839784847e-14
9.464285714285714	265.0	0.4803080215541687	25.710988961441583	14897.396534608315	3.699501143712653e-14
9.499999999999998	265.99999999999994	0.48030146341662067	25.707202581082527	14816.730217953016	3.75340220457981e-14
9.535714285714285	267.0	0.4802949063088638	25.703431730882304	14768.494207486954	3.8408506750968055e-14
9.571428571428571	268.0	0.48028835024719474	25.699666436715397	14777.486279993413	3.9238217348320874e-14
9.607142857142856	269.0	0.4802817952590016	25.695895902539217	14837.350762948588	4.002677089326981e-14
9.642857142857142	270.0	0.4802752413834017	25.692103794710427	14939.518891521353	4.099613883902978e-14
9.678571428571427	271.0	0.4802686886677324	25.68828415487402	15063.32955651469	4.1789020935603054e-14
9.714285714285714	272.0	0.4802621371609144	25.68443341950652	15185.538331123105	4.236825694735393e-14
9.749999999999998	272.99999999999994	0.4802555869026691	25.680556468270026	15272.605685634584	4.252764083910989e-14
9.785714285714285	274.0	0.4802490379065704	25.676656541656598	15353.426404157392	4.2391773749958494e-14
9.821428571428571	275.0	0.4802424901388365	25.672733670686696	15466.754994316541	4.1192214650094925e-14
9.857142857142856	276.0	0.4802359434986132	25.66877356734132	15670.199469564363	3.9545642680199375e-14
9.892857142857142	277.0	0.4802293978101998	25.664760825198385	15949.791514931203	3.686960074190433e-14
9.928571428571427	278.0	0.48022285283964694	25.66064710931603	16461.355800361613	3.40450965252425e-14
9.964285714285714	279.0	0.4802163083450941	25.656336029613627	17454.534315219335	3.2781615330083744e-14
9.999999999999998	279.99999999999994	0.4802097641531423	25.651647434927547	19582.13656227402	3.361609642028451e-14
10.035714285714285	281.0	0.48020322031074963	25.64618955967051	23628.15551389671	3.52891165993249e-14
10.07142857142857	281.99999999999994	0.4801966772226486	25.639442782285826	30899.79018701783	3.7030156258679044e-14
10.107142857142856	283.0	0.48019013562510865	25.630703662844493	41141.99434483791	3.7626328224282544e-14
10.142857142857142	284.0	0.4801835963667272	25.61967590754686	51483.53174995643	3.70755157291954e-14
10.178571428571427	285.0	0.48017706045691827	25.607043749598958	53164.22422286375	3.555402194679881e-14
10.214285714285714	286.0	0.48017052819128425	25.59398057132552	54392.612507674145	3.3575000069491235e-14
10.249999999999998	286.99999999999994	0.4801639997544793	25.58171000469034	48809.33798775346	3.3165234510658756e-14
10.285714285714285	288.0	0.4801574748192368	25.57069412281419	44495.44018825929	3.304410422282663e-14
10.32142857142857	288.99999999999994	0.48015095300632316	25.5606424592184	40634.834642496884	3.389680324280639e-14
10.357142857142856	290.0	0.4801444341261687	25.550756546516673	40282.30631792771	3.46139426964334e-14
10.392857142857142	291.0	0.4801379183080111	25.540412358208112	42873.573136346	3.5638540088337696e-14
10.428571428571427	292.0	0.48013140593017484	25.52912323274964	46482.40687339686	3.6987208379275475e-14
10.464285714285714	293.0	0.48012489723178803	25.51685527005468	49917.978943312024	3.8220791066957065e-14
10.499999999999998	293.99999999999994	0.48011839196049144	25.50398338903072	52307.68701661786	3.7939130074283434e-14
10.535714285714285	295.0	0.4801118896719121	25.490699873190714	52607.468391156704	3.486944454033888e-14
10.57142857142857	295.99999999999994	0.48010538985166706	25.4774082809279	53297.132631014465	3.3838886802699535e-14
10.607142857142856	297.0	0.480098891982411	25.46374535208364	56602.85942811168	3.727741479238158e-14
10.642857142857142	298.0	0.4800923961850199	25.449012376134128	62046.037008554194	4.0066636253331465e-14
10.678571428571427	299.0	0.480085903493649	25.432742752687844	67640.28591293262	3.957703256844822e-14
10.714285714285714	300.0	0.4800794151823932	25.414699296157668	75768.23741222886	3.7510038607505275e-14
10.749999999999998	300.99999999999994	0.4800729323101159	25.393981087567518	88256.29575086996	3.452567601143582e-14
10.785714285714285	302.0	0.4800664557546366	25.36950900026492	105303.80494188765	3.3135161730768284e-14
10.82142857142857	302.99999999999994	0.48005998650722226	25.34004507306477	127814.58526136736	3.254924957336469e-14
10.857142857142856	304.0	0.4800535257853071	25.304199165483197	155980.88107689252	3.474635973954727e-14
10.892857142857142	305.0	0.4800470749638945	25.260822917434858	192380.12568800498	3.541861653270755e-14
10.928571428571427	306.0	0.4800406360648586	25.209458456649767	221331.29956891882	3.562711860996837e-14
10.964285714285714	307.0	0.4800342112062092	25.15034211187342	256629.33095871695	3.3619106519617506e-14
10.999999999999998	307.99999999999994	0.48002780190797634	25.083028601551096	286217.496161969	3.2401930282333166e-14
11.035714285714285	309.0	0.4800214106519155	25.01116519634305	304168.99842772033	3.258736273124927e-14
11.07142857142857	309.99999999999994	0.48001503857520994	24.933725434030045	322169.12033378484	3.302950080046619e-14
11.107142857142856	311.0	0.4800086870411476	24.850972924068003	354009.1229500081	3.2101636120964776e-14
11.142857142857142	312.0	0.4800023574592846	24.76047337810566	380806.3268122457	3.206967782527013e-14
11.178571428571427	313.0	0.479996051603491	24.664613096629623	390901.91844326886	3.1944640256936407e-14
11.214285714285714	314.0	0.4799897710720525	24.566915422664888	396174.4079106902	3.2346642031269337e-14
11.249999999999998	314.99999999999994	0.4799835159763836	24.466733257791205	409943.5419921883	3.2689152716705204e-14
11.285714285714285	316.0	0.47997728635241216	24.36454733738322	423470.384491244	3.2114209124829565e-14
11.32142857142857	316.99999999999994	0.47997108289400175	24.260474345053805	415548.5743896916	3.1863066164340066e-14
11.357142857142856	318.0	0.47996490611446735	24.157821232648658	409608.1076962511	3.2330959558404075e-14
11.392857142857142	319.0	0.4799587552633561	24.05581115411734	405991.1334039913	3.225850748710311e-14
11.428571428571427	320.0	0.47995263038854663	23.95675526319771	384889.55192056583	3.199283512158931e-14
11.464285714285714	321.0	0.479946530607816	23.862169273389856	370275.72724648425	3.195525647300016e-14
11.499999999999998	321.99999999999994	0.47994045449001504	23.770605204807875	364073.2415074952	3.24432318154596e-14
11.535714285714285	323.0	0.4799344016873483	23.680051640013392	359427.11586781347	3.266704633680474e-14
11.57142857142857	323.99999999999994	0.47992837169183516	23.591576538052333	350947.50215772376	3.245470131659237e-14
11.607142857142856	325.0	0.479922364062756	23.505334705439125	342382.9800164938	3.199357201374101e-14
11.642857142857142	326.0	0.4799163781242731	23.421494405755986	334140.38751594746	3.1895163965471654e-14
11.678571428571427	327.0	0.479910413402644	23.339466091996268	325475.1286379993	3.266754062264395e-14
11.714285714285714	328.0	0.479904469362101	23.258782681661664	323712.9766860593	3.254392026750512e-14
11.749999999999998	328.99999999999994	0.4798985458071863	23.178552013443426	320532.3856613698	3.2010067320728883e-14
11.785714285714285	330.0	0.4798926427154591	23.098853005793384	315785.76415969856	3.196388903050166e-14
11.82142857142857	330.99999999999994	0.4798867597442201	23.01992814423275	321712.55767008866	3.2248680740869844e-14
11.857142857142856	332.0	0.479880896749841	22.941730348130534	313563.62322548917	3.301628338907704e-14
11.892857142857142	333.0	0.47987505352170445	22.86566521247768	302230.1779268823	3.2468265774748653e-14
11.928571428571427	334.0	0.4798692295647645	22.792369330814044	290999.36085585615	3.215272387184087e-14
11.964285714285714	335.0	0.47986342408999216	22.72131481708469	281651.060627235	3.2734574482479314e-14
11.999999999999998	335.99999999999994	0.4798576362504259	22.65262346214051	274718.40435753175	3.3991414759475893e-14
12.035714285714285	337.0	0.47985186544815295	22.586522170643168	263909.7506586363	3.3975594267890085e-14
12.07142857142857	337.99999999999994	0.4798461112877069	22.52193610831556	255859.85249578606	3.254879366816341e-14
12.107142857142856	339.0	0.4798403735107673	22.459155687860555	251081.3641172396	3.1972293333445874e-14
12.142857142857142	340.0	0.47983465150606736	22.397565827909855	243075.37052952548	3.3021757421460235e-14
12.178571428571427	341.0	0.47982894487339184	22.33903950429591	227371.61241777305	3.397270903288517e-14
12.214285714285714	342.0	0.47982325268806186	22.28568078450776	203023.2719018402	3.428015704808626e-14
12.249999999999998	342.99999999999994	0.4798175734505151	22.23680638022651	189209.60452099607	3.275342732056786e-14
12.285714285714285	344.0	0.4798119061143815	22.19105498450484	177471.42520073912	3.2166507888201453e-14
12.32142857142857	344.99999999999994	0.47980625023683593	22.14722180151685	173338.46892401815	3.2566358068874947e-14
12.357142857142856	346.0	0.4798006054345322	22.103880187875475	173269.4368394011	3.327012042334399e-14
12.39285714285714	346.99999999999994	0.4797949717444088	22.060361883728497	173700.8612401234	3.244310042335137e-14
12.428571428571427	348.0	0.4797893493261817	22.01615038132223	178037.21798882412	3.2114719693225036e-14
12.464285714285714	349.0	0.47978373838075705	21.97009802729735	187168.1962430731	3.216219738523801e-14
12.499999999999998	349.99999999999994	0.47977813925705914	21.92257884652391	197527.65426182197	3.242409764180657e-14
12.535714285714285	351.0	0.4797725522870392	21.873203907486463	199098.89357105858	3.2670279627977906e-14
12.57142857142857	351.99999999999994	0.4797669779805033	21.823961806996685	194777.59303612166	3.2273221761362746e-14
12.607142857142856	353.0	0.479761416282791	21.775784400633462	194424.5907526503	3.1865292891220596e-14
12.64285714285714	353.99999999999994	0.4797558667756209	21.728030364539837	193060.71167019042	3.189497292053433e-14
12.678571428571427	355.0	0.47975032929427386	21.680799563476192	187762.44817481114	3.2135890125396305e-14
12.714285714285714	356.0	0.4797448038220573	21.634589042975318	186481.2100909968	3.212837779562347e-14
12.749999999999998	356.99999999999994	0.47973929004273025	21.588704573706128	188371.27784244253	3.2023425118422235e-14
12.785714285714285	358.0	0.47973378762324875	21.54259071173454	179540.93570536326	3.1784995111038156e-14
12.82142857142857	358.99999999999994	0.4797282970271994	21.499777267258857	165602.00174090345	3.22770277951034e-14
12.857142857142856	360.0	0.4797228170624376	21.459739106486765	157542.78433532946	3.2407032203302565e-14
12.89285714285714	360.99999999999994	0.4797173471616569	21.421076689013773	153390.10434898591	3.1917447194949104e-14
12.928571428571427	362.0	0.4797118870830679	21.383113352774195	149005.10949269423	3.182015378924224e-14
12.964285714285714	363.0	0.47970643661611906	21.346155015468405	146381.52646312467	3.1461818550892014e-14
12.999999999999998	363.99999999999994	0.4797009955093614	21.310162954363264	141728.6353941196	3.18069904481842e-14
13.035714285714285	365.0	0.4796955634098463	21.275674880702873	133789.11166055335	3.182774995576685e-14
13.07142857142857	365.99999999999994	0.4796901399012049	21.243367640978434	125370.60272687212	3.1581908486425316e-14
13.107142857142856	367.0	0.4796847244440636	21.21291446622899	117077.70214458514	3.1496149379093555e-14
13.14285714285714	367.99999999999994	0.47967931653127965	21.1844016009469	110089.64967874422	3.1629981294079296e-14
13.178571428571427	369.0	0.47967391571758133	21.157235191693427	105497.33919341014	3.152464350561821e-14
13.214285714285714	370.0	0.47966852166406404	21.13137325149139	100102.8447121616	3.164506174178685e-14
13.249999999999998	370.99999999999994	0.4796631340820627	21.106644207291716	95859.8680001225	3.1562099008126436e-14
13.285714285714285	372.0	0.4796577526701731	21.082983004470446	92039.58227536257	3.17858243340361e-14
13.32142857142857	372.99999999999994	0.47965237714948533	21.06044835374342	87922.05575785504	3.152742626963254e-14
13.357142857142856	374.0	0.4796470072465216	21.038901740328413	83800.25445747958	3.195885774457792e-14
13.39285714285714	374.99999999999994	0.4796416427448963	21.0181900282714	80476.79089616927	3.168106281466636e-14
13.428571428571427	376.0	0.4796362834556773	20.998057917419786	78910.90816884402	3.1635976559905157e-14
13.464285714285714	377.0	0.4796309292564046	20.9782973108064	77574.3740292938	3.17859606810957e-14
13.499999999999998	377.99999999999994	0.4796255800403155	20.958901070365865	76928.89519484481	3.170976010024893e-14
13.535714285714285	379.0	0.47962023573610496	20.93978741152131	75165.9413890495	3.204891727510505e-14
13.57142857142857	379.99999999999994	0.479614896286525	20.920965002675274	74164.00008277249	3.19312046536072e-14
13.607142857142856	381.0	0.4796095615954588	20.902428533331225	72909.30777493233	3.162247852285093e-14
13.64285714285714	381.99999999999994	0.47960423160068444	20.884170403386236	72084.76142402839	3.159700893823118e-14
13.678571428571427	383.0	0.4795989062396457	20.86608590810891	71055.28720815748	3.160946183365623e-14
13.714285714285714	384.0	0.4795935854494524	20.84837654510583	69768.23292515082	3.17506412181224e-14
13.749999999999998	385.0	0.47958826913660785	20.831109766486875	67693.69847950288	3.1245489478569483e-14
13.785714285714285	386.0	0.4795829571541833	20.814415460199765	65801.93578089886	3.167367025071324e-14
13.82142857142857	386.99999999999994	0.47957764937498026	20.79820706751431	63273.79787579586	3.154851408937175e-14
13.857142857142856	388.0	0.47957234565429824	20.78257943108964	60870.30520109502	3.184146424149234e-14
13.89285714285714	388.99999999999994	0.4795670458444065	20.76756089022661	58247.64158885263	3.153129667923636e-14
13.928571428571427	390.0	0.47956174977845906	20.753238365884936	55853.92750497632	3.184386705484575e-14
13.964285714285714	391.0	0.47955645729906304	20.739513774886042	53396.02634906387	3.155080666590538e-14
13.999999999999998	392.0	0.4795511682603737	20.726318217032713	51122.93804568312	3.156469847314805e-14
14.035714285714285	393.0	0.47954588251894115	20.713733820518566	48816.67746689844	3.164588846185067e-14
14.07142857142857	393.99999999999994	0.4795405999216162	20.70173580622344	46158.08255824137	3.182831640135453e-14
14.107142857142856	395.0	0.4795353203083486	20.690369919144835	43983.1891675783	3.2133470957972934e-14
14.14285714285714	395.99999999999994	0.4795300435413155	20.679449579663505	42543.10654719231	3.1958212346740324e-14
14.178571428571427	397.0	0.4795247695291727	20.66878805288709	41466.71153049876	3.1861454520471e-14
14.214285714285714	398.0	0.47951949820244355	20.658384534419465	40559.19819228771	3.179088855958119e-14
14.249999999999998	399.0	0.47951422949331707	20.648261755125016	39511.72346840016	3.1572680529794486e-14
14.285714285714285	400.0	0.4795089633240214	20.638423775574584	38326.21313036093	3.156726750601257e-14
