# physical_time	scaled_time	kinetic_energy	enstrophy	palinstrophy	div_u_h
0	0.0	0.48221164950185463	37.633826908351324	95219.18090492654	1.3413850721201705e-12
0.03571428571428571	1.0	0.48220205216348894	37.60951662675922	95553.98481631243	4.915747195144606e-14
0.07142857142857142	2.0	0.48219246102014873	37.58498834288667	96923.81393885093	5.039488987344455e-14
0.10714285714285714	3.0	0.48218287619714534	37.55996567505927	99468.96608472288	5.11861471202415e-14
0.14285714285714285	4.0	0.4821732978756607	37.53412078576438	103419.65699597713	5.179333917125509e-14
0.17857142857142855	5.0	0.48216372632862475	37.50703290882554	109370.60670522432	5.209953560168776e-14
0.21428571428571427	6.0	0.48215416197733796	37.47804430469125	118588.63795808158	5.2750377838417763e-14
0.24999999999999997	7.0	0.48214460546348714	37.44606311742803	133350.51073378802	5.3246031276418346e-14
0.2857142857142857	8.0	0.4821350577467068	37.40921418915126	157584.5619509925	5.398224408577435e-14
0.3214285714285714	9.0	0.48212552032727213	37.36431983366169	197776.5934705483	5.458256481486727e-14
0.3571428571428571	10.0	0.48211599573473424	37.306205561201864	263970.1452584142	5.532773217308216e-14
0.3928571428571428	10.999999999999998	0.4821064882653678	37.227012942985596	366092.2266930368	5.5478268447278223e-14
0.42857142857142855	12.0	0.4820970045571951	37.11787589411798	495863.405620276	5.568282652092494e-14
0.46428571428571425	13.0	0.4820875531150456	36.97425557790731	631739.3533024122	5.608161626283828e-14
0.49999999999999994	14.0	0.4820781424795237	36.79974592031854	739237.6244436007	5.6068985996725957e-14
0.5357142857142857	15.0	0.4820687794869573	36.60260502587145	814438.2996150898	5.650937358919153e-14
0.5714285714285714	16.0	0.48205946868012617	36.39213622535278	849321.9705427735	5.70482357201375e-14
0.6071428571428571	17.0	0.4820502123372121	36.176931763767975	852304.2512073334	5.777634106010592e-14
0.6428571428571428	18.0	0.4820410105971835	35.965520465120925	822185.1879262867	5.894207507361612e-14
0.6785714285714285	19.0	0.4820318615992064	35.763917100716554	783002.0958436899	5.966642894064633e-14
0.7142857142857142	20.0	0.482022762926256	35.57022047802797	761322.3488481451	6.018391294382972e-14
0.7499999999999999	20.999999999999996	0.482013713459256	35.37758193810312	770720.3020474191	6.122444239709837e-14
0.7857142857142856	21.999999999999996	0.48200471356273716	35.181533735391454	785864.8672176576	6.250028494783687e-14
0.8214285714285713	22.999999999999996	0.481995764241859	34.98162872966134	802661.5072589843	6.314118680261501e-14
0.8571428571428571	24.0	0.48198686616197617	34.781588790494595	788578.0269816669	6.368132198340721e-14
0.8928571428571428	25.0	0.48197801850221006	34.588691683808435	743624.8074657681	6.370427274376266e-14
0.9285714285714285	26.0	0.4819692185152023	34.40970946289369	673993.6662713242	6.406821077208405e-14
0.9642857142857142	27.0	0.48196046215706145	34.24884793102022	599412.4178095978	6.394361109160974e-14
0.9999999999999999	28.0	0.48195174486762754	34.10550038873611	546075.3332173362	6.42437477313256e-14
1.0357142857142856	28.999999999999996	0.48194306341449483	33.97158324934884	518403.55615755	6.484150297344013e-14
1.0714285714285714	30.0	0.4819344159631713	33.84482232074455	483242.97723490687	6.653906610535707e-14
1.107142857142857	30.999999999999996	0.48192580013405495	33.72693584683737	447112.824520592	6.781843035702856e-14
1.1428571428571428	32.0	0.48191721307088936	33.61886137111018	408898.56820154056	6.759525866568121e-14
1.1785714285714284	33.0	0.4819086513506151	33.52132527125544	368296.6479521809	6.406257603822036e-14
1.2142857142857142	34.0	0.4819001119786568	33.430834902510504	347711.93032889155	6.268262754045589e-14
1.2499999999999998	34.99999999999999	0.4818915933269614	33.3438966784194	338365.4322066017	6.519927836672354e-14
1.2857142857142856	36.0	0.481883095337249	33.25886208603761	331358.7470195296	6.687975309523893e-14
1.3214285714285712	36.99999999999999	0.48187461877694765	33.17562062848667	324924.871948071	6.619711164750216e-14
1.357142857142857	38.0	0.4818661640578089	33.093089357129244	331449.7111658159	6.492453982876707e-14
1.3928571428571428	39.0	0.4818577317079352	33.00515209815523	366773.2433870359	6.407009819640529e-14
1.4285714285714284	40.0	0.48184932381395523	32.904001205632056	431874.09120561526	6.369225690800561e-14
1.4642857142857142	41.0	0.4818409442213175	32.78494104316134	502491.5746404762	6.342052989720737e-14
1.4999999999999998	41.99999999999999	0.48183259723607014	32.6500547641627	555703.1279042106	6.280989731125027e-14
1.5357142857142856	43.0	0.48182428635451613	32.50321482292691	597462.9980324695	6.281491720731964e-14
1.5714285714285712	43.99999999999999	0.48181601426632115	32.346971563699654	625903.2599206065	6.264113397284467e-14
1.607142857142857	45.0	0.4818077826643166	32.18672146908144	626871.6341355706	6.296059268924225e-14
1.6428571428571426	45.99999999999999	0.4817995918425216	32.02807197643098	618944.849219647	6.310955183520795e-14
1.6785714285714284	47.0	0.48179144150870284	31.869712442005955	626178.4496429696	6.341341343141875e-14
1.7142857142857142	48.0	0.4817833319429651	31.708580556730876	637555.8982227512	6.344708394185775e-14
1.7499999999999998	49.0	0.48177526376209	31.545414710999577	642327.8334981247	6.343053872990668e-14
1.7857142857142856	50.0	0.4817672373328237	31.381377794697944	647072.3123761908	6.38302235992523e-14
1.8214285714285712	50.99999999999999	0.48175925300011496	31.215307671201426	657453.8503139875	6.333682031562426e-14
1.857142857142857	52.0	0.48175131135661403	31.0466076856742	666229.700840757	6.408487453118693e-14
1.8928571428571426	52.99999999999999	0.4817434129913966	30.876154145751272	671520.3033212479	6.361291359463886e-14
1.9285714285714284	54.0	0.4817355583712185	30.70362135706792	683956.2874669164	6.367401677305175e-14
1.964285714285714	54.99999999999999	0.48172774828851117	30.52686519862401	702467.9875834234	6.377482757883859e-14
1.9999999999999998	56.0	0.48171998382140313	30.346268363392717	711342.0420018253	6.368250774650717e-14
2.0357142857142856	57.0	0.4817122655029707	30.165458790408007	704501.0584339993	6.350827727892538e-14
2.071428571428571	57.99999999999999	0.48170459295800994	29.98783531268158	687266.6979664685	6.3531826526323e-14
2.1071428571428568	58.99999999999999	0.4816969650919998	29.81586952094636	659773.6495138649	6.303048684856965e-14
2.142857142857143	60.0	0.4816893800489136	29.653208271182592	613883.9108272241	6.29640701911741e-14
2.1785714285714284	61.0	0.48168183486681665	29.504275540147432	554814.5138920177	6.28551668120173e-14
2.214285714285714	61.99999999999999	0.4816743258189051	29.36993732474882	503383.5049555367	6.317537309244406e-14
2.2499999999999996	62.99999999999999	0.48166684961038114	29.24633143237145	471252.7512148272	6.317195582042703e-14
2.2857142857142856	64.0	0.48165940413790675	29.128400534341548	457608.6530521006	6.349350843461978e-14
2.321428571428571	65.0	0.4816519884126031	29.01171887542164	461432.52981733606	6.365526311624395e-14
2.3571428571428568	66.0	0.48164460265614434	28.891415262272748	485327.7424821278	6.340941846033904e-14
2.392857142857143	67.0	0.48163724851709244	28.763453248653544	518182.6932005096	6.331598271936582e-14
2.4285714285714284	68.0	0.4816299281315506	28.628242902569394	538196.109408766	6.403576431770741e-14
2.464285714285714	69.0	0.481622642662357	28.491767949540527	526845.3398442852	6.412054190155353e-14
2.4999999999999996	69.99999999999999	0.48161539131432757	28.361831395658168	490295.8334719699	6.492154069175953e-14
2.5357142857142856	71.0	0.48160817175870513	28.24233538533874	448564.14384534454	6.378421329543758e-14
2.571428571428571	72.0	0.48160098125684164	28.133445212846752	407967.5007159798	6.327869855657015e-14
2.6071428571428568	73.0	0.48159381719507877	28.03407676775904	374409.21732137573	6.367667192123907e-14
2.6428571428571423	73.99999999999999	0.48158667738134225	27.941832908603875	352196.9940306559	6.401127637857072e-14
2.6785714285714284	75.0	0.4815795603656303	27.85387703815219	339111.85473009973	6.425046599720797e-14
2.714285714285714	76.0	0.4815724653341409	27.769279283952343	324510.18957050133	6.344216320985089e-14
2.7499999999999996	76.99999999999999	0.4815653913867766	27.689537736824764	302138.3401524104	6.334799201061086e-14
2.7857142857142856	78.0	0.4815583370570272	27.61644972724401	273421.5000664533	6.34412353102691e-14
2.821428571428571	79.0	0.4815513005667853	27.55000535124184	248365.7503558647	6.325670152315709e-14
2.8571428571428568	80.0	0.4815442802536689	27.4894141615606	228506.03065973494	6.311452352211714e-14
2.8928571428571423	80.99999999999999	0.4815372748201605	27.43301555426344	215471.26574458883	6.311981760479289e-14
2.9285714285714284	82.0	0.4815302834252306	27.379445534462292	205403.36915033142	6.315352873591963e-14
2.964285714285714	83.0	0.48152330540111293	27.328283852823937	196815.75009787982	6.293806450228709e-14
2.9999999999999996	83.99999999999999	0.48151634017054756	27.27892911389655	190680.18575573183	6.343380845504661e-14
3.0357142857142856	85.0	0.4815093873108808	27.23129408140392	182425.7502887706	6.322696273899608e-14
3.071428571428571	86.0	0.48150244629361433	27.18639690895054	169314.29379557178	6.311035875335182e-14
3.1071428571428568	87.0	0.4814955162928204	27.14517639009364	154622.68597430494	6.333793334981566e-14
3.1428571428571423	87.99999999999999	0.4814885963656577	27.107369985563903	143025.58058957872	6.359207002097823e-14
3.1785714285714284	89.0	0.48148168576089484	27.071895501236483	136322.76487252445	6.354062154788164e-14
3.214285714285714	90.0	0.48147478402723065	27.037654697318214	132849.69623910743	6.325018087429558e-14
3.2499999999999996	90.99999999999999	0.48146789092715225	27.00419979353943	129581.1848458297	6.324592775021859e-14
3.285714285714285	91.99999999999999	0.48146100623987137	26.97184358726574	124098.11736287465	6.346618655385997e-14
3.321428571428571	93.0	0.48145412961917095	26.940985653922308	118498.65366088066	6.327371363740641e-14
3.3571428571428568	94.0	0.4814472607126518	26.911290576540633	114795.22258683351	6.324922790799153e-14
3.3928571428571423	94.99999999999999	0.4814403992756488	26.88243873874004	111372.45363943023	6.333115548918244e-14
3.4285714285714284	96.0	0.4814335450835503	26.854539263703362	107444.46576427112	6.323026156416037e-14
3.464285714285714	97.0	0.4814266978801561	26.82767337837832	103292.94260492938	6.328958593680946e-14
3.4999999999999996	98.0	0.48141985738782617	26.80195589706022	98402.49378177457	6.347138550338744e-14
3.535714285714285	98.99999999999999	0.48141302330050173	26.77745710563497	93986.57755518808	6.310997017490871e-14
3.571428571428571	100.0	0.48140619534222684	26.753853746039184	91396.94701457169	6.292860425625047e-14
3.6071428571428568	101.0	0.48139937333797933	26.730766604763666	89592.48315409239	6.30210798989676e-14
3.6428571428571423	101.99999999999999	0.4813925571515175	26.70825453786321	86758.18028523042	6.296301120710263e-14
3.678571428571428	102.99999999999999	0.48138574659819533	26.686612053869176	82817.22951588989	6.287259236566621e-14
3.714285714285714	104.0	0.4813789414289835	26.666055932494764	78367.33041176168	6.353220248364279e-14
3.7499999999999996	105.0	0.4813721413630663	26.646586765361494	74537.86176974037	6.271688446173429e-14
3.785714285714285	105.99999999999999	0.4813653461548417	26.62793281385118	71832.53782978267	6.268723023152959e-14
3.821428571428571	107.0	0.4813585556184485	26.60997525103032	68815.97569789617	6.302992782700374e-14
3.8571428571428568	108.0	0.48135176955640746	26.592903316266078	65033.707558516406	6.322354686307604e-14
3.8928571428571423	108.99999999999999	0.4813449877334469	26.57671272473838	62209.99379159358	6.334971363008187e-14
3.928571428571428	109.99999999999999	0.4813382099679459	26.56103275779769	60866.571964459894	6.305363089764882e-14
3.964285714285714	111.0	0.4813314361590382	26.545691570420946	59212.450743850975	6.34971450592978e-14
3.9999999999999996	112.0	0.48132466619570724	26.530916412618406	56524.50375647982	6.31389469618511e-14
4.035714285714286	113.0	0.48131789991099283	26.516845014433216	53905.60265968391	6.342268974408166e-14
4.071428571428571	114.0	0.48131113714076307	26.503345751840484	52048.99223372828	6.296686432091378e-14
4.107142857142857	115.0	0.48130437776010265	26.490279908532923	50363.16397837829	6.309845880739412e-14
4.142857142857142	115.99999999999999	0.4812976216532607	26.47770237120672	48180.914913443354	6.344162095601934e-14
4.178571428571428	116.99999999999999	0.4812908686805295	26.465714744707146	45841.26633244466	6.316573958013063e-14
4.2142857142857135	117.99999999999999	0.4812841186938333	26.454276345649195	43935.02632094237	6.321073038290361e-14
4.249999999999999	118.99999999999999	0.481277371569222	26.443259719981615	42485.685316369854	6.315981128598917e-14
4.285714285714286	120.0	0.481270627207921	26.432599585898263	41065.27594707274	6.295545464049693e-14
4.321428571428571	121.0	0.48126388551625865	26.422309366040317	39669.60698539201	6.290971813698986e-14
4.357142857142857	122.0	0.48125714640786743	26.412318985189096	38737.147397235065	6.320310344236842e-14
4.392857142857142	122.99999999999999	0.4812504098227708	26.402534313804754	37943.216349149916	6.3128551817174e-14
4.428571428571428	123.99999999999999	0.4812436757074196	26.392990709879392	36820.03254058166	6.310898305769361e-14
4.4642857142857135	124.99999999999999	0.48123694398750405	26.383765239187458	35506.38768660912	6.312487305500471e-14
4.499999999999999	125.99999999999999	0.4812302145773356	26.374861674535072	34335.41850439834	6.301873603925832e-14
4.535714285714286	127.0	0.4812234874006505	26.36623475718409	33326.51981914814	6.324211227746994e-14
4.571428571428571	128.0	0.4812167623935223	26.357837363725707	32568.696294085523	6.296352675933313e-14
4.607142857142857	129.0	0.4812100395073984	26.34959047975747	32119.40354404396	6.306188179498501e-14
4.642857142857142	130.0	0.48120331871191924	26.341447347340402	31708.557152050078	6.302033635281788e-14
4.678571428571428	131.0	0.4811965999795612	26.333418082178603	31236.282056129163	6.30995897827728e-14
4.7142857142857135	132.0	0.481189883280981	26.325502315182845	30852.62251707629	6.309418874954316e-14
4.749999999999999	132.99999999999997	0.4811831685916522	26.3176673045287	30572.662442606295	6.312563140884753e-14
4.785714285714286	134.0	0.4811764558909075	26.309921180271985	30107.83433731374	6.31549218721857e-14
4.821428571428571	135.0	0.4811697451476615	26.302337592330566	29299.180675299685	6.351386100530954e-14
4.857142857142857	136.0	0.48116303631033686	26.29498944733828	28322.164235081003	6.304510524677389e-14
4.892857142857142	137.0	0.48115632931733715	26.287870237131273	27543.506059331452	6.320859095186595e-14
4.928571428571428	138.0	0.48114962411801543	26.280921795208567	26935.592822407187	6.328453122557336e-14
4.9642857142857135	139.0	0.4811429206708797	26.274148964283285	26115.254206370046	6.317411741027317e-14
4.999999999999999	139.99999999999997	0.48113621892200664	26.267615493227442	25110.24793824865	6.318120956362813e-14
5.035714285714285	140.99999999999997	0.48112951880752425	26.261319204846966	24312.176482693107	6.293921226820035e-14
5.071428571428571	142.0	0.4811228202763009	26.255184637128618	23815.02501893065	6.308502062677678e-14
5.107142857142857	143.0	0.4811161232951053	26.24916464347464	23386.060958984493	6.295270558065755e-14
5.142857142857142	144.0	0.48110942783583227	26.243252674769813	22986.77267160893	6.305703098566981e-14
5.178571428571428	145.0	0.4811027338730746	26.237424976397726	22724.26768514631	6.329081294122379e-14
5.2142857142857135	146.0	0.48109604138933304	26.231655051008158	22509.485690886755	6.360076573321434e-14
5.249999999999999	146.99999999999997	0.48108935037034534	26.225946254447813	22235.487963674306	6.333300175376904e-14
5.285714285714285	147.99999999999997	0.48108266079850087	26.22031159963447	21953.840951539292	6.311754987502242e-14
5.321428571428571	149.0	0.4810759726560601	26.214733034820185	21815.067808500462	6.316474914460087e-14
5.357142857142857	150.0	0.4810692859339755	26.209172194467634	21784.791981140195	6.281433090690666e-14
5.392857142857142	151.0	0.4810626006299448	26.20362890314792	21639.409059025445	6.307084723059073e-14
5.428571428571428	152.0	0.48105591673423004	26.19815158117201	21276.452421048725	6.34108139187466e-14
5.4642857142857135	153.0	0.48104923422427165	26.19277186692157	20934.209544289202	6.29832732086311e-14
5.499999999999999	153.99999999999997	0.48104255307956223	26.187446765150312	20860.354621600953	6.314210289172459e-14
5.535714285714285	154.99999999999997	0.4810358732949258	26.182114673690894	20950.765072618236	6.280709593219027e-14
5.571428571428571	156.0	0.48102919487341894	26.176761655865743	21005.941560426683	6.326934779188569e-14
5.607142857142857	157.0	0.48102251781598676	26.17140172823703	21017.850734863117	6.325137540187963e-14
5.642857142857142	158.0	0.48101584212381315	26.166037304202224	21042.61821743171	6.282802151460552e-14
5.678571428571428	159.0	0.48100916780110764	26.16067174604204	21003.171033285867	6.346736804111413e-14
5.7142857142857135	160.0	0.4810024948473459	26.155338399419225	20774.47360209175	6.317605110659717e-14
5.749999999999999	160.99999999999997	0.48099582324626633	26.15009289307589	20318.987555006035	6.307556628273197e-14
5.785714285714285	161.99999999999997	0.4809891529644285	26.14498320053861	19737.142248797154	6.311592028639545e-14
5.821428571428571	163.0	0.48098248396227034	26.140017737513293	19215.77722895323	6.317737288129176e-14
5.857142857142857	164.0	0.4809758162087616	26.135162067960305	18894.334878388858	6.321513176045379e-14
5.892857142857142	165.0	0.4809691496871071	26.13035489138967	18840.313557363672	6.325872869267948e-14
5.928571428571428	166.0	0.4809624843932622	26.12552983944357	19019.085181221533	6.321118507617209e-14
5.9642857142857135	167.0	0.4809558203353771	26.12064335368292	19291.058693468487	6.312365980754478e-14
5.999999999999999	167.99999999999997	0.4809491575304226	26.115694647715536	19483.931813746665	6.313192559654454e-14
6.035714285714285	168.99999999999997	0.48094249599402233	26.11071755214287	19503.6259680817	6.349560032540053e-14
6.071428571428571	170.0	0.48093583572972437	26.10576171357073	19313.31939442327	6.312098470479604e-14
6.107142857142857	171.0	0.48092917672342783	26.100882182119687	18911.99949828778	6.345867501592524e-14
6.142857142857142	172.0	0.4809225189456886	26.09612104517924	18414.387604355536	6.335594960065923e-14
6.178571428571428	173.0	0.4809158623640517	26.091478372925184	18016.132116135203	6.296033380216628e-14
6.2142857142857135	174.0	0.4809092069562518	26.086908501377078	17854.119355057785	6.288364412929255e-14
6.249999999999999	174.99999999999997	0.48090255271372806	26.082349948996153	17913.73955348798	6.305026944693644e-14
6.285714285714285	175.99999999999997	0.48089589963820967	26.07775878389906	18090.70479960069	6.311531551344305e-14
6.32142857142857	176.99999999999997	0.4808892477378776	26.073120208036027	18266.697382718015	6.307598095810967e-14
6.357142857142857	178.0	0.48088259702368064	26.068446375045863	18359.296639638327	6.340169335683155e-14
6.392857142857142	179.0	0.480875947503679	26.06376416604224	18328.222367285663	6.321287786909137e-14
6.428571428571428	180.0	0.48086929917736604	26.05910663640379	18166.362555175423	6.299965178920864e-14
6.4642857142857135	181.0	0.4808626520334418	26.054504413396717	17904.435073171702	6.324230841190731e-14
6.499999999999999	181.99999999999997	0.48085600605336537	26.049974727452508	17610.065493192233	6.301668146592009e-14
6.535714285714285	182.99999999999997	0.4808493612178927	26.045516306084586	17360.18130701423	6.310613232160843e-14
6.57142857142857	183.99999999999997	0.4808427175122776	26.041109302819926	17211.88552042675	6.281999818148538e-14
6.607142857142857	185.0	0.4808360749281495	26.036725884564714	17172.05229335487	6.308596384394777e-14
6.642857142857142	186.0	0.48082943346284535	26.03234260971724	17201.954512502238	6.320248381937368e-14
6.678571428571428	187.0	0.48082279311752674	26.027947553028973	17257.92056095001	6.30658302802482e-14
6.7142857142857135	188.0	0.48081615389541055	26.02353682986287	17321.88539165229	6.335700105466524e-14
6.749999999999999	188.99999999999997	0.48080951580067344	26.019110832132593	17374.212476859473	6.323256658539207e-14
6.785714285714285	189.99999999999997	0.4808028788368256	26.014676454249642	17382.309339157495	6.332596963822047e-14
6.82142857142857	190.99999999999997	0.48079624300427887	26.010248328357697	17324.05747937192	6.302875847196995e-14
6.857142857142857	192.0	0.4807896082990756	26.005842660234567	17208.950728044667	6.317808987375512e-14
6.892857142857142	193.0	0.48078297471373616	26.001471072394626	17060.80267673118	6.297876861924838e-14
6.928571428571428	194.0	0.4807763422388053	25.997138978580036	16904.1614285053	6.30798716021713e-14
6.9642857142857135	195.0	0.48076971086448056	25.992843721141895	16780.546549780862	6.320371639595979e-14
6.999999999999999	196.0	0.48076308058299816	25.98857022861372	16742.20857168087	6.307787925854164e-14
7.035714285714285	196.99999999999997	0.48075645139176276	25.984292198775496	16817.140677885727	6.307018958643019e-14
7.07142857142857	197.99999999999997	0.48074982329526994	25.97998214033012	16984.89827347089	6.299971510013866e-14
7.107142857142857	199.0	0.48074319630403384	25.9756237188415	17184.926449528757	6.302262725058903e-14
7.142857142857142	200.0	0.48073657043096146	25.97121801705966	17342.728109050568	6.325170968911308e-14
7.178571428571428	201.0	0.48072994568618	25.96678464346048	17393.808236116158	6.315935577097347e-14
7.2142857142857135	202.0	0.48072332207267426	25.96235572343021	17306.911841220754	6.317544948254959e-14
7.249999999999999	203.0	0.4807166995843994	25.957965196498343	17098.979107765474	6.320045258729789e-14
7.285714285714285	203.99999999999997	0.48071007820781875	25.95363667951104	16834.06372423363	6.316174339151068e-14
7.32142857142857	204.99999999999997	0.48070345792640146	25.949374078969793	16595.93849832158	6.327288980082432e-14
7.357142857142856	205.99999999999997	0.48069683872551766	25.945162002655934	16444.025325481376	6.335573302637953e-14
7.392857142857142	207.0	0.48069022059550465	25.940976253225408	16385.417935138634	6.311723824341264e-14
7.428571428571428	208.0	0.48068360353208306	25.936797714761852	16377.588048393167	6.30842148684519e-14
7.4642857142857135	209.0	0.4806769875341605	25.93262089624065	16364.419329317701	6.337633527930408e-14
7.499999999999999	210.0	0.48067037260085355	25.92845191574408	16314.34367314236	6.321719099282069e-14
7.535714285714285	210.99999999999997	0.4806637587291042	25.924300662371028	16226.290864175842	6.336512701935873e-14
7.57142857142857	211.99999999999997	0.4806571459133682	25.9201754687341	16112.860933586364	6.296179236782356e-14
7.607142857142856	212.99999999999997	0.48065053414630116	25.916080249889237	15995.619528492907	6.303375003186843e-14
7.642857142857142	214.0	0.48064392342044343	25.912012027430332	15907.266711979388	6.308109728225352e-14
7.678571428571428	215.0	0.48063731373038554	25.907959018472617	15880.238203036486	6.289867071104701e-14
7.7142857142857135	216.0	0.48063070507450156	25.903903656374574	15925.25749681112	6.330819573869609e-14
7.749999999999999	217.0	0.480624097455537	25.899829293568683	16024.150006868655	6.315988845356747e-14
7.785714285714285	217.99999999999997	0.4806174908795878	25.895726600590507	16140.636341621428	6.298644554545629e-14
7.82142857142857	218.99999999999997	0.4806108853539652	25.891596470540954	16232.549102996309	6.305631350471452e-14
7.857142857142856	219.99999999999997	0.48060428088443663	25.887449923392108	16264.353496710062	6.296215295001873e-14
7.892857142857142	221.0	0.48059767747289533	25.883305174425967	16216.78425715083	6.327458341849578e-14
7.928571428571428	222.0	0.48059107511606475	25.879182574081042	16093.417702000806	6.321992423527064e-14
7.9642857142857135	223.0	0.4805844738059131	25.875098575217272	15919.666911206286	6.323474567751119e-14
7.999999999999999	224.0	0.4805778735315121	25.87106144150591	15732.355764537906	6.305600589142438e-14
8.035714285714285	224.99999999999997	0.4805712742811088	25.86707000686147	15566.504404253117	6.332056172085603e-14
8.071428571428571	226.0	0.4805646760442947	25.863115343235958	15447.140612064099	6.344797520495623e-14
8.107142857142856	226.99999999999997	0.48055807881326734	25.859183904782235	15384.855985804777	6.32347049683748e-14
8.142857142857142	228.0	0.4805514825836021	25.855261637451928	15372.72737283503	6.318513726810562e-14
8.178571428571427	228.99999999999997	0.48054488735415485	25.851338337736404	15388.246402503091	6.341742006828811e-14
8.214285714285714	230.0	0.48053829312581786	25.84741050622211	15404.163703123333	6.288148052250499e-14
8.249999999999998	230.99999999999997	0.480531699899841	25.843480590212668	15402.970654777613	6.342588478642649e-14
8.285714285714285	231.99999999999997	0.4805251076764061	25.83955360646935	15381.477121370413	6.301427188605878e-14
8.321428571428571	233.0	0.48051851645421984	25.83563430810688	15343.339673195991	6.331486421926608e-14
8.357142857142856	233.99999999999997	0.4805119262307857	25.831726462155167	15292.677268905702	6.326062676809051e-14
8.392857142857142	235.0	0.48050533700285797	25.827832318351515	15238.1833787882	6.323790039996322e-14
8.428571428571427	235.99999999999997	0.48049874876715504	25.82395062690247	15198.971763948723	6.326993231566988e-14
8.464285714285714	237.0	0.4804921615213803	25.820074650401885	15195.919839073187	6.294139141018994e-14
8.499999999999998	237.99999999999997	0.4804855752654147	25.81619405769823	15233.95656797027	6.310889507332205e-14
8.535714285714285	238.99999999999997	0.48047899000162186	25.812300380349566	15293.81196383552	6.34028569425515e-14
8.571428571428571	240.0	0.48047240573385624	25.808392068659884	15343.818137854569	6.303603698637649e-14
8.607142857142856	240.99999999999997	0.48046582246555	25.8044749565852	15359.990300409101	6.337635327765282e-14
8.642857142857142	242.0	0.48045924019799113	25.80055910355261	15333.450584459368	6.329245486121374e-14
8.678571428571427	242.99999999999997	0.4804526589295247	25.796655408659824	15264.991565425527	6.333151228674829e-14
8.714285714285714	244.0	0.48044607865567124	25.792773593723854	15165.262649585156	6.291073333432953e-14
8.749999999999998	244.99999999999997	0.48043949937047986	25.78891855598915	15060.946259193168	6.325177942762577e-14
8.785714285714285	245.99999999999997	0.4804329210682185	25.785086408088155	14992.231790435228	6.348130766795811e-14
8.821428571428571	247.0	0.48042634374564686	25.78126366784532	14990.760447495355	6.373920185229914e-14
8.857142857142856	247.99999999999997	0.4804197674034874	25.777432302918868	15056.655138850518	6.364802951107629e-14
8.892857142857142	249.0	0.4804131920469377	25.773579060729467	15154.258460415396	6.355226711628926e-14
8.928571428571427	249.99999999999997	0.48040661768406157	25.769702370447263	15231.999798659877	6.377289442999105e-14
8.964285714285714	251.0	0.48040004432249095	25.76581300854813	15248.430487546308	6.407575427500181e-14
8.999999999999998	251.99999999999997	0.48039347196575516	25.761929354971045	15186.850913641489	6.403575495113951e-14
9.035714285714285	252.99999999999997	0.4803869006113324	25.758070596567997	15057.074174087238	6.426076049179386e-14
9.071428571428571	254.0	0.4803803302516987	25.754250479095756	14890.509865123138	6.447143533556976e-14
9.107142857142856	254.99999999999997	0.48037376087771616	25.750472743737568	14733.264047747532	6.434674485193963e-14
9.142857142857142	256.0	0.48036719248310017	25.746728806372726	14632.607153271578	6.484285795878107e-14
9.178571428571427	257.0	0.4803606250683371	25.74299988898854	14618.270631088304	6.484088509599656e-14
9.214285714285714	258.0	0.4803540586427395	25.739263492365513	14688.32927993101	6.50589782697775e-14
9.249999999999998	258.99999999999994	0.4803474932243747	25.735501651144403	14810.480800583833	6.52323359316643e-14
9.285714285714285	260.0	0.4803409288376656	25.73170697630985	14938.425226278776	6.560925055987923e-14
9.321428571428571	261.0	0.4803343655091333	25.72788338207063	15032.644448388572	6.619006136636455e-14
9.357142857142856	262.0	0.48032780326304403	25.72404238634917	15074.333326349695	6.640095790704225e-14
9.392857142857142	263.0	0.48032124211936295	25.720197284582554	15067.883155717112	6.690994811264597e-14
9.428571428571427	264.0	0.48031468209481515	25.71635803472809	15033.56190173922	6.681467006463142e-14
9.464285714285714	265.0	0.480308123205678	25.712528404982695	14997.19826287019	6.7236675260372e-14
9.499999999999998	265.99999999999994	0.48030156547063046	25.708705796235535	14983.815321856704	6.730155338209832e-14
9.535714285714285	267.0	0.48029500891088134	25.70488163935189	15013.316823115432	6.724838075615225e-14
9.571428571428571	268.0	0.48028845354315236	25.701043198013455	15099.303651240629	6.702169186371217e-14
9.607142857142856	269.0	0.48028189936146964	25.697175073061153	15248.941683969018	6.623564347705411e-14
9.642857142857142	270.0	0.48027534631013397	25.693260376018873	15468.787120993396	6.570693839813035e-14
9.678571428571427	271.0	0.48026879426325364	25.68927827233138	15789.816538929057	6.379232765268778e-14
9.714285714285714	272.0	0.4802622430260668	25.685192317146072	16310.737621436107	6.218597859067286e-14
9.749999999999998	272.99999999999994	0.4802556923634653	25.68092570166631	17258.02664171646	6.117418046390024e-14
9.785714285714285	274.0	0.480249142073061	25.676320989516427	19053.425438608563	6.181507281332171e-14
9.821428571428571	275.0	0.4802425921278013	25.671080395409877	22381.314790556917	6.285847303107404e-14
9.857142857142856	276.0	0.4802360428373541	25.66470860706857	28028.045615090698	6.385523861439401e-14
9.892857142857142	277.0	0.48022949489201294	25.656572897461608	36163.244462615956	6.475726173912652e-14
9.928571428571427	278.0	0.48022294921482095	25.646237088092853	45077.03636900034	6.487525789813668e-14
9.964285714285714	279.0	0.48021640669006	25.633928388900593	51431.40554040259	6.43090348801639e-14
9.999999999999998	279.99999999999994	0.48020986790712644	25.620583997026667	53748.0826241041	6.37148917749947e-14
10.035714285714285	281.0	0.4802033330556137	25.607294948259764	51617.056073720814	6.381673371107993e-14
10.07142857142857	281.99999999999994	0.480196801989919	25.594759160562802	47913.25693277632	6.39079719263251e-14
10.107142857142856	283.0	0.48019027441423345	25.583112595386535	44925.330560501854	6.372508665000032e-14
10.142857142857142	284.0	0.48018375010855574	25.571912375076433	44130.6607056429	6.4081909581237e-14
10.178571428571427	285.0	0.48017722913036515	25.560484624710227	46249.23091086817	6.432133060135106e-14
10.214285714285714	286.0	0.4801707117955883	25.548233733096453	50156.00953120008	6.467911702334707e-14
10.249999999999998	286.99999999999994	0.4801641983335006	25.534969753048813	53812.60416287096	6.526344074553375e-14
10.285714285714285	288.0	0.48015768857176444	25.520923186442147	56225.91571033699	6.415515247088448e-14
10.32142857142857	288.99999999999994	0.4801511820866008	25.506420532058353	57577.82653288433	6.232758142560922e-14
10.357142857142856	290.0	0.48014467836529645	25.49155696684627	59212.682285322175	6.23056413115168e-14
10.392857142857142	291.0	0.48013817700747113	25.476158916390066	61849.70986079806	6.467601482876949e-14
10.428571428571427	292.0	0.48013167825677566	25.46000208989468	65118.669182235106	6.604846317342612e-14
10.464285714285714	293.0	0.4801251830256188	25.44294093954161	69035.36020233725	6.556315771849406e-14
10.499999999999998	293.99999999999994	0.4801186923353943	25.42470704420191	74681.07464353064	6.45715361789781e-14
10.535714285714285	295.0	0.4801122069883459	25.40464756700287	83530.24326864979	6.320564156874458e-14
10.57142857142857	295.99999999999994	0.4801057276593295	25.38176732607268	96908.2359363206	6.242342419287446e-14
10.607142857142856	297.0	0.48009925514733737	25.354794199951495	115719.45590850363	6.253987075431013e-14
10.642857142857142	298.0	0.4800927904519491	25.322279162667318	140244.38500414332	6.369184312260251e-14
10.678571428571427	299.0	0.4800863349650443	25.28291054604346	169096.1904085743	6.403306166653807e-14
10.714285714285714	300.0	0.4800798904861761	25.235828007071852	200433.4423229887	6.334859485260543e-14
10.749999999999998	300.99999999999994	0.4800734590211655	25.18072377227733	231901.7000574494	6.226817800856042e-14
10.785714285714285	302.0	0.4800670426065542	25.11787899508131	260930.3808854428	6.174241717895832e-14
10.82142857142857	302.99999999999994	0.48006064314263536	25.047937735117408	287369.73197779444	6.20085186809855e-14
10.857142857142856	304.0	0.48005426243394134	24.97142962820529	312954.0363453846	6.224953538413593e-14
10.892857142857142	305.0	0.4800479022185957	24.888414873058423	338671.15480265854	6.194349632619503e-14
10.928571428571427	306.0	0.4800415641814006	24.798901455922753	362898.47732891666	6.173576642349003e-14
10.964285714285714	307.0	0.48003524983685836	24.703907646926044	381206.0222353915	6.164493751082431e-14
10.999999999999998	307.99999999999994	0.48002896030842873	24.605178437390265	393078.83168414555	6.185854865519371e-14
11.035714285714285	309.0	0.48002269629160804	24.50406228771999	399457.84912929387	6.208513650481468e-14
11.07142857142857	309.99999999999994	0.48001645814196087	24.402028386013715	400155.9550836512	6.156099445836875e-14
11.107142857142856	311.0	0.48001024592507546	24.30030511706	397613.18044484645	6.165102098557753e-14
11.142857142857142	312.0	0.4800040595552397	24.199617101593038	391757.48856486386	6.176099449901974e-14
11.178571428571427	313.0	0.4799978987021161	24.101050656056103	381175.118423162	6.171881871131073e-14
11.214285714285714	314.0	0.47999176266400345	24.005733502296547	367876.2884632381	6.180170537332971e-14
11.249999999999998	314.99999999999994	0.4799856506077584	23.913146710316067	359650.8844866583	6.201511100389425e-14
11.285714285714285	316.0	0.47997956198455605	23.821974092416266	355767.16831950145	6.207384500035575e-14
11.32142857142857	316.99999999999994	0.47997349649723514	23.73181678433224	350809.146188099	6.218663383749935e-14
11.357142857142856	318.0	0.4799674537921745	23.64339389247958	341972.5149761567	6.207871163445571e-14
11.392857142857142	319.0	0.47996143331390345	23.557583335958398	330880.2583600559	6.183304433279873e-14
11.428571428571427	320.0	0.4799554343967961	23.474449638016367	321494.32396011695	6.190764299066322e-14
11.464285714285714	321.0	0.4799494564516172	23.393248518386887	315724.5231429621	6.236325636258832e-14
11.499999999999998	321.99999999999994	0.4799434990746753	23.3132144051461	311951.9842661518	6.209168754594272e-14
11.535714285714285	323.0	0.4799375620030218	23.234145700760525	307737.36345970014	6.200881060561214e-14
11.57142857142857	323.99999999999994	0.47993164497466967	23.156485579191656	300820.09348451265	6.192872631828155e-14
11.607142857142856	325.0	0.47992574756645817	23.080976134146017	291302.1221187095	6.201943841620732e-14
11.642857142857142	326.0	0.47991986918064655	23.007862276578432	282712.04283444834	6.219322306689728e-14
11.678571428571427	327.0	0.47991400923506894	22.93672169304719	275671.4318899111	6.171784388752237e-14
11.714285714285714	328.0	0.47990816725209795	22.867293679017752	268659.8455172036	6.156208233835227e-14
11.749999999999998	328.99999999999994	0.47990234273476456	22.799804392126013	260429.6281054481	6.212149426395079e-14
11.785714285714285	330.0	0.4798965350782912	22.734402524463487	252883.28853608432	6.28888089028393e-14
11.82142857142857	330.99999999999994	0.4798907437567024	22.670527556783536	248892.84839675238	6.293208577700484e-14
11.857142857142856	332.0	0.47988496857917584	22.60717811175142	248364.03837214844	6.22844332262235e-14
11.892857142857142	333.0	0.47987920962417496	22.543888371809672	247440.4591762195	6.181231482123114e-14
11.928571428571427	334.0	0.47987346684482557	22.481546836190432	240215.77122545778	6.247066309122102e-14
11.964285714285714	335.0	0.47986773964970836	22.422365621193254	223390.27967252576	6.31296874887037e-14
11.999999999999998	335.99999999999994	0.4798620268276556	22.368244233181827	202165.80532443098	6.284750398273576e-14
12.035714285714285	337.0	0.4798563269742725	22.319060816415973	185087.20929965677	6.182868214962076e-14
12.07142857142857	337.99999999999994	0.4798506390014056	22.273406003881707	174653.71376359317	6.165911284348557e-14
12.107142857142856	339.0	0.4798449622856924	22.22971232279779	169069.4290671185	6.230925487281036e-14
12.142857142857142	340.0	0.47983929657946617	22.186888669923082	167510.80242480832	6.240757659112774e-14
12.178571428571427	341.0	0.47983364186761346	22.1439465780137	170407.8334192655	6.214794546919814e-14
12.214285714285714	342.0	0.4798279983719148	22.099477746600844	179446.83871981397	6.192890596808967e-14
12.249999999999998	342.99999999999994	0.4798223666410468	22.052117337628875	192068.06594846712	6.183245441891932e-14
12.285714285714285	344.0	0.4798167474184132	22.001837919777028	201144.98664071437	6.20901778523275e-14
12.32142857142857	344.99999999999994	0.479811141266079	21.9502484821273	202228.27758901782	6.191449208958009e-14
12.357142857142856	346.0	0.47980554828539707	21.89925218948853	197397.8651350595	6.165608626869083e-14
12.39285714285714	346.99999999999994	0.47979996815000475	21.849755617497408	190673.32400868367	6.181457679575847e-14
12.428571428571427	348.0	0.47979440032024173	21.802134431295624	182616.36867582588	6.163794955851081e-14
12.464285714285714	349.0	0.4797888442178958	21.75674309881229	173597.20305305134	6.193217334924401e-14
12.499999999999998	349.99999999999994	0.4797832993085008	21.713366200461973	167536.91935069527	6.223147781642007e-14
12.535714285714285	351.0	0.4797777653178292	21.670822476720065	166938.3105416369	6.15831588551157e-14
12.57142857142857	351.99999999999994	0.47977224225173626	21.628127984099024	169118.05035376552	6.168909875600136e-14
12.607142857142856	353.0	0.47976673021796074	21.584949438527	170556.13544722556	6.227377563700059e-14
12.64285714285714	353.99999999999994	0.47976122931225273	21.54139109003049	170568.29903386402	6.208447220584567e-14
12.678571428571427	355.0	0.4797557394836406	21.498569968749095	164939.81518279054	6.155225437463859e-14
12.714285714285714	356.0	0.47975026039477925	21.45742830320297	158233.93440293113	6.172742341363645e-14
12.749999999999998	356.99999999999994	0.47974479162467926	21.417689908810978	154027.20417960398	6.153583864852338e-14
12.785714285714285	358.0	0.47973933288500026	21.378725039482806	151661.23908496086	6.180217703815182e-14
12.82142857142857	358.99999999999994	0.4797338840046629	21.340419782513937	148248.67024684759	6.17316494643303e-14
12.857142857142856	360.0	0.47972844475727955	21.303381191893184	141626.45077353285	6.127129434521325e-14
12.89285714285714	360.99999999999994	0.4797230147145444	21.268404715873103	132619.63681780125	6.167648584467014e-14
12.928571428571427	362.0	0.47971759329305963	21.23572488147945	123956.74087157214	6.153687414382517e-14
12.964285714285714	363.0	0.4797121799340318	21.205049526203346	116794.3291355199	6.127242513377775e-14
12.999999999999998	363.99999999999994	0.47970677418220764	21.176098392543473	110168.18608448081	6.14800214631744e-14
13.035714285714285	365.0	0.47970137561894893	21.14884019751095	103584.78966013377	6.140612357012091e-14
13.07142857142857	365.99999999999994	0.4796959838180576	21.123172615110953	98002.61554637756	6.153166529028576e-14
13.107142857142856	367.0	0.47969059841630485	21.098648630618197	94766.49612680158	6.189719815085836e-14
13.14285714285714	367.99999999999994	0.47968521919220103	21.074661541235308	93570.69922207747	6.188177179617979e-14
13.178571428571427	369.0	0.4796798460507442	21.050874993444758	93001.66094700419	6.168985687603664e-14
13.214285714285714	370.0	0.4796744789574676	21.02721601552444	92455.73503308296	6.204420801766081e-14
13.249999999999998	370.99999999999994	0.4796691178814744	21.003765355369634	91227.15254624301	6.187190538110095e-14
13.285714285714285	372.0	0.4796637627370335	20.980786344811747	88736.17318888726	6.180288178615561e-14
13.32142857142857	372.99999999999994	0.47965841335994475	20.95857373086282	85362.24100194589	6.131752874757776e-14
13.357142857142856	374.0	0.47965306954197373	20.937207213839507	82299.1705913668	6.156037229588759e-14
13.39285714285714	374.99999999999994	0.4796477310911671	20.916476395521162	80424.09860362828	6.184905327104306e-14
13.428571428571427	376.0	0.47964239787364593	20.89611918508326	79155.59125883618	6.214104509866638e-14
13.464285714285714	377.0	0.4796370697942528	20.87617079520482	76980.99164708584	6.158223427093306e-14
13.499999999999998	377.99999999999994	0.47963174671656983	20.856962456627905	73532.4289134741	6.151009697633306e-14
13.535714285714285	379.0	0.4796264284296322	20.838623652976555	70457.9488110344	6.1806151797336e-14
13.57142857142857	379.99999999999994	0.47962111474172603	20.82088917911293	68739.82559040337	6.186657908041082e-14
13.607142857142856	381.0	0.479615805540031	20.80355122897085	67089.67048375976	6.167340903672496e-14
13.64285714285714	381.99999999999994	0.4796105007154828	20.786759804160436	64376.241065515074	6.133927978170364e-14
13.678571428571427	383.0	0.47960520008517743	20.770771757371882	60948.027612953956	6.144252779584059e-14
13.714285714285714	384.0	0.47959990341477005	20.755641874082045	57795.53137286357	6.173877532346474e-14
13.749999999999998	385.0	0.47959461048228524	20.74122242523437	55391.88317232954	6.170171281694659e-14
13.785714285714285	386.0	0.479589321132265	20.72733509587062	53534.765987319195	6.154601081381783e-14
13.82142857142857	386.99999999999994	0.4795840352621477	20.713917931308647	51600.2626943966	6.154228471556333e-14
13.857142857142856	388.0	0.47957875276303763	20.701048513110575	49260.77508501877	6.1760124683671e-14
13.89285714285714	388.99999999999994	0.4795734734832811	20.6887995166845	46832.38871735564	6.202999574909321e-14
13.928571428571427	390.0	0.4795681972498802	20.677138282004996	44705.525046367395	6.217324897740924e-14
13.964285714285714	391.0	0.4795629239102548	20.66597657828986	42865.53303962251	6.201650758947703e-14
13.999999999999998	392.0	0.47955765334337175	20.655228460683258	41532.16349572238	6.177395015630255e-14
14.035714285714285	393.0	0.4795523854619397	20.64471752541854	40995.11770175089	6.193732785479974e-14
14.07142857142857	393.99999999999994	0.47954712022722473	20.63429424361836	40679.83188425962	6.187607529948918e-14
14.107142857142856	395.0	0.4795418576296149	20.62401789259094	39756.94272843379	6.176271981335558e-14
14.14285714285714	395.99999999999994	0.47953659762852163	20.61407260816378	38160.137942491376	6.190145972195506e-14
14.178571428571427	397.0	0.4795313401316851	20.60455798238767	36470.79253870505	6.163543996144654e-14
14.214285714285714	398.0	0.4795260850231603	20.59544155908638	35053.11153162204	6.220762613585517e-14
14.249999999999998	399.0	0.47952083219952024	20.58665223857899	33891.82775570094	6.166335955533005e-14
14.285714285714285	400.0	0.4795155815787868	20.578134599925097	32920.99841926073	6.13391868616917e-14
