# physical_time	scaled_time	kinetic_energy	enstrophy	palinstrophy	div_u_h
0	0.0	0.4822110141196237	37.57949663776462	95211.91184568036	0.00024799359959981794
0.03571428571428571	1.0	0.4822014148618159	37.572884368011245	96317.56830879986	2.987046726906613e-15
0.07142857142857142	2.0	0.4821918165281221	37.553693980144985	100738.25156638671	2.9096366901701154e-15
0.10714285714285714	3.0	0.4821822065477152	37.5627612316875	114171.66475293277	3.2438179576453144e-15
0.14285714285714285	4.0	0.48217257588108164	37.5031987143493	130887.38343035121	3.3094771784483792e-15
0.17857142857142855	5.0	0.4821628762694717	37.50009122661382	143002.27312858115	3.4563521506086116e-15
0.21428571428571427	6.0	0.48215311104502057	37.40718062979913	118569.85673665887	3.67915590585993e-15
0.24999999999999997	7.0	0.48214335839184924	37.64484467946978	154541.75452725927	3.70909783417434e-15
0.2857142857142857	8.0	0.48213314229210547	37.42807861606742	172860.00585853693	4.9173577094799824e-15
0.3214285714285714	9.0	0.4821221992920051	37.02019495460423	315687.56800263666	6.585721795411589e-15
0.3571428571428571	10.0	0.482109580721347	37.21207173233277	321552.9151209671	7.552708255073202e-15
0.3928571428571428	10.999999999999998	0.4820969079522697	37.5306449602266	398412.66689106077	7.108395439242065e-15
0.42857142857142855	12.0	0.4820825062010993	36.83931165720675	454317.26788668556	5.661910526451664e-15
0.46428571428571425	13.0	0.48206898126064657	35.89550809115644	401825.23593185365	3.8472833880696036e-15
0.49999999999999994	14.0	0.48205596852287075	35.812396416005534	542833.1295683741	3.904861637132774e-15
0.5357142857142857	15.0	0.4820408049952567	35.11980167190779	470660.3785347728	4.303830437782132e-15
0.5714285714285714	16.0	0.48202704924083595	34.32244020713128	299105.23466234136	4.8787416660710654e-15
0.6071428571428571	17.0	0.4820151083750588	34.05706241812008	203065.3010998086	4.459139199926657e-15
0.6428571428571428	18.0	0.482004229338669	33.732591134956174	172954.64167724832	4.204371920505388e-15
0.6785714285714285	19.0	0.48199425856375183	33.72402998564524	163773.75640478823	3.94912344676758e-15
0.7142857142857142	20.0	0.4819849062183276	33.556682264652544	124787.3809728522	4.3928834440767115e-15
0.7499999999999999	20.999999999999996	0.48197545836233724	33.34629762498376	136615.85982871856	4.341533132924452e-15
0.7857142857142856	21.999999999999996	0.4819662894771283	33.190035769803345	98641.99701290554	4.810026871138793e-15
0.8214285714285713	22.999999999999996	0.48195748962852203	33.08086155389419	76069.70096509415	5.498138026648548e-15
0.8571428571428571	24.0	0.48194877579721435	32.9801535953344	67882.22626976148	6.0084812229508635e-15
0.8928571428571428	25.0	0.4819401344443445	33.01519136466122	56500.48477244986	6.65912827372783e-15
0.9285714285714285	26.0	0.4819313224991692	33.00866372543995	76031.77020969763	7.239993798953898e-15
0.9642857142857142	27.0	0.4819225829293553	32.8945228636205	63358.34625122341	8.296187801225376e-15
0.9999999999999999	28.0	0.4819138168063934	32.85196172816357	65858.82289966535	1.023186473909899e-14
1.0357142857142856	28.999999999999996	0.4819050770345959	32.767784126876485	68451.75283672493	1.454709982014264e-14
1.0714285714285714	30.0	0.48189641693197166	32.75697435863463	71097.09256604237	2.0416491376978988e-14
1.107142857142857	30.999999999999996	0.48188775548172486	32.79754943417826	73126.26541046848	2.556248446626374e-14
1.1428571428571428	32.0	0.48187914360336936	32.69310257880248	63154.322172386055	2.508130718911775e-14
1.1785714285714284	33.0	0.4818705004453486	32.643125023128675	72514.84968069308	1.4493848653217962e-14
1.2142857142857142	34.0	0.4818617678494344	32.61349932486547	105224.95639391066	5.731600353906741e-15
1.2499999999999998	34.99999999999999	0.48185298717564157	32.49323719541504	86947.03187924366	1.7507515064274725e-14
1.2857142857142856	36.0	0.4818441145278747	32.5126262841318	108146.73885402108	2.1222174692039052e-14
1.3214285714285712	36.99999999999999	0.48183465595506086	32.42209868183206	157610.4473097827	1.7927284345858396e-14
1.357142857142857	38.0	0.48182495129987374	32.19023039004692	176217.82137026647	1.1889626955667819e-14
1.3928571428571428	39.0	0.4818152091055292	32.37940324325849	245197.81931426856	5.9836634370997206e-15
1.4285714285714284	40.0	0.4818047658618927	31.960375150238583	215022.34974192485	4.240272224955223e-15
1.4642857142857142	41.0	0.4817942156927958	31.873201945539236	228079.17438478966	6.326142002797921e-15
1.4999999999999998	41.99999999999999	0.4817836367855329	31.652783672301	168967.85347892158	7.067717311549508e-15
1.5357142857142856	43.0	0.48177407797676164	31.49580418535197	181810.83428748723	5.317388605949285e-15
1.5714285714285712	43.99999999999999	0.48176452291511146	31.156735902463602	213052.15959123874	4.1888053335918205e-15
1.607142857142857	45.0	0.4817542167778732	31.079377239870535	227869.76876536026	4.9676496164753516e-15
1.6428571428571426	45.99999999999999	0.48174223683119477	31.037715239966136	341864.685971894	4.812751555184436e-15
1.6785714285714284	47.0	0.48172906174158125	30.696712137793686	369854.4142040283	4.268786585754122e-15
1.7142857142857142	48.0	0.481717566203591	30.357436600822155	272826.944929467	4.7509635648599326e-15
1.7499999999999998	49.0	0.4817082888222619	29.743167908596654	227783.22694980717	6.521152535994259e-15
1.7857142857142856	50.0	0.4816992401953224	29.69757867888222	314319.22652884666	8.423964247822221e-15
1.8214285714285712	50.99999999999999	0.4816887710544692	29.645890842970562	216247.68209464932	8.485005990891579e-15
1.857142857142857	52.0	0.48167807382799066	29.28203763105879	218265.99673385662	6.2215581601870054e-15
1.8928571428571426	52.99999999999999	0.4816679855469648	28.907745085068324	207251.80736156713	3.952194778407598e-15
1.9285714285714284	54.0	0.48165884077553506	28.73762297302708	183764.20286625242	5.250418770011825e-15
1.964285714285714	54.99999999999999	0.48165020252955676	28.499663016820605	144311.50216636132	7.12004909101227e-15
1.9999999999999998	56.0	0.4816421471145596	28.40938178064048	99580.24124508924	7.233514934744946e-15
2.0357142857142856	57.0	0.48163379798216877	28.694080224003844	182280.1431629189	5.814759227804277e-15
2.071428571428571	57.99999999999999	0.48162478903833694	28.318697267590576	97385.4229649304	4.298384723871688e-15
2.1071428571428568	58.99999999999999	0.48161685774814134	28.188382235507632	100445.04770629219	4.641346819523201e-15
2.142857142857143	60.0	0.4816088604276878	28.291830854886037	106644.42143258081	5.039619699940983e-15
2.1785714285714284	61.0	0.48160078624378555	28.12953650804283	95294.50938806776	4.233076921498893e-15
2.214285714285714	61.99999999999999	0.48159296904517296	28.163025756242632	86729.90362516172	6.3267756579304485e-15
2.2499999999999996	62.99999999999999	0.481585167927599	27.85190904544549	65033.184238745656	9.28144487372579e-15
2.2857142857142856	64.0	0.48157724121140333	28.00027276122125	100299.464066024	9.801286277972565e-15
2.321428571428571	65.0	0.4815692679132627	28.04473992051365	113806.69591985492	6.934857427259166e-15
2.3571428571428568	66.0	0.48156169253465714	27.993688732149543	92365.36460928216	3.953495160251797e-15
2.392857142857143	67.0	0.48155422330377784	27.725053477826243	99345.75757895457	7.154440884175348e-15
2.4285714285714284	68.0	0.48154664331229696	27.78436916297228	91259.70428600117	1.1564943323463995e-14
2.464285714285714	69.0	0.4815388849777321	27.664336447923056	95480.06030678196	1.4037291651823726e-14
2.4999999999999996	69.99999999999999	0.4815310161465036	27.69872207946022	91201.44892450553	1.2831039298839246e-14
2.5357142857142856	71.0	0.48152335871677776	27.640702758379938	78012.2842407199	7.267018107564727e-15
2.571428571428571	72.0	0.48151592493968715	27.418061700948357	58726.94111999268	4.854369998709305e-15
2.6071428571428568	73.0	0.4815085946131375	27.479957213051197	59556.82406490473	1.0416653955097841e-14
2.6428571428571423	73.99999999999999	0.48150122746042245	27.316702543493935	58179.59198521132	1.189024509277533e-14
2.6785714285714284	75.0	0.4814936695790048	27.484255430611235	99767.26752781328	1.0386233496035455e-14
2.714285714285714	76.0	0.4814859787947024	27.42531508456972	74076.97527586095	6.8765396869805185e-15
2.7499999999999996	76.99999999999999	0.48147864047328787	27.237009103420366	65783.78848229424	4.376551176511847e-15
2.7857142857142856	78.0	0.48147131422735373	27.290480031990914	70854.69213753915	5.382261250766771e-15
2.821428571428571	79.0	0.4814639957405033	27.20253195570142	59847.380216004974	6.993719398895057e-15
2.8571428571428568	80.0	0.4814567170651024	27.084350259364914	46006.121304986555	6.735283641502388e-15
2.8928571428571423	80.99999999999999	0.4814495855719652	27.124459797707942	50386.80471621761	4.371458916740861e-15
2.9285714285714284	82.0	0.4814424501025945	27.06383223166446	47654.987253522675	4.5368671659973454e-15
2.964285714285714	83.0	0.4814353929134926	27.111639076913615	51122.39533683665	5.278542645118959e-15
2.9999999999999996	83.99999999999999	0.4814283484613969	27.05733628934185	44072.526909229564	5.619967898360875e-15
3.0357142857142856	85.0	0.4814212960753722	27.011973193488004	47870.253397352884	4.404622331388504e-15
3.071428571428571	86.0	0.4814142407868682	27.06056926339316	50942.65780382016	4.116383836288629e-15
3.1071428571428568	87.0	0.48140713488419884	26.970195042910333	45748.22866150972	5.172577171488198e-15
3.1428571428571423	87.99999999999999	0.4814000005131938	26.966140523701192	50291.43481663235	6.1974985671955006e-15
3.1785714285714284	89.0	0.48139290403087376	26.950275353134884	46285.498962294696	5.7546111514008864e-15
3.214285714285714	90.0	0.4813858649497394	26.910160105241083	46503.62453864204	4.439311410073572e-15
3.2499999999999996	90.99999999999999	0.4813788681800984	26.911826951936103	45069.555453922985	4.5672094389788665e-15
3.285714285714285	91.99999999999999	0.4813718968466712	26.90677864432197	41381.1989006252	5.316855551795799e-15
3.321428571428571	93.0	0.48136494927647644	26.887344014434518	38436.06511581567	5.518494993149356e-15
3.3571428571428568	94.0	0.4813580303214852	26.83819633466469	35582.460554917336	4.474238111721802e-15
3.3928571428571423	94.99999999999999	0.48135113546092534	26.842825764142237	36376.66435177342	3.947316781736396e-15
3.4285714285714284	96.0	0.481344225037125	26.82578999677018	35238.94000511391	4.968750687110505e-15
3.464285714285714	97.0	0.4813372752123186	26.792229248788978	32857.20878317554	5.5585091632830725e-15
3.4999999999999996	98.0	0.48133031206160987	26.820266188611008	33068.10143467119	5.44167750963112e-15
3.535714285714285	98.99999999999999	0.4813233661744489	26.788900107338108	28996.103147135225	4.196948230147017e-15
3.571428571428571	100.0	0.48131643376645306	26.767116943911404	26407.254140296256	4.953332381153935e-15
3.6071428571428568	101.0	0.48130950946336176	26.748888443727733	26651.906563270302	6.6282672283900726e-15
3.6428571428571423	101.99999999999999	0.48130260934018915	26.721439301426024	27300.801965347306	6.518332814165963e-15
3.678571428571428	102.99999999999999	0.4812957262912902	26.705184636227127	29171.317915880565	5.125431497669319e-15
3.714285714285714	104.0	0.4812888256777734	26.696133645205727	28634.43896308378	4.529451070069373e-15
3.7499999999999996	105.0	0.48128194658955853	26.657642049748084	28871.90527323457	6.490662502728683e-15
3.785714285714285	105.99999999999999	0.48127506427542316	26.62749081418622	31741.94120929232	8.293005875134626e-15
3.821428571428571	107.0	0.48126815625972386	26.626206845060004	29057.481083375405	8.353998141532063e-15
3.8571428571428568	108.0	0.48126125925044416	26.591917153996256	24692.815546810012	6.133100730654024e-15
3.8928571428571423	108.99999999999999	0.48125437816489663	26.608671837349583	23689.123477283654	5.580145867244758e-15
3.928571428571428	109.99999999999999	0.4812475001595437	26.5978561310059	23947.126195364064	8.34365639007945e-15
3.964285714285714	111.0	0.4812405828270661	26.585182798777776	27070.55003670484	9.361964322876214e-15
3.9999999999999996	112.0	0.4812336347559495	26.556412624638842	29835.79689981521	8.501882001945499e-15
4.035714285714286	113.0	0.4812267183046874	26.532651881908112	29587.904525426904	7.242898330043185e-15
4.071428571428571	114.0	0.4812198328616781	26.542780289009006	28618.415095587035	7.470520542345954e-15
4.107142857142857	115.0	0.481212965672064	26.56490980431397	26611.909170702347	8.714326717579168e-15
4.142857142857142	115.99999999999999	0.48120605860519083	26.547597622088446	26153.593481779928	9.777573242352901e-15
4.178571428571428	116.99999999999999	0.48119914684925724	26.548215882462596	26549.28837122942	9.54853175825335e-15
4.2142857142857135	117.99999999999999	0.48119225688798695	26.498991377305448	23364.072346840145	9.970902169869558e-15
4.249999999999999	118.99999999999999	0.48118538106352016	26.47263077816927	22169.251404792118	1.0984997582673573e-14
4.285714285714286	120.0	0.48117853488695833	26.46834795982126	22452.69406344215	1.2669101448041224e-14
4.321428571428571	121.0	0.48117172594047114	26.462865025721722	23027.305844014907	1.3651233018433915e-14
4.357142857142857	122.0	0.4811649149656612	26.438130615286767	23218.697226564418	1.4826934635301293e-14
4.392857142857142	122.99999999999999	0.4811580914320786	26.426462460518714	23174.95039109681	1.6018256503318346e-14
4.428571428571428	123.99999999999999	0.48115128322063316	26.41664475335332	22730.893089351935	1.745100859748816e-14
4.4642857142857135	124.99999999999999	0.48114445778554027	26.411616810343894	21906.51703734047	1.90379613220089e-14
4.499999999999999	125.99999999999999	0.4811376517688787	26.430106390774323	20827.265883126234	2.0228537455291953e-14
4.535714285714286	127.0	0.4811308552614499	26.411219183515062	20306.426263258603	2.1757639396597835e-14
4.571428571428571	128.0	0.4811240684477977	26.394411211648723	19987.475903135164	2.3710621809429863e-14
4.607142857142857	129.0	0.4811172883048978	26.387544117233592	20684.06973744764	2.52603146731468e-14
4.642857142857142	130.0	0.48111050778694275	26.39249063835565	21193.311739121706	2.6487562295634216e-14
4.678571428571428	131.0	0.4811037289983486	26.38130573670575	21666.134588861427	2.7963450502782078e-14
4.7142857142857135	132.0	0.48109695382556816	26.370375862060694	21578.45863486414	2.856048230609458e-14
4.749999999999999	132.99999999999997	0.4810901851534212	26.372718767832364	21711.99822226339	2.843132793744581e-14
4.785714285714286	134.0	0.48108340814845535	26.35566566060524	21916.027581771392	2.7741765489890108e-14
4.821428571428571	135.0	0.4810766195444412	26.342977767531085	21772.187244166205	2.5089623467572398e-14
4.857142857142857	136.0	0.4810698288617963	26.32611402968814	19382.72689720831	2.1584091116817145e-14
4.892857142857142	137.0	0.48106307174304314	26.320401140693996	19542.396864790964	1.631354520362869e-14
4.928571428571428	138.0	0.4810563138323646	26.318703520264837	20257.83642991812	1.1595951367195966e-14
4.9642857142857135	139.0	0.4810495320104768	26.30745979415662	22005.054353011838	1.0784919851770185e-14
4.999999999999999	139.99999999999997	0.4810427649801487	26.291714471505273	23751.189339356813	1.4502186687303504e-14
5.035714285714285	140.99999999999997	0.4810359573805433	26.289370095949433	28372.85020731707	1.8430791476368794e-14
5.071428571428571	142.0	0.48102898326336707	26.25571813081882	29084.5921974158	2.0454203046883425e-14
5.107142857142857	143.0	0.48102213314539727	26.258087424407716	28661.45113359706	2.0310187495572454e-14
5.142857142857142	144.0	0.48101531093744465	26.2209893596191	27812.38597732386	1.805254123072466e-14
5.178571428571428	145.0	0.48100848436539473	26.194297058945168	26814.21355112441	1.447645014472776e-14
5.2142857142857135	146.0	0.4810016979739462	26.201062524741296	26861.205439370417	1.0357551909235515e-14
5.249999999999999	146.99999999999997	0.48099494066354986	26.18600242548716	26245.211304922483	7.526347284553048e-15
5.285714285714285	147.99999999999997	0.4809881969466416	26.172777130492964	24309.970250327206	7.152840239928967e-15
5.321428571428571	149.0	0.4809814372203151	26.167304850343406	25167.99887616384	8.632749214527258e-15
5.357142857142857	150.0	0.480974658385936	26.133937489735597	28367.887934808587	1.0863882709641992e-14
5.392857142857142	151.0	0.48096782739960214	26.150303161507573	27834.648570513767	1.3354060880784005e-14
5.428571428571428	152.0	0.48096100400393726	26.136181109765932	26943.142244571052	1.6061252079676297e-14
5.4642857142857135	153.0	0.48095421675754374	26.112091232018432	31496.351943417867	1.925610402991045e-14
5.499999999999999	153.99999999999997	0.4809474199773474	26.068007055147447	27891.614205991955	2.2234423491140795e-14
5.535714285714285	154.99999999999997	0.4809406695790889	26.048837142064414	31127.507992708608	2.1114481412569043e-14
5.571428571428571	156.0	0.48093380895965204	26.028811474568137	44304.41247974799	1.4911961977040544e-14
5.607142857142857	157.0	0.4809266819094571	26.045726966845987	41070.121277624996	1.3543975113981273e-14
5.642857142857142	158.0	0.4809196601650305	25.98094506475489	55786.43348768439	2.0008144220062857e-14
5.678571428571428	159.0	0.48091250210496955	25.93510477813539	60992.668122543524	2.4026865021959542e-14
5.7142857142857135	160.0	0.48090535878547963	25.856966697987843	76093.70692353623	2.3253629758922272e-14
5.749999999999999	160.99999999999997	0.48089797769701054	25.808633570684666	78568.04209672948	1.8918882345316016e-14
5.785714285714285	161.99999999999997	0.48089082789510074	25.733297184224366	85890.19753590523	1.2531255336551713e-14
5.821428571428571	163.0	0.4808826605749287	25.77290381000991	131905.53568757165	7.68431293314808e-15
5.857142857142857	164.0	0.4808728911314213	25.601806881988043	162476.2855693796	9.035348424180103e-15
5.892857142857142	165.0	0.48086447424622536	25.37640159159736	161412.96863521417	1.4035760029066071e-14
5.928571428571428	166.0	0.48085575621826004	25.198077705387647	147799.22805376025	1.7575642570365514e-14
5.9642857142857135	167.0	0.48084747063458966	24.998228758443148	125595.86418267917	1.704727411828635e-14
5.999999999999999	167.99999999999997	0.4808398030397898	24.779575837839985	121253.00952241968	1.267738255363829e-14
6.035714285714285	168.99999999999997	0.4808320143043139	24.744276962490616	130479.7743551978	8.659114993106195e-15
6.071428571428571	170.0	0.4808234864970945	24.61069977894072	188669.9574884033	1.0311978188890653e-14
6.107142857142857	171.0	0.4808136382116754	24.490838338406537	205799.39708506284	1.0879313840838241e-14
6.142857142857142	172.0	0.48080490337683957	24.19940821168172	189371.7936203458	8.503490785463194e-15
6.178571428571428	173.0	0.4807971122775542	23.984755804653577	179113.9158742406	5.8720578297173486e-15
6.2142857142857135	174.0	0.48078847401612357	23.810164614987954	179541.15259246898	6.229407238018208e-15
6.249999999999999	174.99999999999997	0.4807803135247942	23.54013689415755	139871.7297376146	8.64293121854237e-15
6.285714285714285	175.99999999999997	0.48077288891694214	23.3760059582809	126206.67807411669	9.664775377111632e-15
6.32142857142857	176.99999999999997	0.48076572946845647	23.268225614936807	104289.3322130006	7.658379932338956e-15
6.357142857142857	178.0	0.4807588506680414	23.168906356917628	117528.97686524794	5.898516838694458e-15
6.392857142857142	179.0	0.480751733404856	23.15413971907891	144197.28355647	7.679382820073206e-15
6.428571428571428	180.0	0.4807439113251951	22.936325981324615	141477.7019355684	9.013572632368315e-15
6.4642857142857135	181.0	0.48073639117469075	22.88975257693401	131973.0015353467	8.390910246788448e-15
6.499999999999999	181.99999999999997	0.4807294767368778	22.73535049695018	114452.39086564298	6.317068773307077e-15
6.535714285714285	182.99999999999997	0.48072256752684756	22.573529463696808	100817.1541624257	5.3553008115224825e-15
6.57142857142857	183.99999999999997	0.4807157415055138	22.439310124906704	101765.71472379849	7.537450346587748e-15
6.607142857142857	185.0	0.4807090930588086	22.34890746354495	89042.64481256528	9.212376673041354e-15
6.642857142857142	186.0	0.4807025793124639	22.36751255779347	95905.99561277055	9.050780374851871e-15
6.678571428571428	187.0	0.48069601553560665	22.258738753649205	74002.46273259562	6.552540349665009e-15
6.7142857142857135	188.0	0.4806897269857781	22.21500490841227	81150.16081159892	5.7967996978600624e-15
6.749999999999999	188.99999999999997	0.4806832976346148	22.12042927024444	84484.63788236973	8.457335815105777e-15
6.785714285714285	189.99999999999997	0.48067680799053	22.094978358689307	83617.24098376407	9.802558236253113e-15
6.82142857142857	190.99999999999997	0.4806704961730011	22.013334901414005	74531.9656960591	8.766847317750912e-15
6.857142857142857	192.0	0.48066403019609943	22.02610565940654	77396.15086702003	6.324274707008245e-15
6.892857142857142	193.0	0.4806576285062763	21.809752253199555	70627.28827940294	5.983793446363387e-15
6.928571428571428	194.0	0.4806514606082083	21.848923043957065	58342.44608496615	8.96897339246283e-15
6.9642857142857135	195.0	0.48064540469156103	21.788849579275826	57262.567707641196	1.0463680094167955e-14
6.999999999999999	196.0	0.4806394099292118	21.721491513898457	47412.23275914525	9.161143036539709e-15
7.035714285714285	196.99999999999997	0.480633526136761	21.76322484325989	50884.475437721056	7.009520714957518e-15
7.07142857142857	197.99999999999997	0.48062760952674355	21.666190085556266	54082.16036186685	9.539690493739488e-15
7.107142857142857	199.0	0.4806217272143089	21.64104301242577	46733.33055090422	1.3103947247818192e-14
7.142857142857142	200.0	0.4806158631215449	21.612519477171038	40308.72521285079	1.2613527245891627e-14
7.178571428571428	201.0	0.4806101014100314	21.562804893199964	45354.73985582474	9.50519755179279e-15
7.2142857142857135	202.0	0.48060436811428625	21.571818736006623	43145.31407549793	6.201372153729169e-15
7.249999999999999	203.0	0.48059858994921656	21.538722824192657	39867.55118034473	8.363836664144912e-15
7.285714285714285	203.99999999999997	0.4805927695355869	21.474572276841375	42724.30398600416	1.2210912512465858e-14
7.32142857142857	204.99999999999997	0.48058690605164117	21.443900906210732	41633.63906475697	1.3942111367072023e-14
7.357142857142856	205.99999999999997	0.48058096515045795	21.430362694703188	40961.590300591895	1.1720228909582662e-14
7.392857142857142	207.0	0.4805751135390592	21.39033273717436	40163.78472554701	7.833883528943342e-15
7.428571428571428	208.0	0.4805692780999099	21.37413515289031	38727.348715780296	7.632831762457356e-15
7.4642857142857135	209.0	0.4805634525726856	21.3089953409116	39788.7240201459	1.0339793949972042e-14
7.499999999999999	210.0	0.480557685726205	21.27883757011648	42925.69032795426	1.0180365145828001e-14
7.535714285714285	210.99999999999997	0.4805519615539917	21.243662949560843	38094.94824967433	7.504485741088718e-15
7.57142857142857	211.99999999999997	0.480546289078398	21.22155840511572	38187.49717653573	5.796502518642325e-15
7.607142857142856	212.99999999999997	0.4805406743426552	21.229054349027944	31562.75159675508	7.441274120748666e-15
7.642857142857142	214.0	0.4805350959966692	21.202351645699967	29615.272993123406	9.391773183244848e-15
7.678571428571428	215.0	0.48052945790922463	21.15553735904968	29830.12007006616	8.243307926850284e-15
7.7142857142857135	216.0	0.4805237737302723	21.16242902037042	31836.002134886487	5.944651932141099e-15
7.749999999999999	217.0	0.48051809372563864	21.159242947423653	32092.618715810873	6.148885864877985e-15
7.785714285714285	217.99999999999997	0.4805123490154587	21.08305004307066	32880.65419582837	8.470686191479146e-15
7.82142857142857	218.99999999999997	0.4805066795734013	21.060835704700043	26157.308479068128	8.68968965368781e-15
7.857142857142856	219.99999999999997	0.48050112985874505	21.050739371870865	27882.183036355	6.8306985302141124e-15
7.892857142857142	221.0	0.48049561830225096	21.028387322182578	28385.426799710684	4.953011565271586e-15
7.928571428571428	222.0	0.4804900597589658	21.02312954808245	26868.243165527743	5.5182222072729185e-15
7.9642857142857135	223.0	0.4804844821885382	21.000990652850824	26614.356932496776	6.615441914763046e-15
7.999999999999999	224.0	0.48047890520075587	20.96858280079848	24671.99048963255	6.104147269959072e-15
8.035714285714285	224.99999999999997	0.4804733982298999	20.954682703150464	24424.00678593151	4.9770320105344225e-15
8.071428571428571	226.0	0.4804678796150299	20.971822115127196	25553.55570430226	4.771423574065015e-15
8.107142857142856	226.99999999999997	0.48046233098565844	20.922248327417556	27293.847251940893	5.599648760843687e-15
8.142857142857142	228.0	0.48045679922308376	20.922622090906216	25731.366820452815	6.092759041986984e-15
8.178571428571427	228.99999999999997	0.48045131368908733	20.89760651540564	24452.023497316688	5.56876786475886e-15
8.214285714285714	230.0	0.4804457997579081	20.852116636421343	25214.77772176336	4.832986152897797e-15
8.249999999999998	230.99999999999997	0.48044033779165496	20.85434615497375	21426.982971769958	5.817789636346018e-15
8.285714285714285	231.99999999999997	0.48043491292806373	20.84170173957622	21102.756961940635	7.173999994865555e-15
8.321428571428571	233.0	0.4804294615898402	20.839429763562503	21437.730576077385	7.267662580573107e-15
8.357142857142856	233.99999999999997	0.48042403158822017	20.80961812513978	21365.522268263518	5.725095909833088e-15
8.392857142857142	235.0	0.4804186229297277	20.833388751061964	23363.986512887313	5.1682639225031955e-15
8.428571428571427	235.99999999999997	0.4804131698610896	20.795363587661186	22903.730228240478	6.828143903182178e-15
8.464285714285714	237.0	0.48040771277797933	20.78217961705053	22429.557715615283	8.500910353721674e-15
8.499999999999998	237.99999999999997	0.4804022794282571	20.773471818247415	22978.837898093094	8.006338375207648e-15
8.535714285714285	238.99999999999997	0.4803968909233786	20.757249090796908	19881.70744567912	6.039586423286448e-15
8.571428571428571	240.0	0.4803915067321795	20.74817836324818	18793.16810938286	5.209440452978782e-15
8.607142857142856	240.99999999999997	0.48038612407269593	20.757983514627977	19583.062877317287	6.933497828449194e-15
8.642857142857142	242.0	0.4803807446705894	20.728481348579994	18182.22043965377	8.405886849610186e-15
8.678571428571427	242.99999999999997	0.4803753900950436	20.720457778404644	18336.64366885217	8.137276660295156e-15
8.714285714285714	244.0	0.48037003940417433	20.71070941576258	17065.90847954871	6.079778233710808e-15
8.749999999999998	244.99999999999997	0.4803646988836075	20.712171221641356	16815.555262675425	5.748757480239189e-15
8.785714285714285	245.99999999999997	0.4803593577653976	20.686841155349203	16718.55091939433	7.686911761941488e-15
8.821428571428571	247.0	0.48035401682175966	20.691190207600034	17213.46517681879	8.288826610964898e-15
8.857142857142856	247.99999999999997	0.4803486760336306	20.6812333296931	18214.999308853134	6.939165902729767e-15
8.892857142857142	249.0	0.48034332906860433	20.679830161493207	17156.141002131375	5.022130567229342e-15
8.928571428571427	249.99999999999997	0.48033799783262365	20.6671409654543	17560.97886947865	5.6561452138614034e-15
8.964285714285714	251.0	0.48033266805659725	20.65632922996259	15809.031869105356	7.37871567793735e-15
8.999999999999998	251.99999999999997	0.48032733590173077	20.656457641463074	15461.908771279708	7.705320850219137e-15
9.035714285714285	252.99999999999997	0.48032200870866165	20.641315239369707	15286.317406636957	6.099483269878594e-15
9.071428571428571	254.0	0.48031670526902087	20.643732768859575	13894.03906156959	5.060713555879949e-15
9.107142857142856	254.99999999999997	0.480311409298754	20.62961143412392	14017.142949603234	6.336786864759206e-15
9.142857142857142	256.0	0.4803061129940787	20.63678429114092	14590.22132185138	7.719715697987903e-15
9.178571428571427	257.0	0.48030081147672465	20.627900552134378	15701.723119058144	6.7731954469107715e-15
9.214285714285714	258.0	0.4802955098347754	20.623864015167925	15159.799422028927	5.184437755876153e-15
9.249999999999998	258.99999999999994	0.48029021476939077	20.62261160275705	15520.013010198842	4.758595043997066e-15
9.285714285714285	260.0	0.4802849046985433	20.611298327395716	14737.175597785163	6.0577309427461965e-15
9.321428571428571	261.0	0.4802796045341631	20.608725589029532	14734.068144564011	6.807434711059737e-15
9.357142857142856	262.0	0.4802743022421919	20.595550816961488	14581.256842000366	6.2408183150491545e-15
9.392857142857142	263.0	0.48026901113480086	20.592711786219226	13745.03722329042	4.926800569996607e-15
9.428571428571427	264.0	0.4802637233818917	20.58266441151883	13418.151818596676	4.3586172646567835e-15
9.464285714285714	265.0	0.48025844330069545	20.581330000847366	13698.820349251431	5.183833654116897e-15
9.499999999999998	265.99999999999994	0.48025316618148306	20.581628348163537	14292.150853706944	5.44992294370426e-15
9.535714285714285	267.0	0.4802478893926613	20.579455989421525	14451.981895573785	4.802875448418183e-15
9.571428571428571	268.0	0.48024260758793613	20.57822697375801	14212.295120605278	4.258803011855315e-15
9.607142857142856	269.0	0.4802373296518616	20.56445065073882	13166.931032084369	4.1879456350024e-15
9.642857142857142	270.0	0.4802320512099836	20.565935566418332	13452.431868279953	4.4670924771719496e-15
9.678571428571427	271.0	0.48022677790186863	20.547175839263726	12472.797085141103	4.175885762453532e-15
9.714285714285714	272.0	0.48022151468737245	20.551480623958092	12480.943467634072	3.996557330605431e-15
9.749999999999998	272.99999999999994	0.480216251279341	20.545058136747514	12038.722017403263	3.706214092761698e-15
9.785714285714285	274.0	0.48021099212531543	20.546112866343496	12461.501918699625	4.312597195518341e-15
9.821428571428571	275.0	0.48020572825423563	20.544107358443522	12651.031805350747	4.424495026569879e-15
9.857142857142856	276.0	0.4802004650969314	20.542392312803116	12879.07243661612	4.305772738557149e-15
9.892857142857142	277.0	0.4801951960945289	20.5335940631063	13427.699691584789	4.308131833170535e-15
9.928571428571427	278.0	0.48018992982704956	20.520799071545518	13124.64003441326	4.2069572053124936e-15
9.964285714285714	279.0	0.48018466623610073	20.52091119286026	13188.106437924116	4.357589686658377e-15
9.999999999999998	279.99999999999994	0.4801793965712761	20.517488948499945	13712.45674755109	4.573625520279451e-15
10.035714285714285	281.0	0.48017412978972185	20.511285622885502	13258.140700009852	4.771487375806156e-15
10.07142857142857	281.99999999999994	0.4801688627980553	20.50828845361949	12354.150033571448	4.8035883423568655e-15
10.107142857142856	283.0	0.48016360265709873	20.503592272014274	12457.746846896503	4.637759002013419e-15
10.142857142857142	284.0	0.4801583470789399	20.50141016745526	12052.209899833248	4.323815246711996e-15
10.178571428571427	285.0	0.48015309610638374	20.500735506870292	11969.728000734282	4.408184983417572e-15
10.214285714285714	286.0	0.48014785058188686	20.484711211636593	11919.325013872041	4.461051233598465e-15
10.249999999999998	286.99999999999994	0.48014260859813945	20.48329220658173	11783.244305070206	4.468514442017112e-15
10.285714285714285	288.0	0.4801373711868747	20.48015071775689	12069.960500528388	4.131547215910123e-15
10.32142857142857	288.99999999999994	0.4801321351250396	20.47769928114719	11783.361313627525	4.346632404015216e-15
10.357142857142856	290.0	0.4801268959041042	20.472731970953582	12016.025257532754	4.779732652147715e-15
10.392857142857142	291.0	0.4801216542330732	20.46978592835906	11637.035397833974	4.555526998699693e-15
10.428571428571427	292.0	0.4801164106976675	20.47105357621952	11764.609767384884	4.781783156807954e-15
10.464285714285714	293.0	0.480111171680212	20.46344774921009	11404.993856692452	4.838100020122868e-15
10.499999999999998	293.99999999999994	0.4801059379941296	20.467857104165752	11254.473889882265	5.689799959736856e-15
10.535714285714285	295.0	0.4801007048764422	20.449512344798897	11550.219956720122	6.16395201526133e-15
10.57142857142857	295.99999999999994	0.4800954674896103	20.444097788956366	12218.575614529293	5.795372263742001e-15
10.607142857142856	297.0	0.4800902289410858	20.440409406040242	12319.005015940105	4.742148562615082e-15
10.642857142857142	298.0	0.4800849955337928	20.447030160962004	11856.95699400672	4.956751233961841e-15
10.678571428571427	299.0	0.48007976287131066	20.441255852133434	12424.538125496802	5.872272043125644e-15
10.714285714285714	300.0	0.48007452898500397	20.438218291798144	11502.189418414524	6.38786341866273e-15
10.749999999999998	300.99999999999994	0.4800692994257797	20.434895955129214	11371.796494225206	6.106623825395368e-15
10.785714285714285	302.0	0.4800640736037216	20.42770159480602	10925.357242877804	4.967927288334563e-15
10.82142857142857	302.99999999999994	0.4800588503368699	20.428104257436523	10940.75136032364	5.218893895870088e-15
10.857142857142856	304.0	0.48005362555563125	20.420956717635544	11076.837537025955	6.391307258326517e-15
10.892857142857142	305.0	0.48004839986876174	20.414334422566704	11498.626949870562	7.34025861580963e-15
10.928571428571427	306.0	0.4800431758894185	20.416905987176296	11786.051193063064	5.989557876789637e-15
10.964285714285714	307.0	0.48003795468804084	20.41417536851321	11507.623688579082	4.7807543209064046e-15
10.999999999999998	307.99999999999994	0.4800327355694766	20.414395057189324	11792.908825773078	5.147154564522879e-15
11.035714285714285	309.0	0.4800275162052658	20.407707654373656	11133.591176735461	6.53879884588819e-15
11.07142857142857	309.99999999999994	0.4800223011265463	20.40655746352245	11134.993655253624	6.988794402288125e-15
11.107142857142856	311.0	0.48001708718703523	20.398419097844624	10826.524118576603	5.822615717958484e-15
11.142857142857142	312.0	0.48001187453501404	20.39283908380852	10383.411755894138	5.127571461858974e-15
11.178571428571427	313.0	0.48000666338603487	20.394040625380025	10604.64417806404	5.953128541855058e-15
11.214285714285714	314.0	0.48000145226479235	20.38926719584012	11031.055789153525	7.256188374395513e-15
11.249999999999998	314.99999999999994	0.47999624057379103	20.38836970403313	11776.817027266123	6.72246096060628e-15
11.285714285714285	316.0	0.47999102800286436	20.386251514487086	11636.550004477145	5.35089648481283e-15
11.32142857142857	316.99999999999994	0.4799858159752674	20.385610656454347	11676.781393161733	4.939196883290412e-15
11.357142857142856	318.0	0.4799806040871726	20.384726669051396	11497.556876921833	6.195972300508841e-15
11.392857142857142	319.0	0.4799753931220795	20.37836879737085	11167.617544755896	7.374321432260755e-15
11.428571428571427	320.0	0.4799701804344426	20.373345346545065	11237.624740220373	7.153649746269504e-15
11.464285714285714	321.0	0.47996496627246815	20.3637898367867	10860.211281297841	5.445794067932435e-15
11.499999999999998	321.99999999999994	0.47995975666886836	20.362454637309668	10227.1207851388	5.273701699455662e-15
11.535714285714285	323.0	0.47995455164094514	20.356657599187685	10495.615406367928	5.5773771993241005e-15
11.57142857142857	323.99999999999994	0.47994934819564145	20.36194747323272	10620.345560251213	6.257001713486669e-15
11.607142857142856	325.0	0.47994414410444897	20.364783697857987	11054.939759020732	5.5440965381532886e-15
11.642857142857142	326.0	0.47993893839097534	20.356110633472216	11180.778179375106	4.407286965879129e-15
11.678571428571427	327.0	0.4799337339644046	20.35443704725815	10923.714795805145	4.895604738403996e-15
11.714285714285714	328.0	0.47992853044397216	20.353812034761166	10849.813173253566	5.804449484739249e-15
11.749999999999998	328.99999999999994	0.4799233277310011	20.34212784774649	10570.174635087438	5.658266182887378e-15
11.785714285714285	330.0	0.4799181303753744	20.339274068738774	10139.61466171636	5.153515633025848e-15
11.82142857142857	330.99999999999994	0.4799129336474667	20.33869207260296	9980.783794625384	4.478921554133019e-15
11.857142857142856	332.0	0.4799077360522374	20.33232155526403	10055.283417460374	4.509177277976885e-15
11.892857142857142	333.0	0.4799025382439415	20.33594864725866	10303.773617309778	5.4643068274120554e-15
11.928571428571427	334.0	0.4798973417369425	20.334990386267254	10537.608442178518	5.66288288481826e-15
11.964285714285714	335.0	0.4798921447506801	20.3300082977625	10564.194295075853	4.777189244883594e-15
11.999999999999998	335.99999999999994	0.4798869485059357	20.324536324589047	10665.980165573925	4.477289643455549e-15
12.035714285714285	337.0	0.4798817538846829	20.32359485753859	10515.411930000537	4.600107909339489e-15
12.07142857142857	337.99999999999994	0.47987656186879707	20.3196629263853	10445.244844903871	5.2177043739508185e-15
12.107142857142856	339.0	0.479871369611184	20.31466832899805	10384.8911436955	5.072709022986405e-15
12.142857142857142	340.0	0.47986617783412955	20.31218225991505	10023.097209835394	4.8552102348824465e-15
12.178571428571427	341.0	0.47986098648786735	20.311702498567126	9947.77584091348	4.611651875677069e-15
12.214285714285714	342.0	0.4798557962545299	20.307099705673902	9929.254967156841	5.3964512515761135e-15
12.249999999999998	342.99999999999994	0.4798506085273032	20.310150792188924	9985.925747581776	5.614086087263045e-15
12.285714285714285	344.0	0.47984542091778437	20.302340224802037	10233.048011198307	5.627533744487902e-15
12.32142857142857	344.99999999999994	0.4798402329645049	20.29502713418837	10417.109814748983	4.7386460147695916e-15
12.357142857142856	346.0	0.4798350463702483	20.294576543862217	10272.920957309565	4.805105143986499e-15
12.39285714285714	346.99999999999994	0.4798298616323691	20.2950821613385	10368.58848432311	4.908105305018292e-15
12.428571428571427	348.0	0.4798246769511607	20.28859233691869	10256.272710500429	5.4581098349483555e-15
12.464285714285714	349.0	0.47981949364560517	20.28636078501346	9683.347525702357	5.2464740324193026e-15
12.499999999999998	349.99999999999994	0.47981431263303886	20.284873493592293	9456.18822339575	4.646113130980457e-15
12.535714285714285	351.0	0.4798091332667377	20.28032516656529	9336.242510070273	4.835932477307663e-15
12.57142857142857	351.99999999999994	0.47980395460779757	20.280014588379526	9417.66866347481	5.222661988079829e-15
12.607142857142856	353.0	0.4797987762145716	20.274430912437474	9697.952575874937	5.9347499342163744e-15
12.64285714285714	353.99999999999994	0.4797935976077075	20.27128393995096	10022.183178421214	5.0934257377575505e-15
12.678571428571427	355.0	0.4797884189043886	20.267068949135364	10054.17443509726	4.609231035159504e-15
12.714285714285714	356.0	0.479783241429567	20.26713207698418	10225.48005051428	5.198397127644973e-15
12.749999999999998	356.99999999999994	0.47977806400051115	20.26597175683959	10278.520572714757	6.31726302780894e-15
12.785714285714285	358.0	0.47977288540643404	20.260369236793913	10040.750433697893	6.976205478885382e-15
12.82142857142857	358.99999999999994	0.47976770821837983	20.257832792211588	9632.664230324157	5.731452433414036e-15
12.857142857142856	360.0	0.4797625343387524	20.255136982186066	9350.697456256235	4.614384954070828e-15
12.89285714285714	360.99999999999994	0.47975736168882266	20.254975179552627	9464.957433055668	5.424688778457604e-15
12.928571428571427	362.0	0.4797521892530528	20.248565801220096	9665.68352876117	6.426553735981487e-15
12.964285714285714	363.0	0.47974701604946296	20.246964370654165	10124.665830230126	6.227427235175281e-15
12.999999999999998	363.99999999999994	0.47974184154598604	20.2440798404174	10353.060338822073	5.3545102843787265e-15
13.035714285714285	365.0	0.47973666834344836	20.244143962549433	10271.668065936174	5.052537094473167e-15
13.07142857142857	365.99999999999994	0.47973149572734014	20.241952912764994	10332.241396482963	5.864330811626881e-15
13.107142857142856	367.0	0.4797263238957478	20.237328974448907	9954.880247144223	7.123774257462037e-15
13.14285714285714	367.99999999999994	0.47972115441135066	20.23618371613406	9616.628197691505	7.069817159099741e-15
13.178571428571427	369.0	0.4797159865982538	20.2276334653071	9361.464300017202	5.238492010289518e-15
13.214285714285714	370.0	0.4797108201153745	20.2272565306388	9059.0262412184	4.966496565387573e-15
13.249999999999998	370.99999999999994	0.47970565510497565	20.224625184530666	9346.462696691657	6.131060356997271e-15
13.285714285714285	372.0	0.4797004900135625	20.221827289798096	9558.094001740048	7.066826622371109e-15
13.32142857142857	372.99999999999994	0.4796953246989169	20.224323693330568	10020.617333476179	6.74108182926577e-15
13.357142857142856	374.0	0.47969015812262633	20.220495020208954	9983.4581594131	4.819621059429793e-15
13.39285714285714	374.99999999999994	0.47968499446837426	20.217637989413557	9801.000158110623	4.69965320691595e-15
13.428571428571427	376.0	0.4796798330774549	20.216883058475386	9563.856004301584	5.811024646923504e-15
13.464285714285714	377.0	0.47967467231886646	20.2107071873912	9385.780830796564	6.534035188327703e-15
13.499999999999998	377.99999999999994	0.4796695112586514	20.208159938979644	9197.48169369655	5.932127239690642e-15
13.535714285714285	379.0	0.4796643517318995	20.20239946484685	8751.831495943778	5.007827530913346e-15
13.57142857142857	379.99999999999994	0.479659193386095	20.20352552092198	8864.871775795165	5.410916559331021e-15
13.607142857142856	381.0	0.47965403530928097	20.198062430050303	9021.037754051591	6.210789262937284e-15
13.64285714285714	381.99999999999994	0.4796488772584226	20.200839126235625	9425.738453415683	6.274040672441315e-15
13.678571428571427	383.0	0.4796437188281906	20.199216244219663	9535.046929705304	5.471096501623246e-15
13.714285714285714	384.0	0.47963856261838783	20.196238870279117	9463.64339399603	4.79818635503942e-15
13.749999999999998	385.0	0.4796334075056117	20.194436161528273	9450.619971852318	4.813846420028701e-15
13.785714285714285	386.0	0.4796282523932917	20.192245916266867	9211.446232339991	5.38209540687062e-15
13.82142857142857	386.99999999999994	0.4796230981380948	20.18661917398716	9066.193637045388	5.7625526663497095e-15
13.857142857142856	388.0	0.4796179446616719	20.18269546315434	8868.510010223541	4.893272108944991e-15
13.89285714285714	388.99999999999994	0.4796127915918413	20.182000104298854	8788.800712243512	4.663305654262083e-15
13.928571428571427	390.0	0.47960763890402625	20.176956700262267	8870.004828154173	5.0620196327431536e-15
13.964285714285714	391.0	0.4796024858394826	20.179129457572024	9116.080732365775	5.491748318037714e-15
13.999999999999998	392.0	0.47959733267025023	20.178968347017655	9385.474238232955	5.630183717359067e-15
14.035714285714285	393.0	0.4795921794031765	20.173501475228978	9514.524281549759	4.7180412803283714e-15
14.07142857142857	393.99999999999994	0.47958702672638476	20.171119300227137	9519.482573187073	4.3573357936156665e-15
14.107142857142856	395.0	0.47958187497103905	20.16996374363955	9435.044344588976	4.917969021994312e-15
14.14285714285714	395.99999999999994	0.4795767241354345	20.165229428877023	9351.78656833504	5.853391215763341e-15
14.178571428571427	397.0	0.4795715732927164	20.16187025016203	9232.498415709533	5.77438426611675e-15
14.214285714285714	398.0	0.47956642278257433	20.160314966568958	9048.218404082283	4.943053814474068e-15
14.249999999999998	399.0	0.4795612732761278	20.15699965032079	8862.50611810059	4.569313008178717e-15
14.285714285714285	400.0	0.4795561256147294	20.15268575153045	8791.309248122097	4.842760204062733e-15
