# physical_time	scaled_time	kinetic_energy	enstrophy	palinstrophy	div_u_h
0	0.0	0.48221164950157797	37.633827012733356	95219.23596813586	3.750713049130145e-08
0.03571428571428571	1.0	0.48220205216313805	37.609516816169936	95554.08095970882	2.7868445034925638e-14
0.07142857142857142	2.0	0.4821924610196585	37.58498899311754	96925.8724414732	2.7576192174576766e-14
0.10714285714285714	3.0	0.4821828761957412	37.55995976595232	99507.06788254941	2.7992724106068036e-14
0.14285714285714285	4.0	0.4821732978665865	37.53408044697613	103653.10540447712	2.778074104868212e-14
0.17857142857142855	5.0	0.48216372629540705	37.50704989357013	109932.98056026506	2.7786160662869754e-14
0.21428571428571427	6.0	0.4821541618720709	37.478194270198046	120413.99995204718	2.8032487385055546e-14
0.24999999999999997	7.0	0.48214460474963433	37.44690225765521	148326.33388081478	2.7640398001155338e-14
0.2857142857142857	8.0	0.48213505479779095	37.40888283654164	188932.69877578953	2.7702773709628086e-14
0.3214285714285714	9.0	0.4821255152535155	37.36276522395421	225395.54188821494	2.8038480873209342e-14
0.3571428571428571	10.0	0.48211598738320405	37.30275959261643	289315.72630732215	2.84088167482457e-14
0.3928571428571428	10.999999999999998	0.48210647588401195	37.224156261210226	415081.7853287659	2.830576555143265e-14
0.42857142857142855	12.0	0.48209698366623016	37.10824240762496	593529.3333810301	2.7733499476839227e-14
0.46428571428571425	13.0	0.48208751559879776	36.95684096113388	799230.1864376472	2.7634722409504423e-14
0.49999999999999994	14.0	0.48207808288290216	36.76845201685314	925221.0965394187	2.7509589218877898e-14
0.5357142857142857	15.0	0.4820686970248594	36.56012623283902	1002563.2627258666	2.7735724417854835e-14
0.5714285714285714	16.0	0.4820593600559382	36.33903785955471	1066449.4931502128	2.779324779550002e-14
0.6071428571428571	17.0	0.48205007683417206	36.11136839086161	1058370.6096550962	2.802348565418033e-14
0.6428571428571428	18.0	0.4820408530380835	35.88680975324903	956208.3461262741	2.8112795719524804e-14
0.6785714285714285	19.0	0.48203168390551376	35.67880528707176	921127.0932882814	2.836530593416784e-14
0.7142857142857142	20.0	0.4820225719970349	35.48215378209916	888073.5508335513	2.8181202892738454e-14
0.7499999999999999	20.999999999999996	0.4820135084659677	35.28791925330993	936415.701752927	2.856767357196518e-14
0.7857142857142856	21.999999999999996	0.4820045005411107	35.09151435213174	898041.581020974	2.8981278399179134e-14
0.8214285714285713	22.999999999999996	0.4819955482335787	34.90135841664787	906236.4818445325	2.9001946318160805e-14
0.8571428571428571	24.0	0.4819866371045197	34.70825963811423	998336.8899021012	2.929401564765349e-14
0.8928571428571428	25.0	0.4819777720980965	34.50206137508198	893534.9101697777	2.965698157454502e-14
0.9285714285714285	26.0	0.48196896678788076	34.32134874573645	742478.0251467555	3.0153083861151326e-14
0.9642857142857142	27.0	0.4819602102642507	34.17107924229759	634779.8481694055	2.991805428368696e-14
0.9999999999999999	28.0	0.48195148807891014	34.037003340774774	659906.0104147022	3.060012032807884e-14
1.0357142857142856	28.999999999999996	0.48194280260720856	33.898591315024866	567126.2790765389	3.221905011205758e-14
1.0714285714285714	30.0	0.48193415720590727	33.78060040935347	524256.3443355361	3.552441796544663e-14
1.107142857142857	30.999999999999996	0.4819255450957487	33.66615201217495	463405.15173959546	3.8608911833812345e-14
1.1428571428571428	32.0	0.48191696437404197	33.56472540036414	400488.49582885834	3.81159155040429e-14
1.1785714285714284	33.0	0.4819084087981989	33.473982819225384	379091.2723784363	3.2272424053169916e-14
1.2142857142857142	34.0	0.48189987324217437	33.3846953975642	384506.12565947074	2.961939173985457e-14
1.2499999999999998	34.99999999999999	0.4818913530080448	33.297386275976535	379125.0879396859	3.380882561595769e-14
1.2857142857142856	36.0	0.4818828519597363	33.208088788152054	353943.229460769	3.604672846305988e-14
1.3214285714285712	36.99999999999999	0.48187437734707017	33.128405505130345	309961.66854584764	3.424899521408801e-14
1.357142857142857	38.0	0.48186592439505443	33.04922463612203	328257.9211145026	3.1267402891441307e-14
1.3928571428571428	39.0	0.4818574915212455	32.962135258298886	370113.97099749726	2.960099473272708e-14
1.4285714285714284	40.0	0.4818490786224491	32.8624933620938	442304.5992009989	2.887503183633966e-14
1.4642857142857142	41.0	0.4818406971470332	32.74773398007544	550532.1980486023	2.9420845547510604e-14
1.4999999999999998	41.99999999999999	0.48183234239292955	32.6140265990537	602206.8890721	2.9555070058929525e-14
1.5357142857142856	43.0	0.4818240177521842	32.47249452527551	753620.2377639743	2.9248965924216895e-14
1.5714285714285712	43.99999999999999	0.4818157253881865	32.295899462158246	729898.5811128184	2.8974359584570776e-14
1.607142857142857	45.0	0.48180749019861496	32.13996333392048	666062.8881306861	2.904752597408214e-14
1.6428571428571426	45.99999999999999	0.48179928712777104	31.987167290898753	717665.052791478	2.922942444391623e-14
1.6785714285714284	47.0	0.4817911229104871	31.82524089864132	680116.1895394765	2.918628670506424e-14
1.7142857142857142	48.0	0.48178300707515354	31.66732938577022	673487.9143573301	2.9151368104274544e-14
1.7499999999999998	49.0	0.48177493520317405	31.510766010977203	697144.5429201579	2.9435147262757654e-14
1.7857142857142856	50.0	0.4817669043416422	31.34940717104774	693631.1431477823	2.996439792378528e-14
1.8214285714285712	50.99999999999999	0.4817589173651874	31.186546790135704	689641.8841574205	3.021621396312487e-14
1.857142857142857	52.0	0.48175097307853715	31.02235462881418	703617.2750394823	2.9394963658215023e-14
1.8928571428571426	52.99999999999999	0.48174307112153114	30.854869548210257	710566.7561176879	2.90479533978164e-14
1.9285714285714284	54.0	0.4817352110570703	30.68534684477206	755500.2796903837	2.9242094104115855e-14
1.964285714285714	54.99999999999999	0.48172738881109	30.50848515011208	818825.7876341019	2.941221307661482e-14
1.9999999999999998	56.0	0.48171960851826384	30.317018653478947	811945.8377316558	2.9479941017088566e-14
2.0357142857142856	57.0	0.4817118761460129	30.131975483911187	803433.8041727049	2.9056687982856665e-14
2.071428571428571	57.99999999999999	0.4817041932648268	29.952306209303632	789566.263368673	2.918590125367095e-14
2.1071428571428568	58.99999999999999	0.4816965531758426	29.77641924475382	752478.0485026197	2.948711189108218e-14
2.142857142857143	60.0	0.48168896248308357	29.614082941377003	655930.4943609601	2.900039860958509e-14
2.1785714285714284	61.0	0.4816814154092808	29.466859663979594	560618.0639193875	2.889244691794142e-14
2.214285714285714	61.99999999999999	0.48167390711391767	29.34000862684144	493213.46691873745	2.896446339576576e-14
2.2499999999999996	62.99999999999999	0.48166642589492026	29.226449079772518	531141.3008745841	2.978421953261302e-14
2.2857142857142856	64.0	0.48165896313557033	29.10171375873686	545204.584504688	3.045183403803801e-14
2.321428571428571	65.0	0.481651531306279	28.978331066713224	547491.1381832889	2.993668943253364e-14
2.3571428571428568	66.0	0.4816441315371221	28.85325752604254	553420.6280588091	2.9171532256614766e-14
2.392857142857143	67.0	0.48163676492123664	28.721982788754485	580504.774715456	2.9024356291738405e-14
2.4285714285714284	68.0	0.481629432313456	28.58605790418362	598616.328639669	3.0029368993308654e-14
2.464285714285714	69.0	0.4816221355888986	28.451694804994066	580435.5507252837	3.14417521466492e-14
2.4999999999999996	69.99999999999999	0.4816148784841566	28.32327147760341	511387.9457623188	3.1591902677594554e-14
2.5357142857142856	71.0	0.48160765667583794	28.214600004272686	479088.558748954	3.020073888825623e-14
2.571428571428571	72.0	0.48160046304049964	28.114836203002817	438712.67875120824	2.92799838027144e-14
2.6071428571428568	73.0	0.4815932931645715	28.022046862147942	410052.18597680633	2.969277067261134e-14
2.6428571428571423	73.99999999999999	0.4815861462352333	27.93487620768272	396648.5416393841	3.056438164234878e-14
2.6785714285714284	75.0	0.4815790155078452	27.848815207800378	403166.3058346749	3.072776402725624e-14
2.714285714285714	76.0	0.48157190684272183	27.763012612013256	375616.62733090087	2.97953566918596e-14
2.7499999999999996	76.99999999999999	0.4815648246100631	27.68318169813825	326016.361925376	2.9039175387851433e-14
2.7857142857142856	78.0	0.48155776308059506	27.61170869744637	303526.89796935266	2.919135897219923e-14
2.821428571428571	79.0	0.48155071991751963	27.54964072749729	265993.02688088047	2.937923824623943e-14
2.8571428571428568	80.0	0.48154369226880284	27.491618267169997	252044.81465746628	2.9378156002300736e-14
2.8928571428571423	80.99999999999999	0.4815366777137524	27.43812232031538	257319.51752161997	2.8896759697320474e-14
2.9285714285714284	82.0	0.48152967732243585	27.382765872403464	235417.2685787172	2.902280587279528e-14
2.964285714285714	83.0	0.4815226913873524	27.331550582516382	226933.90827290254	2.910728779268939e-14
2.9999999999999996	83.99999999999999	0.4815157156050146	27.28289234097643	235393.217517638	2.9270537802318786e-14
3.0357142857142856	85.0	0.4815087523385633	27.233919494988157	220141.35575498032	2.897654604348937e-14
3.071428571428571	86.0	0.4815018036466542	27.18576591588124	184871.5698551003	2.873916341600727e-14
3.1071428571428568	87.0	0.48149486943841924	27.146153606117515	158850.0368725703	2.906492981511921e-14
3.1428571428571423	87.99999999999999	0.4814879455030323	27.1100432899376	149415.69503392142	2.9188850246978786e-14
3.1785714285714284	89.0	0.4814810305942584	27.0779587701859	138188.48027620156	2.914527810012017e-14
3.214285714285714	90.0	0.4814741242659375	27.04598367916519	135828.23895044805	2.908797796887965e-14
3.2499999999999996	90.99999999999999	0.481467225870727	27.014995357761663	130401.6060892585	2.8797785867985796e-14
3.285714285714285	91.99999999999999	0.4814603357278593	26.985501547498714	134813.97593171592	2.8917403517778566e-14
3.321428571428571	93.0	0.48145345287038865	26.955877413491507	132779.63124290147	2.8779470391888925e-14
3.3571428571428568	94.0	0.48144657785665207	26.92614208521979	119340.71716133831	2.895130521224239e-14
3.3928571428571423	94.99999999999999	0.48143970986792933	26.897224020391135	114605.22992107751	2.890734841282453e-14
3.4285714285714284	96.0	0.4814328496861922	26.87167326586156	111824.80901129906	2.91270001377751e-14
3.464285714285714	97.0	0.48142599605079295	26.844671856143833	107099.80942433575	2.880396561841729e-14
3.4999999999999996	98.0	0.48141914927087887	26.82045908619135	101785.70326151092	2.921093080869661e-14
3.535714285714285	98.99999999999999	0.4814123085417146	26.79693506997474	100907.81854397783	2.961327116943294e-14
3.571428571428571	100.0	0.48140547350095386	26.77357992088291	95863.69260056678	2.9460283089572254e-14
3.6071428571428568	101.0	0.4813986444351303	26.750852010415123	91739.15553675123	2.9357722148147283e-14
3.6428571428571423	101.99999999999999	0.48139182123007673	26.73018837868539	93237.56568407186	2.9599052038515346e-14
3.678571428571428	102.99999999999999	0.48138500326061995	26.70896844724419	91234.97898799871	2.9693412220483785e-14
3.714285714285714	104.0	0.481378190343974	26.688499311022316	86823.5554548516	3.000073500785221e-14
3.7499999999999996	105.0	0.4813713827590525	26.66921723298287	82369.92046205075	3.0366448473578726e-14
3.785714285714285	105.99999999999999	0.4813645800446292	26.650853916759544	76790.2427741573	3.0288352300181747e-14
3.821428571428571	107.0	0.48135778226076115	26.63312068917602	73907.56719659276	3.070778882678757e-14
3.8571428571428568	108.0	0.4813509892483667	26.616689681163724	66869.03708620208	3.132160037566204e-14
3.8928571428571423	108.99999999999999	0.4813442006603313	26.600840458564154	62654.61345046316	3.1826460883656006e-14
3.928571428571428	109.99999999999999	0.48133741603432106	26.58584009791885	61812.963365717784	3.246468176943607e-14
3.964285714285714	111.0	0.4813306351975846	26.571032423594712	61727.71335235858	3.3050799021847556e-14
3.9999999999999996	112.0	0.4813238580809864	26.556638505663788	62009.404586076256	3.4204302468372175e-14
4.035714285714286	113.0	0.48131708456156236	26.542262925917118	61962.37190333979	3.474185811701126e-14
4.071428571428571	114.0	0.4813103147045301	26.527994273513134	60319.98768947559	3.549458886914024e-14
4.107142857142857	115.0	0.4813035485261527	26.51413883238078	57305.60800068246	3.682309225413653e-14
4.142857142857142	115.99999999999999	0.48129678602979903	26.500673779641605	53171.819523777325	3.754939203004045e-14
4.178571428571428	116.99999999999999	0.4812900272407867	26.488289928084438	50112.806330589316	3.8751430499231344e-14
4.2142857142857135	117.99999999999999	0.48128327182639613	26.47645830290802	50865.37006362861	3.951421665983991e-14
4.249999999999999	118.99999999999999	0.48127651940171073	26.464614723572208	53114.934550633756	4.028976728513259e-14
4.285714285714286	120.0	0.48126977038588786	26.452624342913317	48217.488025534716	4.0527458357693474e-14
4.321428571428571	121.0	0.481263024864498	26.44149269779832	43283.97435587746	4.036638020804424e-14
4.357142857142857	122.0	0.48125628240561275	26.431633219809978	40082.016193101466	3.914189143040206e-14
4.392857142857142	122.99999999999999	0.48124954263034736	26.421962052466053	39195.76237534312	3.788083370002486e-14
4.428571428571428	123.99999999999999	0.4812428053006423	26.412495243653204	38948.169291481165	3.539287155836311e-14
4.4642857142857135	124.99999999999999	0.4812360701608159	26.403155594935214	37715.7144987033	3.2860910338144184e-14
4.499999999999999	125.99999999999999	0.48122933685993263	26.39394636471021	37610.4056935233	3.148578648621488e-14
4.535714285714286	127.0	0.4812226050815818	26.38440743438521	38691.382849495836	3.1952752392509086e-14
4.571428571428571	128.0	0.48121587468496824	26.37465236380309	40831.12099301133	3.3750676127539825e-14
4.607142857142857	129.0	0.481209145884963	26.3637302398326	45925.93773993448	3.538751716603534e-14
4.642857142857142	130.0	0.4812024189932543	26.351882558354816	61035.92201809301	3.636933741728421e-14
4.678571428571428	131.0	0.4811956945179388	26.33669623339058	76933.99172935833	3.589103520830776e-14
4.7142857142857135	132.0	0.4811889729314467	26.318237449560883	98956.97113497568	3.3967748001330096e-14
4.749999999999999	132.99999999999997	0.48118225552123794	26.297624324352306	78706.13256935528	3.1697243380530374e-14
4.785714285714286	134.0	0.4811755464152469	26.279447033255494	68594.75195879876	3.000977548416263e-14
4.821428571428571	135.0	0.48116884211132704	26.26434796094736	59345.47349472075	2.950055359330466e-14
4.857142857142857	136.0	0.4811621425248521	26.25046438024559	50352.37784605931	3.0112715074201545e-14
4.892857142857142	137.0	0.48115544696239126	26.23847912219754	46814.301574928126	3.098589867545972e-14
4.928571428571428	138.0	0.48114875494121756	26.22696185072441	47742.35707236252	3.169524396032403e-14
4.9642857142857135	139.0	0.48114206649468433	26.21441300785403	55013.48437153374	3.266651063275223e-14
4.999999999999999	139.99999999999997	0.4811353815639555	26.199972921350472	75407.40562134207	3.4328954592109955e-14
5.035714285714285	140.99999999999997	0.48112870146759523	26.1824910667198	80509.60177877315	3.586963959304515e-14
5.071428571428571	142.0	0.4811220266693486	26.164141456798596	73888.2209707331	3.5862928171453226e-14
5.107142857142857	143.0	0.48111535658969956	26.146522464015028	74701.8740798736	3.310222765148886e-14
5.142857142857142	144.0	0.4811086903321575	26.127566424367807	81968.63658116317	3.189375795164671e-14
5.178571428571428	145.0	0.48110202750001624	26.106236754937505	92946.54439672387	3.4913773181072124e-14
5.2142857142857135	146.0	0.4810953674214728	26.081131287504565	133000.3699256764	3.763372070565299e-14
5.249999999999999	146.99999999999997	0.481088710021711	26.051014096781046	167672.72597363347	3.799057131427063e-14
5.285714285714285	147.99999999999997	0.48108206248965185	26.013095159425713	165362.14388333235	3.524568364453564e-14
5.321428571428571	149.0	0.4810754245733175	25.972011736757903	180938.47403815106	3.221932296808387e-14
5.357142857142857	150.0	0.4810687976446529	25.92721444347882	196518.41245880185	2.994132789396928e-14
5.392857142857142	151.0	0.48106218062728195	25.874009994536646	236173.01197631116	2.9837669465510574e-14
5.428571428571428	152.0	0.48105557369564794	25.811266815464055	275899.2129052009	3.140580185815482e-14
5.4642857142857135	153.0	0.4810489856581571	25.739735626406677	289162.955087791	3.350312980752589e-14
5.499999999999999	153.99999999999997	0.48104241882565185	25.664320258100986	302716.17263332487	3.3235636995781186e-14
5.535714285714285	154.99999999999997	0.4810358724286611	25.587730948071798	332380.03669767233	3.186194931845352e-14
5.571428571428571	156.0	0.481029345169227	25.505107260929652	362122.15317948844	2.999733281931632e-14
5.607142857142857	157.0	0.4810228400581994	25.417626701685204	404388.1132881582	3.058417060315582e-14
5.642857142857142	158.0	0.4810163545660971	25.32022652276251	431864.1579850397	3.099086734474799e-14
5.678571428571428	159.0	0.4810098928245717	25.21639142634117	445974.15212169336	2.99047916754449e-14
5.7142857142857135	160.0	0.4810034592853377	25.109467864032542	446062.1162199047	2.9479991422953384e-14
5.749999999999999	160.99999999999997	0.48099705680142735	25.001316302246238	466035.8998580372	2.903983073917902e-14
5.785714285714285	161.99999999999997	0.4809906809486673	24.888915983585775	500534.4696268419	2.987838042469974e-14
5.821428571428571	163.0	0.48098433646654215	24.770105829018853	495377.50185322465	2.9998051488356235e-14
5.857142857142857	164.0	0.48097802148516783	24.650872637661756	511193.64861585706	2.9388404871580884e-14
5.892857142857142	165.0	0.4809717375687467	24.52909111375712	508356.21691676043	2.928372391014234e-14
5.928571428571428	166.0	0.4809654854423635	24.41103130009199	514328.5220148953	2.9504473030793756e-14
5.9642857142857135	167.0	0.4809592599505861	24.289467713230746	535873.0843863569	2.950478460568973e-14
5.999999999999999	167.99999999999997	0.48095306261027093	24.165110124493008	484540.83174242347	2.9339718399906275e-14
6.035714285714285	168.99999999999997	0.4809468991146669	24.053157915198277	455552.91344690527	2.883612139137637e-14
6.071428571428571	170.0	0.4809407668693895	23.9466130245859	426616.8463737768	2.935401621033778e-14
6.107142857142857	171.0	0.4809346630970578	23.845750043264438	404666.8297703495	2.991935381793506e-14
6.142857142857142	172.0	0.48092858700444313	23.749661788002303	385099.53674381366	2.9864849674197375e-14
6.178571428571428	173.0	0.48092253537286733	23.65741969041227	377122.0679247309	2.943724298424873e-14
6.2142857142857135	174.0	0.48091650657001656	23.56749397632297	369720.89018783544	2.948130616890032e-14
6.249999999999999	174.99999999999997	0.4809104999966742	23.479491380021052	365717.28408869496	2.9471653577083324e-14
6.285714285714285	175.99999999999997	0.4809045152180391	23.394137750430122	364980.79873863317	3.0085419269400574e-14
6.32142857142857	176.99999999999997	0.4808985499774924	23.306825316470288	358068.4087686526	2.978039497356001e-14
6.357142857142857	178.0	0.4808926061358828	23.221361057928025	342437.5337797562	2.93253410918057e-14
6.392857142857142	179.0	0.4808866836983901	23.141257193787702	350037.7507077047	2.943147413813301e-14
6.428571428571428	180.0	0.480880783139812	23.0584913116197	318069.44175570883	2.979491890157256e-14
6.4642857142857135	181.0	0.4808749049380429	22.983564756022997	303452.7002690107	3.0121481305164184e-14
6.499999999999999	181.99999999999997	0.4808690462130433	22.911728400392636	297634.95179690333	2.984884275236345e-14
6.535714285714285	182.99999999999997	0.4808632056308019	22.8424090665162	290115.9927904811	2.978507715086434e-14
6.57142857142857	183.99999999999997	0.4808573825745193	22.775144065217674	287605.72831414413	3.012875283674583e-14
6.607142857142857	185.0	0.48085157526350597	22.70939673253807	283240.7109101676	3.11030812134679e-14
6.642857142857142	186.0	0.48084578399756667	22.64429578050569	265279.3383242534	3.072699583290433e-14
6.678571428571428	187.0	0.48084000832135304	22.58367703375663	249934.82260362804	2.949843934854987e-14
6.7142857142857135	188.0	0.4808342486388107	22.525946127121212	230661.2480625635	2.9385322918084435e-14
6.749999999999999	188.99999999999997	0.4808285045397521	22.471644910946043	227658.0368504761	3.011273636859387e-14
6.785714285714285	189.99999999999997	0.48082277436526794	22.41684513637657	223152.35348951977	3.149108066444375e-14
6.82142857142857	190.99999999999997	0.48081705817723247	22.362941181725464	212385.86103314385	3.155328610561763e-14
6.857142857142857	192.0	0.48081135676586323	22.31233058842755	202321.51456425237	3.037996180305211e-14
6.892857142857142	193.0	0.4808056683677402	22.26382726571911	197058.42690352624	2.99706188050574e-14
6.928571428571428	194.0	0.48079999170583504	22.216946964297097	201282.97021086747	3.098457811491746e-14
6.9642857142857135	195.0	0.4807943259507069	22.16894708599337	202047.17054327996	3.113716928511265e-14
6.999999999999999	196.0	0.48078867128081165	22.119903753518173	198474.2113781418	3.004162230905158e-14
7.035714285714285	196.99999999999997	0.4807830301905561	22.074179953893843	184750.0681408729	2.9353349463330276e-14
7.07142857142857	197.99999999999997	0.4807774006612764	22.030708090793052	183847.42373870782	2.958822790285851e-14
7.107142857142857	199.0	0.48077178138989385	21.987553015946723	179715.30247268992	3.06436356748574e-14
7.142857142857142	200.0	0.48076617326826027	21.944946504923895	169543.29916714676	3.107386807284186e-14
7.178571428571428	201.0	0.4807605766567004	21.904965964703255	161649.69922812333	3.0458037208094486e-14
7.2142857142857135	202.0	0.48075499037256236	21.867685708969617	158875.3658525889	2.952656980434759e-14
7.249999999999999	203.0	0.4807494131532921	21.830982859902576	154573.02875382832	3.0371402660268475e-14
7.285714285714285	203.99999999999997	0.48074384369990475	21.795068389219377	152921.56073486304	3.0864634651077796e-14
7.32142857142857	204.99999999999997	0.4807382839394409	21.759377297126566	139524.75928582845	3.0033843162365417e-14
7.357142857142856	205.99999999999997	0.4807327342198493	21.728179223602893	127169.84180111323	2.960081039222875e-14
7.392857142857142	207.0	0.4807271925697301	21.69818130994074	126096.92408408491	2.9220835636668857e-14
7.428571428571428	208.0	0.48072165786856796	21.668117040210728	128954.65067734275	2.930124160335396e-14
7.4642857142857135	209.0	0.4807161312813235	21.637693903538096	122891.35576451763	2.959537073560957e-14
7.499999999999999	210.0	0.480710613085408	21.608168326249924	119426.43060146473	2.9808154439721096e-14
7.535714285714285	210.99999999999997	0.4807051026372577	21.579074840361947	119581.76952351951	2.921977130344692e-14
7.57142857142857	211.99999999999997	0.480699599629565	21.55018090328963	124258.1657427956	2.916261564322469e-14
7.607142857142856	212.99999999999997	0.48069410360579795	21.52076242933223	126724.92657514573	2.925303216678462e-14
7.642857142857142	214.0	0.4806886150691773	21.489681173383943	122572.87053915064	2.929104048128418e-14
7.678571428571428	215.0	0.4806831349071104	21.460622823901264	118975.15335908135	2.913779081183321e-14
7.7142857142857135	216.0	0.48067766177252685	21.431907282700998	119570.8921118858	2.896773562444311e-14
7.749999999999999	217.0	0.4806721954586443	21.403031078486155	114013.79624649056	2.920754832463919e-14
7.785714285714285	217.99999999999997	0.48066673661082615	21.375782711499674	109779.82915136188	2.941339310023144e-14
7.82142857142857	218.99999999999997	0.4806612849778643	21.350634891991366	98939.70061607417	2.908897290336501e-14
7.857142857142856	219.99999999999997	0.48065583976792525	21.327171288964813	93516.09623755759	2.92199894656823e-14
7.892857142857142	221.0	0.4806504003369183	21.305526209205773	88284.57385714352	2.926993673935497e-14
7.928571428571428	222.0	0.48064496632438214	21.284987380909353	83098.03198287537	2.977023495341137e-14
7.9642857142857135	223.0	0.4806395377111293	21.26541321736226	75308.57174612644	2.953342921938812e-14
7.999999999999999	224.0	0.4806341140954159	21.247473030972113	71007.97727339722	2.9588235923184346e-14
8.035714285714285	224.99999999999997	0.4806286949351422	21.230233572794425	68861.7873783882	2.930676914309532e-14
8.071428571428571	226.0	0.4806232799831908	21.213311617598556	68922.2728237506	2.9228672011071364e-14
8.107142857142856	226.99999999999997	0.4806178695718676	21.19622954285756	67679.65569488394	2.928468465870441e-14
8.142857142857142	228.0	0.48061246347629466	21.1799281676034	70713.36569282871	2.927295153364223e-14
8.178571428571427	228.99999999999997	0.48060706164432915	21.162320428655804	71966.27901602746	2.956597620321946e-14
8.214285714285714	230.0	0.4806016644029735	21.144480248883916	73108.10345370937	2.925060810633409e-14
8.249999999999998	230.99999999999997	0.4805962715701504	21.126790888535655	75791.91050393097	2.936593872018493e-14
8.285714285714285	231.99999999999997	0.4805908834705531	21.108378746088935	76812.66039941403	2.908974895738426e-14
8.321428571428571	233.0	0.4805854997613354	21.09007257618239	77682.75670783574	2.947038397429719e-14
8.357142857142856	233.99999999999997	0.480580120411604	21.071456148719626	76347.44788901242	2.9178158079863355e-14
8.392857142857142	235.0	0.48057474586827537	21.05323654243367	71913.71465048211	2.910515648815471e-14
8.428571428571427	235.99999999999997	0.48056937613736567	21.036136406931366	67922.53215782554	2.9299011587438753e-14
8.464285714285714	237.0	0.4805640107214517	21.020231492998	65098.14625485429	2.957011196349709e-14
8.499999999999998	237.99999999999997	0.4805586492046561	21.00496050794015	60079.006646648326	2.942736148496508e-14
8.535714285714285	238.99999999999997	0.48055329159644167	20.990735727304457	56622.56980746437	2.9577330129775873e-14
8.571428571428571	240.0	0.480547937658322	20.977450342642165	54251.10843840156	2.922630972479178e-14
8.607142857142856	240.99999999999997	0.48054258705397596	20.964814280764017	52865.43396474465	2.9878111325485354e-14
8.642857142857142	242.0	0.4805372396459495	20.952373635195883	51061.16048786113	3.023748955102862e-14
8.678571428571427	242.99999999999997	0.48053189521172723	20.940427823785217	50146.82385479231	2.979700899033282e-14
8.714285714285714	244.0	0.4805265539432695	20.928618911447895	50276.630456996514	2.935993290830426e-14
8.749999999999998	244.99999999999997	0.48052121569005735	20.91696026636078	48764.844037011244	2.939173970650778e-14
8.785714285714285	245.99999999999997	0.48051588041908316	20.90550546699234	46311.9362335045	2.980280647835741e-14
8.821428571428571	247.0	0.48051054812080074	20.89468801916592	42649.218873582584	3.0053056480463333e-14
8.857142857142856	247.99999999999997	0.48050521861846884	20.88476215540375	39572.45501426021	2.979282603650724e-14
8.892857142857142	249.0	0.48049989165326906	20.875273771715285	38170.10825809298	2.9214873311631494e-14
8.928571428571427	249.99999999999997	0.48049456699232423	20.866002919776367	37724.16768878132	2.925825024413725e-14
8.964285714285714	251.0	0.4804892446438588	20.857005953746754	36855.211403547306	2.960198930361725e-14
8.999999999999998	251.99999999999997	0.48048392457290284	20.848266138726064	36358.97626415913	2.965557111874844e-14
9.035714285714285	252.99999999999997	0.48047860685786864	20.839431909498558	35163.927993359626	2.9633356376660506e-14
9.071428571428571	254.0	0.480473291416281	20.831016058842987	33907.2656502856	2.905095675893666e-14
9.107142857142856	254.99999999999997	0.4804679781312656	20.82283957856928	32363.780230677738	2.913781083392961e-14
9.142857142857142	256.0	0.4804626668623315	20.81512722199023	30452.36737307629	2.942620453245039e-14
9.178571428571427	257.0	0.4804573575489922	20.807824080755072	29500.059776388094	2.917584883395815e-14
9.214285714285714	258.0	0.48045205010636294	20.800643388802236	28749.427223929124	2.891973318126805e-14
9.249999999999998	258.99999999999994	0.4804467444675947	20.793526711595945	29266.359531980634	2.930932502107268e-14
9.285714285714285	260.0	0.48044144063643396	20.786317093951613	28924.146191563497	2.920849075574507e-14
9.321428571428571	261.0	0.48043613864964363	20.779329934603936	29343.89079890603	2.932943573803731e-14
9.357142857142856	262.0	0.4804308384707164	20.772060815765016	29441.942523291622	2.949558897183215e-14
9.392857142857142	263.0	0.48042554009676774	20.76478619018668	29304.782371761525	2.896965390777635e-14
9.428571428571427	264.0	0.4804202436226329	20.757718065041704	28740.522092906536	2.933841703768794e-14
9.464285714285714	265.0	0.480414948966482	20.750667064221542	28592.163075741824	2.928954625136207e-14
9.499999999999998	265.99999999999994	0.480409656079006	20.743575438214627	28581.91425259968	2.914353492166517e-14
9.535714285714285	267.0	0.480404364986216	20.736555615735462	28950.038512090603	2.905539938048212e-14
9.571428571428571	268.0	0.4803990757023223	20.729359966638704	28672.032751585582	2.953877845920579e-14
9.607142857142856	269.0	0.48039378825304324	20.722313290052146	28849.404528325005	2.9109310380739475e-14
9.642857142857142	270.0	0.48038850257820653	20.715235164664026	28392.541398056623	2.90508223784636e-14
9.678571428571427	271.0	0.4803832187220647	20.70827925740776	27977.063199096414	2.922926355748821e-14
9.714285714285714	272.0	0.48037793665869966	20.701379145694716	27895.03933461848	2.9487513686021156e-14
9.749999999999998	272.99999999999994	0.48037265637763654	20.6946119608603	27116.298024436877	2.9456840939516806e-14
9.785714285714285	274.0	0.4803673778277466	20.68799164082722	26676.875280675893	2.9175674487103066e-14
9.821428571428571	275.0	0.4803621009097814	20.681383053442026	26652.988838694768	2.895918506365957e-14
9.857142857142856	276.0	0.48035682564436194	20.674808741292097	26354.674252084074	2.9024157725016204e-14
9.892857142857142	277.0	0.4803515520639414	20.66833522551528	25493.640840075925	2.91051392596469e-14
9.928571428571427	278.0	0.48034628015482395	20.66213890643643	24298.445471415427	2.90004241070194e-14
9.964285714285714	279.0	0.48034100981868255	20.656189895550334	23589.2122173878	2.9307131693739795e-14
9.999999999999998	279.99999999999994	0.4803357409609999	20.650390602118346	23306.377584379177	2.926016652576557e-14
10.035714285714285	281.0	0.48033047357236347	20.64462069346085	23317.56549199821	2.8900531300329584e-14
10.07142857142857	281.99999999999994	0.48032520764952913	20.638845357290652	23376.164949363916	2.9316938206263e-14
10.107142857142856	283.0	0.48031994319291915	20.632990050305867	23565.937052475034	2.907489853244586e-14
10.142857142857142	284.0	0.48031468022643603	20.627162552801025	23715.0248389953	2.9231497343347456e-14
10.178571428571427	285.0	0.480309418763515	20.62125446582707	24023.604926664157	2.946517534005219e-14
10.214285714285714	286.0	0.4803041588231838	20.615295662795262	23914.069137166356	2.925024264153632e-14
10.249999999999998	286.99999999999994	0.4802989003889076	20.609413566745353	23245.58537127402	2.903618200443098e-14
10.285714285714285	288.0	0.48029364344812514	20.60370922159939	22722.022787466387	2.9281292308267994e-14
10.32142857142857	288.99999999999994	0.4802883879625007	20.59811376491011	22117.054590501913	2.905583921684704e-14
10.357142857142856	290.0	0.48028313390087535	20.59266128478148	21884.528839764134	2.9283444861602654e-14
10.392857142857142	291.0	0.4802778812448158	20.587300379127313	21494.553394322418	2.9203182371845484e-14
10.428571428571427	292.0	0.48027262996809794	20.581995475141827	21266.294498464737	2.9474744223334913e-14
10.464285714285714	293.0	0.48026738003995834	20.576778695575687	20840.18337406514	2.9202841353942846e-14
10.499999999999998	293.99999999999994	0.48026213143562624	20.57153379545111	20790.99304311825	2.9107208110330414e-14
10.535714285714285	295.0	0.4802568841483416	20.566432352321556	20568.50038706534	2.9408566841616077e-14
10.57142857142857	295.99999999999994	0.48025163817784633	20.56131984001634	20159.084615870473	2.934245830002032e-14
10.607142857142856	297.0	0.48024639348595816	20.55635571528782	19880.769631507967	2.9282463498782495e-14
10.642857142857142	298.0	0.48024115005035706	20.551455190925232	19553.09751454474	2.921140570714413e-14
10.678571428571427	299.0	0.4802359078499723	20.546628206098088	19333.077591448207	2.900080586126656e-14
10.714285714285714	300.0	0.48023066685063626	20.5418710698499	18933.629006197814	2.893178932098746e-14
10.749999999999998	300.99999999999994	0.4802254270812649	20.53721963947051	18328.220420748043	2.9036371646124835e-14
10.785714285714285	302.0	0.48022018849301307	20.53267925640419	18060.634330026936	2.906036914819826e-14
10.82142857142857	302.99999999999994	0.48021495105878426	20.528130903045266	18109.247409000687	2.910431158120904e-14
10.857142857142856	304.0	0.48020971476062296	20.523694222272525	18138.852258559025	2.927868464582165e-14
10.892857142857142	305.0	0.4802044796078742	20.51922602521509	18147.570922540406	2.890333030290607e-14
10.928571428571427	306.0	0.48019924559718785	20.514667447541726	17979.67036639068	2.9327268256825677e-14
10.964285714285714	307.0	0.48019401273754414	20.51019696091706	17981.157059503792	2.9102925856241706e-14
10.999999999999998	307.99999999999994	0.4801887810461754	20.505711885560167	17988.9029364093	2.932818425771779e-14
11.035714285714285	309.0	0.48018355050684275	20.501199821008928	17849.15354278877	2.9256397332224906e-14
11.07142857142857	309.99999999999994	0.4801783210905822	20.496765116961686	17630.660975322622	2.933123444581405e-14
11.107142857142856	311.0	0.48017309279958204	20.492414655163664	17203.892379773624	2.925812060247167e-14
11.142857142857142	312.0	0.4801678656007801	20.488163291857333	17084.071506763637	2.929924392494754e-14
11.178571428571427	313.0	0.48016263948193366	20.483891360660785	17109.002703904094	2.953755960894444e-14
11.214285714285714	314.0	0.480157414452137	20.479711255775975	17094.67049557906	2.910169244630428e-14
11.249999999999998	314.99999999999994	0.48015219050598956	20.475416674815467	16993.782834741913	2.908835755615038e-14
11.285714285714285	316.0	0.4801469676338705	20.47118112650533	16998.613261201634	2.900729055683578e-14
11.32142857142857	316.99999999999994	0.48014174585922514	20.466905944907605	17011.892818454002	2.9139972565167816e-14
11.357142857142856	318.0	0.48013652519125427	20.46265648571783	16715.862449136937	2.934302226416623e-14
11.392857142857142	319.0	0.48013130560260564	20.458518043285878	16329.016109612536	2.924283456534618e-14
11.428571428571427	320.0	0.48012608706888654	20.45446309768547	15800.339381827955	2.9268643828176454e-14
11.464285714285714	321.0	0.4801208695590761	20.450494446980734	15472.748094590228	2.939245561112088e-14
11.499999999999998	321.99999999999994	0.48011565305444914	20.446616064705786	15285.681591557894	2.910157665535908e-14
11.535714285714285	323.0	0.4801104375383522	20.44278407169354	15219.645901546437	2.8974244686201464e-14
11.57142857142857	323.99999999999994	0.48010522300680886	20.43891438637227	15178.353599935801	2.922108643031956e-14
11.607142857142856	325.0	0.48010000944968534	20.435064919925917	15288.252338537879	2.9265869956114384e-14
11.642857142857142	326.0	0.4800947968700824	20.43120416110752	15349.597013640538	2.9303011174972125e-14
11.678571428571427	327.0	0.480089585271957	20.427339075932217	15172.948785356073	2.9117540199258125e-14
11.714285714285714	328.0	0.48008437466101606	20.42353240507247	14823.600567753407	2.906448650032649e-14
11.749999999999998	328.99999999999994	0.480079165020454	20.419856811453545	14495.211729829936	2.9284802806136526e-14
11.785714285714285	330.0	0.48007395632178274	20.41619585362267	14253.386914099907	2.911562392690475e-14
11.82142857142857	330.99999999999994	0.4800687485498023	20.412618230155793	14100.174047174783	2.904731822359076e-14
11.857142857142856	332.0	0.48006354168921556	20.409061999619787	13986.514301614778	2.913347691450408e-14
11.892857142857142	333.0	0.4800583357269572	20.405557534932587	13923.806308956713	2.9307799806948604e-14
11.928571428571427	334.0	0.4800531306633486	20.402032772968944	13971.534916074106	2.9328928410002886e-14
11.964285714285714	335.0	0.4800479264975734	20.39850108213378	14122.93759823336	2.8971920024202786e-14
11.999999999999998	335.99999999999994	0.4800427232352403	20.394908756361964	14235.729082755479	2.9165043902702034e-14
12.035714285714285	337.0	0.48003752088233836	20.391309473848114	14279.962553537243	2.9311920492152754e-14
12.07142857142857	337.99999999999994	0.48003231944509206	20.387735263718277	14267.741840756904	2.933243313881499e-14
12.107142857142856	339.0	0.4800271189299944	20.38409688497462	14322.207991023759	2.92387711607003e-14
12.142857142857142	340.0	0.4800219193285003	20.380498970933132	14328.979700347134	2.9180254083809005e-14
12.178571428571427	341.0	0.48001672064440776	20.376907122729246	14198.260192034371	2.9029940993991715e-14
12.214285714285714	342.0	0.48001152285958976	20.37336030033519	13976.501217351379	2.9176837801625826e-14
12.249999999999998	342.99999999999994	0.4800063259744175	20.369874980511018	13790.097763062611	2.8742117684468376e-14
12.285714285714285	344.0	0.48000112997854216	20.366410110805486	13774.29629936537	2.9016188148869934e-14
12.32142857142857	344.99999999999994	0.47999593486730197	20.362952257766107	13740.04828741571	2.909126789567516e-14
12.357142857142856	346.0	0.4799907406460772	20.359517746323444	13729.99370605401	2.93000566127922e-14
12.39285714285714	346.99999999999994	0.47998554730906634	20.35606626302697	13710.47297235188	2.925436285816076e-14
12.428571428571427	348.0	0.47998035484820106	20.352608197565157	13811.951261102393	2.905106064619411e-14
12.464285714285714	349.0	0.4799751632712488	20.349147132253787	13796.14651237857	2.915409802673681e-14
12.499999999999998	349.99999999999994	0.4799699725817633	20.345656331421353	13671.835630169273	2.8997816509551876e-14
12.535714285714285	351.0	0.4799647827739013	20.34224374279392	13483.394909293256	2.955832084215566e-14
12.57142857142857	351.99999999999994	0.4799595938306076	20.33887028846671	13316.155833910752	2.9259252296990684e-14
12.607142857142856	353.0	0.47995440574308684	20.335531557875086	13210.96830239791	2.9187316397044224e-14
12.64285714285714	353.99999999999994	0.47994921850560046	20.332202999766366	13173.212915369795	2.894045573695366e-14
12.678571428571427	355.0	0.479944032119037	20.328884462962954	13203.483239581397	2.957337533347956e-14
12.714285714285714	356.0	0.47993884658883007	20.3255222256348	13317.759660247915	2.947818726175915e-14
12.749999999999998	356.99999999999994	0.4799336619155283	20.32214947453524	13464.438230362954	2.937875028739956e-14
12.785714285714285	358.0	0.47992847811073736	20.3187444661024	13546.586332698978	2.907998052002964e-14
12.82142857142857	358.99999999999994	0.47992329518273424	20.315326136459753	13471.869854222747	2.8975727053189615e-14
12.857142857142856	360.0	0.4799181131290812	20.31192957015521	13327.088484032598	2.943032796997349e-14
12.89285714285714	360.99999999999994	0.47991293193607376	20.30859050970976	13112.880026012279	2.956926001090721e-14
12.928571428571427	362.0	0.47990775158770693	20.30531099158778	12892.479512018115	2.9402219389681287e-14
12.964285714285714	363.0	0.47990257206680864	20.302073518722796	12666.402000169268	2.9162518562286946e-14
12.999999999999998	363.99999999999994	0.4798973933587883	20.298909055459756	12507.698956803393	2.9433330561787225e-14
13.035714285714285	365.0	0.4798922154493957	20.295773025241097	12345.31198923018	2.9111266514549584e-14
13.07142857142857	365.99999999999994	0.4798870383310837	20.292674406574598	12268.462441748221	2.865490791162631e-14
13.107142857142856	367.0	0.47988186200135585	20.289573782956815	12265.683343331633	2.949325020376038e-14
13.14285714285714	367.99999999999994	0.4798766864606935	20.286474520934235	12255.003467026523	2.95943983701882e-14
13.178571428571427	369.0	0.47987151171017656	20.283385786700357	12219.484774228757	2.925505281549774e-14
13.214285714285714	370.0	0.4798663377481634	20.28029746933651	12134.265386368734	2.9073393701216405e-14
13.249999999999998	370.99999999999994	0.4798611645738459	20.277257615487425	12011.371741026205	2.88309180393027e-14
13.285714285714285	372.0	0.47985599217631636	20.27424968560271	11838.82582338758	2.9268579517520536e-14
13.32142857142857	372.99999999999994	0.479850820543166	20.271277351200382	11659.001928525227	2.9225565364352886e-14
13.357142857142856	374.0	0.47984564966244647	20.268338883115668	11532.901695499428	2.883449370847545e-14
13.39285714285714	374.99999999999994	0.47984047952735903	20.26543259605598	11507.255183530431	2.925244838529878e-14
13.428571428571427	376.0	0.47983531013218844	20.262522179565632	11607.905155893883	2.931758795676414e-14
13.464285714285714	377.0	0.47983014148232217	20.259593223821497	11734.922360391507	2.929551500850062e-14
13.499999999999998	377.99999999999994	0.4798249735867251	20.256597912731873	11866.095337660869	2.9355033403478004e-14
13.535714285714285	379.0	0.479819806453489	20.253574732859267	11967.630867667196	2.915649303242473e-14
13.57142857142857	379.99999999999994	0.4798146400912641	20.250550484468558	11995.602594131926	2.901756567501984e-14
13.607142857142856	381.0	0.4798094745035868	20.24751591280272	11909.81184498066	2.8955785051554274e-14
13.64285714285714	381.99999999999994	0.47980430968536286	20.24451408965776	11788.816855956265	2.869477545468999e-14
13.678571428571427	383.0	0.4797991456228798	20.24156998951857	11643.295857454032	2.923984526758601e-14
13.714285714285714	384.0	0.47979398230300285	20.23866087152564	11536.687606790447	2.9012996940870764e-14
13.749999999999998	385.0	0.4797888197202966	20.235761084429942	11487.426038247557	2.90192032665311e-14
13.785714285714285	386.0	0.4797836578753055	20.232893293513715	11429.83273776359	2.9081784040841274e-14
13.82142857142857	386.99999999999994	0.47977849676545586	20.2300218286855	11368.920913311327	2.9102093840084066e-14
13.857142857142856	388.0	0.47977333639065545	20.227153217598012	11446.4510136639	2.928500737467518e-14
13.89285714285714	388.99999999999994	0.4797681767516748	20.224247310670115	11520.968452088113	2.8956572967815373e-14
13.928571428571427	390.0	0.47976301785494	20.22133180178088	11585.625181491116	2.905276285548707e-14
13.964285714285714	391.0	0.47975785970577844	20.218421983189863	11566.778012159646	2.9173378029995244e-14
13.999999999999998	392.0	0.4797527023033548	20.21550875444442	11499.74160653208	2.9230950905891555e-14
14.035714285714285	393.0	0.47974754564205047	20.212616060542523	11419.802815148467	2.88635431876683e-14
14.07142857142857	393.99999999999994	0.47974238971548866	20.20975105310025	11341.07150290765	2.8856992880995096e-14
14.107142857142856	395.0	0.4797372345187202	20.206895142517197	11250.79959868353	2.917349204788343e-14
14.14285714285714	395.99999999999994	0.4797320800470431	20.20406887586007	11177.642260191982	2.909381306663558e-14
14.178571428571427	397.0	0.47972692629637526	20.201234064118328	11158.764318280571	2.918439917897584e-14
14.214285714285714	398.0	0.4797217732671119	20.19841116859694	11235.58572254573	2.904115890850213e-14
14.249999999999998	399.0	0.4797166209634246	20.195563244375204	11336.459180280004	2.889182353569659e-14
14.285714285714285	400.0	0.4797114693910868	20.192704072085604	11404.442328732614	2.8934543698462575e-14
