# scaled_time	vorticity_thickness
0	1.0000000135080114
1	1.0756266718788408
2	1.142481866177836
3	1.2047867849035685
4	1.267789716206628
5	1.3349070406328403
6	1.4083375580310589
7	1.4896850037209326
8	1.5781504579612582
9	1.6691423440602142
10	1.7562226976158148
11	1.8353045798181822
12	1.9064344287423516
13	1.9704407132019532
14	2.0255714896724504
15	2.068739239197605
16	2.09844797726498
17	2.1158144075792
18	2.12381050982856
19	2.125922468894489
20	2.1250136658350347
21	2.1229011033822185
22	2.1206199202015044
23	2.1189501734123937
24	2.118849673351189
25	2.1216333477483635
26	2.1288884856215904
27	2.1422221979044047
28	2.1629712994420016
29	2.192008436984202
30	2.2297716307337
31	2.276568037011482
32	2.333062789143435
33	2.400753856592468
34	2.482203762033346
35	2.5807557187534647
36	2.699327599174482
37	2.8377617026051816
38	2.9839191491042256
39	3.137419711321082
40	3.290279814036385
41	3.4235777254078843
42	3.547271800952012
43	3.6606906818544545
44	3.760875576750477
45	3.8491942391095884
46	3.934044865318665
47	4.026079492883087
48	4.126250272330993
49	4.217351445995556
50	4.276300103461389
51	4.295313668050128
52	4.282987539902454
53	4.25146383108231
54	4.210469479807081
55	4.168127179503563
56	4.130808799529519
57	4.100714514359778
58	4.0747535175446075
59	4.047370572890462
60	4.014898882945314
61	3.9771452586082563
62	3.935925566141218
63	3.8933000212512776
64	3.850958767277137
65	3.8102864422268894
66	3.7724176420731563
67	3.7381852773586717
68	3.7081719642726516
69	3.6829725391674635
70	3.6635872570057386
71	3.6517805390836418
72	3.6502135775038935
73	3.6621417124337854
74	3.690507320963492
75	3.7364445786634057
76	3.797671534113515
77	3.867871045350304
78	3.938116504889017
79	3.9999503672361882
80	4.048130890098869
81	4.081387355031401
82	4.101333764231423
83	4.110819881576794
84	4.112736574961866
85	4.109527786811267
86	4.103174155958713
87	4.095321298471902
88	4.087352135971155
89	4.0803628552095494
90	4.0750912030498
91	4.071855886276972
92	4.070543791646205
93	4.0706620432017475
94	4.071455116880718
95	4.072066633063223
96	4.07170811156489
97	4.069795457984923
98	4.066029966659537
99	4.0604228940517215
100	4.05327790460116
101	4.045148746627015
102	4.036783998392872
103	4.029063289419685
104	4.022924663982618
105	4.019282080125204
106	4.018934777829251
107	4.022475025975575
108	4.03020589773516
109	4.042084228154162
110	4.057703675075657
111	4.07632749204108
112	4.09697076200397
113	4.118520227243527
114	4.1398705298474034
115	4.160052017064223
116	4.178328359734373
117	4.194250572214685
118	4.207664443013185
119	4.218677603528699
120	4.2275983638548125
121	4.2348605356922215
122	4.240947468139469
123	4.246325630033842
124	4.251394364505063
125	4.2564547068386265
126	4.26169693394314
127	4.267204145850952
128	4.272967809641242
129	4.278910760677575
130	4.284913431457526
131	4.290839780336575
132	4.296560271128471
133	4.301970147554685
134	4.307002072943027
135	4.311632929657816
136	4.3158851695085705
137	4.319823548156138
138	4.323548338736353
139	4.327186200183587
140	4.3308798041112695
141	4.334777159504695
142	4.3390213834839075
143	4.343741498131207
144	4.3490447049813445
145	4.355010488677244
146	4.3616868054681746
147	4.369088500790216
148	4.377197967160022
149	4.3859679060292285
150	4.3953259098328274
151	4.405180449586838
152	4.415427753745046
153	4.425959006383474
154	4.436667285682071
155	4.447453710924353
156	4.458232365880689
157	4.4689337094953405
158	4.479506352424576
159	4.489917247599397
160	4.500150490747444
161	4.51020503493056
162	4.520091683064961
163	4.529829734111493
164	4.539443629932459
165	4.548959891555619
166	4.558404557687505
167	4.5678012553174385
168	4.577169951281464
169	4.586526361678702
170	4.595881938732116
171	4.6052443150640645
172	4.614618065193121
173	4.624005641550775
174	4.633408354978341
175	4.642827292493002
176	4.652264094177725
177	4.661721541326067
178	4.6712039365222
179	4.680717280440604
180	4.690269268278714
181	4.6998691405103425
182	4.70952742827217
183	4.719255634063798
184	4.729065884916142
185	4.738970589426557
186	4.748982123178298
187	4.759112560310224
188	4.769373463147085
189	4.779775737082774
190	4.790329554502467
191	4.801044349322912
192	4.811928882267302
193	4.822991376062293
194	4.834239718897501
195	4.845681733672373
196	4.857325509535739
197	4.869179791458191
198	4.881254422919409
199	4.8935608367025525
200	4.906112589252822
201	4.918925935122873
202	4.932020439568697
203	4.945419629277232
204	4.959151683129076
205	4.973250166571111
206	4.987754814219391
207	5.002712365145841
208	5.018177453666789
209	5.03421355474472
210	5.050893977048071
211	5.068302887677834
212	5.086536340253051
213	5.105703261475927
214	5.125926330115223
215	5.1473426553364785
216	5.170104128182281
217	5.194377280214409
218	5.22034243784719
219	5.248191911503181
220	5.278126910704264
221	5.31035283795003
222	5.3450726005453415
223	5.382477612154919
224	5.422736264915205
225	5.465979876183331
226	5.5122864904321105
227	5.561663476331059
228	5.614030598605152
229	5.669206097029562
230	5.726899102708552
231	5.786712169324577
232	5.848157391782606
233	5.910688113267839
234	5.973745367977257
235	6.036814222431683
236	6.099480999158183
237	6.161479551274799
238	6.222714988466985
239	6.283257466575956
240	6.343306194681719
241	6.403132283627161
242	6.46301516529378
243	6.523188485490969
244	6.583807215398335
245	6.644940317182637
246	6.706586029662523
247	6.76870248760854
248	6.831245654489354
249	6.8942080250158035
250	6.957652986560733
251	7.02173958607743
252	7.0867307692494705
253	7.152976436718409
254	7.220863134340076
255	7.290726940342454
256	7.362736028754477
257	7.436763076014477
258	7.512280730068288
259	7.588318936757891
260	7.663514442915948
261	7.7362583613399725
262	7.8049138549208
263	7.868047258209167
264	7.924607776517895
265	7.974009602483712
266	8.016107544521743
267	8.051094687367659
268	8.079371237132442
269	8.101431350263336
270	8.117795227706313
271	8.12898924565645
272	8.135558441738974
273	8.1380883510405
274	8.1372156896443
275	8.133615246251813
276	8.12795959791488
277	8.120856997470025
278	8.112780223379845
279	8.104004245577036
280	8.094571406415668
281	8.08429788936711
282	8.072824814886623
283	8.059704272200994
284	8.044499777547339
285	8.02687654737778
286	8.006661328992605
287	7.983862264837484
288	7.958651638354876
289	7.9313235520119445
290	7.902242040942788
291	7.87179313208846
292	7.840349159602229
293	7.808247883298359
294	7.775784516150962
295	7.74321240419599
296	7.710747671850932
297	7.678574041832753
298	7.6468455883185
299	7.61568683729863
300	7.585191007823144
301	7.555418046712461
302	7.526394326103129
303	7.498115472447099
304	7.470552957999053
305	7.443664107208848
306	7.417404367128025
307	7.391740288134717
308	7.366661716867576
309	7.342192115750706
310	7.318396487093158
311	7.2953868862863995
312	7.273325815131343
313	7.252427851888792
314	7.232959741616809
315	7.2152389245158295
316	7.199630201306411
317	7.186539989055618
318	7.176407441762623
319	7.1696916285284695
320	7.166854001333615
321	7.168335576684887
322	7.174528641769984
323	7.185743447707612
324	7.202171364033751
325	7.223847408801492
326	7.250616836006411
327	7.282112112308469
328	7.317747321405648
329	7.356735851254626
330	7.398133672054569
331	7.440905130304603
332	7.484002571745276
333	7.526447296055167
334	7.567398803905714
335	7.606202183913034
336	7.642408656026824
337	7.675769939050476
338	7.706211641112081
339	7.733793426727541
340	7.758664247609253
341	7.781019918899018
342	7.8010684173035125
343	7.81900601445456
344	7.835005115726702
345	7.849212697264388
346	7.861756713880428
347	7.872756943249026
348	7.882336535891382
349	7.890631042729869
350	7.897792738839245
351	7.903989387356158
352	7.90939787858229
353	7.91419417566394
354	7.918541542023354
355	7.922579099576215
356	7.926412457247625
357	7.930107600648183
358	7.9336886043345425
359	7.937139140256062
360	7.940407291061655
361	7.94341286834118
362	7.9460562831667145
363	7.948227996591151
364	7.94981766207077
365	7.950722228004882
366	7.950852470748131
367	7.950137648618064
368	7.9485281870406705
369	7.945996500278527
370	7.942536212603378
371	7.938160149906053
372	7.932897526226744
373	7.926790751890808
374	7.919892249092116
375	7.912261585252887
376	7.903963143036647
377	7.895064444428174
378	7.885635153276926
379	7.875746698796925
380	7.865472403011468
381	7.854887956410944
382	7.844072071637144
383	7.833107149204372
384	7.822079811662731
385	7.811081193503444
386	7.800206912865565
387	7.789556689800049
388	7.77923361145309
389	7.769343075292192
390	7.759991463444077
391	7.751284615766012
392	7.74332617492868
393	7.73621587521544
394	7.7300478393303385
395	7.724908935325963
396	7.720877232142076
397	7.718020578255711
398	7.716395316183245
399	7.716045138022947
400	7.7170000839313
