# scaled_time	vorticity_thickness
0	0.9999934940369393
1	1.07562648131112
2	1.1424822007199402
3	1.2047869583127224
4	1.2677897944186924
5	1.3349072044253816
6	1.4083376484399313
7	1.4896848776032297
8	1.5781500942918194
9	1.6691419482493237
10	1.7562226485697061
11	1.8353048184243983
12	1.906434556671208
13	1.9704406167395627
14	2.025571311796305
15	2.0687390513801667
16	2.09844777907417
17	2.1158142191285427
18	2.1238103640379116
19	2.125922383760382
20	2.125013642793186
21	2.1229011243776603
22	2.120619956530317
23	2.1189502046734043
24	2.1188496884362467
25	2.121633345225204
26	2.128888483794805
27	2.1422222283424537
28	2.1629713809180875
29	2.1920085569493803
30	2.229771745953969
31	2.276568087967284
32	2.33306272675539
33	2.400753685722456
34	2.482203584641326
35	2.5807557131052627
36	2.6993278704884593
37	2.837761774555705
38	2.983919140229874
39	3.1374196392271463
40	3.290279709469497
41	3.4235776592239495
42	3.547271720770742
43	3.6606905943313244
44	3.76087548970062
45	3.8491941522670468
46	3.934044776143391
47	4.026079397240121
48	4.126250170537183
49	4.2173513463429275
50	4.276300020129263
51	4.295313603355956
52	4.282987484575799
53	4.251463779668234
54	4.210469429657378
55	4.16812712691438
56	4.130808741642094
57	4.100714451767951
58	4.074753455644985
59	4.047370519811657
60	4.014898845070215
61	3.977145238881485
62	3.935925566253739
63	3.8933000432637512
64	3.8509588125737335
65	3.8102865096531238
66	3.772417726467229
67	3.7381853691761004
68	3.7081720518378423
69	3.682972613310811
70	3.663587314586472
71	3.65178058233505
72	3.650213610313038
73	3.662141737239059
74	3.690507338219709
75	3.736444588245429
76	3.797671537082063
77	3.8678710446025524
78	3.9381165042052917
79	3.9999503692695813
80	4.048130894703476
81	4.081387359158557
82	4.101333763645999
83	4.110819873167969
84	4.112736558257152
85	4.109527763913071
86	4.103174130364427
87	4.095321273642364
88	4.087352114277169
89	4.080362837578524
90	4.075091189238845
91	4.071855875498059
92	4.070543783194495
93	4.070662036855179
94	4.071455113034311
95	4.072066632605753
96	4.07170811558855
97	4.069795467415585
98	4.066029981871792
99	4.060422914659337
100	4.0532779295268755
101	4.045148774314737
102	4.036784027125518
103	4.029063317563566
104	4.0229246901600915
105	4.019282103311718
106	4.018934797368903
107	4.022475041593349
108	4.030205909508563
109	4.042084236503237
110	4.057703680690889
111	4.0763274957506015
112	4.096970764641111
113	4.118520229485671
114	4.13987053211109
115	4.160052019471007
116	4.1783283621622855
117	4.1942505743973015
118	4.2076644446388345
119	4.218677604342596
120	4.227598363709316
121	4.234860534570726
122	4.240947466149943
123	4.246325627379589
124	4.251394361460108
125	4.25645470369984
126	4.261696931000209
127	4.267204143355719
128	4.272967807790603
129	4.278910759585628
130	4.284913431146401
131	4.290839780749788
132	4.296560272126268
133	4.30197014892549
134	4.307002074432299
135	4.311632930938693
136	4.315885170185275
137	4.319823547755956
138	4.32354833668115
139	4.327186195762021
140	4.330879796469926
141	4.334777147610803
142	4.339021366106065
143	4.343741473798138
144	4.349044671945489
145	4.3550104448548215
146	4.3616867483699915
147	4.369088427428183
148	4.377197873946597
149	4.38596778863643
150	4.395325763010663
151	4.405180266959292
152	4.415427527546915
153	4.42595872712394
154	4.436666941765091
155	4.447453288127141
156	4.458231846772402
157	4.46893307268911
158	4.479505571690233
159	4.489916290797313
160	4.500149318503719
161	4.510203599098045
162	4.520089924818154
163	4.529827581692549
164	4.539440995901244
165	4.548956669486964
166	4.558400618176713
167	4.567796441136649
168	4.577164071509203
169	4.586519184589861
170	4.595873183148636
171	4.605233639880914
172	4.614605056673827
173	4.623989797967673
174	4.633389067989742
175	4.642803824712163
176	4.652235552112164
177	4.661686842818562
178	4.671161771668511
179	4.680666064720113
180	4.690207086470479
181	4.699793679701326
182	4.709435897952602
183	4.719144670976412
184	4.728931439933385
185	4.738807793264534
186	4.748785127214282
187	4.758874348176161
188	4.769085628021267
189	4.779428218817772
190	4.789910329746177
191	4.800539066701705
192	4.811320433436164
193	4.822259392003221
194	4.833359979218969
195	4.844625474788035
196	4.85605861564564
197	4.867661849905074
198	4.879437623099044
199	4.891388689080489
200	4.903518438257453
201	4.915831236897421
202	4.928332772780391
203	4.941030404636881
204	4.953933515103229
205	4.967053869454383
206	4.980405984498958
207	4.994007513792806
208	5.007879656330858
209	5.022047596017405
210	5.036540978485715
211	5.051394430224083
212	5.06664812240322
213	5.082348378483764
214	5.098548320248821
215	5.115308541440125
216	5.132697791309293
217	5.150793641848798
218	5.169683101927396
219	5.189463128562409
220	5.210240969786027
221	5.232134254740659
222	5.255270724942745
223	5.279787476722279
224	5.305829560427615
225	5.333547760173644
226	5.363095363621162
227	5.394623732390237
228	5.428276510428874
229	5.4641823742260955
230	5.5024463508984764
231	5.54313992414621
232	5.586290424753664
233	5.631870559309475
234	5.6797893405851045
235	5.729886080234119
236	5.7819293750807175
237	5.835623003477861
238	5.890620169697579
239	5.946546457362042
240	6.003030176431864
241	6.059736744206924
242	6.116401837188385
243	6.1728569972685285
244	6.229041850807958
245	6.28499940952329
246	6.340854712051859
247	6.396781274706769
248	6.4529630148452375
249	6.509560292477737
250	6.566687115556588
251	6.624403058441409
252	6.6827194661760805
253	6.741616481926335
254	6.801066069463723
255	6.861056289006237
256	6.921612773912974
257	6.9828138011578025
258	7.044795234304308
259	7.107741313534134
260	7.171857626412034
261	7.23732455311591
262	7.304233592879343
263	7.372514951762731
264	7.441871130095049
265	7.511735405724569
266	7.581273132151797
267	7.649435840553254
268	7.715064169505
269	7.777019968492192
270	7.834316991836556
271	7.886218876439946
272	7.932283730451288
273	7.9723523811194035
274	8.00649456533396
275	8.034937243204608
276	8.057998918096898
277	8.076045270813873
278	8.089469533845799
279	8.098691050684053
280	8.10416047721809
281	8.106360333611885
282	8.105793403487029
283	8.102956698121064
284	8.098303852263278
285	8.092203027311427
286	8.084899994718507
287	8.076496345300189
288	8.066950229592464
289	8.056101929469209
290	8.043720168951513
291	8.029559444323358
292	8.01341580664168
293	7.9951695017367745
294	7.974807198149761
295	7.95242246558979
296	7.9281985544111375
297	7.902380757469648
298	7.875246202591158
299	7.847077331166431
300	7.818142631411424
301	7.78868547264651
302	7.758919853913594
303	7.729030815067704
304	7.699177094180025
305	7.669494092030699
306	7.640096009544462
307	7.6110768769298085
308	7.582510879625182
309	7.554452775536143
310	7.5269392482924475
311	7.499991800561459
312	7.473621380373946
313	7.447834503888495
314	7.4226403221012305
315	7.398057952726534
316	7.374123457890939
317	7.350896032132682
318	7.32846318116053
319	7.306944837688083
320	7.286496428352542
321	7.267310871490596
322	7.249619378047462
323	7.233690791972114
324	7.21982907973957
325	7.208368490081352
326	7.199665865491184
327	7.194089606991863
328	7.192004883423745
329	7.193754862023997
330	7.199638062493529
331	7.209882463238095
332	7.22461777166943
333	7.243848301503588
334	7.267430023994322
335	7.295056216941495
336	7.326256214374477
337	7.360410600565117
338	7.396783687594956
339	7.434570721328269
340	7.472953931188783
341	7.511159369598823
342	7.5485062196257156
343	7.584441950409086
344	7.618559764573389
345	7.650598249347851
346	7.680426105357838
347	7.708016721131336
348	7.733418047602815
349	7.756722879537619
350	7.778043590907876
351	7.79749392733809
352	7.8151788985756525
353	7.831192351328906
354	7.845620606307014
355	7.85854975326531
356	7.870073904185569
357	7.880301921685982
358	7.889360786494433
359	7.897394681868306
360	7.904559847357694
361	7.911016089696987
362	7.916916396397648
363	7.922396315052778
364	7.927564658499175
365	7.932496748664034
366	7.937230925965987
367	7.941768530482216
368	7.946077095160711
369	7.950096135565989
370	7.953744703435691
371	7.956929793744683
372	7.95955473728564
373	7.961526844212484
374	7.962763754224611
375	7.963198163664792
376	7.962780809621885
377	7.96148177565039
378	7.959290326713879
379	7.956213577255099
380	7.952274342776131
381	7.947508529593652
382	7.941962385710751
383	7.93568988038496
384	7.928750409986912
385	7.921206954430724
386	7.9131247380867835
387	7.904570388153056
388	7.895611535831631
389	7.886316771695152
390	7.876755848165196
391	7.86700001639815
392	7.857122390987949
393	7.847198250870171
394	7.837305205054553
395	7.827523175599876
396	7.81793417416156
397	7.808621869439377
398	7.799670962259623
399	7.791166396924439
400	7.783192447215651
